{"start":101,"end":200,"count":5616717,"type":"pageviews","pageSize":100,"page":1,"pages":56168,"columns":[{"label":"","property":"pageviews","sortable":false}],"items":[{"pageviews":"100. <a target=\"_blank\" href=\"http://en.wikipedia.org./wiki/United_States_presidential_election%2C_2016\">United States presidential election, 2016</a>"},{"pageviews":"101. <a target=\"_blank\" href=\"http://en.wikipedia.org./wiki/Germany\">Germany</a>"},{"pageviews":"102. <a target=\"_blank\" href=\"http://en.wikipedia.org./wiki/Martin_Luther_King_Jr.\">Martin Luther King Jr.</a>"},{"pageviews":"103. <a target=\"_blank\" href=\"http://en.wikipedia.org./wiki/List_of_Rick_and_Morty_episodes\">List of Rick and Morty episodes</a>"},{"pageviews":"104. <a target=\"_blank\" href=\"http://en.wikipedia.org./wiki/Franklin_D._Roosevelt\">Franklin D. Roosevelt</a>"},{"pageviews":"105. <a target=\"_blank\" href=\"http://en.wikipedia.org./wiki/Linkin_Park\">Linkin Park</a>"},{"pageviews":"106. <a target=\"_blank\" href=\"http://en.wikipedia.org./wiki/List_of_HTTP_status_codes\">List of HTTP status codes</a>"},{"pageviews":"107. <a target=\"_blank\" href=\"http://en.wikipedia.org./wiki/The_Handmaid's_Tale_(TV_series)\">The Handmaid's Tale (TV series)</a>"},{"pageviews":"108. <a target=\"_blank\" href=\"http://en.wikipedia.org./wiki/Singapore\">Singapore</a>"},{"pageviews":"109. <a target=\"_blank\" href=\"http://en.wikipedia.org./wiki/Lionel_Messi\">Lionel Messi</a>"},{"pageviews":"110. <a target=\"_blank\" href=\"http://en.wikipedia.org./wiki/Blockchain\">Blockchain</a>"},{"pageviews":"111. <a target=\"_blank\" href=\"http://en.wikipedia.org./wiki/American_Gods_(TV_series)\">American Gods (TV series)</a>"},{"pageviews":"112. <a target=\"_blank\" href=\"http://en.wikipedia.org./wiki/Roger_Federer\">Roger Federer</a>"},{"pageviews":"113. <a target=\"_blank\" href=\"http://en.wikipedia.org./wiki/Norway\">Norway</a>"},{"pageviews":"114. <a target=\"_blank\" href=\"http://en.wikipedia.org./wiki/IPTV\">IPTV</a>"},{"pageviews":"115. <a target=\"_blank\" href=\"http://en.wikipedia.org./wiki/Mahatma_Gandhi\">Mahatma Gandhi</a>"},{"pageviews":"116. <a target=\"_blank\" href=\"http://en.wikipedia.org./wiki/John_F._Kennedy\">John F. Kennedy</a>"},{"pageviews":"117. <a target=\"_blank\" href=\"http://en.wikipedia.org./wiki/Harvey_Weinstein\">Harvey Weinstein</a>"},{"pageviews":"118. <a target=\"_blank\" href=\"http://en.wikipedia.org./wiki/Black_Mirror\">Black Mirror</a>"},{"pageviews":"119. <a target=\"_blank\" href=\"http://en.wikipedia.org./wiki/Charles_Manson\">Charles Manson</a>"},{"pageviews":"120. <a target=\"_blank\" href=\"http://en.wikipedia.org./wiki/Japan\">Japan</a>"},{"pageviews":"121. <a target=\"_blank\" href=\"http://en.wikipedia.org./wiki/Steve_Jobs\">Steve Jobs</a>"},{"pageviews":"122. <a target=\"_blank\" href=\"http://en.wikipedia.org./wiki/The_Big_Bang_Theory\">The Big Bang Theory</a>"},{"pageviews":"123. <a target=\"_blank\" href=\"http://en.wikipedia.org./wiki/Israel\">Israel</a>"},{"pageviews":"124. <a target=\"_blank\" href=\"http://en.wikipedia.org./wiki/Marvel_Cinematic_Universe\">Marvel Cinematic Universe</a>"},{"pageviews":"125. <a target=\"_blank\" href=\"http://en.wikipedia.org./wiki/Google_Chrome\">Google Chrome</a>"},{"pageviews":"126. <a target=\"_blank\" href=\"http://en.wikipedia.org./wiki/New_York_City\">New York City</a>"},{"pageviews":"127. <a target=\"_blank\" href=\"http://en.wikipedia.org./wiki/House_of_Cards_(U.S._TV_series)\">House of Cards (U.S. TV series)</a>"},{"pageviews":"128. <a target=\"_blank\" href=\"http://en.wikipedia.org./wiki/X-Men_(film_series)\">X-Men (film series)</a>"},{"pageviews":"129. <a target=\"_blank\" href=\"http://en.wikipedia.org./wiki/89th_Academy_Awards\">89th Academy Awards</a>"},{"pageviews":"130. <a target=\"_blank\" href=\"http://en.wikipedia.org./wiki/Taylor_Swift\">Taylor Swift</a>"},{"pageviews":"131. <a target=\"_blank\" href=\"http://en.wikipedia.org./wiki/List_of_UFC_events\">List of UFC events</a>"},{"pageviews":"132. <a target=\"_blank\" href=\"http://en.wikipedia.org./wiki/List_of_highest-grossing_films\">List of highest-grossing films</a>"},{"pageviews":"133. <a target=\"_blank\" href=\"http://en.wikipedia.org./wiki/Prince_Philip%2C_Duke_of_Edinburgh\">Prince Philip, Duke of Edinburgh</a>"},{"pageviews":"134. <a target=\"_blank\" href=\"http://en.wikipedia.org./wiki/European_Society_for_Clinical_Investigation\">European Society for Clinical Investigation</a>"},{"pageviews":"135. <a target=\"_blank\" href=\"http://en.wikipedia.org./wiki/O._J._Simpson\">O. J. Simpson</a>"},{"pageviews":"136. <a target=\"_blank\" href=\"http://en.wikipedia.org./wiki/Westworld_(TV_series)\">Westworld (TV series)</a>"},{"pageviews":"137. <a target=\"_blank\" href=\"http://en.wikipedia.org./wiki/The_Mummy_(2017_film)\">The Mummy (2017 film)</a>"},{"pageviews":"138. <a target=\"_blank\" href=\"http://en.wikipedia.org./wiki/Standard_deviation\">Standard deviation</a>"},{"pageviews":"139. <a target=\"_blank\" href=\"http://en.wikipedia.org./wiki/Rick_and_Morty_(season_3)\">Rick and Morty (season 3)</a>"},{"pageviews":"140. <a target=\"_blank\" href=\"http://en.wikipedia.org./wiki/Viking_(disambiguation)\">Viking (disambiguation)</a>"},{"pageviews":"141. <a target=\"_blank\" href=\"http://en.wikipedia.org./wiki/List_of_TCP_and_UDP_port_numbers\">List of TCP and UDP port numbers</a>"},{"pageviews":"142. <a target=\"_blank\" href=\"http://en.wikipedia.org./wiki/Pirates_of_the_Caribbean_(film_series)\">Pirates of the Caribbean (film series)</a>"},{"pageviews":"143. <a target=\"_blank\" href=\"http://en.wikipedia.org./wiki/William_Shakespeare\">William Shakespeare</a>"},{"pageviews":"144. <a target=\"_blank\" href=\"http://en.wikipedia.org./wiki/Gmail\">Gmail</a>"},{"pageviews":"145. <a target=\"_blank\" href=\"http://en.wikipedia.org./wiki/The_Flash_(2014_TV_series)\">The Flash (2014 TV series)</a>"},{"pageviews":"146. <a target=\"_blank\" href=\"http://en.wikipedia.org./wiki/Blade_Runner\">Blade Runner</a>"},{"pageviews":"147. <a target=\"_blank\" href=\"http://en.wikipedia.org./wiki/Abraham_Lincoln\">Abraham Lincoln</a>"},{"pageviews":"148. <a target=\"_blank\" href=\"http://en.wikipedia.org./wiki/2017%E2%80%9318_UEFA_Champions_League\">2017–18 UEFA Champions League</a>"},{"pageviews":"149. <a target=\"_blank\" href=\"http://en.wikipedia.org./wiki/Pablo_Escobar\">Pablo Escobar</a>"},{"pageviews":"150. <a target=\"_blank\" href=\"http://en.wikipedia.org./wiki/Legion_(TV_series)\">Legion (TV series)</a>"},{"pageviews":"151. <a target=\"_blank\" href=\"http://en.wikipedia.org./wiki/September_11_attacks\">September 11 attacks</a>"},{"pageviews":"152. <a target=\"_blank\" href=\"http://en.wikipedia.org./wiki/France\">France</a>"},{"pageviews":"153. <a target=\"_blank\" href=\"http://en.wikipedia.org./wiki/The_Handmaid's_Tale\">The Handmaid's Tale</a>"},{"pageviews":"154. <a target=\"_blank\" href=\"http://en.wikipedia.org./wiki/LoadRunner\">LoadRunner</a>"},{"pageviews":"155. <a target=\"_blank\" href=\"http://en.wikipedia.org./wiki/Beyonc%C3%A9\">Beyoncé</a>"},{"pageviews":"156. <a target=\"_blank\" href=\"http://en.wikipedia.org./wiki/This_Is_Us_(TV_series)\">This Is Us (TV series)</a>"},{"pageviews":"157. <a target=\"_blank\" href=\"http://en.wikipedia.org./wiki/Sherlock_(TV_series)\">Sherlock (TV series)</a>"},{"pageviews":"158. <a target=\"_blank\" href=\"http://en.wikipedia.org./wiki/Diana%2C_Princess_of_Wales\">Diana, Princess of Wales</a>"},{"pageviews":"159. <a target=\"_blank\" href=\"http://en.wikipedia.org./wiki/Vladimir_Putin\">Vladimir Putin</a>"},{"pageviews":"160. <a target=\"_blank\" href=\"http://en.wikipedia.org./wiki/List_of_Dragon_Ball_Super_episodes\">List of Dragon Ball Super episodes</a>"},{"pageviews":"161. <a target=\"_blank\" href=\"http://en.wikipedia.org./wiki/American_Civil_War\">American Civil War</a>"},{"pageviews":"162. <a target=\"_blank\" href=\"http://en.wikipedia.org./wiki/Tom_Petty\">Tom Petty</a>"},{"pageviews":"163. <a target=\"_blank\" href=\"http://en.wikipedia.org./wiki/Milo_Yiannopoulos\">Milo Yiannopoulos</a>"},{"pageviews":"164. <a target=\"_blank\" href=\"http://en.wikipedia.org./wiki/Emilia_Clarke\">Emilia Clarke</a>"},{"pageviews":"165. <a target=\"_blank\" href=\"http://en.wikipedia.org./wiki/The_Walking_Dead_(season_7)\">The Walking Dead (season 7)</a>"},{"pageviews":"166. <a target=\"_blank\" href=\"http://en.wikipedia.org./wiki/It_(novel)\">It (novel)</a>"},{"pageviews":"167. <a target=\"_blank\" href=\"http://en.wikipedia.org./wiki/Kim_Jong-un\">Kim Jong-un</a>"},{"pageviews":"168. <a target=\"_blank\" href=\"http://en.wikipedia.org./wiki/Kevin_Spacey\">Kevin Spacey</a>"},{"pageviews":"169. <a target=\"_blank\" href=\"http://en.wikipedia.org./wiki/Hacksaw_Ridge\">Hacksaw Ridge</a>"},{"pageviews":"170. <a target=\"_blank\" href=\"http://en.wikipedia.org./wiki/Dangal_(film)\">Dangal (film)</a>"},{"pageviews":"171. <a target=\"_blank\" href=\"http://en.wikipedia.org./wiki/Winston_Churchill\">Winston Churchill</a>"},{"pageviews":"172. <a target=\"_blank\" href=\"http://en.wikipedia.org./wiki/WrestleMania_33\">WrestleMania 33</a>"},{"pageviews":"173. <a target=\"_blank\" href=\"http://en.wikipedia.org./wiki/Amazon_(company)\">Amazon (company)</a>"},{"pageviews":"174. <a target=\"_blank\" href=\"http://en.wikipedia.org./wiki/Philippines\">Philippines</a>"},{"pageviews":"175. <a target=\"_blank\" href=\"http://en.wikipedia.org./wiki/Twin_Peaks\">Twin Peaks</a>"},{"pageviews":"176. <a target=\"_blank\" href=\"http://en.wikipedia.org./wiki/Tupac_Shakur\">Tupac Shakur</a>"},{"pageviews":"177. <a target=\"_blank\" href=\"http://en.wikipedia.org./wiki/List_of_Black_Mirror_episodes\">List of Black Mirror episodes</a>"},{"pageviews":"178. <a target=\"_blank\" href=\"http://en.wikipedia.org./wiki/Bill_Gates\">Bill Gates</a>"},{"pageviews":"179. <a target=\"_blank\" href=\"http://en.wikipedia.org./wiki/Test_data\">Test data</a>"},{"pageviews":"180. <a target=\"_blank\" href=\"http://en.wikipedia.org./wiki/Steve_Bannon\">Steve Bannon</a>"},{"pageviews":"181. <a target=\"_blank\" href=\"http://en.wikipedia.org./wiki/Eurovision_Song_Contest_2017\">Eurovision Song Contest 2017</a>"},{"pageviews":"182. <a target=\"_blank\" href=\"http://en.wikipedia.org./wiki/George_VI\">George VI</a>"},{"pageviews":"183. <a target=\"_blank\" href=\"http://en.wikipedia.org./wiki/Moana_(2016_film)\">Moana (2016 film)</a>"},{"pageviews":"184. <a target=\"_blank\" href=\"http://en.wikipedia.org./wiki/LeBron_James\">LeBron James</a>"},{"pageviews":"185. <a target=\"_blank\" href=\"http://en.wikipedia.org./wiki/Tom_Brady\">Tom Brady</a>"},{"pageviews":"186. <a target=\"_blank\" href=\"http://en.wikipedia.org./wiki/French_presidential_election%2C_2017\">French presidential election, 2017</a>"},{"pageviews":"187. <a target=\"_blank\" href=\"http://en.wikipedia.org./wiki/Arrival_(film)\">Arrival (film)</a>"},{"pageviews":"188. <a target=\"_blank\" href=\"http://en.wikipedia.org./wiki/BTS_(band)\">BTS (band)</a>"},{"pageviews":"189. <a target=\"_blank\" href=\"http://en.wikipedia.org./wiki/Twin_Peaks_(2017_TV_series)\">Twin Peaks (2017 TV series)</a>"},{"pageviews":"190. <a target=\"_blank\" href=\"http://en.wikipedia.org./wiki/Charles%2C_Prince_of_Wales\">Charles, Prince of Wales</a>"},{"pageviews":"191. <a target=\"_blank\" href=\"http://en.wikipedia.org./wiki/The_Beatles\">The Beatles</a>"},{"pageviews":"192. <a target=\"_blank\" href=\"http://en.wikipedia.org./wiki/Apple_Inc.\">Apple Inc.</a>"},{"pageviews":"193. <a target=\"_blank\" href=\"http://en.wikipedia.org./wiki/European_Union\">European Union</a>"},{"pageviews":"194. <a target=\"_blank\" href=\"http://en.wikipedia.org./wiki/NATO_phonetic_alphabet\">NATO phonetic alphabet</a>"},{"pageviews":"195. <a target=\"_blank\" href=\"http://en.wikipedia.org./wiki/List_of_countries_and_dependencies_by_population\">List of countries and dependencies by population</a>"},{"pageviews":"196. <a target=\"_blank\" href=\"http://en.wikipedia.org./wiki/Netherlands\">Netherlands</a>"},{"pageviews":"197. <a target=\"_blank\" href=\"http://en.wikipedia.org./wiki/Keanu_Reeves\">Keanu Reeves</a>"},{"pageviews":"198. <a target=\"_blank\" href=\"http://en.wikipedia.org./wiki/Power_Rangers_(film)\">Power Rangers (film)</a>"},{"pageviews":"199. <a target=\"_blank\" href=\"http://en.wikipedia.org./wiki/Ronald_Reagan\">Ronald Reagan</a>"}],"list":"100. United States presidential election, 2016  \u2014  http:\/\/en.wikipedia.org.\/wiki\/United_States_presidential_election%2C_2016\n101. Germany  \u2014  http:\/\/en.wikipedia.org.\/wiki\/Germany\n102. Martin Luther King Jr.  \u2014  http:\/\/en.wikipedia.org.\/wiki\/Martin_Luther_King_Jr.\n103. List of Rick and Morty episodes  \u2014  http:\/\/en.wikipedia.org.\/wiki\/List_of_Rick_and_Morty_episodes\n104. Franklin D. Roosevelt  \u2014  http:\/\/en.wikipedia.org.\/wiki\/Franklin_D._Roosevelt\n105. Linkin Park  \u2014  http:\/\/en.wikipedia.org.\/wiki\/Linkin_Park\n106. List of HTTP status codes  \u2014  http:\/\/en.wikipedia.org.\/wiki\/List_of_HTTP_status_codes\n107. The Handmaid's Tale (TV series)  \u2014  http:\/\/en.wikipedia.org.\/wiki\/The_Handmaid's_Tale_(TV_series)\n108. Singapore  \u2014  http:\/\/en.wikipedia.org.\/wiki\/Singapore\n109. Lionel Messi  \u2014  http:\/\/en.wikipedia.org.\/wiki\/Lionel_Messi\n110. Blockchain  \u2014  http:\/\/en.wikipedia.org.\/wiki\/Blockchain\n111. American Gods (TV series)  \u2014  http:\/\/en.wikipedia.org.\/wiki\/American_Gods_(TV_series)\n112. Roger Federer  \u2014  http:\/\/en.wikipedia.org.\/wiki\/Roger_Federer\n113. Norway  \u2014  http:\/\/en.wikipedia.org.\/wiki\/Norway\n114. IPTV  \u2014  http:\/\/en.wikipedia.org.\/wiki\/IPTV\n115. Mahatma Gandhi  \u2014  http:\/\/en.wikipedia.org.\/wiki\/Mahatma_Gandhi\n116. John F. Kennedy  \u2014  http:\/\/en.wikipedia.org.\/wiki\/John_F._Kennedy\n117. Harvey Weinstein  \u2014  http:\/\/en.wikipedia.org.\/wiki\/Harvey_Weinstein\n118. Black Mirror  \u2014  http:\/\/en.wikipedia.org.\/wiki\/Black_Mirror\n119. Charles Manson  \u2014  http:\/\/en.wikipedia.org.\/wiki\/Charles_Manson\n120. Japan  \u2014  http:\/\/en.wikipedia.org.\/wiki\/Japan\n121. Steve Jobs  \u2014  http:\/\/en.wikipedia.org.\/wiki\/Steve_Jobs\n122. The Big Bang Theory  \u2014  http:\/\/en.wikipedia.org.\/wiki\/The_Big_Bang_Theory\n123. Israel  \u2014  http:\/\/en.wikipedia.org.\/wiki\/Israel\n124. Marvel Cinematic Universe  \u2014  http:\/\/en.wikipedia.org.\/wiki\/Marvel_Cinematic_Universe\n125. Google Chrome  \u2014  http:\/\/en.wikipedia.org.\/wiki\/Google_Chrome\n126. New York City  \u2014  http:\/\/en.wikipedia.org.\/wiki\/New_York_City\n127. House of Cards (U.S. TV series)  \u2014  http:\/\/en.wikipedia.org.\/wiki\/House_of_Cards_(U.S._TV_series)\n128. X-Men (film series)  \u2014  http:\/\/en.wikipedia.org.\/wiki\/X-Men_(film_series)\n129. 89th Academy Awards  \u2014  http:\/\/en.wikipedia.org.\/wiki\/89th_Academy_Awards\n130. Taylor Swift  \u2014  http:\/\/en.wikipedia.org.\/wiki\/Taylor_Swift\n131. List of UFC events  \u2014  http:\/\/en.wikipedia.org.\/wiki\/List_of_UFC_events\n132. List of highest-grossing films  \u2014  http:\/\/en.wikipedia.org.\/wiki\/List_of_highest-grossing_films\n133. Prince Philip, Duke of Edinburgh  \u2014  http:\/\/en.wikipedia.org.\/wiki\/Prince_Philip%2C_Duke_of_Edinburgh\n134. European Society for Clinical Investigation  \u2014  http:\/\/en.wikipedia.org.\/wiki\/European_Society_for_Clinical_Investigation\n135. O. J. Simpson  \u2014  http:\/\/en.wikipedia.org.\/wiki\/O._J._Simpson\n136. Westworld (TV series)  \u2014  http:\/\/en.wikipedia.org.\/wiki\/Westworld_(TV_series)\n137. The Mummy (2017 film)  \u2014  http:\/\/en.wikipedia.org.\/wiki\/The_Mummy_(2017_film)\n138. Standard deviation  \u2014  http:\/\/en.wikipedia.org.\/wiki\/Standard_deviation\n139. Rick and Morty (season 3)  \u2014  http:\/\/en.wikipedia.org.\/wiki\/Rick_and_Morty_(season_3)\n140. Viking (disambiguation)  \u2014  http:\/\/en.wikipedia.org.\/wiki\/Viking_(disambiguation)\n141. List of TCP and UDP port numbers  \u2014  http:\/\/en.wikipedia.org.\/wiki\/List_of_TCP_and_UDP_port_numbers\n142. Pirates of the Caribbean (film series)  \u2014  http:\/\/en.wikipedia.org.\/wiki\/Pirates_of_the_Caribbean_(film_series)\n143. William Shakespeare  \u2014  http:\/\/en.wikipedia.org.\/wiki\/William_Shakespeare\n144. Gmail  \u2014  http:\/\/en.wikipedia.org.\/wiki\/Gmail\n145. The Flash (2014 TV series)  \u2014  http:\/\/en.wikipedia.org.\/wiki\/The_Flash_(2014_TV_series)\n146. Blade Runner  \u2014  http:\/\/en.wikipedia.org.\/wiki\/Blade_Runner\n147. Abraham Lincoln  \u2014  http:\/\/en.wikipedia.org.\/wiki\/Abraham_Lincoln\n148. 2017\u201318 UEFA Champions League  \u2014  http:\/\/en.wikipedia.org.\/wiki\/2017%E2%80%9318_UEFA_Champions_League\n149. Pablo Escobar  \u2014  http:\/\/en.wikipedia.org.\/wiki\/Pablo_Escobar\n150. Legion (TV series)  \u2014  http:\/\/en.wikipedia.org.\/wiki\/Legion_(TV_series)\n151. September 11 attacks  \u2014  http:\/\/en.wikipedia.org.\/wiki\/September_11_attacks\n152. France  \u2014  http:\/\/en.wikipedia.org.\/wiki\/France\n153. The Handmaid's Tale  \u2014  http:\/\/en.wikipedia.org.\/wiki\/The_Handmaid's_Tale\n154. LoadRunner  \u2014  http:\/\/en.wikipedia.org.\/wiki\/LoadRunner\n155. Beyonc\u00E9  \u2014  http:\/\/en.wikipedia.org.\/wiki\/Beyonc%C3%A9\n156. This Is Us (TV series)  \u2014  http:\/\/en.wikipedia.org.\/wiki\/This_Is_Us_(TV_series)\n157. Sherlock (TV series)  \u2014  http:\/\/en.wikipedia.org.\/wiki\/Sherlock_(TV_series)\n158. Diana, Princess of Wales  \u2014  http:\/\/en.wikipedia.org.\/wiki\/Diana%2C_Princess_of_Wales\n159. Vladimir Putin  \u2014  http:\/\/en.wikipedia.org.\/wiki\/Vladimir_Putin\n160. List of Dragon Ball Super episodes  \u2014  http:\/\/en.wikipedia.org.\/wiki\/List_of_Dragon_Ball_Super_episodes\n161. American Civil War  \u2014  http:\/\/en.wikipedia.org.\/wiki\/American_Civil_War\n162. Tom Petty  \u2014  http:\/\/en.wikipedia.org.\/wiki\/Tom_Petty\n163. Milo Yiannopoulos  \u2014  http:\/\/en.wikipedia.org.\/wiki\/Milo_Yiannopoulos\n164. Emilia Clarke  \u2014  http:\/\/en.wikipedia.org.\/wiki\/Emilia_Clarke\n165. The Walking Dead (season 7)  \u2014  http:\/\/en.wikipedia.org.\/wiki\/The_Walking_Dead_(season_7)\n166. It (novel)  \u2014  http:\/\/en.wikipedia.org.\/wiki\/It_(novel)\n167. Kim Jong-un  \u2014  http:\/\/en.wikipedia.org.\/wiki\/Kim_Jong-un\n168. Kevin Spacey  \u2014  http:\/\/en.wikipedia.org.\/wiki\/Kevin_Spacey\n169. Hacksaw Ridge  \u2014  http:\/\/en.wikipedia.org.\/wiki\/Hacksaw_Ridge\n170. Dangal (film)  \u2014  http:\/\/en.wikipedia.org.\/wiki\/Dangal_(film)\n171. Winston Churchill  \u2014  http:\/\/en.wikipedia.org.\/wiki\/Winston_Churchill\n172. WrestleMania 33  \u2014  http:\/\/en.wikipedia.org.\/wiki\/WrestleMania_33\n173. Amazon (company)  \u2014  http:\/\/en.wikipedia.org.\/wiki\/Amazon_(company)\n174. Philippines  \u2014  http:\/\/en.wikipedia.org.\/wiki\/Philippines\n175. Twin Peaks  \u2014  http:\/\/en.wikipedia.org.\/wiki\/Twin_Peaks\n176. Tupac Shakur  \u2014  http:\/\/en.wikipedia.org.\/wiki\/Tupac_Shakur\n177. List of Black Mirror episodes  \u2014  http:\/\/en.wikipedia.org.\/wiki\/List_of_Black_Mirror_episodes\n178. Bill Gates  \u2014  http:\/\/en.wikipedia.org.\/wiki\/Bill_Gates\n179. Test data  \u2014  http:\/\/en.wikipedia.org.\/wiki\/Test_data\n180. Steve Bannon  \u2014  http:\/\/en.wikipedia.org.\/wiki\/Steve_Bannon\n181. Eurovision Song Contest 2017  \u2014  http:\/\/en.wikipedia.org.\/wiki\/Eurovision_Song_Contest_2017\n182. George VI  \u2014  http:\/\/en.wikipedia.org.\/wiki\/George_VI\n183. Moana (2016 film)  \u2014  http:\/\/en.wikipedia.org.\/wiki\/Moana_(2016_film)\n184. LeBron James  \u2014  http:\/\/en.wikipedia.org.\/wiki\/LeBron_James\n185. Tom Brady  \u2014  http:\/\/en.wikipedia.org.\/wiki\/Tom_Brady\n186. French presidential election, 2017  \u2014  http:\/\/en.wikipedia.org.\/wiki\/French_presidential_election%2C_2017\n187. Arrival (film)  \u2014  http:\/\/en.wikipedia.org.\/wiki\/Arrival_(film)\n188. BTS (band)  \u2014  http:\/\/en.wikipedia.org.\/wiki\/BTS_(band)\n189. Twin Peaks (2017 TV series)  \u2014  http:\/\/en.wikipedia.org.\/wiki\/Twin_Peaks_(2017_TV_series)\n190. Charles, Prince of Wales  \u2014  http:\/\/en.wikipedia.org.\/wiki\/Charles%2C_Prince_of_Wales\n191. The Beatles  \u2014  http:\/\/en.wikipedia.org.\/wiki\/The_Beatles\n192. Apple Inc.  \u2014  http:\/\/en.wikipedia.org.\/wiki\/Apple_Inc.\n193. European Union  \u2014  http:\/\/en.wikipedia.org.\/wiki\/European_Union\n194. NATO phonetic alphabet  \u2014  http:\/\/en.wikipedia.org.\/wiki\/NATO_phonetic_alphabet\n195. List of countries and dependencies by population  \u2014  http:\/\/en.wikipedia.org.\/wiki\/List_of_countries_and_dependencies_by_population\n196. Netherlands  \u2014  http:\/\/en.wikipedia.org.\/wiki\/Netherlands\n197. Keanu Reeves  \u2014  http:\/\/en.wikipedia.org.\/wiki\/Keanu_Reeves\n198. Power Rangers (film)  \u2014  http:\/\/en.wikipedia.org.\/wiki\/Power_Rangers_(film)\n199. Ronald Reagan  \u2014  http:\/\/en.wikipedia.org.\/wiki\/Ronald_Reagan\n","miniList":"100. United States presidential election, 2016\n101. Germany\n102. Martin Luther King Jr.\n103. List of Rick and Morty episodes\n104. Franklin D. Roosevelt\n105. Linkin Park\n106. List of HTTP status codes\n107. The Handmaid's Tale (TV series)\n108. Singapore\n109. Lionel Messi\n110. Blockchain\n111. American Gods (TV series)\n112. Roger Federer\n113. Norway\n114. IPTV\n115. Mahatma Gandhi\n116. John F. Kennedy\n117. Harvey Weinstein\n118. Black Mirror\n119. Charles Manson\n120. Japan\n121. Steve Jobs\n122. The Big Bang Theory\n123. Israel\n124. Marvel Cinematic Universe\n125. Google Chrome\n126. New York City\n127. House of Cards (U.S. TV series)\n128. X-Men (film series)\n129. 89th Academy Awards\n130. Taylor Swift\n131. List of UFC events\n132. List of highest-grossing films\n133. Prince Philip, Duke of Edinburgh\n134. European Society for Clinical Investigation\n135. O. J. Simpson\n136. Westworld (TV series)\n137. The Mummy (2017 film)\n138. Standard deviation\n139. Rick and Morty (season 3)\n140. Viking (disambiguation)\n141. List of TCP and UDP port numbers\n142. Pirates of the Caribbean (film series)\n143. William Shakespeare\n144. Gmail\n145. The Flash (2014 TV series)\n146. Blade Runner\n147. Abraham Lincoln\n148. 2017\u201318 UEFA Champions League\n149. Pablo Escobar\n150. Legion (TV series)\n151. September 11 attacks\n152. France\n153. The Handmaid's Tale\n154. LoadRunner\n155. Beyonc\u00E9\n156. This Is Us (TV series)\n157. Sherlock (TV series)\n158. Diana, Princess of Wales\n159. Vladimir Putin\n160. List of Dragon Ball Super episodes\n161. American Civil War\n162. Tom Petty\n163. Milo Yiannopoulos\n164. Emilia Clarke\n165. The Walking Dead (season 7)\n166. It (novel)\n167. Kim Jong-un\n168. Kevin Spacey\n169. Hacksaw Ridge\n170. Dangal (film)\n171. Winston Churchill\n172. WrestleMania 33\n173. Amazon (company)\n174. Philippines\n175. Twin Peaks\n176. Tupac Shakur\n177. List of Black Mirror episodes\n178. Bill Gates\n179. Test data\n180. Steve Bannon\n181. Eurovision Song Contest 2017\n182. George VI\n183. Moana (2016 film)\n184. LeBron James\n185. Tom Brady\n186. French presidential election, 2017\n187. Arrival (film)\n188. BTS (band)\n189. Twin Peaks (2017 TV series)\n190. Charles, Prince of Wales\n191. The Beatles\n192. Apple Inc.\n193. European Union\n194. NATO phonetic alphabet\n195. List of countries and dependencies by population\n196. Netherlands\n197. Keanu Reeves\n198. Power Rangers (film)\n199. Ronald Reagan\n"}
