{"start":1,"end":100,"count":5616717,"type":"pageviews","pageSize":100,"page":0,"pages":56168,"columns":[{"label":"","property":"pageviews","sortable":false}],"items":[{"pageviews":"0. <a target=\"_blank\" href=\"http://en.wikipedia.org./wiki/Main_Page\">Main Page</a>"},{"pageviews":"1. <a target=\"_blank\" href=\"http://en.wikipedia.org./wiki/Hyphen-minus\">Hyphen-minus</a>"},{"pageviews":"2. <a target=\"_blank\" href=\"http://en.wikipedia.org./wiki/HTTP_404\">HTTP 404</a>"},{"pageviews":"3. <a target=\"_blank\" href=\"http://en.wikipedia.org./wiki/Darth_Vader\">Darth Vader</a>"},{"pageviews":"4. <a target=\"_blank\" href=\"http://en.wikipedia.org./wiki/Lists_of_deaths_by_year\">Lists of deaths by year</a>"},{"pageviews":"5. <a target=\"_blank\" href=\"http://en.wikipedia.org./wiki/Earth\">Earth</a>"},{"pageviews":"6. <a target=\"_blank\" href=\"http://en.wikipedia.org./wiki/Donald_Trump\">Donald Trump</a>"},{"pageviews":"7. <a target=\"_blank\" href=\"http://en.wikipedia.org./wiki/Lali_Esp%C3%B3sito\">Lali Espósito</a>"},{"pageviews":"8. <a target=\"_blank\" href=\"http://en.wikipedia.org./wiki/Curse%2C_Inc.\">Curse, Inc.</a>"},{"pageviews":"9. <a target=\"_blank\" href=\"http://en.wikipedia.org./wiki/Game_of_Thrones\">Game of Thrones</a>"},{"pageviews":"10. <a target=\"_blank\" href=\"http://en.wikipedia.org./wiki/United_States\">United States</a>"},{"pageviews":"11. <a target=\"_blank\" href=\"http://en.wikipedia.org./wiki/Game_of_Thrones_(season_7)\">Game of Thrones (season 7)</a>"},{"pageviews":"12. <a target=\"_blank\" href=\"http://en.wikipedia.org./wiki/2017_in_film\">2017 in film</a>"},{"pageviews":"13. <a target=\"_blank\" href=\"http://en.wikipedia.org./wiki/HTTPS\">HTTPS</a>"},{"pageviews":"14. <a target=\"_blank\" href=\"http://en.wikipedia.org./wiki/Wiki\">Wiki</a>"},{"pageviews":"15. <a target=\"_blank\" href=\"http://en.wikipedia.org./wiki/Facebook\">Facebook</a>"},{"pageviews":"16. <a target=\"_blank\" href=\"http://en.wikipedia.org./wiki/Bitcoin\">Bitcoin</a>"},{"pageviews":"17. <a target=\"_blank\" href=\"http://en.wikipedia.org./wiki/Elizabeth_II\">Elizabeth II</a>"},{"pageviews":"18. <a target=\"_blank\" href=\"http://en.wikipedia.org./wiki/Normandy_landings\">Normandy landings</a>"},{"pageviews":"19. <a target=\"_blank\" href=\"http://en.wikipedia.org./wiki/Stranger_Things\">Stranger Things</a>"},{"pageviews":"20. <a target=\"_blank\" href=\"http://en.wikipedia.org./wiki/Millennials\">Millennials</a>"},{"pageviews":"21. <a target=\"_blank\" href=\"http://en.wikipedia.org./wiki/YouTube\">YouTube</a>"},{"pageviews":"22. <a target=\"_blank\" href=\"http://en.wikipedia.org./wiki/Dulce_Mar%C3%ADa\">Dulce María</a>"},{"pageviews":"23. <a target=\"_blank\" href=\"http://en.wikipedia.org./wiki/List_of_Bollywood_films_of_2017\">List of Bollywood films of 2017</a>"},{"pageviews":"24. <a target=\"_blank\" href=\"http://en.wikipedia.org./wiki/1996_in_music\">1996 in music</a>"},{"pageviews":"25. <a target=\"_blank\" href=\"http://en.wikipedia.org./wiki/Logan\">Logan</a>"},{"pageviews":"26. <a target=\"_blank\" href=\"http://en.wikipedia.org./wiki/Riverdale_(2017_TV_series)\">Riverdale (2017 TV series)</a>"},{"pageviews":"27. <a target=\"_blank\" href=\"http://en.wikipedia.org./wiki/XXX\">XXX</a>"},{"pageviews":"28. <a target=\"_blank\" href=\"http://en.wikipedia.org./wiki/It_(2017_film)\">It (2017 film)</a>"},{"pageviews":"29. <a target=\"_blank\" href=\"http://en.wikipedia.org./wiki/World_War_II\">World War II</a>"},{"pageviews":"30. <a target=\"_blank\" href=\"http://en.wikipedia.org./wiki/Wonder_Woman_(2017_film)\">Wonder Woman (2017 film)</a>"},{"pageviews":"31. <a target=\"_blank\" href=\"http://en.wikipedia.org./wiki/Barack_Obama\">Barack Obama</a>"},{"pageviews":"32. <a target=\"_blank\" href=\"http://en.wikipedia.org./wiki/AMGTV\">AMGTV</a>"},{"pageviews":"33. <a target=\"_blank\" href=\"http://en.wikipedia.org./wiki/Batin_(Islam)\">Batin (Islam)</a>"},{"pageviews":"34. <a target=\"_blank\" href=\"http://en.wikipedia.org./wiki/Meghan_Markle\">Meghan Markle</a>"},{"pageviews":"35. <a target=\"_blank\" href=\"http://en.wikipedia.org./wiki/Justice_League_(film)\">Justice League (film)</a>"},{"pageviews":"36. <a target=\"_blank\" href=\"http://en.wikipedia.org./wiki/Wikipedia\">Wikipedia</a>"},{"pageviews":"37. <a target=\"_blank\" href=\"http://en.wikipedia.org./wiki/Canada\">Canada</a>"},{"pageviews":"38. <a target=\"_blank\" href=\"http://en.wikipedia.org./wiki/Muscat_and_Oman\">Muscat and Oman</a>"},{"pageviews":"39. <a target=\"_blank\" href=\"http://en.wikipedia.org./wiki/Google\">Google</a>"},{"pageviews":"40. <a target=\"_blank\" href=\"http://en.wikipedia.org./wiki/Jebel_Akhdar_War\">Jebel Akhdar War</a>"},{"pageviews":"41. <a target=\"_blank\" href=\"http://en.wikipedia.org./wiki/Elon_Musk\">Elon Musk</a>"},{"pageviews":"42. <a target=\"_blank\" href=\"http://en.wikipedia.org./wiki/13_Reasons_Why\">13 Reasons Why</a>"},{"pageviews":"43. <a target=\"_blank\" href=\"http://en.wikipedia.org./wiki/United_Kingdom\">United Kingdom</a>"},{"pageviews":"44. <a target=\"_blank\" href=\"http://en.wikipedia.org./wiki/XHamster\">XHamster</a>"},{"pageviews":"45. <a target=\"_blank\" href=\"http://en.wikipedia.org./wiki/List_of_most-viewed_YouTube_videos\">List of most-viewed YouTube videos</a>"},{"pageviews":"46. <a target=\"_blank\" href=\"http://en.wikipedia.org./wiki/Star_Wars\">Star Wars</a>"},{"pageviews":"47. <a target=\"_blank\" href=\"http://en.wikipedia.org./wiki/India\">India</a>"},{"pageviews":"48. <a target=\"_blank\" href=\"http://en.wikipedia.org./wiki/World_War_I\">World War I</a>"},{"pageviews":"49. <a target=\"_blank\" href=\"http://en.wikipedia.org./wiki/List_of_The_Flash_episodes\">List of The Flash episodes</a>"},{"pageviews":"50. <a target=\"_blank\" href=\"http://en.wikipedia.org./wiki/Adolf_Hitler\">Adolf Hitler</a>"},{"pageviews":"51. <a target=\"_blank\" href=\"http://en.wikipedia.org./wiki/Government_Secure_Intranet\">Government Secure Intranet</a>"},{"pageviews":"52. <a target=\"_blank\" href=\"http://en.wikipedia.org./wiki/List_of_highest-grossing_Indian_films\">List of highest-grossing Indian films</a>"},{"pageviews":"53. <a target=\"_blank\" href=\"http://en.wikipedia.org./wiki/China\">China</a>"},{"pageviews":"54. <a target=\"_blank\" href=\"http://en.wikipedia.org./wiki/Ed_Sheeran\">Ed Sheeran</a>"},{"pageviews":"55. <a target=\"_blank\" href=\"http://en.wikipedia.org./wiki/Get_Out\">Get Out</a>"},{"pageviews":"56. <a target=\"_blank\" href=\"http://en.wikipedia.org./wiki/Guardians_of_the_Galaxy_Vol._2\">Guardians of the Galaxy Vol. 2</a>"},{"pageviews":"57. <a target=\"_blank\" href=\"http://en.wikipedia.org./wiki/Dunkirk_(2017_film)\">Dunkirk (2017 film)</a>"},{"pageviews":"58. <a target=\"_blank\" href=\"http://en.wikipedia.org./wiki/California_Proposition_218_(1996)\">California Proposition 218 (1996)</a>"},{"pageviews":"59. <a target=\"_blank\" href=\"http://en.wikipedia.org./wiki/Queen_Victoria\">Queen Victoria</a>"},{"pageviews":"60. <a target=\"_blank\" href=\"http://en.wikipedia.org./wiki/La_La_Land_(film)\">La La Land (film)</a>"},{"pageviews":"61. <a target=\"_blank\" href=\"http://en.wikipedia.org./wiki/List_of_A_Song_of_Ice_and_Fire_characters\">List of A Song of Ice and Fire characters</a>"},{"pageviews":"62. <a target=\"_blank\" href=\"http://en.wikipedia.org./wiki/Gal_Gadot\">Gal Gadot</a>"},{"pageviews":"63. <a target=\"_blank\" href=\"http://en.wikipedia.org./wiki/Conor_McGregor\">Conor McGregor</a>"},{"pageviews":"64. <a target=\"_blank\" href=\"http://en.wikipedia.org./wiki/Rick_and_Morty\">Rick and Morty</a>"},{"pageviews":"65. <a target=\"_blank\" href=\"http://en.wikipedia.org./wiki/Cristiano_Ronaldo\">Cristiano Ronaldo</a>"},{"pageviews":"66. <a target=\"_blank\" href=\"http://en.wikipedia.org./wiki/2018_FIFA_World_Cup_qualification\">2018 FIFA World Cup qualification</a>"},{"pageviews":"67. <a target=\"_blank\" href=\"http://en.wikipedia.org./wiki/RSS\">RSS</a>"},{"pageviews":"68. <a target=\"_blank\" href=\"http://en.wikipedia.org./wiki/Beauty_and_the_Beast_(2017_film)\">Beauty and the Beast (2017 film)</a>"},{"pageviews":"69. <a target=\"_blank\" href=\"http://en.wikipedia.org./wiki/Split_(2016_American_film)\">Split (2016 American film)</a>"},{"pageviews":"70. <a target=\"_blank\" href=\"http://en.wikipedia.org./wiki/List_of_Game_of_Thrones_episodes\">List of Game of Thrones episodes</a>"},{"pageviews":"71. <a target=\"_blank\" href=\"http://en.wikipedia.org./wiki/Albert_Einstein\">Albert Einstein</a>"},{"pageviews":"72. <a target=\"_blank\" href=\"http://en.wikipedia.org./wiki/The_Fate_of_the_Furious\">The Fate of the Furious</a>"},{"pageviews":"73. <a target=\"_blank\" href=\"http://en.wikipedia.org./wiki/XXX_(franchise)\">XXX (franchise)</a>"},{"pageviews":"74. <a target=\"_blank\" href=\"http://en.wikipedia.org./wiki/Floyd_Mayweather_Jr.\">Floyd Mayweather Jr.</a>"},{"pageviews":"75. <a target=\"_blank\" href=\"http://en.wikipedia.org./wiki/Melania_Trump\">Melania Trump</a>"},{"pageviews":"76. <a target=\"_blank\" href=\"http://en.wikipedia.org./wiki/North_Korea\">North Korea</a>"},{"pageviews":"77. <a target=\"_blank\" href=\"http://en.wikipedia.org./wiki/The_Walking_Dead_(TV_series)\">The Walking Dead (TV series)</a>"},{"pageviews":"78. <a target=\"_blank\" href=\"http://en.wikipedia.org./wiki/Local-density_approximation\">Local-density approximation</a>"},{"pageviews":"79. <a target=\"_blank\" href=\"http://en.wikipedia.org./wiki/List_of_Steven_Universe_episodes\">List of Steven Universe episodes</a>"},{"pageviews":"80. <a target=\"_blank\" href=\"http://en.wikipedia.org./wiki/Eminem\">Eminem</a>"},{"pageviews":"81. <a target=\"_blank\" href=\"http://en.wikipedia.org./wiki/Islamic_State_of_Iraq_and_the_Levant\">Islamic State of Iraq and the Levant</a>"},{"pageviews":"82. <a target=\"_blank\" href=\"http://en.wikipedia.org./wiki/Moonlight_(2016_film)\">Moonlight (2016 film)</a>"},{"pageviews":"83. <a target=\"_blank\" href=\"http://en.wikipedia.org./wiki/Blade_Runner_2049\">Blade Runner 2049</a>"},{"pageviews":"84. <a target=\"_blank\" href=\"http://en.wikipedia.org./wiki/Australia\">Australia</a>"},{"pageviews":"85. <a target=\"_blank\" href=\"http://en.wikipedia.org./wiki/List_of_Presidents_of_the_United_States\">List of Presidents of the United States</a>"},{"pageviews":"86. <a target=\"_blank\" href=\"http://en.wikipedia.org./wiki/List_of_countries_by_past_and_projected_GDP_(nominal)_per_capita\">List of countries by past and projected GDP (nominal) per capita</a>"},{"pageviews":"87. <a target=\"_blank\" href=\"http://en.wikipedia.org./wiki/2018_FIFA_World_Cup\">2018 FIFA World Cup</a>"},{"pageviews":"88. <a target=\"_blank\" href=\"http://en.wikipedia.org./wiki/Chris_Cornell\">Chris Cornell</a>"},{"pageviews":"89. <a target=\"_blank\" href=\"http://en.wikipedia.org./wiki/List_of_Marvel_Cinematic_Universe_films\">List of Marvel Cinematic Universe films</a>"},{"pageviews":"90. <a target=\"_blank\" href=\"http://en.wikipedia.org./wiki/Ariana_Grande\">Ariana Grande</a>"},{"pageviews":"91. <a target=\"_blank\" href=\"http://en.wikipedia.org./wiki/Rogue_One\">Rogue One</a>"},{"pageviews":"92. <a target=\"_blank\" href=\"http://en.wikipedia.org./wiki/Chester_Bennington\">Chester Bennington</a>"},{"pageviews":"93. <a target=\"_blank\" href=\"http://en.wikipedia.org./wiki/Vietnam_War\">Vietnam War</a>"},{"pageviews":"94. <a target=\"_blank\" href=\"http://en.wikipedia.org./wiki/Michael_Jackson\">Michael Jackson</a>"},{"pageviews":"95. <a target=\"_blank\" href=\"http://en.wikipedia.org./wiki/Emmanuel_Macron\">Emmanuel Macron</a>"},{"pageviews":"96. <a target=\"_blank\" href=\"http://en.wikipedia.org./wiki/Dwayne_Johnson\">Dwayne Johnson</a>"},{"pageviews":"97. <a target=\"_blank\" href=\"http://en.wikipedia.org./wiki/Russia\">Russia</a>"},{"pageviews":"98. <a target=\"_blank\" href=\"http://en.wikipedia.org./wiki/List_of_Arrow_episodes\">List of Arrow episodes</a>"},{"pageviews":"99. <a target=\"_blank\" href=\"http://en.wikipedia.org./wiki/Syrian_Civil_War\">Syrian Civil War</a>"}],"list":"0. Main Page  \u2014  http:\/\/en.wikipedia.org.\/wiki\/Main_Page\n1. Hyphen-minus  \u2014  http:\/\/en.wikipedia.org.\/wiki\/Hyphen-minus\n2. HTTP 404  \u2014  http:\/\/en.wikipedia.org.\/wiki\/HTTP_404\n3. Darth Vader  \u2014  http:\/\/en.wikipedia.org.\/wiki\/Darth_Vader\n4. Lists of deaths by year  \u2014  http:\/\/en.wikipedia.org.\/wiki\/Lists_of_deaths_by_year\n5. Earth  \u2014  http:\/\/en.wikipedia.org.\/wiki\/Earth\n6. Donald Trump  \u2014  http:\/\/en.wikipedia.org.\/wiki\/Donald_Trump\n7. Lali Esp\u00F3sito  \u2014  http:\/\/en.wikipedia.org.\/wiki\/Lali_Esp%C3%B3sito\n8. Curse, Inc.  \u2014  http:\/\/en.wikipedia.org.\/wiki\/Curse%2C_Inc.\n9. Game of Thrones  \u2014  http:\/\/en.wikipedia.org.\/wiki\/Game_of_Thrones\n10. United States  \u2014  http:\/\/en.wikipedia.org.\/wiki\/United_States\n11. Game of Thrones (season 7)  \u2014  http:\/\/en.wikipedia.org.\/wiki\/Game_of_Thrones_(season_7)\n12. 2017 in film  \u2014  http:\/\/en.wikipedia.org.\/wiki\/2017_in_film\n13. HTTPS  \u2014  http:\/\/en.wikipedia.org.\/wiki\/HTTPS\n14. Wiki  \u2014  http:\/\/en.wikipedia.org.\/wiki\/Wiki\n15. Facebook  \u2014  http:\/\/en.wikipedia.org.\/wiki\/Facebook\n16. Bitcoin  \u2014  http:\/\/en.wikipedia.org.\/wiki\/Bitcoin\n17. Elizabeth II  \u2014  http:\/\/en.wikipedia.org.\/wiki\/Elizabeth_II\n18. Normandy landings  \u2014  http:\/\/en.wikipedia.org.\/wiki\/Normandy_landings\n19. Stranger Things  \u2014  http:\/\/en.wikipedia.org.\/wiki\/Stranger_Things\n20. Millennials  \u2014  http:\/\/en.wikipedia.org.\/wiki\/Millennials\n21. YouTube  \u2014  http:\/\/en.wikipedia.org.\/wiki\/YouTube\n22. Dulce Mar\u00EDa  \u2014  http:\/\/en.wikipedia.org.\/wiki\/Dulce_Mar%C3%ADa\n23. List of Bollywood films of 2017  \u2014  http:\/\/en.wikipedia.org.\/wiki\/List_of_Bollywood_films_of_2017\n24. 1996 in music  \u2014  http:\/\/en.wikipedia.org.\/wiki\/1996_in_music\n25. Logan  \u2014  http:\/\/en.wikipedia.org.\/wiki\/Logan\n26. Riverdale (2017 TV series)  \u2014  http:\/\/en.wikipedia.org.\/wiki\/Riverdale_(2017_TV_series)\n27. XXX  \u2014  http:\/\/en.wikipedia.org.\/wiki\/XXX\n28. It (2017 film)  \u2014  http:\/\/en.wikipedia.org.\/wiki\/It_(2017_film)\n29. World War II  \u2014  http:\/\/en.wikipedia.org.\/wiki\/World_War_II\n30. Wonder Woman (2017 film)  \u2014  http:\/\/en.wikipedia.org.\/wiki\/Wonder_Woman_(2017_film)\n31. Barack Obama  \u2014  http:\/\/en.wikipedia.org.\/wiki\/Barack_Obama\n32. AMGTV  \u2014  http:\/\/en.wikipedia.org.\/wiki\/AMGTV\n33. Batin (Islam)  \u2014  http:\/\/en.wikipedia.org.\/wiki\/Batin_(Islam)\n34. Meghan Markle  \u2014  http:\/\/en.wikipedia.org.\/wiki\/Meghan_Markle\n35. Justice League (film)  \u2014  http:\/\/en.wikipedia.org.\/wiki\/Justice_League_(film)\n36. Wikipedia  \u2014  http:\/\/en.wikipedia.org.\/wiki\/Wikipedia\n37. Canada  \u2014  http:\/\/en.wikipedia.org.\/wiki\/Canada\n38. Muscat and Oman  \u2014  http:\/\/en.wikipedia.org.\/wiki\/Muscat_and_Oman\n39. Google  \u2014  http:\/\/en.wikipedia.org.\/wiki\/Google\n40. Jebel Akhdar War  \u2014  http:\/\/en.wikipedia.org.\/wiki\/Jebel_Akhdar_War\n41. Elon Musk  \u2014  http:\/\/en.wikipedia.org.\/wiki\/Elon_Musk\n42. 13 Reasons Why  \u2014  http:\/\/en.wikipedia.org.\/wiki\/13_Reasons_Why\n43. United Kingdom  \u2014  http:\/\/en.wikipedia.org.\/wiki\/United_Kingdom\n44. XHamster  \u2014  http:\/\/en.wikipedia.org.\/wiki\/XHamster\n45. List of most-viewed YouTube videos  \u2014  http:\/\/en.wikipedia.org.\/wiki\/List_of_most-viewed_YouTube_videos\n46. Star Wars  \u2014  http:\/\/en.wikipedia.org.\/wiki\/Star_Wars\n47. India  \u2014  http:\/\/en.wikipedia.org.\/wiki\/India\n48. World War I  \u2014  http:\/\/en.wikipedia.org.\/wiki\/World_War_I\n49. List of The Flash episodes  \u2014  http:\/\/en.wikipedia.org.\/wiki\/List_of_The_Flash_episodes\n50. Adolf Hitler  \u2014  http:\/\/en.wikipedia.org.\/wiki\/Adolf_Hitler\n51. Government Secure Intranet  \u2014  http:\/\/en.wikipedia.org.\/wiki\/Government_Secure_Intranet\n52. List of highest-grossing Indian films  \u2014  http:\/\/en.wikipedia.org.\/wiki\/List_of_highest-grossing_Indian_films\n53. China  \u2014  http:\/\/en.wikipedia.org.\/wiki\/China\n54. Ed Sheeran  \u2014  http:\/\/en.wikipedia.org.\/wiki\/Ed_Sheeran\n55. Get Out  \u2014  http:\/\/en.wikipedia.org.\/wiki\/Get_Out\n56. Guardians of the Galaxy Vol. 2  \u2014  http:\/\/en.wikipedia.org.\/wiki\/Guardians_of_the_Galaxy_Vol._2\n57. Dunkirk (2017 film)  \u2014  http:\/\/en.wikipedia.org.\/wiki\/Dunkirk_(2017_film)\n58. California Proposition 218 (1996)  \u2014  http:\/\/en.wikipedia.org.\/wiki\/California_Proposition_218_(1996)\n59. Queen Victoria  \u2014  http:\/\/en.wikipedia.org.\/wiki\/Queen_Victoria\n60. La La Land (film)  \u2014  http:\/\/en.wikipedia.org.\/wiki\/La_La_Land_(film)\n61. List of A Song of Ice and Fire characters  \u2014  http:\/\/en.wikipedia.org.\/wiki\/List_of_A_Song_of_Ice_and_Fire_characters\n62. Gal Gadot  \u2014  http:\/\/en.wikipedia.org.\/wiki\/Gal_Gadot\n63. Conor McGregor  \u2014  http:\/\/en.wikipedia.org.\/wiki\/Conor_McGregor\n64. Rick and Morty  \u2014  http:\/\/en.wikipedia.org.\/wiki\/Rick_and_Morty\n65. Cristiano Ronaldo  \u2014  http:\/\/en.wikipedia.org.\/wiki\/Cristiano_Ronaldo\n66. 2018 FIFA World Cup qualification  \u2014  http:\/\/en.wikipedia.org.\/wiki\/2018_FIFA_World_Cup_qualification\n67. RSS  \u2014  http:\/\/en.wikipedia.org.\/wiki\/RSS\n68. Beauty and the Beast (2017 film)  \u2014  http:\/\/en.wikipedia.org.\/wiki\/Beauty_and_the_Beast_(2017_film)\n69. Split (2016 American film)  \u2014  http:\/\/en.wikipedia.org.\/wiki\/Split_(2016_American_film)\n70. List of Game of Thrones episodes  \u2014  http:\/\/en.wikipedia.org.\/wiki\/List_of_Game_of_Thrones_episodes\n71. Albert Einstein  \u2014  http:\/\/en.wikipedia.org.\/wiki\/Albert_Einstein\n72. The Fate of the Furious  \u2014  http:\/\/en.wikipedia.org.\/wiki\/The_Fate_of_the_Furious\n73. XXX (franchise)  \u2014  http:\/\/en.wikipedia.org.\/wiki\/XXX_(franchise)\n74. Floyd Mayweather Jr.  \u2014  http:\/\/en.wikipedia.org.\/wiki\/Floyd_Mayweather_Jr.\n75. Melania Trump  \u2014  http:\/\/en.wikipedia.org.\/wiki\/Melania_Trump\n76. North Korea  \u2014  http:\/\/en.wikipedia.org.\/wiki\/North_Korea\n77. The Walking Dead (TV series)  \u2014  http:\/\/en.wikipedia.org.\/wiki\/The_Walking_Dead_(TV_series)\n78. Local-density approximation  \u2014  http:\/\/en.wikipedia.org.\/wiki\/Local-density_approximation\n79. List of Steven Universe episodes  \u2014  http:\/\/en.wikipedia.org.\/wiki\/List_of_Steven_Universe_episodes\n80. Eminem  \u2014  http:\/\/en.wikipedia.org.\/wiki\/Eminem\n81. Islamic State of Iraq and the Levant  \u2014  http:\/\/en.wikipedia.org.\/wiki\/Islamic_State_of_Iraq_and_the_Levant\n82. Moonlight (2016 film)  \u2014  http:\/\/en.wikipedia.org.\/wiki\/Moonlight_(2016_film)\n83. Blade Runner 2049  \u2014  http:\/\/en.wikipedia.org.\/wiki\/Blade_Runner_2049\n84. Australia  \u2014  http:\/\/en.wikipedia.org.\/wiki\/Australia\n85. List of Presidents of the United States  \u2014  http:\/\/en.wikipedia.org.\/wiki\/List_of_Presidents_of_the_United_States\n86. List of countries by past and projected GDP (nominal) per capita  \u2014  http:\/\/en.wikipedia.org.\/wiki\/List_of_countries_by_past_and_projected_GDP_(nominal)_per_capita\n87. 2018 FIFA World Cup  \u2014  http:\/\/en.wikipedia.org.\/wiki\/2018_FIFA_World_Cup\n88. Chris Cornell  \u2014  http:\/\/en.wikipedia.org.\/wiki\/Chris_Cornell\n89. List of Marvel Cinematic Universe films  \u2014  http:\/\/en.wikipedia.org.\/wiki\/List_of_Marvel_Cinematic_Universe_films\n90. Ariana Grande  \u2014  http:\/\/en.wikipedia.org.\/wiki\/Ariana_Grande\n91. Rogue One  \u2014  http:\/\/en.wikipedia.org.\/wiki\/Rogue_One\n92. Chester Bennington  \u2014  http:\/\/en.wikipedia.org.\/wiki\/Chester_Bennington\n93. Vietnam War  \u2014  http:\/\/en.wikipedia.org.\/wiki\/Vietnam_War\n94. Michael Jackson  \u2014  http:\/\/en.wikipedia.org.\/wiki\/Michael_Jackson\n95. Emmanuel Macron  \u2014  http:\/\/en.wikipedia.org.\/wiki\/Emmanuel_Macron\n96. Dwayne Johnson  \u2014  http:\/\/en.wikipedia.org.\/wiki\/Dwayne_Johnson\n97. Russia  \u2014  http:\/\/en.wikipedia.org.\/wiki\/Russia\n98. List of Arrow episodes  \u2014  http:\/\/en.wikipedia.org.\/wiki\/List_of_Arrow_episodes\n99. Syrian Civil War  \u2014  http:\/\/en.wikipedia.org.\/wiki\/Syrian_Civil_War\n","miniList":"0. Main Page\n1. Hyphen-minus\n2. HTTP 404\n3. Darth Vader\n4. Lists of deaths by year\n5. Earth\n6. Donald Trump\n7. Lali Esp\u00F3sito\n8. Curse, Inc.\n9. Game of Thrones\n10. United States\n11. Game of Thrones (season 7)\n12. 2017 in film\n13. HTTPS\n14. Wiki\n15. Facebook\n16. Bitcoin\n17. Elizabeth II\n18. Normandy landings\n19. Stranger Things\n20. Millennials\n21. YouTube\n22. Dulce Mar\u00EDa\n23. List of Bollywood films of 2017\n24. 1996 in music\n25. Logan\n26. Riverdale (2017 TV series)\n27. XXX\n28. It (2017 film)\n29. World War II\n30. Wonder Woman (2017 film)\n31. Barack Obama\n32. AMGTV\n33. Batin (Islam)\n34. Meghan Markle\n35. Justice League (film)\n36. Wikipedia\n37. Canada\n38. Muscat and Oman\n39. Google\n40. Jebel Akhdar War\n41. Elon Musk\n42. 13 Reasons Why\n43. United Kingdom\n44. XHamster\n45. List of most-viewed YouTube videos\n46. Star Wars\n47. India\n48. World War I\n49. List of The Flash episodes\n50. Adolf Hitler\n51. Government Secure Intranet\n52. List of highest-grossing Indian films\n53. China\n54. Ed Sheeran\n55. Get Out\n56. Guardians of the Galaxy Vol. 2\n57. Dunkirk (2017 film)\n58. California Proposition 218 (1996)\n59. Queen Victoria\n60. La La Land (film)\n61. List of A Song of Ice and Fire characters\n62. Gal Gadot\n63. Conor McGregor\n64. Rick and Morty\n65. Cristiano Ronaldo\n66. 2018 FIFA World Cup qualification\n67. RSS\n68. Beauty and the Beast (2017 film)\n69. Split (2016 American film)\n70. List of Game of Thrones episodes\n71. Albert Einstein\n72. The Fate of the Furious\n73. XXX (franchise)\n74. Floyd Mayweather Jr.\n75. Melania Trump\n76. North Korea\n77. The Walking Dead (TV series)\n78. Local-density approximation\n79. List of Steven Universe episodes\n80. Eminem\n81. Islamic State of Iraq and the Levant\n82. Moonlight (2016 film)\n83. Blade Runner 2049\n84. Australia\n85. List of Presidents of the United States\n86. List of countries by past and projected GDP (nominal) per capita\n87. 2018 FIFA World Cup\n88. Chris Cornell\n89. List of Marvel Cinematic Universe films\n90. Ariana Grande\n91. Rogue One\n92. Chester Bennington\n93. Vietnam War\n94. Michael Jackson\n95. Emmanuel Macron\n96. Dwayne Johnson\n97. Russia\n98. List of Arrow episodes\n99. Syrian Civil War\n"}
