{"start":1001,"end":1100,"count":5616717,"type":"pageviews","pageSize":100,"page":10,"pages":56168,"columns":[{"label":"","property":"pageviews","sortable":false}],"items":[{"pageviews":"1000. <a target=\"_blank\" href=\"http://en.wikipedia.org./wiki/Legion_(Marvel_Comics)\">Legion (Marvel Comics)</a>"},{"pageviews":"1001. <a target=\"_blank\" href=\"http://en.wikipedia.org./wiki/Portugal\">Portugal</a>"},{"pageviews":"1002. <a target=\"_blank\" href=\"http://en.wikipedia.org./wiki/Stan_Lee\">Stan Lee</a>"},{"pageviews":"1003. <a target=\"_blank\" href=\"http://en.wikipedia.org./wiki/Null\">Null</a>"},{"pageviews":"1004. <a target=\"_blank\" href=\"http://en.wikipedia.org./wiki/Outlook.com\">Outlook.com</a>"},{"pageviews":"1005. <a target=\"_blank\" href=\"http://en.wikipedia.org./wiki/The_Dark_Tower_(series)\">The Dark Tower (series)</a>"},{"pageviews":"1006. <a target=\"_blank\" href=\"http://en.wikipedia.org./wiki/Mona_Lisa\">Mona Lisa</a>"},{"pageviews":"1007. <a target=\"_blank\" href=\"http://en.wikipedia.org./wiki/Dear_Evan_Hansen\">Dear Evan Hansen</a>"},{"pageviews":"1008. <a target=\"_blank\" href=\"http://en.wikipedia.org./wiki/Jake_Gyllenhaal\">Jake Gyllenhaal</a>"},{"pageviews":"1009. <a target=\"_blank\" href=\"http://en.wikipedia.org./wiki/2017_in_video_gaming\">2017 in video gaming</a>"},{"pageviews":"1010. <a target=\"_blank\" href=\"http://en.wikipedia.org./wiki/Running_Man_(TV_series)\">Running Man (TV series)</a>"},{"pageviews":"1011. <a target=\"_blank\" href=\"http://en.wikipedia.org./wiki/The_Winds_of_Winter\">The Winds of Winter</a>"},{"pageviews":"1012. <a target=\"_blank\" href=\"http://en.wikipedia.org./wiki/Bee_Gees\">Bee Gees</a>"},{"pageviews":"1013. <a target=\"_blank\" href=\"http://en.wikipedia.org./wiki/Sunny_Leone\">Sunny Leone</a>"},{"pageviews":"1014. <a target=\"_blank\" href=\"http://en.wikipedia.org./wiki/BDSM\">BDSM</a>"},{"pageviews":"1015. <a target=\"_blank\" href=\"http://en.wikipedia.org./wiki/Ajit_Pai\">Ajit Pai</a>"},{"pageviews":"1016. <a target=\"_blank\" href=\"http://en.wikipedia.org./wiki/Fear_the_Walking_Dead\">Fear the Walking Dead</a>"},{"pageviews":"1017. <a target=\"_blank\" href=\"http://en.wikipedia.org./wiki/Cher\">Cher</a>"},{"pageviews":"1018. <a target=\"_blank\" href=\"http://en.wikipedia.org./wiki/Kurt_Cobain\">Kurt Cobain</a>"},{"pageviews":"1019. <a target=\"_blank\" href=\"http://en.wikipedia.org./wiki/Tiffany_Trump\">Tiffany Trump</a>"},{"pageviews":"1020. <a target=\"_blank\" href=\"http://en.wikipedia.org./wiki/Sam_Shepard\">Sam Shepard</a>"},{"pageviews":"1021. <a target=\"_blank\" href=\"http://en.wikipedia.org./wiki/2017_WTA_Tour\">2017 WTA Tour</a>"},{"pageviews":"1022. <a target=\"_blank\" href=\"http://en.wikipedia.org./wiki/Poisson_distribution\">Poisson distribution</a>"},{"pageviews":"1023. <a target=\"_blank\" href=\"http://en.wikipedia.org./wiki/Seth_MacFarlane\">Seth MacFarlane</a>"},{"pageviews":"1024. <a target=\"_blank\" href=\"http://en.wikipedia.org./wiki/Hinduism\">Hinduism</a>"},{"pageviews":"1025. <a target=\"_blank\" href=\"http://en.wikipedia.org./wiki/Ulysses_S._Grant\">Ulysses S. Grant</a>"},{"pageviews":"1026. <a target=\"_blank\" href=\"http://en.wikipedia.org./wiki/Operating_system\">Operating system</a>"},{"pageviews":"1027. <a target=\"_blank\" href=\"http://en.wikipedia.org./wiki/Vikings_(season_4)\">Vikings (season 4)</a>"},{"pageviews":"1028. <a target=\"_blank\" href=\"http://en.wikipedia.org./wiki/Roman_Polanski\">Roman Polanski</a>"},{"pageviews":"1029. <a target=\"_blank\" href=\"http://en.wikipedia.org./wiki/XXX_(2002_film)\">XXX (2002 film)</a>"},{"pageviews":"1030. <a target=\"_blank\" href=\"http://en.wikipedia.org./wiki/Eva_Ekeblad\">Eva Ekeblad</a>"},{"pageviews":"1031. <a target=\"_blank\" href=\"http://en.wikipedia.org./wiki/Simple_Mail_Transfer_Protocol\">Simple Mail Transfer Protocol</a>"},{"pageviews":"1032. <a target=\"_blank\" href=\"http://en.wikipedia.org./wiki/Patient_Protection_and_Affordable_Care_Act\">Patient Protection and Affordable Care Act</a>"},{"pageviews":"1033. <a target=\"_blank\" href=\"http://en.wikipedia.org./wiki/Richard_B._Spencer\">Richard B. Spencer</a>"},{"pageviews":"1034. <a target=\"_blank\" href=\"http://en.wikipedia.org./wiki/Burj_Khalifa\">Burj Khalifa</a>"},{"pageviews":"1035. <a target=\"_blank\" href=\"http://en.wikipedia.org./wiki/The_Walt_Disney_Company\">The Walt Disney Company</a>"},{"pageviews":"1036. <a target=\"_blank\" href=\"http://en.wikipedia.org./wiki/Suits_(season_6)\">Suits (season 6)</a>"},{"pageviews":"1037. <a target=\"_blank\" href=\"http://en.wikipedia.org./wiki/Croatia\">Croatia</a>"},{"pageviews":"1038. <a target=\"_blank\" href=\"http://en.wikipedia.org./wiki/Intel\">Intel</a>"},{"pageviews":"1039. <a target=\"_blank\" href=\"http://en.wikipedia.org./wiki/Amy_Adams\">Amy Adams</a>"},{"pageviews":"1040. <a target=\"_blank\" href=\"http://en.wikipedia.org./wiki/Twenty_One_Pilots\">Twenty One Pilots</a>"},{"pageviews":"1041. <a target=\"_blank\" href=\"http://en.wikipedia.org./wiki/Benito_Mussolini\">Benito Mussolini</a>"},{"pageviews":"1042. <a target=\"_blank\" href=\"http://en.wikipedia.org./wiki/Prabhas\">Prabhas</a>"},{"pageviews":"1043. <a target=\"_blank\" href=\"http://en.wikipedia.org./wiki/Bright_(film)\">Bright (film)</a>"},{"pageviews":"1044. <a target=\"_blank\" href=\"http://en.wikipedia.org./wiki/Jake_Paul\">Jake Paul</a>"},{"pageviews":"1045. <a target=\"_blank\" href=\"http://en.wikipedia.org./wiki/Robert_De_Niro\">Robert De Niro</a>"},{"pageviews":"1046. <a target=\"_blank\" href=\"http://en.wikipedia.org./wiki/Tottenham_Hotspur_F.C.\">Tottenham Hotspur F.C.</a>"},{"pageviews":"1047. <a target=\"_blank\" href=\"http://en.wikipedia.org./wiki/Homeland_(season_6)\">Homeland (season 6)</a>"},{"pageviews":"1048. <a target=\"_blank\" href=\"http://en.wikipedia.org./wiki/Oprah_Winfrey\">Oprah Winfrey</a>"},{"pageviews":"1049. <a target=\"_blank\" href=\"http://en.wikipedia.org./wiki/Caitlyn_Jenner\">Caitlyn Jenner</a>"},{"pageviews":"1050. <a target=\"_blank\" href=\"http://en.wikipedia.org./wiki/Aristotle\">Aristotle</a>"},{"pageviews":"1051. <a target=\"_blank\" href=\"http://en.wikipedia.org./wiki/United_States_House_of_Representatives\">United States House of Representatives</a>"},{"pageviews":"1052. <a target=\"_blank\" href=\"http://en.wikipedia.org./wiki/Transformers_(film_series)\">Transformers (film series)</a>"},{"pageviews":"1053. <a target=\"_blank\" href=\"http://en.wikipedia.org./wiki/Daniel_Day-Lewis\">Daniel Day-Lewis</a>"},{"pageviews":"1054. <a target=\"_blank\" href=\"http://en.wikipedia.org./wiki/Paris_Saint-Germain_F.C.\">Paris Saint-Germain F.C.</a>"},{"pageviews":"1055. <a target=\"_blank\" href=\"http://en.wikipedia.org./wiki/Alt-right\">Alt-right</a>"},{"pageviews":"1056. <a target=\"_blank\" href=\"http://en.wikipedia.org./wiki/Zodiac_Killer\">Zodiac Killer</a>"},{"pageviews":"1057. <a target=\"_blank\" href=\"http://en.wikipedia.org./wiki/Myers%E2%80%93Briggs_Type_Indicator\">Myers–Briggs Type Indicator</a>"},{"pageviews":"1058. <a target=\"_blank\" href=\"http://en.wikipedia.org./wiki/The_Walking_Dead_(season_8)\">The Walking Dead (season 8)</a>"},{"pageviews":"1059. <a target=\"_blank\" href=\"http://en.wikipedia.org./wiki/List_of_highest_mountains_on_Earth\">List of highest mountains on Earth</a>"},{"pageviews":"1060. <a target=\"_blank\" href=\"http://en.wikipedia.org./wiki/U.S._state\">U.S. state</a>"},{"pageviews":"1061. <a target=\"_blank\" href=\"http://en.wikipedia.org./wiki/Brigitte_Macron\">Brigitte Macron</a>"},{"pageviews":"1062. <a target=\"_blank\" href=\"http://en.wikipedia.org./wiki/The_Magicians_(U.S._TV_series)\">The Magicians (U.S. TV series)</a>"},{"pageviews":"1063. <a target=\"_blank\" href=\"http://en.wikipedia.org./wiki/Marla_Maples\">Marla Maples</a>"},{"pageviews":"1064. <a target=\"_blank\" href=\"http://en.wikipedia.org./wiki/George_Harrison\">George Harrison</a>"},{"pageviews":"1065. <a target=\"_blank\" href=\"http://en.wikipedia.org./wiki/Idris_Elba\">Idris Elba</a>"},{"pageviews":"1066. <a target=\"_blank\" href=\"http://en.wikipedia.org./wiki/Six_Sigma\">Six Sigma</a>"},{"pageviews":"1067. <a target=\"_blank\" href=\"http://en.wikipedia.org./wiki/South_Park\">South Park</a>"},{"pageviews":"1068. <a target=\"_blank\" href=\"http://en.wikipedia.org./wiki/Woody_Allen\">Woody Allen</a>"},{"pageviews":"1069. <a target=\"_blank\" href=\"http://en.wikipedia.org./wiki/Nocturnal_Animals\">Nocturnal Animals</a>"},{"pageviews":"1070. <a target=\"_blank\" href=\"http://en.wikipedia.org./wiki/DevOps\">DevOps</a>"},{"pageviews":"1071. <a target=\"_blank\" href=\"http://en.wikipedia.org./wiki/Wladimir_Klitschko\">Wladimir Klitschko</a>"},{"pageviews":"1072. <a target=\"_blank\" href=\"http://en.wikipedia.org./wiki/Azerbaijan\">Azerbaijan</a>"},{"pageviews":"1073. <a target=\"_blank\" href=\"http://en.wikipedia.org./wiki/Ruby_Rose\">Ruby Rose</a>"},{"pageviews":"1074. <a target=\"_blank\" href=\"http://en.wikipedia.org./wiki/David_Cassidy\">David Cassidy</a>"},{"pageviews":"1075. <a target=\"_blank\" href=\"http://en.wikipedia.org./wiki/Robert_Kardashian\">Robert Kardashian</a>"},{"pageviews":"1076. <a target=\"_blank\" href=\"http://en.wikipedia.org./wiki/Margaret_Thatcher\">Margaret Thatcher</a>"},{"pageviews":"1077. <a target=\"_blank\" href=\"http://en.wikipedia.org./wiki/Death_Note_(2017_film)\">Death Note (2017 film)</a>"},{"pageviews":"1078. <a target=\"_blank\" href=\"http://en.wikipedia.org./wiki/Lyle_and_Erik_Menendez\">Lyle and Erik Menendez</a>"},{"pageviews":"1079. <a target=\"_blank\" href=\"http://en.wikipedia.org./wiki/Red_Hot_Chili_Peppers\">Red Hot Chili Peppers</a>"},{"pageviews":"1080. <a target=\"_blank\" href=\"http://en.wikipedia.org./wiki/Dark_web\">Dark web</a>"},{"pageviews":"1081. <a target=\"_blank\" href=\"http://en.wikipedia.org./wiki/Shia_LaBeouf\">Shia LaBeouf</a>"},{"pageviews":"1082. <a target=\"_blank\" href=\"http://en.wikipedia.org./wiki/Lin-Manuel_Miranda\">Lin-Manuel Miranda</a>"},{"pageviews":"1083. <a target=\"_blank\" href=\"http://en.wikipedia.org./wiki/Steven_Universe\">Steven Universe</a>"},{"pageviews":"1084. <a target=\"_blank\" href=\"http://en.wikipedia.org./wiki/Lebanon\">Lebanon</a>"},{"pageviews":"1085. <a target=\"_blank\" href=\"http://en.wikipedia.org./wiki/Autonomous_sensory_meridian_response\">Autonomous sensory meridian response</a>"},{"pageviews":"1086. <a target=\"_blank\" href=\"http://en.wikipedia.org./wiki/Monaco\">Monaco</a>"},{"pageviews":"1087. <a target=\"_blank\" href=\"http://en.wikipedia.org./wiki/Power_Rangers\">Power Rangers</a>"},{"pageviews":"1088. <a target=\"_blank\" href=\"http://en.wikipedia.org./wiki/Paul_Walker\">Paul Walker</a>"},{"pageviews":"1089. <a target=\"_blank\" href=\"http://en.wikipedia.org./wiki/Supernatural_(season_12)\">Supernatural (season 12)</a>"},{"pageviews":"1090. <a target=\"_blank\" href=\"http://en.wikipedia.org./wiki/Scout_Outdoor_Essentials\">Scout Outdoor Essentials</a>"},{"pageviews":"1091. <a target=\"_blank\" href=\"http://en.wikipedia.org./wiki/Noam_Chomsky\">Noam Chomsky</a>"},{"pageviews":"1092. <a target=\"_blank\" href=\"http://en.wikipedia.org./wiki/Alison_Brie\">Alison Brie</a>"},{"pageviews":"1093. <a target=\"_blank\" href=\"http://en.wikipedia.org./wiki/Search_engine_optimization\">Search engine optimization</a>"},{"pageviews":"1094. <a target=\"_blank\" href=\"http://en.wikipedia.org./wiki/List_of_home_computers_by_video_hardware\">List of home computers by video hardware</a>"},{"pageviews":"1095. <a target=\"_blank\" href=\"http://en.wikipedia.org./wiki/Manny_Pacquiao\">Manny Pacquiao</a>"},{"pageviews":"1096. <a target=\"_blank\" href=\"http://en.wikipedia.org./wiki/A.C._Milan\">A.C. Milan</a>"},{"pageviews":"1097. <a target=\"_blank\" href=\"http://en.wikipedia.org./wiki/Rachel_McAdams\">Rachel McAdams</a>"},{"pageviews":"1098. <a target=\"_blank\" href=\"http://en.wikipedia.org./wiki/New_England_Patriots\">New England Patriots</a>"},{"pageviews":"1099. <a target=\"_blank\" href=\"http://en.wikipedia.org./wiki/Colin_Kaepernick\">Colin Kaepernick</a>"}],"list":"1000. Legion (Marvel Comics)  \u2014  http:\/\/en.wikipedia.org.\/wiki\/Legion_(Marvel_Comics)\n1001. Portugal  \u2014  http:\/\/en.wikipedia.org.\/wiki\/Portugal\n1002. Stan Lee  \u2014  http:\/\/en.wikipedia.org.\/wiki\/Stan_Lee\n1003. Null  \u2014  http:\/\/en.wikipedia.org.\/wiki\/Null\n1004. Outlook.com  \u2014  http:\/\/en.wikipedia.org.\/wiki\/Outlook.com\n1005. The Dark Tower (series)  \u2014  http:\/\/en.wikipedia.org.\/wiki\/The_Dark_Tower_(series)\n1006. Mona Lisa  \u2014  http:\/\/en.wikipedia.org.\/wiki\/Mona_Lisa\n1007. Dear Evan Hansen  \u2014  http:\/\/en.wikipedia.org.\/wiki\/Dear_Evan_Hansen\n1008. Jake Gyllenhaal  \u2014  http:\/\/en.wikipedia.org.\/wiki\/Jake_Gyllenhaal\n1009. 2017 in video gaming  \u2014  http:\/\/en.wikipedia.org.\/wiki\/2017_in_video_gaming\n1010. Running Man (TV series)  \u2014  http:\/\/en.wikipedia.org.\/wiki\/Running_Man_(TV_series)\n1011. The Winds of Winter  \u2014  http:\/\/en.wikipedia.org.\/wiki\/The_Winds_of_Winter\n1012. Bee Gees  \u2014  http:\/\/en.wikipedia.org.\/wiki\/Bee_Gees\n1013. Sunny Leone  \u2014  http:\/\/en.wikipedia.org.\/wiki\/Sunny_Leone\n1014. BDSM  \u2014  http:\/\/en.wikipedia.org.\/wiki\/BDSM\n1015. Ajit Pai  \u2014  http:\/\/en.wikipedia.org.\/wiki\/Ajit_Pai\n1016. Fear the Walking Dead  \u2014  http:\/\/en.wikipedia.org.\/wiki\/Fear_the_Walking_Dead\n1017. Cher  \u2014  http:\/\/en.wikipedia.org.\/wiki\/Cher\n1018. Kurt Cobain  \u2014  http:\/\/en.wikipedia.org.\/wiki\/Kurt_Cobain\n1019. Tiffany Trump  \u2014  http:\/\/en.wikipedia.org.\/wiki\/Tiffany_Trump\n1020. Sam Shepard  \u2014  http:\/\/en.wikipedia.org.\/wiki\/Sam_Shepard\n1021. 2017 WTA Tour  \u2014  http:\/\/en.wikipedia.org.\/wiki\/2017_WTA_Tour\n1022. Poisson distribution  \u2014  http:\/\/en.wikipedia.org.\/wiki\/Poisson_distribution\n1023. Seth MacFarlane  \u2014  http:\/\/en.wikipedia.org.\/wiki\/Seth_MacFarlane\n1024. Hinduism  \u2014  http:\/\/en.wikipedia.org.\/wiki\/Hinduism\n1025. Ulysses S. Grant  \u2014  http:\/\/en.wikipedia.org.\/wiki\/Ulysses_S._Grant\n1026. Operating system  \u2014  http:\/\/en.wikipedia.org.\/wiki\/Operating_system\n1027. Vikings (season 4)  \u2014  http:\/\/en.wikipedia.org.\/wiki\/Vikings_(season_4)\n1028. Roman Polanski  \u2014  http:\/\/en.wikipedia.org.\/wiki\/Roman_Polanski\n1029. XXX (2002 film)  \u2014  http:\/\/en.wikipedia.org.\/wiki\/XXX_(2002_film)\n1030. Eva Ekeblad  \u2014  http:\/\/en.wikipedia.org.\/wiki\/Eva_Ekeblad\n1031. Simple Mail Transfer Protocol  \u2014  http:\/\/en.wikipedia.org.\/wiki\/Simple_Mail_Transfer_Protocol\n1032. Patient Protection and Affordable Care Act  \u2014  http:\/\/en.wikipedia.org.\/wiki\/Patient_Protection_and_Affordable_Care_Act\n1033. Richard B. Spencer  \u2014  http:\/\/en.wikipedia.org.\/wiki\/Richard_B._Spencer\n1034. Burj Khalifa  \u2014  http:\/\/en.wikipedia.org.\/wiki\/Burj_Khalifa\n1035. The Walt Disney Company  \u2014  http:\/\/en.wikipedia.org.\/wiki\/The_Walt_Disney_Company\n1036. Suits (season 6)  \u2014  http:\/\/en.wikipedia.org.\/wiki\/Suits_(season_6)\n1037. Croatia  \u2014  http:\/\/en.wikipedia.org.\/wiki\/Croatia\n1038. Intel  \u2014  http:\/\/en.wikipedia.org.\/wiki\/Intel\n1039. Amy Adams  \u2014  http:\/\/en.wikipedia.org.\/wiki\/Amy_Adams\n1040. Twenty One Pilots  \u2014  http:\/\/en.wikipedia.org.\/wiki\/Twenty_One_Pilots\n1041. Benito Mussolini  \u2014  http:\/\/en.wikipedia.org.\/wiki\/Benito_Mussolini\n1042. Prabhas  \u2014  http:\/\/en.wikipedia.org.\/wiki\/Prabhas\n1043. Bright (film)  \u2014  http:\/\/en.wikipedia.org.\/wiki\/Bright_(film)\n1044. Jake Paul  \u2014  http:\/\/en.wikipedia.org.\/wiki\/Jake_Paul\n1045. Robert De Niro  \u2014  http:\/\/en.wikipedia.org.\/wiki\/Robert_De_Niro\n1046. Tottenham Hotspur F.C.  \u2014  http:\/\/en.wikipedia.org.\/wiki\/Tottenham_Hotspur_F.C.\n1047. Homeland (season 6)  \u2014  http:\/\/en.wikipedia.org.\/wiki\/Homeland_(season_6)\n1048. Oprah Winfrey  \u2014  http:\/\/en.wikipedia.org.\/wiki\/Oprah_Winfrey\n1049. Caitlyn Jenner  \u2014  http:\/\/en.wikipedia.org.\/wiki\/Caitlyn_Jenner\n1050. Aristotle  \u2014  http:\/\/en.wikipedia.org.\/wiki\/Aristotle\n1051. United States House of Representatives  \u2014  http:\/\/en.wikipedia.org.\/wiki\/United_States_House_of_Representatives\n1052. Transformers (film series)  \u2014  http:\/\/en.wikipedia.org.\/wiki\/Transformers_(film_series)\n1053. Daniel Day-Lewis  \u2014  http:\/\/en.wikipedia.org.\/wiki\/Daniel_Day-Lewis\n1054. Paris Saint-Germain F.C.  \u2014  http:\/\/en.wikipedia.org.\/wiki\/Paris_Saint-Germain_F.C.\n1055. Alt-right  \u2014  http:\/\/en.wikipedia.org.\/wiki\/Alt-right\n1056. Zodiac Killer  \u2014  http:\/\/en.wikipedia.org.\/wiki\/Zodiac_Killer\n1057. Myers\u2013Briggs Type Indicator  \u2014  http:\/\/en.wikipedia.org.\/wiki\/Myers%E2%80%93Briggs_Type_Indicator\n1058. The Walking Dead (season 8)  \u2014  http:\/\/en.wikipedia.org.\/wiki\/The_Walking_Dead_(season_8)\n1059. List of highest mountains on Earth  \u2014  http:\/\/en.wikipedia.org.\/wiki\/List_of_highest_mountains_on_Earth\n1060. U.S. state  \u2014  http:\/\/en.wikipedia.org.\/wiki\/U.S._state\n1061. Brigitte Macron  \u2014  http:\/\/en.wikipedia.org.\/wiki\/Brigitte_Macron\n1062. The Magicians (U.S. TV series)  \u2014  http:\/\/en.wikipedia.org.\/wiki\/The_Magicians_(U.S._TV_series)\n1063. Marla Maples  \u2014  http:\/\/en.wikipedia.org.\/wiki\/Marla_Maples\n1064. George Harrison  \u2014  http:\/\/en.wikipedia.org.\/wiki\/George_Harrison\n1065. Idris Elba  \u2014  http:\/\/en.wikipedia.org.\/wiki\/Idris_Elba\n1066. Six Sigma  \u2014  http:\/\/en.wikipedia.org.\/wiki\/Six_Sigma\n1067. South Park  \u2014  http:\/\/en.wikipedia.org.\/wiki\/South_Park\n1068. Woody Allen  \u2014  http:\/\/en.wikipedia.org.\/wiki\/Woody_Allen\n1069. Nocturnal Animals  \u2014  http:\/\/en.wikipedia.org.\/wiki\/Nocturnal_Animals\n1070. DevOps  \u2014  http:\/\/en.wikipedia.org.\/wiki\/DevOps\n1071. Wladimir Klitschko  \u2014  http:\/\/en.wikipedia.org.\/wiki\/Wladimir_Klitschko\n1072. Azerbaijan  \u2014  http:\/\/en.wikipedia.org.\/wiki\/Azerbaijan\n1073. Ruby Rose  \u2014  http:\/\/en.wikipedia.org.\/wiki\/Ruby_Rose\n1074. David Cassidy  \u2014  http:\/\/en.wikipedia.org.\/wiki\/David_Cassidy\n1075. Robert Kardashian  \u2014  http:\/\/en.wikipedia.org.\/wiki\/Robert_Kardashian\n1076. Margaret Thatcher  \u2014  http:\/\/en.wikipedia.org.\/wiki\/Margaret_Thatcher\n1077. Death Note (2017 film)  \u2014  http:\/\/en.wikipedia.org.\/wiki\/Death_Note_(2017_film)\n1078. Lyle and Erik Menendez  \u2014  http:\/\/en.wikipedia.org.\/wiki\/Lyle_and_Erik_Menendez\n1079. Red Hot Chili Peppers  \u2014  http:\/\/en.wikipedia.org.\/wiki\/Red_Hot_Chili_Peppers\n1080. Dark web  \u2014  http:\/\/en.wikipedia.org.\/wiki\/Dark_web\n1081. Shia LaBeouf  \u2014  http:\/\/en.wikipedia.org.\/wiki\/Shia_LaBeouf\n1082. Lin-Manuel Miranda  \u2014  http:\/\/en.wikipedia.org.\/wiki\/Lin-Manuel_Miranda\n1083. Steven Universe  \u2014  http:\/\/en.wikipedia.org.\/wiki\/Steven_Universe\n1084. Lebanon  \u2014  http:\/\/en.wikipedia.org.\/wiki\/Lebanon\n1085. Autonomous sensory meridian response  \u2014  http:\/\/en.wikipedia.org.\/wiki\/Autonomous_sensory_meridian_response\n1086. Monaco  \u2014  http:\/\/en.wikipedia.org.\/wiki\/Monaco\n1087. Power Rangers  \u2014  http:\/\/en.wikipedia.org.\/wiki\/Power_Rangers\n1088. Paul Walker  \u2014  http:\/\/en.wikipedia.org.\/wiki\/Paul_Walker\n1089. Supernatural (season 12)  \u2014  http:\/\/en.wikipedia.org.\/wiki\/Supernatural_(season_12)\n1090. Scout Outdoor Essentials  \u2014  http:\/\/en.wikipedia.org.\/wiki\/Scout_Outdoor_Essentials\n1091. Noam Chomsky  \u2014  http:\/\/en.wikipedia.org.\/wiki\/Noam_Chomsky\n1092. Alison Brie  \u2014  http:\/\/en.wikipedia.org.\/wiki\/Alison_Brie\n1093. Search engine optimization  \u2014  http:\/\/en.wikipedia.org.\/wiki\/Search_engine_optimization\n1094. List of home computers by video hardware  \u2014  http:\/\/en.wikipedia.org.\/wiki\/List_of_home_computers_by_video_hardware\n1095. Manny Pacquiao  \u2014  http:\/\/en.wikipedia.org.\/wiki\/Manny_Pacquiao\n1096. A.C. Milan  \u2014  http:\/\/en.wikipedia.org.\/wiki\/A.C._Milan\n1097. Rachel McAdams  \u2014  http:\/\/en.wikipedia.org.\/wiki\/Rachel_McAdams\n1098. New England Patriots  \u2014  http:\/\/en.wikipedia.org.\/wiki\/New_England_Patriots\n1099. Colin Kaepernick  \u2014  http:\/\/en.wikipedia.org.\/wiki\/Colin_Kaepernick\n","miniList":"1000. Legion (Marvel Comics)\n1001. Portugal\n1002. Stan Lee\n1003. Null\n1004. Outlook.com\n1005. The Dark Tower (series)\n1006. Mona Lisa\n1007. Dear Evan Hansen\n1008. Jake Gyllenhaal\n1009. 2017 in video gaming\n1010. Running Man (TV series)\n1011. The Winds of Winter\n1012. Bee Gees\n1013. Sunny Leone\n1014. BDSM\n1015. Ajit Pai\n1016. Fear the Walking Dead\n1017. Cher\n1018. Kurt Cobain\n1019. Tiffany Trump\n1020. Sam Shepard\n1021. 2017 WTA Tour\n1022. Poisson distribution\n1023. Seth MacFarlane\n1024. Hinduism\n1025. Ulysses S. Grant\n1026. Operating system\n1027. Vikings (season 4)\n1028. Roman Polanski\n1029. XXX (2002 film)\n1030. Eva Ekeblad\n1031. Simple Mail Transfer Protocol\n1032. Patient Protection and Affordable Care Act\n1033. Richard B. Spencer\n1034. Burj Khalifa\n1035. The Walt Disney Company\n1036. Suits (season 6)\n1037. Croatia\n1038. Intel\n1039. Amy Adams\n1040. Twenty One Pilots\n1041. Benito Mussolini\n1042. Prabhas\n1043. Bright (film)\n1044. Jake Paul\n1045. Robert De Niro\n1046. Tottenham Hotspur F.C.\n1047. Homeland (season 6)\n1048. Oprah Winfrey\n1049. Caitlyn Jenner\n1050. Aristotle\n1051. United States House of Representatives\n1052. Transformers (film series)\n1053. Daniel Day-Lewis\n1054. Paris Saint-Germain F.C.\n1055. Alt-right\n1056. Zodiac Killer\n1057. Myers\u2013Briggs Type Indicator\n1058. The Walking Dead (season 8)\n1059. List of highest mountains on Earth\n1060. U.S. state\n1061. Brigitte Macron\n1062. The Magicians (U.S. TV series)\n1063. Marla Maples\n1064. George Harrison\n1065. Idris Elba\n1066. Six Sigma\n1067. South Park\n1068. Woody Allen\n1069. Nocturnal Animals\n1070. DevOps\n1071. Wladimir Klitschko\n1072. Azerbaijan\n1073. Ruby Rose\n1074. David Cassidy\n1075. Robert Kardashian\n1076. Margaret Thatcher\n1077. Death Note (2017 film)\n1078. Lyle and Erik Menendez\n1079. Red Hot Chili Peppers\n1080. Dark web\n1081. Shia LaBeouf\n1082. Lin-Manuel Miranda\n1083. Steven Universe\n1084. Lebanon\n1085. Autonomous sensory meridian response\n1086. Monaco\n1087. Power Rangers\n1088. Paul Walker\n1089. Supernatural (season 12)\n1090. Scout Outdoor Essentials\n1091. Noam Chomsky\n1092. Alison Brie\n1093. Search engine optimization\n1094. List of home computers by video hardware\n1095. Manny Pacquiao\n1096. A.C. Milan\n1097. Rachel McAdams\n1098. New England Patriots\n1099. Colin Kaepernick\n"}
