{"start":1101,"end":1200,"count":5616717,"type":"pageviews","pageSize":100,"page":11,"pages":56168,"columns":[{"label":"","property":"pageviews","sortable":false}],"items":[{"pageviews":"1100. <a target=\"_blank\" href=\"http://en.wikipedia.org./wiki/A._P._J._Abdul_Kalam\">A. P. J. Abdul Kalam</a>"},{"pageviews":"1101. <a target=\"_blank\" href=\"http://en.wikipedia.org./wiki/The_Matrix\">The Matrix</a>"},{"pageviews":"1102. <a target=\"_blank\" href=\"http://en.wikipedia.org./wiki/List_of_amendments_to_the_United_States_Constitution\">List of amendments to the United States Constitution</a>"},{"pageviews":"1103. <a target=\"_blank\" href=\"http://en.wikipedia.org./wiki/Matthew_McConaughey\">Matthew McConaughey</a>"},{"pageviews":"1104. <a target=\"_blank\" href=\"http://en.wikipedia.org./wiki/Zendaya\">Zendaya</a>"},{"pageviews":"1105. <a target=\"_blank\" href=\"http://en.wikipedia.org./wiki/Jason_Statham\">Jason Statham</a>"},{"pageviews":"1106. <a target=\"_blank\" href=\"http://en.wikipedia.org./wiki/List_of_James_Bond_films\">List of James Bond films</a>"},{"pageviews":"1107. <a target=\"_blank\" href=\"http://en.wikipedia.org./wiki/Kyrie_Irving\">Kyrie Irving</a>"},{"pageviews":"1108. <a target=\"_blank\" href=\"http://en.wikipedia.org./wiki/Ewan_McGregor\">Ewan McGregor</a>"},{"pageviews":"1109. <a target=\"_blank\" href=\"http://en.wikipedia.org./wiki/DNA\">DNA</a>"},{"pageviews":"1110. <a target=\"_blank\" href=\"http://en.wikipedia.org./wiki/Robert_Mueller\">Robert Mueller</a>"},{"pageviews":"1111. <a target=\"_blank\" href=\"http://en.wikipedia.org./wiki/Cleopatra\">Cleopatra</a>"},{"pageviews":"1112. <a target=\"_blank\" href=\"http://en.wikipedia.org./wiki/Gwen_Stefani\">Gwen Stefani</a>"},{"pageviews":"1113. <a target=\"_blank\" href=\"http://en.wikipedia.org./wiki/James_McAvoy\">James McAvoy</a>"},{"pageviews":"1114. <a target=\"_blank\" href=\"http://en.wikipedia.org./wiki/Ashton_Kutcher\">Ashton Kutcher</a>"},{"pageviews":"1115. <a target=\"_blank\" href=\"http://en.wikipedia.org./wiki/Avril_Lavigne\">Avril Lavigne</a>"},{"pageviews":"1116. <a target=\"_blank\" href=\"http://en.wikipedia.org./wiki/Coldplay\">Coldplay</a>"},{"pageviews":"1117. <a target=\"_blank\" href=\"http://en.wikipedia.org./wiki/Rosa_Parks\">Rosa Parks</a>"},{"pageviews":"1118. <a target=\"_blank\" href=\"http://en.wikipedia.org./wiki/Luke_Evans_(actor)\">Luke Evans (actor)</a>"},{"pageviews":"1119. <a target=\"_blank\" href=\"http://en.wikipedia.org./wiki/Female_genital_mutilation\">Female genital mutilation</a>"},{"pageviews":"1120. <a target=\"_blank\" href=\"http://en.wikipedia.org./wiki/War_in_Afghanistan_(2001%E2%80%93present)\">War in Afghanistan (2001–present)</a>"},{"pageviews":"1121. <a target=\"_blank\" href=\"http://en.wikipedia.org./wiki/Rose_Leslie\">Rose Leslie</a>"},{"pageviews":"1122. <a target=\"_blank\" href=\"http://en.wikipedia.org./wiki/Andrew_Garfield\">Andrew Garfield</a>"},{"pageviews":"1123. <a target=\"_blank\" href=\"http://en.wikipedia.org./wiki/Blake_Lively\">Blake Lively</a>"},{"pageviews":"1124. <a target=\"_blank\" href=\"http://en.wikipedia.org./wiki/Halsey_(singer)\">Halsey (singer)</a>"},{"pageviews":"1125. <a target=\"_blank\" href=\"http://en.wikipedia.org./wiki/The_Originals_(TV_series)\">The Originals (TV series)</a>"},{"pageviews":"1126. <a target=\"_blank\" href=\"http://en.wikipedia.org./wiki/Mumbai\">Mumbai</a>"},{"pageviews":"1127. <a target=\"_blank\" href=\"http://en.wikipedia.org./wiki/Cate_Blanchett\">Cate Blanchett</a>"},{"pageviews":"1128. <a target=\"_blank\" href=\"http://en.wikipedia.org./wiki/Justin_Timberlake\">Justin Timberlake</a>"},{"pageviews":"1129. <a target=\"_blank\" href=\"http://en.wikipedia.org./wiki/SWOT_analysis\">SWOT analysis</a>"},{"pageviews":"1130. <a target=\"_blank\" href=\"http://en.wikipedia.org./wiki/Ice_Cube\">Ice Cube</a>"},{"pageviews":"1131. <a target=\"_blank\" href=\"http://en.wikipedia.org./wiki/Twice_(band)\">Twice (band)</a>"},{"pageviews":"1132. <a target=\"_blank\" href=\"http://en.wikipedia.org./wiki/Fleetwood_Mac\">Fleetwood Mac</a>"},{"pageviews":"1133. <a target=\"_blank\" href=\"http://en.wikipedia.org./wiki/Cuba\">Cuba</a>"},{"pageviews":"1134. <a target=\"_blank\" href=\"http://en.wikipedia.org./wiki/Marie_Curie\">Marie Curie</a>"},{"pageviews":"1135. <a target=\"_blank\" href=\"http://en.wikipedia.org./wiki/Joaqu%C3%ADn_%22El_Chapo%22_Guzm%C3%A1n\">Joaquín \"El Chapo\" Guzmán</a>"},{"pageviews":"1136. <a target=\"_blank\" href=\"http://en.wikipedia.org./wiki/Reese_Witherspoon\">Reese Witherspoon</a>"},{"pageviews":"1137. <a target=\"_blank\" href=\"http://en.wikipedia.org./wiki/Solar_eclipse\">Solar eclipse</a>"},{"pageviews":"1138. <a target=\"_blank\" href=\"http://en.wikipedia.org./wiki/FIFA_World_Cup\">FIFA World Cup</a>"},{"pageviews":"1139. <a target=\"_blank\" href=\"http://en.wikipedia.org./wiki/Africa\">Africa</a>"},{"pageviews":"1140. <a target=\"_blank\" href=\"http://en.wikipedia.org./wiki/Cambodia\">Cambodia</a>"},{"pageviews":"1141. <a target=\"_blank\" href=\"http://en.wikipedia.org./wiki/Chris_Pine\">Chris Pine</a>"},{"pageviews":"1142. <a target=\"_blank\" href=\"http://en.wikipedia.org./wiki/Armenia\">Armenia</a>"},{"pageviews":"1143. <a target=\"_blank\" href=\"http://en.wikipedia.org./wiki/Saturday_Night_Live\">Saturday Night Live</a>"},{"pageviews":"1144. <a target=\"_blank\" href=\"http://en.wikipedia.org./wiki/Toronto\">Toronto</a>"},{"pageviews":"1145. <a target=\"_blank\" href=\"http://en.wikipedia.org./wiki/List_of_Modern_Family_episodes\">List of Modern Family episodes</a>"},{"pageviews":"1146. <a target=\"_blank\" href=\"http://en.wikipedia.org./wiki/Marlon_Brando\">Marlon Brando</a>"},{"pageviews":"1147. <a target=\"_blank\" href=\"http://en.wikipedia.org./wiki/Windows_10_version_history\">Windows 10 version history</a>"},{"pageviews":"1148. <a target=\"_blank\" href=\"http://en.wikipedia.org./wiki/Malala_Yousafzai\">Malala Yousafzai</a>"},{"pageviews":"1149. <a target=\"_blank\" href=\"http://en.wikipedia.org./wiki/PeerTracker\">PeerTracker</a>"},{"pageviews":"1150. <a target=\"_blank\" href=\"http://en.wikipedia.org./wiki/Christmas\">Christmas</a>"},{"pageviews":"1151. <a target=\"_blank\" href=\"http://en.wikipedia.org./wiki/The_Good_Place\">The Good Place</a>"},{"pageviews":"1152. <a target=\"_blank\" href=\"http://en.wikipedia.org./wiki/Chris_Hemsworth\">Chris Hemsworth</a>"},{"pageviews":"1153. <a target=\"_blank\" href=\"http://en.wikipedia.org./wiki/Patrick_Stewart\">Patrick Stewart</a>"},{"pageviews":"1154. <a target=\"_blank\" href=\"http://en.wikipedia.org./wiki/List_of_pornographic_actresses_by_decade\">List of pornographic actresses by decade</a>"},{"pageviews":"1155. <a target=\"_blank\" href=\"http://en.wikipedia.org./wiki/Sigmund_Freud\">Sigmund Freud</a>"},{"pageviews":"1156. <a target=\"_blank\" href=\"http://en.wikipedia.org./wiki/Vikings\">Vikings</a>"},{"pageviews":"1157. <a target=\"_blank\" href=\"http://en.wikipedia.org./wiki/Serbia\">Serbia</a>"},{"pageviews":"1158. <a target=\"_blank\" href=\"http://en.wikipedia.org./wiki/Little_Mix\">Little Mix</a>"},{"pageviews":"1159. <a target=\"_blank\" href=\"http://en.wikipedia.org./wiki/Boeing_777\">Boeing 777</a>"},{"pageviews":"1160. <a target=\"_blank\" href=\"http://en.wikipedia.org./wiki/Bhutan\">Bhutan</a>"},{"pageviews":"1161. <a target=\"_blank\" href=\"http://en.wikipedia.org./wiki/Sandy_Hook_Elementary_School_shooting\">Sandy Hook Elementary School shooting</a>"},{"pageviews":"1162. <a target=\"_blank\" href=\"http://en.wikipedia.org./wiki/Artificial_neural_network\">Artificial neural network</a>"},{"pageviews":"1163. <a target=\"_blank\" href=\"http://en.wikipedia.org./wiki/Mark_Cuban\">Mark Cuban</a>"},{"pageviews":"1164. <a target=\"_blank\" href=\"http://en.wikipedia.org./wiki/Ethiopia\">Ethiopia</a>"},{"pageviews":"1165. <a target=\"_blank\" href=\"http://en.wikipedia.org./wiki/Joan_Crawford\">Joan Crawford</a>"},{"pageviews":"1166. <a target=\"_blank\" href=\"http://en.wikipedia.org./wiki/Chris_Evans_(actor)\">Chris Evans (actor)</a>"},{"pageviews":"1167. <a target=\"_blank\" href=\"http://en.wikipedia.org./wiki/Nepal\">Nepal</a>"},{"pageviews":"1168. <a target=\"_blank\" href=\"http://en.wikipedia.org./wiki/Exo_(band)\">Exo (band)</a>"},{"pageviews":"1169. <a target=\"_blank\" href=\"http://en.wikipedia.org./wiki/Anne%2C_Princess_Royal\">Anne, Princess Royal</a>"},{"pageviews":"1170. <a target=\"_blank\" href=\"http://en.wikipedia.org./wiki/United_States_Senate\">United States Senate</a>"},{"pageviews":"1171. <a target=\"_blank\" href=\"http://en.wikipedia.org./wiki/Narendra_Modi\">Narendra Modi</a>"},{"pageviews":"1172. <a target=\"_blank\" href=\"http://en.wikipedia.org./wiki/Isaiah_Thomas_(basketball)\">Isaiah Thomas (basketball)</a>"},{"pageviews":"1173. <a target=\"_blank\" href=\"http://en.wikipedia.org./wiki/Wayne_Rooney\">Wayne Rooney</a>"},{"pageviews":"1174. <a target=\"_blank\" href=\"http://en.wikipedia.org./wiki/Grenfell_Tower_fire\">Grenfell Tower fire</a>"},{"pageviews":"1175. <a target=\"_blank\" href=\"http://en.wikipedia.org./wiki/Supreme_Court_of_the_United_States\">Supreme Court of the United States</a>"},{"pageviews":"1176. <a target=\"_blank\" href=\"http://en.wikipedia.org./wiki/Republic_of_Ireland\">Republic of Ireland</a>"},{"pageviews":"1177. <a target=\"_blank\" href=\"http://en.wikipedia.org./wiki/Hungary\">Hungary</a>"},{"pageviews":"1178. <a target=\"_blank\" href=\"http://en.wikipedia.org./wiki/The_Boss_Baby\">The Boss Baby</a>"},{"pageviews":"1179. <a target=\"_blank\" href=\"http://en.wikipedia.org./wiki/John_Hurt\">John Hurt</a>"},{"pageviews":"1180. <a target=\"_blank\" href=\"http://en.wikipedia.org./wiki/The_Voice_(U.S._TV_series)\">The Voice (U.S. TV series)</a>"},{"pageviews":"1181. <a target=\"_blank\" href=\"http://en.wikipedia.org./wiki/Spider-Man\">Spider-Man</a>"},{"pageviews":"1182. <a target=\"_blank\" href=\"http://en.wikipedia.org./wiki/Aubrey_Plaza\">Aubrey Plaza</a>"},{"pageviews":"1183. <a target=\"_blank\" href=\"http://en.wikipedia.org./wiki/Dev_Patel\">Dev Patel</a>"},{"pageviews":"1184. <a target=\"_blank\" href=\"http://en.wikipedia.org./wiki/Daredevil_(TV_series)\">Daredevil (TV series)</a>"},{"pageviews":"1185. <a target=\"_blank\" href=\"http://en.wikipedia.org./wiki/Confederate_States_of_America\">Confederate States of America</a>"},{"pageviews":"1186. <a target=\"_blank\" href=\"http://en.wikipedia.org./wiki/Death_Note\">Death Note</a>"},{"pageviews":"1187. <a target=\"_blank\" href=\"http://en.wikipedia.org./wiki/Deferred_Action_for_Childhood_Arrivals\">Deferred Action for Childhood Arrivals</a>"},{"pageviews":"1188. <a target=\"_blank\" href=\"http://en.wikipedia.org./wiki/Samurai_Jack\">Samurai Jack</a>"},{"pageviews":"1189. <a target=\"_blank\" href=\"http://en.wikipedia.org./wiki/Anna_Kendrick\">Anna Kendrick</a>"},{"pageviews":"1190. <a target=\"_blank\" href=\"http://en.wikipedia.org./wiki/Cali_Cartel\">Cali Cartel</a>"},{"pageviews":"1191. <a target=\"_blank\" href=\"http://en.wikipedia.org./wiki/International_Phonetic_Alphabet\">International Phonetic Alphabet</a>"},{"pageviews":"1192. <a target=\"_blank\" href=\"http://en.wikipedia.org./wiki/Olivia_Munn\">Olivia Munn</a>"},{"pageviews":"1193. <a target=\"_blank\" href=\"http://en.wikipedia.org./wiki/Human_Development_Index\">Human Development Index</a>"},{"pageviews":"1194. <a target=\"_blank\" href=\"http://en.wikipedia.org./wiki/East_India_Company\">East India Company</a>"},{"pageviews":"1195. <a target=\"_blank\" href=\"http://en.wikipedia.org./wiki/The_New_York_Times\">The New York Times</a>"},{"pageviews":"1196. <a target=\"_blank\" href=\"http://en.wikipedia.org./wiki/Federal_Bureau_of_Investigation\">Federal Bureau of Investigation</a>"},{"pageviews":"1197. <a target=\"_blank\" href=\"http://en.wikipedia.org./wiki/Studio_Ghibli\">Studio Ghibli</a>"},{"pageviews":"1198. <a target=\"_blank\" href=\"http://en.wikipedia.org./wiki/Rohingya_people\">Rohingya people</a>"},{"pageviews":"1199. <a target=\"_blank\" href=\"http://en.wikipedia.org./wiki/Kylian_Mbapp%C3%A9\">Kylian Mbappé</a>"}],"list":"1100. A. P. J. Abdul Kalam  \u2014  http:\/\/en.wikipedia.org.\/wiki\/A._P._J._Abdul_Kalam\n1101. The Matrix  \u2014  http:\/\/en.wikipedia.org.\/wiki\/The_Matrix\n1102. List of amendments to the United States Constitution  \u2014  http:\/\/en.wikipedia.org.\/wiki\/List_of_amendments_to_the_United_States_Constitution\n1103. Matthew McConaughey  \u2014  http:\/\/en.wikipedia.org.\/wiki\/Matthew_McConaughey\n1104. Zendaya  \u2014  http:\/\/en.wikipedia.org.\/wiki\/Zendaya\n1105. Jason Statham  \u2014  http:\/\/en.wikipedia.org.\/wiki\/Jason_Statham\n1106. List of James Bond films  \u2014  http:\/\/en.wikipedia.org.\/wiki\/List_of_James_Bond_films\n1107. Kyrie Irving  \u2014  http:\/\/en.wikipedia.org.\/wiki\/Kyrie_Irving\n1108. Ewan McGregor  \u2014  http:\/\/en.wikipedia.org.\/wiki\/Ewan_McGregor\n1109. DNA  \u2014  http:\/\/en.wikipedia.org.\/wiki\/DNA\n1110. Robert Mueller  \u2014  http:\/\/en.wikipedia.org.\/wiki\/Robert_Mueller\n1111. Cleopatra  \u2014  http:\/\/en.wikipedia.org.\/wiki\/Cleopatra\n1112. Gwen Stefani  \u2014  http:\/\/en.wikipedia.org.\/wiki\/Gwen_Stefani\n1113. James McAvoy  \u2014  http:\/\/en.wikipedia.org.\/wiki\/James_McAvoy\n1114. Ashton Kutcher  \u2014  http:\/\/en.wikipedia.org.\/wiki\/Ashton_Kutcher\n1115. Avril Lavigne  \u2014  http:\/\/en.wikipedia.org.\/wiki\/Avril_Lavigne\n1116. Coldplay  \u2014  http:\/\/en.wikipedia.org.\/wiki\/Coldplay\n1117. Rosa Parks  \u2014  http:\/\/en.wikipedia.org.\/wiki\/Rosa_Parks\n1118. Luke Evans (actor)  \u2014  http:\/\/en.wikipedia.org.\/wiki\/Luke_Evans_(actor)\n1119. Female genital mutilation  \u2014  http:\/\/en.wikipedia.org.\/wiki\/Female_genital_mutilation\n1120. War in Afghanistan (2001\u2013present)  \u2014  http:\/\/en.wikipedia.org.\/wiki\/War_in_Afghanistan_(2001%E2%80%93present)\n1121. Rose Leslie  \u2014  http:\/\/en.wikipedia.org.\/wiki\/Rose_Leslie\n1122. Andrew Garfield  \u2014  http:\/\/en.wikipedia.org.\/wiki\/Andrew_Garfield\n1123. Blake Lively  \u2014  http:\/\/en.wikipedia.org.\/wiki\/Blake_Lively\n1124. Halsey (singer)  \u2014  http:\/\/en.wikipedia.org.\/wiki\/Halsey_(singer)\n1125. The Originals (TV series)  \u2014  http:\/\/en.wikipedia.org.\/wiki\/The_Originals_(TV_series)\n1126. Mumbai  \u2014  http:\/\/en.wikipedia.org.\/wiki\/Mumbai\n1127. Cate Blanchett  \u2014  http:\/\/en.wikipedia.org.\/wiki\/Cate_Blanchett\n1128. Justin Timberlake  \u2014  http:\/\/en.wikipedia.org.\/wiki\/Justin_Timberlake\n1129. SWOT analysis  \u2014  http:\/\/en.wikipedia.org.\/wiki\/SWOT_analysis\n1130. Ice Cube  \u2014  http:\/\/en.wikipedia.org.\/wiki\/Ice_Cube\n1131. Twice (band)  \u2014  http:\/\/en.wikipedia.org.\/wiki\/Twice_(band)\n1132. Fleetwood Mac  \u2014  http:\/\/en.wikipedia.org.\/wiki\/Fleetwood_Mac\n1133. Cuba  \u2014  http:\/\/en.wikipedia.org.\/wiki\/Cuba\n1134. Marie Curie  \u2014  http:\/\/en.wikipedia.org.\/wiki\/Marie_Curie\n1135. Joaqu\u00EDn \"El Chapo\" Guzm\u00E1n  \u2014  http:\/\/en.wikipedia.org.\/wiki\/Joaqu%C3%ADn_%22El_Chapo%22_Guzm%C3%A1n\n1136. Reese Witherspoon  \u2014  http:\/\/en.wikipedia.org.\/wiki\/Reese_Witherspoon\n1137. Solar eclipse  \u2014  http:\/\/en.wikipedia.org.\/wiki\/Solar_eclipse\n1138. FIFA World Cup  \u2014  http:\/\/en.wikipedia.org.\/wiki\/FIFA_World_Cup\n1139. Africa  \u2014  http:\/\/en.wikipedia.org.\/wiki\/Africa\n1140. Cambodia  \u2014  http:\/\/en.wikipedia.org.\/wiki\/Cambodia\n1141. Chris Pine  \u2014  http:\/\/en.wikipedia.org.\/wiki\/Chris_Pine\n1142. Armenia  \u2014  http:\/\/en.wikipedia.org.\/wiki\/Armenia\n1143. Saturday Night Live  \u2014  http:\/\/en.wikipedia.org.\/wiki\/Saturday_Night_Live\n1144. Toronto  \u2014  http:\/\/en.wikipedia.org.\/wiki\/Toronto\n1145. List of Modern Family episodes  \u2014  http:\/\/en.wikipedia.org.\/wiki\/List_of_Modern_Family_episodes\n1146. Marlon Brando  \u2014  http:\/\/en.wikipedia.org.\/wiki\/Marlon_Brando\n1147. Windows 10 version history  \u2014  http:\/\/en.wikipedia.org.\/wiki\/Windows_10_version_history\n1148. Malala Yousafzai  \u2014  http:\/\/en.wikipedia.org.\/wiki\/Malala_Yousafzai\n1149. PeerTracker  \u2014  http:\/\/en.wikipedia.org.\/wiki\/PeerTracker\n1150. Christmas  \u2014  http:\/\/en.wikipedia.org.\/wiki\/Christmas\n1151. The Good Place  \u2014  http:\/\/en.wikipedia.org.\/wiki\/The_Good_Place\n1152. Chris Hemsworth  \u2014  http:\/\/en.wikipedia.org.\/wiki\/Chris_Hemsworth\n1153. Patrick Stewart  \u2014  http:\/\/en.wikipedia.org.\/wiki\/Patrick_Stewart\n1154. List of pornographic actresses by decade  \u2014  http:\/\/en.wikipedia.org.\/wiki\/List_of_pornographic_actresses_by_decade\n1155. Sigmund Freud  \u2014  http:\/\/en.wikipedia.org.\/wiki\/Sigmund_Freud\n1156. Vikings  \u2014  http:\/\/en.wikipedia.org.\/wiki\/Vikings\n1157. Serbia  \u2014  http:\/\/en.wikipedia.org.\/wiki\/Serbia\n1158. Little Mix  \u2014  http:\/\/en.wikipedia.org.\/wiki\/Little_Mix\n1159. Boeing 777  \u2014  http:\/\/en.wikipedia.org.\/wiki\/Boeing_777\n1160. Bhutan  \u2014  http:\/\/en.wikipedia.org.\/wiki\/Bhutan\n1161. Sandy Hook Elementary School shooting  \u2014  http:\/\/en.wikipedia.org.\/wiki\/Sandy_Hook_Elementary_School_shooting\n1162. Artificial neural network  \u2014  http:\/\/en.wikipedia.org.\/wiki\/Artificial_neural_network\n1163. Mark Cuban  \u2014  http:\/\/en.wikipedia.org.\/wiki\/Mark_Cuban\n1164. Ethiopia  \u2014  http:\/\/en.wikipedia.org.\/wiki\/Ethiopia\n1165. Joan Crawford  \u2014  http:\/\/en.wikipedia.org.\/wiki\/Joan_Crawford\n1166. Chris Evans (actor)  \u2014  http:\/\/en.wikipedia.org.\/wiki\/Chris_Evans_(actor)\n1167. Nepal  \u2014  http:\/\/en.wikipedia.org.\/wiki\/Nepal\n1168. Exo (band)  \u2014  http:\/\/en.wikipedia.org.\/wiki\/Exo_(band)\n1169. Anne, Princess Royal  \u2014  http:\/\/en.wikipedia.org.\/wiki\/Anne%2C_Princess_Royal\n1170. United States Senate  \u2014  http:\/\/en.wikipedia.org.\/wiki\/United_States_Senate\n1171. Narendra Modi  \u2014  http:\/\/en.wikipedia.org.\/wiki\/Narendra_Modi\n1172. Isaiah Thomas (basketball)  \u2014  http:\/\/en.wikipedia.org.\/wiki\/Isaiah_Thomas_(basketball)\n1173. Wayne Rooney  \u2014  http:\/\/en.wikipedia.org.\/wiki\/Wayne_Rooney\n1174. Grenfell Tower fire  \u2014  http:\/\/en.wikipedia.org.\/wiki\/Grenfell_Tower_fire\n1175. Supreme Court of the United States  \u2014  http:\/\/en.wikipedia.org.\/wiki\/Supreme_Court_of_the_United_States\n1176. Republic of Ireland  \u2014  http:\/\/en.wikipedia.org.\/wiki\/Republic_of_Ireland\n1177. Hungary  \u2014  http:\/\/en.wikipedia.org.\/wiki\/Hungary\n1178. The Boss Baby  \u2014  http:\/\/en.wikipedia.org.\/wiki\/The_Boss_Baby\n1179. John Hurt  \u2014  http:\/\/en.wikipedia.org.\/wiki\/John_Hurt\n1180. The Voice (U.S. TV series)  \u2014  http:\/\/en.wikipedia.org.\/wiki\/The_Voice_(U.S._TV_series)\n1181. Spider-Man  \u2014  http:\/\/en.wikipedia.org.\/wiki\/Spider-Man\n1182. Aubrey Plaza  \u2014  http:\/\/en.wikipedia.org.\/wiki\/Aubrey_Plaza\n1183. Dev Patel  \u2014  http:\/\/en.wikipedia.org.\/wiki\/Dev_Patel\n1184. Daredevil (TV series)  \u2014  http:\/\/en.wikipedia.org.\/wiki\/Daredevil_(TV_series)\n1185. Confederate States of America  \u2014  http:\/\/en.wikipedia.org.\/wiki\/Confederate_States_of_America\n1186. Death Note  \u2014  http:\/\/en.wikipedia.org.\/wiki\/Death_Note\n1187. Deferred Action for Childhood Arrivals  \u2014  http:\/\/en.wikipedia.org.\/wiki\/Deferred_Action_for_Childhood_Arrivals\n1188. Samurai Jack  \u2014  http:\/\/en.wikipedia.org.\/wiki\/Samurai_Jack\n1189. Anna Kendrick  \u2014  http:\/\/en.wikipedia.org.\/wiki\/Anna_Kendrick\n1190. Cali Cartel  \u2014  http:\/\/en.wikipedia.org.\/wiki\/Cali_Cartel\n1191. International Phonetic Alphabet  \u2014  http:\/\/en.wikipedia.org.\/wiki\/International_Phonetic_Alphabet\n1192. Olivia Munn  \u2014  http:\/\/en.wikipedia.org.\/wiki\/Olivia_Munn\n1193. Human Development Index  \u2014  http:\/\/en.wikipedia.org.\/wiki\/Human_Development_Index\n1194. East India Company  \u2014  http:\/\/en.wikipedia.org.\/wiki\/East_India_Company\n1195. The New York Times  \u2014  http:\/\/en.wikipedia.org.\/wiki\/The_New_York_Times\n1196. Federal Bureau of Investigation  \u2014  http:\/\/en.wikipedia.org.\/wiki\/Federal_Bureau_of_Investigation\n1197. Studio Ghibli  \u2014  http:\/\/en.wikipedia.org.\/wiki\/Studio_Ghibli\n1198. Rohingya people  \u2014  http:\/\/en.wikipedia.org.\/wiki\/Rohingya_people\n1199. Kylian Mbapp\u00E9  \u2014  http:\/\/en.wikipedia.org.\/wiki\/Kylian_Mbapp%C3%A9\n","miniList":"1100. A. P. J. Abdul Kalam\n1101. The Matrix\n1102. List of amendments to the United States Constitution\n1103. Matthew McConaughey\n1104. Zendaya\n1105. Jason Statham\n1106. List of James Bond films\n1107. Kyrie Irving\n1108. Ewan McGregor\n1109. DNA\n1110. Robert Mueller\n1111. Cleopatra\n1112. Gwen Stefani\n1113. James McAvoy\n1114. Ashton Kutcher\n1115. Avril Lavigne\n1116. Coldplay\n1117. Rosa Parks\n1118. Luke Evans (actor)\n1119. Female genital mutilation\n1120. War in Afghanistan (2001\u2013present)\n1121. Rose Leslie\n1122. Andrew Garfield\n1123. Blake Lively\n1124. Halsey (singer)\n1125. The Originals (TV series)\n1126. Mumbai\n1127. Cate Blanchett\n1128. Justin Timberlake\n1129. SWOT analysis\n1130. Ice Cube\n1131. Twice (band)\n1132. Fleetwood Mac\n1133. Cuba\n1134. Marie Curie\n1135. Joaqu\u00EDn \"El Chapo\" Guzm\u00E1n\n1136. Reese Witherspoon\n1137. Solar eclipse\n1138. FIFA World Cup\n1139. Africa\n1140. Cambodia\n1141. Chris Pine\n1142. Armenia\n1143. Saturday Night Live\n1144. Toronto\n1145. List of Modern Family episodes\n1146. Marlon Brando\n1147. Windows 10 version history\n1148. Malala Yousafzai\n1149. PeerTracker\n1150. Christmas\n1151. The Good Place\n1152. Chris Hemsworth\n1153. Patrick Stewart\n1154. List of pornographic actresses by decade\n1155. Sigmund Freud\n1156. Vikings\n1157. Serbia\n1158. Little Mix\n1159. Boeing 777\n1160. Bhutan\n1161. Sandy Hook Elementary School shooting\n1162. Artificial neural network\n1163. Mark Cuban\n1164. Ethiopia\n1165. Joan Crawford\n1166. Chris Evans (actor)\n1167. Nepal\n1168. Exo (band)\n1169. Anne, Princess Royal\n1170. United States Senate\n1171. Narendra Modi\n1172. Isaiah Thomas (basketball)\n1173. Wayne Rooney\n1174. Grenfell Tower fire\n1175. Supreme Court of the United States\n1176. Republic of Ireland\n1177. Hungary\n1178. The Boss Baby\n1179. John Hurt\n1180. The Voice (U.S. TV series)\n1181. Spider-Man\n1182. Aubrey Plaza\n1183. Dev Patel\n1184. Daredevil (TV series)\n1185. Confederate States of America\n1186. Death Note\n1187. Deferred Action for Childhood Arrivals\n1188. Samurai Jack\n1189. Anna Kendrick\n1190. Cali Cartel\n1191. International Phonetic Alphabet\n1192. Olivia Munn\n1193. Human Development Index\n1194. East India Company\n1195. The New York Times\n1196. Federal Bureau of Investigation\n1197. Studio Ghibli\n1198. Rohingya people\n1199. Kylian Mbapp\u00E9\n"}
