{"start":1201,"end":1300,"count":5616717,"type":"pageviews","pageSize":100,"page":12,"pages":56168,"columns":[{"label":"","property":"pageviews","sortable":false}],"items":[{"pageviews":"1200. <a target=\"_blank\" href=\"http://en.wikipedia.org./wiki/Albania\">Albania</a>"},{"pageviews":"1201. <a target=\"_blank\" href=\"http://en.wikipedia.org./wiki/Credit_score\">Credit score</a>"},{"pageviews":"1202. <a target=\"_blank\" href=\"http://en.wikipedia.org./wiki/Animal\">Animal</a>"},{"pageviews":"1203. <a target=\"_blank\" href=\"http://en.wikipedia.org./wiki/Adam_Driver\">Adam Driver</a>"},{"pageviews":"1204. <a target=\"_blank\" href=\"http://en.wikipedia.org./wiki/Grand_Theft_Auto_V\">Grand Theft Auto V</a>"},{"pageviews":"1205. <a target=\"_blank\" href=\"http://en.wikipedia.org./wiki/Ocean's_8\">Ocean's 8</a>"},{"pageviews":"1206. <a target=\"_blank\" href=\"http://en.wikipedia.org./wiki/Autonomous_communities_of_Spain\">Autonomous communities of Spain</a>"},{"pageviews":"1207. <a target=\"_blank\" href=\"http://en.wikipedia.org./wiki/Emily_Blunt\">Emily Blunt</a>"},{"pageviews":"1208. <a target=\"_blank\" href=\"http://en.wikipedia.org./wiki/Jon_Jones\">Jon Jones</a>"},{"pageviews":"1209. <a target=\"_blank\" href=\"http://en.wikipedia.org./wiki/Sophie_Turner\">Sophie Turner</a>"},{"pageviews":"1210. <a target=\"_blank\" href=\"http://en.wikipedia.org./wiki/Sci-Hub\">Sci-Hub</a>"},{"pageviews":"1211. <a target=\"_blank\" href=\"http://en.wikipedia.org./wiki/The_Good_Doctor_(TV_series)\">The Good Doctor (TV series)</a>"},{"pageviews":"1212. <a target=\"_blank\" href=\"http://en.wikipedia.org./wiki/Calculator\">Calculator</a>"},{"pageviews":"1213. <a target=\"_blank\" href=\"http://en.wikipedia.org./wiki/Brown_bear\">Brown bear</a>"},{"pageviews":"1214. <a target=\"_blank\" href=\"http://en.wikipedia.org./wiki/Alex_Jones\">Alex Jones</a>"},{"pageviews":"1215. <a target=\"_blank\" href=\"http://en.wikipedia.org./wiki/Mars\">Mars</a>"},{"pageviews":"1216. <a target=\"_blank\" href=\"http://en.wikipedia.org./wiki/Regular_expression\">Regular expression</a>"},{"pageviews":"1217. <a target=\"_blank\" href=\"http://en.wikipedia.org./wiki/Alaska\">Alaska</a>"},{"pageviews":"1218. <a target=\"_blank\" href=\"http://en.wikipedia.org./wiki/C_(programming_language)\">C (programming language)</a>"},{"pageviews":"1219. <a target=\"_blank\" href=\"http://en.wikipedia.org./wiki/Estonia\">Estonia</a>"},{"pageviews":"1220. <a target=\"_blank\" href=\"http://en.wikipedia.org./wiki/Suits_(season_7)\">Suits (season 7)</a>"},{"pageviews":"1221. <a target=\"_blank\" href=\"http://en.wikipedia.org./wiki/List_of_NCIS_episodes\">List of NCIS episodes</a>"},{"pageviews":"1222. <a target=\"_blank\" href=\"http://en.wikipedia.org./wiki/Gigi_Hadid\">Gigi Hadid</a>"},{"pageviews":"1223. <a target=\"_blank\" href=\"http://en.wikipedia.org./wiki/Christianity\">Christianity</a>"},{"pageviews":"1224. <a target=\"_blank\" href=\"http://en.wikipedia.org./wiki/List_of_Mr._Robot_episodes\">List of Mr. Robot episodes</a>"},{"pageviews":"1225. <a target=\"_blank\" href=\"http://en.wikipedia.org./wiki/My_Hero_Academia\">My Hero Academia</a>"},{"pageviews":"1226. <a target=\"_blank\" href=\"http://en.wikipedia.org./wiki/Tokyo\">Tokyo</a>"},{"pageviews":"1227. <a target=\"_blank\" href=\"http://en.wikipedia.org./wiki/Peter_Dinklage\">Peter Dinklage</a>"},{"pageviews":"1228. <a target=\"_blank\" href=\"http://en.wikipedia.org./wiki/PlayerUnknown's_Battlegrounds\">PlayerUnknown's Battlegrounds</a>"},{"pageviews":"1229. <a target=\"_blank\" href=\"http://en.wikipedia.org./wiki/List_of_people_who_disappeared_mysteriously\">List of people who disappeared mysteriously</a>"},{"pageviews":"1230. <a target=\"_blank\" href=\"http://en.wikipedia.org./wiki/Despicable_Me_3\">Despicable Me 3</a>"},{"pageviews":"1231. <a target=\"_blank\" href=\"http://en.wikipedia.org./wiki/Communism\">Communism</a>"},{"pageviews":"1232. <a target=\"_blank\" href=\"http://en.wikipedia.org./wiki/David_Lynch\">David Lynch</a>"},{"pageviews":"1233. <a target=\"_blank\" href=\"http://en.wikipedia.org./wiki/Day_of_the_Dead\">Day of the Dead</a>"},{"pageviews":"1234. <a target=\"_blank\" href=\"http://en.wikipedia.org./wiki/Richard_Wagner\">Richard Wagner</a>"},{"pageviews":"1235. <a target=\"_blank\" href=\"http://en.wikipedia.org./wiki/Rooney_Mara\">Rooney Mara</a>"},{"pageviews":"1236. <a target=\"_blank\" href=\"http://en.wikipedia.org./wiki/Jamaica\">Jamaica</a>"},{"pageviews":"1237. <a target=\"_blank\" href=\"http://en.wikipedia.org./wiki/Padmaavat\">Padmaavat</a>"},{"pageviews":"1238. <a target=\"_blank\" href=\"http://en.wikipedia.org./wiki/North_America\">North America</a>"},{"pageviews":"1239. <a target=\"_blank\" href=\"http://en.wikipedia.org./wiki/American_Made_(film)\">American Made (film)</a>"},{"pageviews":"1240. <a target=\"_blank\" href=\"http://en.wikipedia.org./wiki/Middle_Ages\">Middle Ages</a>"},{"pageviews":"1241. <a target=\"_blank\" href=\"http://en.wikipedia.org./wiki/Mary_I_of_England\">Mary I of England</a>"},{"pageviews":"1242. <a target=\"_blank\" href=\"http://en.wikipedia.org./wiki/Richard_Branson\">Richard Branson</a>"},{"pageviews":"1243. <a target=\"_blank\" href=\"http://en.wikipedia.org./wiki/Great_Depression\">Great Depression</a>"},{"pageviews":"1244. <a target=\"_blank\" href=\"http://en.wikipedia.org./wiki/Bermuda_Triangle\">Bermuda Triangle</a>"},{"pageviews":"1245. <a target=\"_blank\" href=\"http://en.wikipedia.org./wiki/Guns_N'_Roses\">Guns N' Roses</a>"},{"pageviews":"1246. <a target=\"_blank\" href=\"http://en.wikipedia.org./wiki/Scrum_(software_development)\">Scrum (software development)</a>"},{"pageviews":"1247. <a target=\"_blank\" href=\"http://en.wikipedia.org./wiki/James_Cameron\">James Cameron</a>"},{"pageviews":"1248. <a target=\"_blank\" href=\"http://en.wikipedia.org./wiki/Democratic_Party_(United_States)\">Democratic Party (United States)</a>"},{"pageviews":"1249. <a target=\"_blank\" href=\"http://en.wikipedia.org./wiki/Antifa_(United_States)\">Antifa (United States)</a>"},{"pageviews":"1250. <a target=\"_blank\" href=\"http://en.wikipedia.org./wiki/2018_in_film\">2018 in film</a>"},{"pageviews":"1251. <a target=\"_blank\" href=\"http://en.wikipedia.org./wiki/Novak_Djokovic\">Novak Djokovic</a>"},{"pageviews":"1252. <a target=\"_blank\" href=\"http://en.wikipedia.org./wiki/HDMI\">HDMI</a>"},{"pageviews":"1253. <a target=\"_blank\" href=\"http://en.wikipedia.org./wiki/Charlemagne\">Charlemagne</a>"},{"pageviews":"1254. <a target=\"_blank\" href=\"http://en.wikipedia.org./wiki/Mark_Hamill\">Mark Hamill</a>"},{"pageviews":"1255. <a target=\"_blank\" href=\"http://en.wikipedia.org./wiki/Alien_(franchise)\">Alien (franchise)</a>"},{"pageviews":"1256. <a target=\"_blank\" href=\"http://en.wikipedia.org./wiki/Kurt_Russell\">Kurt Russell</a>"},{"pageviews":"1257. <a target=\"_blank\" href=\"http://en.wikipedia.org./wiki/Weekly_Idol\">Weekly Idol</a>"},{"pageviews":"1258. <a target=\"_blank\" href=\"http://en.wikipedia.org./wiki/Tubelight_(film)\">Tubelight (film)</a>"},{"pageviews":"1259. <a target=\"_blank\" href=\"http://en.wikipedia.org./wiki/Berlin_Wall\">Berlin Wall</a>"},{"pageviews":"1260. <a target=\"_blank\" href=\"http://en.wikipedia.org./wiki/Adam_Sandler\">Adam Sandler</a>"},{"pageviews":"1261. <a target=\"_blank\" href=\"http://en.wikipedia.org./wiki/Teen_Wolf_(2011_TV_series)\">Teen Wolf (2011 TV series)</a>"},{"pageviews":"1262. <a target=\"_blank\" href=\"http://en.wikipedia.org./wiki/Age_of_Enlightenment\">Age of Enlightenment</a>"},{"pageviews":"1263. <a target=\"_blank\" href=\"http://en.wikipedia.org./wiki/Aluminium\">Aluminium</a>"},{"pageviews":"1264. <a target=\"_blank\" href=\"http://en.wikipedia.org./wiki/Berkshire_Hathaway\">Berkshire Hathaway</a>"},{"pageviews":"1265. <a target=\"_blank\" href=\"http://en.wikipedia.org./wiki/Kamala_Harris\">Kamala Harris</a>"},{"pageviews":"1266. <a target=\"_blank\" href=\"http://en.wikipedia.org./wiki/2017%E2%80%9318_Premier_League\">2017–18 Premier League</a>"},{"pageviews":"1267. <a target=\"_blank\" href=\"http://en.wikipedia.org./wiki/Augustus\">Augustus</a>"},{"pageviews":"1268. <a target=\"_blank\" href=\"http://en.wikipedia.org./wiki/Bulgaria\">Bulgaria</a>"},{"pageviews":"1269. <a target=\"_blank\" href=\"http://en.wikipedia.org./wiki/List_of_films_based_on_Marvel_Comics\">List of films based on Marvel Comics</a>"},{"pageviews":"1270. <a target=\"_blank\" href=\"http://en.wikipedia.org./wiki/The_Avengers_(2012_film)\">The Avengers (2012 film)</a>"},{"pageviews":"1271. <a target=\"_blank\" href=\"http://en.wikipedia.org./wiki/Daisy_Ridley\">Daisy Ridley</a>"},{"pageviews":"1272. <a target=\"_blank\" href=\"http://en.wikipedia.org./wiki/Democratic_Republic_of_the_Congo\">Democratic Republic of the Congo</a>"},{"pageviews":"1273. <a target=\"_blank\" href=\"http://en.wikipedia.org./wiki/2017_NBA_draft\">2017 NBA draft</a>"},{"pageviews":"1274. <a target=\"_blank\" href=\"http://en.wikipedia.org./wiki/MS_Dhoni\">MS Dhoni</a>"},{"pageviews":"1275. <a target=\"_blank\" href=\"http://en.wikipedia.org./wiki/Lockheed_Martin_F-22_Raptor\">Lockheed Martin F-22 Raptor</a>"},{"pageviews":"1276. <a target=\"_blank\" href=\"http://en.wikipedia.org./wiki/Michelle_Obama\">Michelle Obama</a>"},{"pageviews":"1277. <a target=\"_blank\" href=\"http://en.wikipedia.org./wiki/Belarus\">Belarus</a>"},{"pageviews":"1278. <a target=\"_blank\" href=\"http://en.wikipedia.org./wiki/Brock_Lesnar\">Brock Lesnar</a>"},{"pageviews":"1279. <a target=\"_blank\" href=\"http://en.wikipedia.org./wiki/List_of_Star_Wars_characters\">List of Star Wars characters</a>"},{"pageviews":"1280. <a target=\"_blank\" href=\"http://en.wikipedia.org./wiki/Jeremy_Corbyn\">Jeremy Corbyn</a>"},{"pageviews":"1281. <a target=\"_blank\" href=\"http://en.wikipedia.org./wiki/Area_51\">Area 51</a>"},{"pageviews":"1282. <a target=\"_blank\" href=\"http://en.wikipedia.org./wiki/Association_football\">Association football</a>"},{"pageviews":"1283. <a target=\"_blank\" href=\"http://en.wikipedia.org./wiki/Srinivasa_Ramanujan\">Srinivasa Ramanujan</a>"},{"pageviews":"1284. <a target=\"_blank\" href=\"http://en.wikipedia.org./wiki/Sean_Connery\">Sean Connery</a>"},{"pageviews":"1285. <a target=\"_blank\" href=\"http://en.wikipedia.org./wiki/Persona_5\">Persona 5</a>"},{"pageviews":"1286. <a target=\"_blank\" href=\"http://en.wikipedia.org./wiki/Scientology\">Scientology</a>"},{"pageviews":"1287. <a target=\"_blank\" href=\"http://en.wikipedia.org./wiki/Travis_Scott\">Travis Scott</a>"},{"pageviews":"1288. <a target=\"_blank\" href=\"http://en.wikipedia.org./wiki/Jerry_Lewis\">Jerry Lewis</a>"},{"pageviews":"1289. <a target=\"_blank\" href=\"http://en.wikipedia.org./wiki/Diwali\">Diwali</a>"},{"pageviews":"1290. <a target=\"_blank\" href=\"http://en.wikipedia.org./wiki/Incoterms\">Incoterms</a>"},{"pageviews":"1291. <a target=\"_blank\" href=\"http://en.wikipedia.org./wiki/Human\">Human</a>"},{"pageviews":"1292. <a target=\"_blank\" href=\"http://en.wikipedia.org./wiki/National_Football_League\">National Football League</a>"},{"pageviews":"1293. <a target=\"_blank\" href=\"http://en.wikipedia.org./wiki/American_football\">American football</a>"},{"pageviews":"1294. <a target=\"_blank\" href=\"http://en.wikipedia.org./wiki/Walmart\">Walmart</a>"},{"pageviews":"1295. <a target=\"_blank\" href=\"http://en.wikipedia.org./wiki/Boston\">Boston</a>"},{"pageviews":"1296. <a target=\"_blank\" href=\"http://en.wikipedia.org./wiki/Bella_Thorne\">Bella Thorne</a>"},{"pageviews":"1297. <a target=\"_blank\" href=\"http://en.wikipedia.org./wiki/Florida\">Florida</a>"},{"pageviews":"1298. <a target=\"_blank\" href=\"http://en.wikipedia.org./wiki/Fentanyl\">Fentanyl</a>"},{"pageviews":"1299. <a target=\"_blank\" href=\"http://en.wikipedia.org./wiki/Valentine's_Day\">Valentine's Day</a>"}],"list":"1200. Albania  \u2014  http:\/\/en.wikipedia.org.\/wiki\/Albania\n1201. Credit score  \u2014  http:\/\/en.wikipedia.org.\/wiki\/Credit_score\n1202. Animal  \u2014  http:\/\/en.wikipedia.org.\/wiki\/Animal\n1203. Adam Driver  \u2014  http:\/\/en.wikipedia.org.\/wiki\/Adam_Driver\n1204. Grand Theft Auto V  \u2014  http:\/\/en.wikipedia.org.\/wiki\/Grand_Theft_Auto_V\n1205. Ocean's 8  \u2014  http:\/\/en.wikipedia.org.\/wiki\/Ocean's_8\n1206. Autonomous communities of Spain  \u2014  http:\/\/en.wikipedia.org.\/wiki\/Autonomous_communities_of_Spain\n1207. Emily Blunt  \u2014  http:\/\/en.wikipedia.org.\/wiki\/Emily_Blunt\n1208. Jon Jones  \u2014  http:\/\/en.wikipedia.org.\/wiki\/Jon_Jones\n1209. Sophie Turner  \u2014  http:\/\/en.wikipedia.org.\/wiki\/Sophie_Turner\n1210. Sci-Hub  \u2014  http:\/\/en.wikipedia.org.\/wiki\/Sci-Hub\n1211. The Good Doctor (TV series)  \u2014  http:\/\/en.wikipedia.org.\/wiki\/The_Good_Doctor_(TV_series)\n1212. Calculator  \u2014  http:\/\/en.wikipedia.org.\/wiki\/Calculator\n1213. Brown bear  \u2014  http:\/\/en.wikipedia.org.\/wiki\/Brown_bear\n1214. Alex Jones  \u2014  http:\/\/en.wikipedia.org.\/wiki\/Alex_Jones\n1215. Mars  \u2014  http:\/\/en.wikipedia.org.\/wiki\/Mars\n1216. Regular expression  \u2014  http:\/\/en.wikipedia.org.\/wiki\/Regular_expression\n1217. Alaska  \u2014  http:\/\/en.wikipedia.org.\/wiki\/Alaska\n1218. C (programming language)  \u2014  http:\/\/en.wikipedia.org.\/wiki\/C_(programming_language)\n1219. Estonia  \u2014  http:\/\/en.wikipedia.org.\/wiki\/Estonia\n1220. Suits (season 7)  \u2014  http:\/\/en.wikipedia.org.\/wiki\/Suits_(season_7)\n1221. List of NCIS episodes  \u2014  http:\/\/en.wikipedia.org.\/wiki\/List_of_NCIS_episodes\n1222. Gigi Hadid  \u2014  http:\/\/en.wikipedia.org.\/wiki\/Gigi_Hadid\n1223. Christianity  \u2014  http:\/\/en.wikipedia.org.\/wiki\/Christianity\n1224. List of Mr. Robot episodes  \u2014  http:\/\/en.wikipedia.org.\/wiki\/List_of_Mr._Robot_episodes\n1225. My Hero Academia  \u2014  http:\/\/en.wikipedia.org.\/wiki\/My_Hero_Academia\n1226. Tokyo  \u2014  http:\/\/en.wikipedia.org.\/wiki\/Tokyo\n1227. Peter Dinklage  \u2014  http:\/\/en.wikipedia.org.\/wiki\/Peter_Dinklage\n1228. PlayerUnknown's Battlegrounds  \u2014  http:\/\/en.wikipedia.org.\/wiki\/PlayerUnknown's_Battlegrounds\n1229. List of people who disappeared mysteriously  \u2014  http:\/\/en.wikipedia.org.\/wiki\/List_of_people_who_disappeared_mysteriously\n1230. Despicable Me 3  \u2014  http:\/\/en.wikipedia.org.\/wiki\/Despicable_Me_3\n1231. Communism  \u2014  http:\/\/en.wikipedia.org.\/wiki\/Communism\n1232. David Lynch  \u2014  http:\/\/en.wikipedia.org.\/wiki\/David_Lynch\n1233. Day of the Dead  \u2014  http:\/\/en.wikipedia.org.\/wiki\/Day_of_the_Dead\n1234. Richard Wagner  \u2014  http:\/\/en.wikipedia.org.\/wiki\/Richard_Wagner\n1235. Rooney Mara  \u2014  http:\/\/en.wikipedia.org.\/wiki\/Rooney_Mara\n1236. Jamaica  \u2014  http:\/\/en.wikipedia.org.\/wiki\/Jamaica\n1237. Padmaavat  \u2014  http:\/\/en.wikipedia.org.\/wiki\/Padmaavat\n1238. North America  \u2014  http:\/\/en.wikipedia.org.\/wiki\/North_America\n1239. American Made (film)  \u2014  http:\/\/en.wikipedia.org.\/wiki\/American_Made_(film)\n1240. Middle Ages  \u2014  http:\/\/en.wikipedia.org.\/wiki\/Middle_Ages\n1241. Mary I of England  \u2014  http:\/\/en.wikipedia.org.\/wiki\/Mary_I_of_England\n1242. Richard Branson  \u2014  http:\/\/en.wikipedia.org.\/wiki\/Richard_Branson\n1243. Great Depression  \u2014  http:\/\/en.wikipedia.org.\/wiki\/Great_Depression\n1244. Bermuda Triangle  \u2014  http:\/\/en.wikipedia.org.\/wiki\/Bermuda_Triangle\n1245. Guns N' Roses  \u2014  http:\/\/en.wikipedia.org.\/wiki\/Guns_N'_Roses\n1246. Scrum (software development)  \u2014  http:\/\/en.wikipedia.org.\/wiki\/Scrum_(software_development)\n1247. James Cameron  \u2014  http:\/\/en.wikipedia.org.\/wiki\/James_Cameron\n1248. Democratic Party (United States)  \u2014  http:\/\/en.wikipedia.org.\/wiki\/Democratic_Party_(United_States)\n1249. Antifa (United States)  \u2014  http:\/\/en.wikipedia.org.\/wiki\/Antifa_(United_States)\n1250. 2018 in film  \u2014  http:\/\/en.wikipedia.org.\/wiki\/2018_in_film\n1251. Novak Djokovic  \u2014  http:\/\/en.wikipedia.org.\/wiki\/Novak_Djokovic\n1252. HDMI  \u2014  http:\/\/en.wikipedia.org.\/wiki\/HDMI\n1253. Charlemagne  \u2014  http:\/\/en.wikipedia.org.\/wiki\/Charlemagne\n1254. Mark Hamill  \u2014  http:\/\/en.wikipedia.org.\/wiki\/Mark_Hamill\n1255. Alien (franchise)  \u2014  http:\/\/en.wikipedia.org.\/wiki\/Alien_(franchise)\n1256. Kurt Russell  \u2014  http:\/\/en.wikipedia.org.\/wiki\/Kurt_Russell\n1257. Weekly Idol  \u2014  http:\/\/en.wikipedia.org.\/wiki\/Weekly_Idol\n1258. Tubelight (film)  \u2014  http:\/\/en.wikipedia.org.\/wiki\/Tubelight_(film)\n1259. Berlin Wall  \u2014  http:\/\/en.wikipedia.org.\/wiki\/Berlin_Wall\n1260. Adam Sandler  \u2014  http:\/\/en.wikipedia.org.\/wiki\/Adam_Sandler\n1261. Teen Wolf (2011 TV series)  \u2014  http:\/\/en.wikipedia.org.\/wiki\/Teen_Wolf_(2011_TV_series)\n1262. Age of Enlightenment  \u2014  http:\/\/en.wikipedia.org.\/wiki\/Age_of_Enlightenment\n1263. Aluminium  \u2014  http:\/\/en.wikipedia.org.\/wiki\/Aluminium\n1264. Berkshire Hathaway  \u2014  http:\/\/en.wikipedia.org.\/wiki\/Berkshire_Hathaway\n1265. Kamala Harris  \u2014  http:\/\/en.wikipedia.org.\/wiki\/Kamala_Harris\n1266. 2017\u201318 Premier League  \u2014  http:\/\/en.wikipedia.org.\/wiki\/2017%E2%80%9318_Premier_League\n1267. Augustus  \u2014  http:\/\/en.wikipedia.org.\/wiki\/Augustus\n1268. Bulgaria  \u2014  http:\/\/en.wikipedia.org.\/wiki\/Bulgaria\n1269. List of films based on Marvel Comics  \u2014  http:\/\/en.wikipedia.org.\/wiki\/List_of_films_based_on_Marvel_Comics\n1270. The Avengers (2012 film)  \u2014  http:\/\/en.wikipedia.org.\/wiki\/The_Avengers_(2012_film)\n1271. Daisy Ridley  \u2014  http:\/\/en.wikipedia.org.\/wiki\/Daisy_Ridley\n1272. Democratic Republic of the Congo  \u2014  http:\/\/en.wikipedia.org.\/wiki\/Democratic_Republic_of_the_Congo\n1273. 2017 NBA draft  \u2014  http:\/\/en.wikipedia.org.\/wiki\/2017_NBA_draft\n1274. MS Dhoni  \u2014  http:\/\/en.wikipedia.org.\/wiki\/MS_Dhoni\n1275. Lockheed Martin F-22 Raptor  \u2014  http:\/\/en.wikipedia.org.\/wiki\/Lockheed_Martin_F-22_Raptor\n1276. Michelle Obama  \u2014  http:\/\/en.wikipedia.org.\/wiki\/Michelle_Obama\n1277. Belarus  \u2014  http:\/\/en.wikipedia.org.\/wiki\/Belarus\n1278. Brock Lesnar  \u2014  http:\/\/en.wikipedia.org.\/wiki\/Brock_Lesnar\n1279. List of Star Wars characters  \u2014  http:\/\/en.wikipedia.org.\/wiki\/List_of_Star_Wars_characters\n1280. Jeremy Corbyn  \u2014  http:\/\/en.wikipedia.org.\/wiki\/Jeremy_Corbyn\n1281. Area 51  \u2014  http:\/\/en.wikipedia.org.\/wiki\/Area_51\n1282. Association football  \u2014  http:\/\/en.wikipedia.org.\/wiki\/Association_football\n1283. Srinivasa Ramanujan  \u2014  http:\/\/en.wikipedia.org.\/wiki\/Srinivasa_Ramanujan\n1284. Sean Connery  \u2014  http:\/\/en.wikipedia.org.\/wiki\/Sean_Connery\n1285. Persona 5  \u2014  http:\/\/en.wikipedia.org.\/wiki\/Persona_5\n1286. Scientology  \u2014  http:\/\/en.wikipedia.org.\/wiki\/Scientology\n1287. Travis Scott  \u2014  http:\/\/en.wikipedia.org.\/wiki\/Travis_Scott\n1288. Jerry Lewis  \u2014  http:\/\/en.wikipedia.org.\/wiki\/Jerry_Lewis\n1289. Diwali  \u2014  http:\/\/en.wikipedia.org.\/wiki\/Diwali\n1290. Incoterms  \u2014  http:\/\/en.wikipedia.org.\/wiki\/Incoterms\n1291. Human  \u2014  http:\/\/en.wikipedia.org.\/wiki\/Human\n1292. National Football League  \u2014  http:\/\/en.wikipedia.org.\/wiki\/National_Football_League\n1293. American football  \u2014  http:\/\/en.wikipedia.org.\/wiki\/American_football\n1294. Walmart  \u2014  http:\/\/en.wikipedia.org.\/wiki\/Walmart\n1295. Boston  \u2014  http:\/\/en.wikipedia.org.\/wiki\/Boston\n1296. Bella Thorne  \u2014  http:\/\/en.wikipedia.org.\/wiki\/Bella_Thorne\n1297. Florida  \u2014  http:\/\/en.wikipedia.org.\/wiki\/Florida\n1298. Fentanyl  \u2014  http:\/\/en.wikipedia.org.\/wiki\/Fentanyl\n1299. Valentine's Day  \u2014  http:\/\/en.wikipedia.org.\/wiki\/Valentine's_Day\n","miniList":"1200. Albania\n1201. Credit score\n1202. Animal\n1203. Adam Driver\n1204. Grand Theft Auto V\n1205. Ocean's 8\n1206. Autonomous communities of Spain\n1207. Emily Blunt\n1208. Jon Jones\n1209. Sophie Turner\n1210. Sci-Hub\n1211. The Good Doctor (TV series)\n1212. Calculator\n1213. Brown bear\n1214. Alex Jones\n1215. Mars\n1216. Regular expression\n1217. Alaska\n1218. C (programming language)\n1219. Estonia\n1220. Suits (season 7)\n1221. List of NCIS episodes\n1222. Gigi Hadid\n1223. Christianity\n1224. List of Mr. Robot episodes\n1225. My Hero Academia\n1226. Tokyo\n1227. Peter Dinklage\n1228. PlayerUnknown's Battlegrounds\n1229. List of people who disappeared mysteriously\n1230. Despicable Me 3\n1231. Communism\n1232. David Lynch\n1233. Day of the Dead\n1234. Richard Wagner\n1235. Rooney Mara\n1236. Jamaica\n1237. Padmaavat\n1238. North America\n1239. American Made (film)\n1240. Middle Ages\n1241. Mary I of England\n1242. Richard Branson\n1243. Great Depression\n1244. Bermuda Triangle\n1245. Guns N' Roses\n1246. Scrum (software development)\n1247. James Cameron\n1248. Democratic Party (United States)\n1249. Antifa (United States)\n1250. 2018 in film\n1251. Novak Djokovic\n1252. HDMI\n1253. Charlemagne\n1254. Mark Hamill\n1255. Alien (franchise)\n1256. Kurt Russell\n1257. Weekly Idol\n1258. Tubelight (film)\n1259. Berlin Wall\n1260. Adam Sandler\n1261. Teen Wolf (2011 TV series)\n1262. Age of Enlightenment\n1263. Aluminium\n1264. Berkshire Hathaway\n1265. Kamala Harris\n1266. 2017\u201318 Premier League\n1267. Augustus\n1268. Bulgaria\n1269. List of films based on Marvel Comics\n1270. The Avengers (2012 film)\n1271. Daisy Ridley\n1272. Democratic Republic of the Congo\n1273. 2017 NBA draft\n1274. MS Dhoni\n1275. Lockheed Martin F-22 Raptor\n1276. Michelle Obama\n1277. Belarus\n1278. Brock Lesnar\n1279. List of Star Wars characters\n1280. Jeremy Corbyn\n1281. Area 51\n1282. Association football\n1283. Srinivasa Ramanujan\n1284. Sean Connery\n1285. Persona 5\n1286. Scientology\n1287. Travis Scott\n1288. Jerry Lewis\n1289. Diwali\n1290. Incoterms\n1291. Human\n1292. National Football League\n1293. American football\n1294. Walmart\n1295. Boston\n1296. Bella Thorne\n1297. Florida\n1298. Fentanyl\n1299. Valentine's Day\n"}
