{"start":1301,"end":1400,"count":5616717,"type":"pageviews","pageSize":100,"page":13,"pages":56168,"columns":[{"label":"","property":"pageviews","sortable":false}],"items":[{"pageviews":"1300. <a target=\"_blank\" href=\"http://en.wikipedia.org./wiki/Amber_Heard\">Amber Heard</a>"},{"pageviews":"1301. <a target=\"_blank\" href=\"http://en.wikipedia.org./wiki/The_Americans_(2013_TV_series)\">The Americans (2013 TV series)</a>"},{"pageviews":"1302. <a target=\"_blank\" href=\"http://en.wikipedia.org./wiki/M._Night_Shyamalan\">M. Night Shyamalan</a>"},{"pageviews":"1303. <a target=\"_blank\" href=\"http://en.wikipedia.org./wiki/Whitney_Houston\">Whitney Houston</a>"},{"pageviews":"1304. <a target=\"_blank\" href=\"http://en.wikipedia.org./wiki/Holy_Roman_Empire\">Holy Roman Empire</a>"},{"pageviews":"1305. <a target=\"_blank\" href=\"http://en.wikipedia.org./wiki/Lethal_Weapon_(TV_series)\">Lethal Weapon (TV series)</a>"},{"pageviews":"1306. <a target=\"_blank\" href=\"http://en.wikipedia.org./wiki/List_of_largest_companies_by_revenue\">List of largest companies by revenue</a>"},{"pageviews":"1307. <a target=\"_blank\" href=\"http://en.wikipedia.org./wiki/HTML\">HTML</a>"},{"pageviews":"1308. <a target=\"_blank\" href=\"http://en.wikipedia.org./wiki/Amy_Winehouse\">Amy Winehouse</a>"},{"pageviews":"1309. <a target=\"_blank\" href=\"http://en.wikipedia.org./wiki/X-23\">X-23</a>"},{"pageviews":"1310. <a target=\"_blank\" href=\"http://en.wikipedia.org./wiki/List_of_Grey's_Anatomy_episodes\">List of Grey's Anatomy episodes</a>"},{"pageviews":"1311. <a target=\"_blank\" href=\"http://en.wikipedia.org./wiki/Kim_Jong-il\">Kim Jong-il</a>"},{"pageviews":"1312. <a target=\"_blank\" href=\"http://en.wikipedia.org./wiki/One-Punch_Man\">One-Punch Man</a>"},{"pageviews":"1313. <a target=\"_blank\" href=\"http://en.wikipedia.org./wiki/Black_Sails_(TV_series)\">Black Sails (TV series)</a>"},{"pageviews":"1314. <a target=\"_blank\" href=\"http://en.wikipedia.org./wiki/Eiffel_Tower\">Eiffel Tower</a>"},{"pageviews":"1315. <a target=\"_blank\" href=\"http://en.wikipedia.org./wiki/Charles_Darwin\">Charles Darwin</a>"},{"pageviews":"1316. <a target=\"_blank\" href=\"http://en.wikipedia.org./wiki/Moon\">Moon</a>"},{"pageviews":"1317. <a target=\"_blank\" href=\"http://en.wikipedia.org./wiki/Shawn_Mendes\">Shawn Mendes</a>"},{"pageviews":"1318. <a target=\"_blank\" href=\"http://en.wikipedia.org./wiki/Assassination_of_John_F._Kennedy\">Assassination of John F. Kennedy</a>"},{"pageviews":"1319. <a target=\"_blank\" href=\"http://en.wikipedia.org./wiki/List_of_emoticons\">List of emoticons</a>"},{"pageviews":"1320. <a target=\"_blank\" href=\"http://en.wikipedia.org./wiki/Pi\">Pi</a>"},{"pageviews":"1321. <a target=\"_blank\" href=\"http://en.wikipedia.org./wiki/Karen_Gillan\">Karen Gillan</a>"},{"pageviews":"1322. <a target=\"_blank\" href=\"http://en.wikipedia.org./wiki/Montenegro\">Montenegro</a>"},{"pageviews":"1323. <a target=\"_blank\" href=\"http://en.wikipedia.org./wiki/Plato\">Plato</a>"},{"pageviews":"1324. <a target=\"_blank\" href=\"http://en.wikipedia.org./wiki/Gas_constant\">Gas constant</a>"},{"pageviews":"1325. <a target=\"_blank\" href=\"http://en.wikipedia.org./wiki/Denuvo\">Denuvo</a>"},{"pageviews":"1326. <a target=\"_blank\" href=\"http://en.wikipedia.org./wiki/Al_Capone\">Al Capone</a>"},{"pageviews":"1327. <a target=\"_blank\" href=\"http://en.wikipedia.org./wiki/Snapchat\">Snapchat</a>"},{"pageviews":"1328. <a target=\"_blank\" href=\"http://en.wikipedia.org./wiki/Felicity_Jones\">Felicity Jones</a>"},{"pageviews":"1329. <a target=\"_blank\" href=\"http://en.wikipedia.org./wiki/Pope_Francis\">Pope Francis</a>"},{"pageviews":"1330. <a target=\"_blank\" href=\"http://en.wikipedia.org./wiki/Ivy_League\">Ivy League</a>"},{"pageviews":"1331. <a target=\"_blank\" href=\"http://en.wikipedia.org./wiki/Zootopia\">Zootopia</a>"},{"pageviews":"1332. <a target=\"_blank\" href=\"http://en.wikipedia.org./wiki/United_States_dollar\">United States dollar</a>"},{"pageviews":"1333. <a target=\"_blank\" href=\"http://en.wikipedia.org./wiki/Basketball\">Basketball</a>"},{"pageviews":"1334. <a target=\"_blank\" href=\"http://en.wikipedia.org./wiki/Nikki_Haley\">Nikki Haley</a>"},{"pageviews":"1335. <a target=\"_blank\" href=\"http://en.wikipedia.org./wiki/Fences_(film)\">Fences (film)</a>"},{"pageviews":"1336. <a target=\"_blank\" href=\"http://en.wikipedia.org./wiki/Anna_Faris\">Anna Faris</a>"},{"pageviews":"1337. <a target=\"_blank\" href=\"http://en.wikipedia.org./wiki/Crusades\">Crusades</a>"},{"pageviews":"1338. <a target=\"_blank\" href=\"http://en.wikipedia.org./wiki/Masturbation\">Masturbation</a>"},{"pageviews":"1339. <a target=\"_blank\" href=\"http://en.wikipedia.org./wiki/Archer_(TV_series)\">Archer (TV series)</a>"},{"pageviews":"1340. <a target=\"_blank\" href=\"http://en.wikipedia.org./wiki/Tor_(anonymity_network)\">Tor (anonymity network)</a>"},{"pageviews":"1341. <a target=\"_blank\" href=\"http://en.wikipedia.org./wiki/Blindspot_(TV_series)\">Blindspot (TV series)</a>"},{"pageviews":"1342. <a target=\"_blank\" href=\"http://en.wikipedia.org./wiki/Anne_Hathaway\">Anne Hathaway</a>"},{"pageviews":"1343. <a target=\"_blank\" href=\"http://en.wikipedia.org./wiki/Project_MKUltra\">Project MKUltra</a>"},{"pageviews":"1344. <a target=\"_blank\" href=\"http://en.wikipedia.org./wiki/Batman_in_film\">Batman in film</a>"},{"pageviews":"1345. <a target=\"_blank\" href=\"http://en.wikipedia.org./wiki/List_of_countries_and_dependencies_by_area\">List of countries and dependencies by area</a>"},{"pageviews":"1346. <a target=\"_blank\" href=\"http://en.wikipedia.org./wiki/Ellen_DeGeneres\">Ellen DeGeneres</a>"},{"pageviews":"1347. <a target=\"_blank\" href=\"http://en.wikipedia.org./wiki/The_Wachowskis\">The Wachowskis</a>"},{"pageviews":"1348. <a target=\"_blank\" href=\"http://en.wikipedia.org./wiki/Mark_Twain\">Mark Twain</a>"},{"pageviews":"1349. <a target=\"_blank\" href=\"http://en.wikipedia.org./wiki/Tiananmen_Square_protests_of_1989\">Tiananmen Square protests of 1989</a>"},{"pageviews":"1350. <a target=\"_blank\" href=\"http://en.wikipedia.org./wiki/Salman_Khan\">Salman Khan</a>"},{"pageviews":"1351. <a target=\"_blank\" href=\"http://en.wikipedia.org./wiki/2018_FIFA_World_Cup_qualification_(CONMEBOL)\">2018 FIFA World Cup qualification (CONMEBOL)</a>"},{"pageviews":"1352. <a target=\"_blank\" href=\"http://en.wikipedia.org./wiki/Sex\">Sex</a>"},{"pageviews":"1353. <a target=\"_blank\" href=\"http://en.wikipedia.org./wiki/United_States_presidential_election%2C_2012\">United States presidential election, 2012</a>"},{"pageviews":"1354. <a target=\"_blank\" href=\"http://en.wikipedia.org./wiki/Frida_Kahlo\">Frida Kahlo</a>"},{"pageviews":"1355. <a target=\"_blank\" href=\"http://en.wikipedia.org./wiki/Jimmy_Kimmel\">Jimmy Kimmel</a>"},{"pageviews":"1356. <a target=\"_blank\" href=\"http://en.wikipedia.org./wiki/Charlie_Sheen\">Charlie Sheen</a>"},{"pageviews":"1357. <a target=\"_blank\" href=\"http://en.wikipedia.org./wiki/History_of_bitcoin\">History of bitcoin</a>"},{"pageviews":"1358. <a target=\"_blank\" href=\"http://en.wikipedia.org./wiki/List_of_trigonometric_identities\">List of trigonometric identities</a>"},{"pageviews":"1359. <a target=\"_blank\" href=\"http://en.wikipedia.org./wiki/Zac_Efron\">Zac Efron</a>"},{"pageviews":"1360. <a target=\"_blank\" href=\"http://en.wikipedia.org./wiki/Frederick_Douglass\">Frederick Douglass</a>"},{"pageviews":"1361. <a target=\"_blank\" href=\"http://en.wikipedia.org./wiki/John_Adams\">John Adams</a>"},{"pageviews":"1362. <a target=\"_blank\" href=\"http://en.wikipedia.org./wiki/CRISPR\">CRISPR</a>"},{"pageviews":"1363. <a target=\"_blank\" href=\"http://en.wikipedia.org./wiki/Super_Bowl\">Super Bowl</a>"},{"pageviews":"1364. <a target=\"_blank\" href=\"http://en.wikipedia.org./wiki/Celine_Dion\">Celine Dion</a>"},{"pageviews":"1365. <a target=\"_blank\" href=\"http://en.wikipedia.org./wiki/Foo_Fighters\">Foo Fighters</a>"},{"pageviews":"1366. <a target=\"_blank\" href=\"http://en.wikipedia.org./wiki/Hydrogen\">Hydrogen</a>"},{"pageviews":"1367. <a target=\"_blank\" href=\"http://en.wikipedia.org./wiki/List_of_English_monarchs\">List of English monarchs</a>"},{"pageviews":"1368. <a target=\"_blank\" href=\"http://en.wikipedia.org./wiki/Jessica_Chastain\">Jessica Chastain</a>"},{"pageviews":"1369. <a target=\"_blank\" href=\"http://en.wikipedia.org./wiki/Web_performance\">Web performance</a>"},{"pageviews":"1370. <a target=\"_blank\" href=\"http://en.wikipedia.org./wiki/Elisabeth_Moss\">Elisabeth Moss</a>"},{"pageviews":"1371. <a target=\"_blank\" href=\"http://en.wikipedia.org./wiki/George_R._R._Martin\">George R. R. Martin</a>"},{"pageviews":"1372. <a target=\"_blank\" href=\"http://en.wikipedia.org./wiki/Eric_Clapton\">Eric Clapton</a>"},{"pageviews":"1373. <a target=\"_blank\" href=\"http://en.wikipedia.org./wiki/Morgan_Freeman\">Morgan Freeman</a>"},{"pageviews":"1374. <a target=\"_blank\" href=\"http://en.wikipedia.org./wiki/Social_media\">Social media</a>"},{"pageviews":"1375. <a target=\"_blank\" href=\"http://en.wikipedia.org./wiki/Denzel_Washington\">Denzel Washington</a>"},{"pageviews":"1376. <a target=\"_blank\" href=\"http://en.wikipedia.org./wiki/Seinfeld\">Seinfeld</a>"},{"pageviews":"1377. <a target=\"_blank\" href=\"http://en.wikipedia.org./wiki/America's_Got_Talent_(season_12)\">America's Got Talent (season 12)</a>"},{"pageviews":"1378. <a target=\"_blank\" href=\"http://en.wikipedia.org./wiki/The_Lost_City_of_Z_(film)\">The Lost City of Z (film)</a>"},{"pageviews":"1379. <a target=\"_blank\" href=\"http://en.wikipedia.org./wiki/Ronda_Rousey\">Ronda Rousey</a>"},{"pageviews":"1380. <a target=\"_blank\" href=\"http://en.wikipedia.org./wiki/Kim_Jong-nam\">Kim Jong-nam</a>"},{"pageviews":"1381. <a target=\"_blank\" href=\"http://en.wikipedia.org./wiki/50_Cent\">50 Cent</a>"},{"pageviews":"1382. <a target=\"_blank\" href=\"http://en.wikipedia.org./wiki/Mathematics\">Mathematics</a>"},{"pageviews":"1383. <a target=\"_blank\" href=\"http://en.wikipedia.org./wiki/A_Cure_for_Wellness\">A Cure for Wellness</a>"},{"pageviews":"1384. <a target=\"_blank\" href=\"http://en.wikipedia.org./wiki/Rings_(2017_film)\">Rings (2017 film)</a>"},{"pageviews":"1385. <a target=\"_blank\" href=\"http://en.wikipedia.org./wiki/National_Basketball_Association\">National Basketball Association</a>"},{"pageviews":"1386. <a target=\"_blank\" href=\"http://en.wikipedia.org./wiki/Edgar_Allan_Poe\">Edgar Allan Poe</a>"},{"pageviews":"1387. <a target=\"_blank\" href=\"http://en.wikipedia.org./wiki/Kosovo\">Kosovo</a>"},{"pageviews":"1388. <a target=\"_blank\" href=\"http://en.wikipedia.org./wiki/Jordan\">Jordan</a>"},{"pageviews":"1389. <a target=\"_blank\" href=\"http://en.wikipedia.org./wiki/Romelu_Lukaku\">Romelu Lukaku</a>"},{"pageviews":"1390. <a target=\"_blank\" href=\"http://en.wikipedia.org./wiki/Future_(rapper)\">Future (rapper)</a>"},{"pageviews":"1391. <a target=\"_blank\" href=\"http://en.wikipedia.org./wiki/List_of_Internet_top-level_domains\">List of Internet top-level domains</a>"},{"pageviews":"1392. <a target=\"_blank\" href=\"http://en.wikipedia.org./wiki/Kristen_Bell\">Kristen Bell</a>"},{"pageviews":"1393. <a target=\"_blank\" href=\"http://en.wikipedia.org./wiki/Seattle\">Seattle</a>"},{"pageviews":"1394. <a target=\"_blank\" href=\"http://en.wikipedia.org./wiki/German_federal_election%2C_2017\">German federal election, 2017</a>"},{"pageviews":"1395. <a target=\"_blank\" href=\"http://en.wikipedia.org./wiki/Dave_Bautista\">Dave Bautista</a>"},{"pageviews":"1396. <a target=\"_blank\" href=\"http://en.wikipedia.org./wiki/Kate_Winslet\">Kate Winslet</a>"},{"pageviews":"1397. <a target=\"_blank\" href=\"http://en.wikipedia.org./wiki/Nicholas_II_of_Russia\">Nicholas II of Russia</a>"},{"pageviews":"1398. <a target=\"_blank\" href=\"http://en.wikipedia.org./wiki/Chinese_New_Year\">Chinese New Year</a>"},{"pageviews":"1399. <a target=\"_blank\" href=\"http://en.wikipedia.org./wiki/War_of_1812\">War of 1812</a>"}],"list":"1300. Amber Heard  \u2014  http:\/\/en.wikipedia.org.\/wiki\/Amber_Heard\n1301. The Americans (2013 TV series)  \u2014  http:\/\/en.wikipedia.org.\/wiki\/The_Americans_(2013_TV_series)\n1302. M. Night Shyamalan  \u2014  http:\/\/en.wikipedia.org.\/wiki\/M._Night_Shyamalan\n1303. Whitney Houston  \u2014  http:\/\/en.wikipedia.org.\/wiki\/Whitney_Houston\n1304. Holy Roman Empire  \u2014  http:\/\/en.wikipedia.org.\/wiki\/Holy_Roman_Empire\n1305. Lethal Weapon (TV series)  \u2014  http:\/\/en.wikipedia.org.\/wiki\/Lethal_Weapon_(TV_series)\n1306. List of largest companies by revenue  \u2014  http:\/\/en.wikipedia.org.\/wiki\/List_of_largest_companies_by_revenue\n1307. HTML  \u2014  http:\/\/en.wikipedia.org.\/wiki\/HTML\n1308. Amy Winehouse  \u2014  http:\/\/en.wikipedia.org.\/wiki\/Amy_Winehouse\n1309. X-23  \u2014  http:\/\/en.wikipedia.org.\/wiki\/X-23\n1310. List of Grey's Anatomy episodes  \u2014  http:\/\/en.wikipedia.org.\/wiki\/List_of_Grey's_Anatomy_episodes\n1311. Kim Jong-il  \u2014  http:\/\/en.wikipedia.org.\/wiki\/Kim_Jong-il\n1312. One-Punch Man  \u2014  http:\/\/en.wikipedia.org.\/wiki\/One-Punch_Man\n1313. Black Sails (TV series)  \u2014  http:\/\/en.wikipedia.org.\/wiki\/Black_Sails_(TV_series)\n1314. Eiffel Tower  \u2014  http:\/\/en.wikipedia.org.\/wiki\/Eiffel_Tower\n1315. Charles Darwin  \u2014  http:\/\/en.wikipedia.org.\/wiki\/Charles_Darwin\n1316. Moon  \u2014  http:\/\/en.wikipedia.org.\/wiki\/Moon\n1317. Shawn Mendes  \u2014  http:\/\/en.wikipedia.org.\/wiki\/Shawn_Mendes\n1318. Assassination of John F. Kennedy  \u2014  http:\/\/en.wikipedia.org.\/wiki\/Assassination_of_John_F._Kennedy\n1319. List of emoticons  \u2014  http:\/\/en.wikipedia.org.\/wiki\/List_of_emoticons\n1320. Pi  \u2014  http:\/\/en.wikipedia.org.\/wiki\/Pi\n1321. Karen Gillan  \u2014  http:\/\/en.wikipedia.org.\/wiki\/Karen_Gillan\n1322. Montenegro  \u2014  http:\/\/en.wikipedia.org.\/wiki\/Montenegro\n1323. Plato  \u2014  http:\/\/en.wikipedia.org.\/wiki\/Plato\n1324. Gas constant  \u2014  http:\/\/en.wikipedia.org.\/wiki\/Gas_constant\n1325. Denuvo  \u2014  http:\/\/en.wikipedia.org.\/wiki\/Denuvo\n1326. Al Capone  \u2014  http:\/\/en.wikipedia.org.\/wiki\/Al_Capone\n1327. Snapchat  \u2014  http:\/\/en.wikipedia.org.\/wiki\/Snapchat\n1328. Felicity Jones  \u2014  http:\/\/en.wikipedia.org.\/wiki\/Felicity_Jones\n1329. Pope Francis  \u2014  http:\/\/en.wikipedia.org.\/wiki\/Pope_Francis\n1330. Ivy League  \u2014  http:\/\/en.wikipedia.org.\/wiki\/Ivy_League\n1331. Zootopia  \u2014  http:\/\/en.wikipedia.org.\/wiki\/Zootopia\n1332. United States dollar  \u2014  http:\/\/en.wikipedia.org.\/wiki\/United_States_dollar\n1333. Basketball  \u2014  http:\/\/en.wikipedia.org.\/wiki\/Basketball\n1334. Nikki Haley  \u2014  http:\/\/en.wikipedia.org.\/wiki\/Nikki_Haley\n1335. Fences (film)  \u2014  http:\/\/en.wikipedia.org.\/wiki\/Fences_(film)\n1336. Anna Faris  \u2014  http:\/\/en.wikipedia.org.\/wiki\/Anna_Faris\n1337. Crusades  \u2014  http:\/\/en.wikipedia.org.\/wiki\/Crusades\n1338. Masturbation  \u2014  http:\/\/en.wikipedia.org.\/wiki\/Masturbation\n1339. Archer (TV series)  \u2014  http:\/\/en.wikipedia.org.\/wiki\/Archer_(TV_series)\n1340. Tor (anonymity network)  \u2014  http:\/\/en.wikipedia.org.\/wiki\/Tor_(anonymity_network)\n1341. Blindspot (TV series)  \u2014  http:\/\/en.wikipedia.org.\/wiki\/Blindspot_(TV_series)\n1342. Anne Hathaway  \u2014  http:\/\/en.wikipedia.org.\/wiki\/Anne_Hathaway\n1343. Project MKUltra  \u2014  http:\/\/en.wikipedia.org.\/wiki\/Project_MKUltra\n1344. Batman in film  \u2014  http:\/\/en.wikipedia.org.\/wiki\/Batman_in_film\n1345. List of countries and dependencies by area  \u2014  http:\/\/en.wikipedia.org.\/wiki\/List_of_countries_and_dependencies_by_area\n1346. Ellen DeGeneres  \u2014  http:\/\/en.wikipedia.org.\/wiki\/Ellen_DeGeneres\n1347. The Wachowskis  \u2014  http:\/\/en.wikipedia.org.\/wiki\/The_Wachowskis\n1348. Mark Twain  \u2014  http:\/\/en.wikipedia.org.\/wiki\/Mark_Twain\n1349. Tiananmen Square protests of 1989  \u2014  http:\/\/en.wikipedia.org.\/wiki\/Tiananmen_Square_protests_of_1989\n1350. Salman Khan  \u2014  http:\/\/en.wikipedia.org.\/wiki\/Salman_Khan\n1351. 2018 FIFA World Cup qualification (CONMEBOL)  \u2014  http:\/\/en.wikipedia.org.\/wiki\/2018_FIFA_World_Cup_qualification_(CONMEBOL)\n1352. Sex  \u2014  http:\/\/en.wikipedia.org.\/wiki\/Sex\n1353. United States presidential election, 2012  \u2014  http:\/\/en.wikipedia.org.\/wiki\/United_States_presidential_election%2C_2012\n1354. Frida Kahlo  \u2014  http:\/\/en.wikipedia.org.\/wiki\/Frida_Kahlo\n1355. Jimmy Kimmel  \u2014  http:\/\/en.wikipedia.org.\/wiki\/Jimmy_Kimmel\n1356. Charlie Sheen  \u2014  http:\/\/en.wikipedia.org.\/wiki\/Charlie_Sheen\n1357. History of bitcoin  \u2014  http:\/\/en.wikipedia.org.\/wiki\/History_of_bitcoin\n1358. List of trigonometric identities  \u2014  http:\/\/en.wikipedia.org.\/wiki\/List_of_trigonometric_identities\n1359. Zac Efron  \u2014  http:\/\/en.wikipedia.org.\/wiki\/Zac_Efron\n1360. Frederick Douglass  \u2014  http:\/\/en.wikipedia.org.\/wiki\/Frederick_Douglass\n1361. John Adams  \u2014  http:\/\/en.wikipedia.org.\/wiki\/John_Adams\n1362. CRISPR  \u2014  http:\/\/en.wikipedia.org.\/wiki\/CRISPR\n1363. Super Bowl  \u2014  http:\/\/en.wikipedia.org.\/wiki\/Super_Bowl\n1364. Celine Dion  \u2014  http:\/\/en.wikipedia.org.\/wiki\/Celine_Dion\n1365. Foo Fighters  \u2014  http:\/\/en.wikipedia.org.\/wiki\/Foo_Fighters\n1366. Hydrogen  \u2014  http:\/\/en.wikipedia.org.\/wiki\/Hydrogen\n1367. List of English monarchs  \u2014  http:\/\/en.wikipedia.org.\/wiki\/List_of_English_monarchs\n1368. Jessica Chastain  \u2014  http:\/\/en.wikipedia.org.\/wiki\/Jessica_Chastain\n1369. Web performance  \u2014  http:\/\/en.wikipedia.org.\/wiki\/Web_performance\n1370. Elisabeth Moss  \u2014  http:\/\/en.wikipedia.org.\/wiki\/Elisabeth_Moss\n1371. George R. R. Martin  \u2014  http:\/\/en.wikipedia.org.\/wiki\/George_R._R._Martin\n1372. Eric Clapton  \u2014  http:\/\/en.wikipedia.org.\/wiki\/Eric_Clapton\n1373. Morgan Freeman  \u2014  http:\/\/en.wikipedia.org.\/wiki\/Morgan_Freeman\n1374. Social media  \u2014  http:\/\/en.wikipedia.org.\/wiki\/Social_media\n1375. Denzel Washington  \u2014  http:\/\/en.wikipedia.org.\/wiki\/Denzel_Washington\n1376. Seinfeld  \u2014  http:\/\/en.wikipedia.org.\/wiki\/Seinfeld\n1377. America's Got Talent (season 12)  \u2014  http:\/\/en.wikipedia.org.\/wiki\/America's_Got_Talent_(season_12)\n1378. The Lost City of Z (film)  \u2014  http:\/\/en.wikipedia.org.\/wiki\/The_Lost_City_of_Z_(film)\n1379. Ronda Rousey  \u2014  http:\/\/en.wikipedia.org.\/wiki\/Ronda_Rousey\n1380. Kim Jong-nam  \u2014  http:\/\/en.wikipedia.org.\/wiki\/Kim_Jong-nam\n1381. 50 Cent  \u2014  http:\/\/en.wikipedia.org.\/wiki\/50_Cent\n1382. Mathematics  \u2014  http:\/\/en.wikipedia.org.\/wiki\/Mathematics\n1383. A Cure for Wellness  \u2014  http:\/\/en.wikipedia.org.\/wiki\/A_Cure_for_Wellness\n1384. Rings (2017 film)  \u2014  http:\/\/en.wikipedia.org.\/wiki\/Rings_(2017_film)\n1385. National Basketball Association  \u2014  http:\/\/en.wikipedia.org.\/wiki\/National_Basketball_Association\n1386. Edgar Allan Poe  \u2014  http:\/\/en.wikipedia.org.\/wiki\/Edgar_Allan_Poe\n1387. Kosovo  \u2014  http:\/\/en.wikipedia.org.\/wiki\/Kosovo\n1388. Jordan  \u2014  http:\/\/en.wikipedia.org.\/wiki\/Jordan\n1389. Romelu Lukaku  \u2014  http:\/\/en.wikipedia.org.\/wiki\/Romelu_Lukaku\n1390. Future (rapper)  \u2014  http:\/\/en.wikipedia.org.\/wiki\/Future_(rapper)\n1391. List of Internet top-level domains  \u2014  http:\/\/en.wikipedia.org.\/wiki\/List_of_Internet_top-level_domains\n1392. Kristen Bell  \u2014  http:\/\/en.wikipedia.org.\/wiki\/Kristen_Bell\n1393. Seattle  \u2014  http:\/\/en.wikipedia.org.\/wiki\/Seattle\n1394. German federal election, 2017  \u2014  http:\/\/en.wikipedia.org.\/wiki\/German_federal_election%2C_2017\n1395. Dave Bautista  \u2014  http:\/\/en.wikipedia.org.\/wiki\/Dave_Bautista\n1396. Kate Winslet  \u2014  http:\/\/en.wikipedia.org.\/wiki\/Kate_Winslet\n1397. Nicholas II of Russia  \u2014  http:\/\/en.wikipedia.org.\/wiki\/Nicholas_II_of_Russia\n1398. Chinese New Year  \u2014  http:\/\/en.wikipedia.org.\/wiki\/Chinese_New_Year\n1399. War of 1812  \u2014  http:\/\/en.wikipedia.org.\/wiki\/War_of_1812\n","miniList":"1300. Amber Heard\n1301. The Americans (2013 TV series)\n1302. M. Night Shyamalan\n1303. Whitney Houston\n1304. Holy Roman Empire\n1305. Lethal Weapon (TV series)\n1306. List of largest companies by revenue\n1307. HTML\n1308. Amy Winehouse\n1309. X-23\n1310. List of Grey's Anatomy episodes\n1311. Kim Jong-il\n1312. One-Punch Man\n1313. Black Sails (TV series)\n1314. Eiffel Tower\n1315. Charles Darwin\n1316. Moon\n1317. Shawn Mendes\n1318. Assassination of John F. Kennedy\n1319. List of emoticons\n1320. Pi\n1321. Karen Gillan\n1322. Montenegro\n1323. Plato\n1324. Gas constant\n1325. Denuvo\n1326. Al Capone\n1327. Snapchat\n1328. Felicity Jones\n1329. Pope Francis\n1330. Ivy League\n1331. Zootopia\n1332. United States dollar\n1333. Basketball\n1334. Nikki Haley\n1335. Fences (film)\n1336. Anna Faris\n1337. Crusades\n1338. Masturbation\n1339. Archer (TV series)\n1340. Tor (anonymity network)\n1341. Blindspot (TV series)\n1342. Anne Hathaway\n1343. Project MKUltra\n1344. Batman in film\n1345. List of countries and dependencies by area\n1346. Ellen DeGeneres\n1347. The Wachowskis\n1348. Mark Twain\n1349. Tiananmen Square protests of 1989\n1350. Salman Khan\n1351. 2018 FIFA World Cup qualification (CONMEBOL)\n1352. Sex\n1353. United States presidential election, 2012\n1354. Frida Kahlo\n1355. Jimmy Kimmel\n1356. Charlie Sheen\n1357. History of bitcoin\n1358. List of trigonometric identities\n1359. Zac Efron\n1360. Frederick Douglass\n1361. John Adams\n1362. CRISPR\n1363. Super Bowl\n1364. Celine Dion\n1365. Foo Fighters\n1366. Hydrogen\n1367. List of English monarchs\n1368. Jessica Chastain\n1369. Web performance\n1370. Elisabeth Moss\n1371. George R. R. Martin\n1372. Eric Clapton\n1373. Morgan Freeman\n1374. Social media\n1375. Denzel Washington\n1376. Seinfeld\n1377. America's Got Talent (season 12)\n1378. The Lost City of Z (film)\n1379. Ronda Rousey\n1380. Kim Jong-nam\n1381. 50 Cent\n1382. Mathematics\n1383. A Cure for Wellness\n1384. Rings (2017 film)\n1385. National Basketball Association\n1386. Edgar Allan Poe\n1387. Kosovo\n1388. Jordan\n1389. Romelu Lukaku\n1390. Future (rapper)\n1391. List of Internet top-level domains\n1392. Kristen Bell\n1393. Seattle\n1394. German federal election, 2017\n1395. Dave Bautista\n1396. Kate Winslet\n1397. Nicholas II of Russia\n1398. Chinese New Year\n1399. War of 1812\n"}
