{"start":1401,"end":1500,"count":5616717,"type":"pageviews","pageSize":100,"page":14,"pages":56168,"columns":[{"label":"","property":"pageviews","sortable":false}],"items":[{"pageviews":"1400. <a target=\"_blank\" href=\"http://en.wikipedia.org./wiki/Henry_VII_of_England\">Henry VII of England</a>"},{"pageviews":"1401. <a target=\"_blank\" href=\"http://en.wikipedia.org./wiki/Slovenia\">Slovenia</a>"},{"pageviews":"1402. <a target=\"_blank\" href=\"http://en.wikipedia.org./wiki/IBM\">IBM</a>"},{"pageviews":"1403. <a target=\"_blank\" href=\"http://en.wikipedia.org./wiki/Tiger\">Tiger</a>"},{"pageviews":"1404. <a target=\"_blank\" href=\"http://en.wikipedia.org./wiki/The_Lion_King\">The Lion King</a>"},{"pageviews":"1405. <a target=\"_blank\" href=\"http://en.wikipedia.org./wiki/Al_Pacino\">Al Pacino</a>"},{"pageviews":"1406. <a target=\"_blank\" href=\"http://en.wikipedia.org./wiki/Woodrow_Wilson\">Woodrow Wilson</a>"},{"pageviews":"1407. <a target=\"_blank\" href=\"http://en.wikipedia.org./wiki/Great_Pyramid_of_Giza\">Great Pyramid of Giza</a>"},{"pageviews":"1408. <a target=\"_blank\" href=\"http://en.wikipedia.org./wiki/Bipolar_disorder\">Bipolar disorder</a>"},{"pageviews":"1409. <a target=\"_blank\" href=\"http://en.wikipedia.org./wiki/Chile\">Chile</a>"},{"pageviews":"1410. <a target=\"_blank\" href=\"http://en.wikipedia.org./wiki/Josh_Brolin\">Josh Brolin</a>"},{"pageviews":"1411. <a target=\"_blank\" href=\"http://en.wikipedia.org./wiki/List_of_U.S._state_abbreviations\">List of U.S. state abbreviations</a>"},{"pageviews":"1412. <a target=\"_blank\" href=\"http://en.wikipedia.org./wiki/Charles_I_of_England\">Charles I of England</a>"},{"pageviews":"1413. <a target=\"_blank\" href=\"http://en.wikipedia.org./wiki/Jared_Leto\">Jared Leto</a>"},{"pageviews":"1414. <a target=\"_blank\" href=\"http://en.wikipedia.org./wiki/Rome\">Rome</a>"},{"pageviews":"1415. <a target=\"_blank\" href=\"http://en.wikipedia.org./wiki/Crown-rump_length\">Crown-rump length</a>"},{"pageviews":"1416. <a target=\"_blank\" href=\"http://en.wikipedia.org./wiki/Manson_Family\">Manson Family</a>"},{"pageviews":"1417. <a target=\"_blank\" href=\"http://en.wikipedia.org./wiki/Lisa_Bonet\">Lisa Bonet</a>"},{"pageviews":"1418. <a target=\"_blank\" href=\"http://en.wikipedia.org./wiki/Bed_size\">Bed size</a>"},{"pageviews":"1419. <a target=\"_blank\" href=\"http://en.wikipedia.org./wiki/GNU_General_Public_License\">GNU General Public License</a>"},{"pageviews":"1420. <a target=\"_blank\" href=\"http://en.wikipedia.org./wiki/Diabetes_mellitus\">Diabetes mellitus</a>"},{"pageviews":"1421. <a target=\"_blank\" href=\"http://en.wikipedia.org./wiki/Sofia_Boutella\">Sofia Boutella</a>"},{"pageviews":"1422. <a target=\"_blank\" href=\"http://en.wikipedia.org./wiki/Bette_Davis\">Bette Davis</a>"},{"pageviews":"1423. <a target=\"_blank\" href=\"http://en.wikipedia.org./wiki/United_States_presidential_line_of_succession\">United States presidential line of succession</a>"},{"pageviews":"1424. <a target=\"_blank\" href=\"http://en.wikipedia.org./wiki/World_War_II_casualties\">World War II casualties</a>"},{"pageviews":"1425. <a target=\"_blank\" href=\"http://en.wikipedia.org./wiki/PHP\">PHP</a>"},{"pageviews":"1426. <a target=\"_blank\" href=\"http://en.wikipedia.org./wiki/Lyme_disease\">Lyme disease</a>"},{"pageviews":"1427. <a target=\"_blank\" href=\"http://en.wikipedia.org./wiki/HIV/AIDS\">HIV/AIDS</a>"},{"pageviews":"1428. <a target=\"_blank\" href=\"http://en.wikipedia.org./wiki/Demography_of_the_United_States\">Demography of the United States</a>"},{"pageviews":"1429. <a target=\"_blank\" href=\"http://en.wikipedia.org./wiki/Bashar_al-Assad\">Bashar al-Assad</a>"},{"pageviews":"1430. <a target=\"_blank\" href=\"http://en.wikipedia.org./wiki/Antarctica\">Antarctica</a>"},{"pageviews":"1431. <a target=\"_blank\" href=\"http://en.wikipedia.org./wiki/Special_relativity\">Special relativity</a>"},{"pageviews":"1432. <a target=\"_blank\" href=\"http://en.wikipedia.org./wiki/Martin_Shkreli\">Martin Shkreli</a>"},{"pageviews":"1433. <a target=\"_blank\" href=\"http://en.wikipedia.org./wiki/Black_Pink\">Black Pink</a>"},{"pageviews":"1434. <a target=\"_blank\" href=\"http://en.wikipedia.org./wiki/The_Young_Pope\">The Young Pope</a>"},{"pageviews":"1435. <a target=\"_blank\" href=\"http://en.wikipedia.org./wiki/2018_Winter_Olympics\">2018 Winter Olympics</a>"},{"pageviews":"1436. <a target=\"_blank\" href=\"http://en.wikipedia.org./wiki/Sherlock_Holmes\">Sherlock Holmes</a>"},{"pageviews":"1437. <a target=\"_blank\" href=\"http://en.wikipedia.org./wiki/Anthony_Rapp\">Anthony Rapp</a>"},{"pageviews":"1438. <a target=\"_blank\" href=\"http://en.wikipedia.org./wiki/Wi-Fi\">Wi-Fi</a>"},{"pageviews":"1439. <a target=\"_blank\" href=\"http://en.wikipedia.org./wiki/Saoirse_Ronan\">Saoirse Ronan</a>"},{"pageviews":"1440. <a target=\"_blank\" href=\"http://en.wikipedia.org./wiki/Eva_Mendes\">Eva Mendes</a>"},{"pageviews":"1441. <a target=\"_blank\" href=\"http://en.wikipedia.org./wiki/Bernie_Sanders\">Bernie Sanders</a>"},{"pageviews":"1442. <a target=\"_blank\" href=\"http://en.wikipedia.org./wiki/Iraq\">Iraq</a>"},{"pageviews":"1443. <a target=\"_blank\" href=\"http://en.wikipedia.org./wiki/Flag_of_the_United_States\">Flag of the United States</a>"},{"pageviews":"1444. <a target=\"_blank\" href=\"http://en.wikipedia.org./wiki/John_F._Kelly\">John F. Kelly</a>"},{"pageviews":"1445. <a target=\"_blank\" href=\"http://en.wikipedia.org./wiki/Harvard_University\">Harvard University</a>"},{"pageviews":"1446. <a target=\"_blank\" href=\"http://en.wikipedia.org./wiki/Golden_State_Warriors\">Golden State Warriors</a>"},{"pageviews":"1447. <a target=\"_blank\" href=\"http://en.wikipedia.org./wiki/Gibraltar\">Gibraltar</a>"},{"pageviews":"1448. <a target=\"_blank\" href=\"http://en.wikipedia.org./wiki/Samsung\">Samsung</a>"},{"pageviews":"1449. <a target=\"_blank\" href=\"http://en.wikipedia.org./wiki/Golden_ratio\">Golden ratio</a>"},{"pageviews":"1450. <a target=\"_blank\" href=\"http://en.wikipedia.org./wiki/Steven_Mnuchin\">Steven Mnuchin</a>"},{"pageviews":"1451. <a target=\"_blank\" href=\"http://en.wikipedia.org./wiki/Mongolia\">Mongolia</a>"},{"pageviews":"1452. <a target=\"_blank\" href=\"http://en.wikipedia.org./wiki/John_Wayne_Gacy\">John Wayne Gacy</a>"},{"pageviews":"1453. <a target=\"_blank\" href=\"http://en.wikipedia.org./wiki/Daylight_saving_time\">Daylight saving time</a>"},{"pageviews":"1454. <a target=\"_blank\" href=\"http://en.wikipedia.org./wiki/Occam's_razor\">Occam's razor</a>"},{"pageviews":"1455. <a target=\"_blank\" href=\"http://en.wikipedia.org./wiki/C%2B%2B\">C++</a>"},{"pageviews":"1456. <a target=\"_blank\" href=\"http://en.wikipedia.org./wiki/George_Orwell\">George Orwell</a>"},{"pageviews":"1457. <a target=\"_blank\" href=\"http://en.wikipedia.org./wiki/FC_Bayern_Munich\">FC Bayern Munich</a>"},{"pageviews":"1458. <a target=\"_blank\" href=\"http://en.wikipedia.org./wiki/Jack_the_Ripper\">Jack the Ripper</a>"},{"pageviews":"1459. <a target=\"_blank\" href=\"http://en.wikipedia.org./wiki/Standard_RAID_levels\">Standard RAID levels</a>"},{"pageviews":"1460. <a target=\"_blank\" href=\"http://en.wikipedia.org./wiki/Bosnia_and_Herzegovina\">Bosnia and Herzegovina</a>"},{"pageviews":"1461. <a target=\"_blank\" href=\"http://en.wikipedia.org./wiki/Barcelona\">Barcelona</a>"},{"pageviews":"1462. <a target=\"_blank\" href=\"http://en.wikipedia.org./wiki/Tiger_Woods\">Tiger Woods</a>"},{"pageviews":"1463. <a target=\"_blank\" href=\"http://en.wikipedia.org./wiki/Commonwealth_of_Nations\">Commonwealth of Nations</a>"},{"pageviews":"1464. <a target=\"_blank\" href=\"http://en.wikipedia.org./wiki/Charles_Dickens\">Charles Dickens</a>"},{"pageviews":"1465. <a target=\"_blank\" href=\"http://en.wikipedia.org./wiki/List_of_Greek_mythological_figures\">List of Greek mythological figures</a>"},{"pageviews":"1466. <a target=\"_blank\" href=\"http://en.wikipedia.org./wiki/General_Dynamics_F-16_Fighting_Falcon\">General Dynamics F-16 Fighting Falcon</a>"},{"pageviews":"1467. <a target=\"_blank\" href=\"http://en.wikipedia.org./wiki/Camilla%2C_Duchess_of_Cornwall\">Camilla, Duchess of Cornwall</a>"},{"pageviews":"1468. <a target=\"_blank\" href=\"http://en.wikipedia.org./wiki/Fridtjof_Nansen\">Fridtjof Nansen</a>"},{"pageviews":"1469. <a target=\"_blank\" href=\"http://en.wikipedia.org./wiki/Salma_Hayek\">Salma Hayek</a>"},{"pageviews":"1470. <a target=\"_blank\" href=\"http://en.wikipedia.org./wiki/Xi_Jinping\">Xi Jinping</a>"},{"pageviews":"1471. <a target=\"_blank\" href=\"http://en.wikipedia.org./wiki/Dominican_Republic\">Dominican Republic</a>"},{"pageviews":"1472. <a target=\"_blank\" href=\"http://en.wikipedia.org./wiki/Nicolas_Cage\">Nicolas Cage</a>"},{"pageviews":"1473. <a target=\"_blank\" href=\"http://en.wikipedia.org./wiki/Big_data\">Big data</a>"},{"pageviews":"1474. <a target=\"_blank\" href=\"http://en.wikipedia.org./wiki/Anne_Frank\">Anne Frank</a>"},{"pageviews":"1475. <a target=\"_blank\" href=\"http://en.wikipedia.org./wiki/J._R._R._Tolkien\">J. R. R. Tolkien</a>"},{"pageviews":"1476. <a target=\"_blank\" href=\"http://en.wikipedia.org./wiki/Reputation_(Taylor_Swift_album)\">Reputation (Taylor Swift album)</a>"},{"pageviews":"1477. <a target=\"_blank\" href=\"http://en.wikipedia.org./wiki/Xbox_One\">Xbox One</a>"},{"pageviews":"1478. <a target=\"_blank\" href=\"http://en.wikipedia.org./wiki/John_D._Rockefeller\">John D. Rockefeller</a>"},{"pageviews":"1479. <a target=\"_blank\" href=\"http://en.wikipedia.org./wiki/Jupiter\">Jupiter</a>"},{"pageviews":"1480. <a target=\"_blank\" href=\"http://en.wikipedia.org./wiki/Julia_Roberts\">Julia Roberts</a>"},{"pageviews":"1481. <a target=\"_blank\" href=\"http://en.wikipedia.org./wiki/Rose_McGowan\">Rose McGowan</a>"},{"pageviews":"1482. <a target=\"_blank\" href=\"http://en.wikipedia.org./wiki/United_States_Senate_elections%2C_2018\">United States Senate elections, 2018</a>"},{"pageviews":"1483. <a target=\"_blank\" href=\"http://en.wikipedia.org./wiki/Game_of_Thrones_(season_1)\">Game of Thrones (season 1)</a>"},{"pageviews":"1484. <a target=\"_blank\" href=\"http://en.wikipedia.org./wiki/Timeless_(TV_series)\">Timeless (TV series)</a>"},{"pageviews":"1485. <a target=\"_blank\" href=\"http://en.wikipedia.org./wiki/Tim_Curry\">Tim Curry</a>"},{"pageviews":"1486. <a target=\"_blank\" href=\"http://en.wikipedia.org./wiki/Jews\">Jews</a>"},{"pageviews":"1487. <a target=\"_blank\" href=\"http://en.wikipedia.org./wiki/Imagine_Dragons\">Imagine Dragons</a>"},{"pageviews":"1488. <a target=\"_blank\" href=\"http://en.wikipedia.org./wiki/Deepika_Padukone\">Deepika Padukone</a>"},{"pageviews":"1489. <a target=\"_blank\" href=\"http://en.wikipedia.org./wiki/Jigsaw_(2017_film)\">Jigsaw (2017 film)</a>"},{"pageviews":"1490. <a target=\"_blank\" href=\"http://en.wikipedia.org./wiki/Albert%2C_Prince_Consort\">Albert, Prince Consort</a>"},{"pageviews":"1491. <a target=\"_blank\" href=\"http://en.wikipedia.org./wiki/Down_syndrome\">Down syndrome</a>"},{"pageviews":"1492. <a target=\"_blank\" href=\"http://en.wikipedia.org./wiki/List_of_Hallmark_Channel_Original_Movies\">List of Hallmark Channel Original Movies</a>"},{"pageviews":"1493. <a target=\"_blank\" href=\"http://en.wikipedia.org./wiki/Native_Americans_in_the_United_States\">Native Americans in the United States</a>"},{"pageviews":"1494. <a target=\"_blank\" href=\"http://en.wikipedia.org./wiki/List_of_Elementary_episodes\">List of Elementary episodes</a>"},{"pageviews":"1495. <a target=\"_blank\" href=\"http://en.wikipedia.org./wiki/Wilhelm_II%2C_German_Emperor\">Wilhelm II, German Emperor</a>"},{"pageviews":"1496. <a target=\"_blank\" href=\"http://en.wikipedia.org./wiki/Judy_Garland\">Judy Garland</a>"},{"pageviews":"1497. <a target=\"_blank\" href=\"http://en.wikipedia.org./wiki/The_Big_Short_(film)\">The Big Short (film)</a>"},{"pageviews":"1498. <a target=\"_blank\" href=\"http://en.wikipedia.org./wiki/Water\">Water</a>"},{"pageviews":"1499. <a target=\"_blank\" href=\"http://en.wikipedia.org./wiki/G20\">G20</a>"}],"list":"1400. Henry VII of England  \u2014  http:\/\/en.wikipedia.org.\/wiki\/Henry_VII_of_England\n1401. Slovenia  \u2014  http:\/\/en.wikipedia.org.\/wiki\/Slovenia\n1402. IBM  \u2014  http:\/\/en.wikipedia.org.\/wiki\/IBM\n1403. Tiger  \u2014  http:\/\/en.wikipedia.org.\/wiki\/Tiger\n1404. The Lion King  \u2014  http:\/\/en.wikipedia.org.\/wiki\/The_Lion_King\n1405. Al Pacino  \u2014  http:\/\/en.wikipedia.org.\/wiki\/Al_Pacino\n1406. Woodrow Wilson  \u2014  http:\/\/en.wikipedia.org.\/wiki\/Woodrow_Wilson\n1407. Great Pyramid of Giza  \u2014  http:\/\/en.wikipedia.org.\/wiki\/Great_Pyramid_of_Giza\n1408. Bipolar disorder  \u2014  http:\/\/en.wikipedia.org.\/wiki\/Bipolar_disorder\n1409. Chile  \u2014  http:\/\/en.wikipedia.org.\/wiki\/Chile\n1410. Josh Brolin  \u2014  http:\/\/en.wikipedia.org.\/wiki\/Josh_Brolin\n1411. List of U.S. state abbreviations  \u2014  http:\/\/en.wikipedia.org.\/wiki\/List_of_U.S._state_abbreviations\n1412. Charles I of England  \u2014  http:\/\/en.wikipedia.org.\/wiki\/Charles_I_of_England\n1413. Jared Leto  \u2014  http:\/\/en.wikipedia.org.\/wiki\/Jared_Leto\n1414. Rome  \u2014  http:\/\/en.wikipedia.org.\/wiki\/Rome\n1415. Crown-rump length  \u2014  http:\/\/en.wikipedia.org.\/wiki\/Crown-rump_length\n1416. Manson Family  \u2014  http:\/\/en.wikipedia.org.\/wiki\/Manson_Family\n1417. Lisa Bonet  \u2014  http:\/\/en.wikipedia.org.\/wiki\/Lisa_Bonet\n1418. Bed size  \u2014  http:\/\/en.wikipedia.org.\/wiki\/Bed_size\n1419. GNU General Public License  \u2014  http:\/\/en.wikipedia.org.\/wiki\/GNU_General_Public_License\n1420. Diabetes mellitus  \u2014  http:\/\/en.wikipedia.org.\/wiki\/Diabetes_mellitus\n1421. Sofia Boutella  \u2014  http:\/\/en.wikipedia.org.\/wiki\/Sofia_Boutella\n1422. Bette Davis  \u2014  http:\/\/en.wikipedia.org.\/wiki\/Bette_Davis\n1423. United States presidential line of succession  \u2014  http:\/\/en.wikipedia.org.\/wiki\/United_States_presidential_line_of_succession\n1424. World War II casualties  \u2014  http:\/\/en.wikipedia.org.\/wiki\/World_War_II_casualties\n1425. PHP  \u2014  http:\/\/en.wikipedia.org.\/wiki\/PHP\n1426. Lyme disease  \u2014  http:\/\/en.wikipedia.org.\/wiki\/Lyme_disease\n1427. HIV\/AIDS  \u2014  http:\/\/en.wikipedia.org.\/wiki\/HIV\/AIDS\n1428. Demography of the United States  \u2014  http:\/\/en.wikipedia.org.\/wiki\/Demography_of_the_United_States\n1429. Bashar al-Assad  \u2014  http:\/\/en.wikipedia.org.\/wiki\/Bashar_al-Assad\n1430. Antarctica  \u2014  http:\/\/en.wikipedia.org.\/wiki\/Antarctica\n1431. Special relativity  \u2014  http:\/\/en.wikipedia.org.\/wiki\/Special_relativity\n1432. Martin Shkreli  \u2014  http:\/\/en.wikipedia.org.\/wiki\/Martin_Shkreli\n1433. Black Pink  \u2014  http:\/\/en.wikipedia.org.\/wiki\/Black_Pink\n1434. The Young Pope  \u2014  http:\/\/en.wikipedia.org.\/wiki\/The_Young_Pope\n1435. 2018 Winter Olympics  \u2014  http:\/\/en.wikipedia.org.\/wiki\/2018_Winter_Olympics\n1436. Sherlock Holmes  \u2014  http:\/\/en.wikipedia.org.\/wiki\/Sherlock_Holmes\n1437. Anthony Rapp  \u2014  http:\/\/en.wikipedia.org.\/wiki\/Anthony_Rapp\n1438. Wi-Fi  \u2014  http:\/\/en.wikipedia.org.\/wiki\/Wi-Fi\n1439. Saoirse Ronan  \u2014  http:\/\/en.wikipedia.org.\/wiki\/Saoirse_Ronan\n1440. Eva Mendes  \u2014  http:\/\/en.wikipedia.org.\/wiki\/Eva_Mendes\n1441. Bernie Sanders  \u2014  http:\/\/en.wikipedia.org.\/wiki\/Bernie_Sanders\n1442. Iraq  \u2014  http:\/\/en.wikipedia.org.\/wiki\/Iraq\n1443. Flag of the United States  \u2014  http:\/\/en.wikipedia.org.\/wiki\/Flag_of_the_United_States\n1444. John F. Kelly  \u2014  http:\/\/en.wikipedia.org.\/wiki\/John_F._Kelly\n1445. Harvard University  \u2014  http:\/\/en.wikipedia.org.\/wiki\/Harvard_University\n1446. Golden State Warriors  \u2014  http:\/\/en.wikipedia.org.\/wiki\/Golden_State_Warriors\n1447. Gibraltar  \u2014  http:\/\/en.wikipedia.org.\/wiki\/Gibraltar\n1448. Samsung  \u2014  http:\/\/en.wikipedia.org.\/wiki\/Samsung\n1449. Golden ratio  \u2014  http:\/\/en.wikipedia.org.\/wiki\/Golden_ratio\n1450. Steven Mnuchin  \u2014  http:\/\/en.wikipedia.org.\/wiki\/Steven_Mnuchin\n1451. Mongolia  \u2014  http:\/\/en.wikipedia.org.\/wiki\/Mongolia\n1452. John Wayne Gacy  \u2014  http:\/\/en.wikipedia.org.\/wiki\/John_Wayne_Gacy\n1453. Daylight saving time  \u2014  http:\/\/en.wikipedia.org.\/wiki\/Daylight_saving_time\n1454. Occam's razor  \u2014  http:\/\/en.wikipedia.org.\/wiki\/Occam's_razor\n1455. C++  \u2014  http:\/\/en.wikipedia.org.\/wiki\/C%2B%2B\n1456. George Orwell  \u2014  http:\/\/en.wikipedia.org.\/wiki\/George_Orwell\n1457. FC Bayern Munich  \u2014  http:\/\/en.wikipedia.org.\/wiki\/FC_Bayern_Munich\n1458. Jack the Ripper  \u2014  http:\/\/en.wikipedia.org.\/wiki\/Jack_the_Ripper\n1459. Standard RAID levels  \u2014  http:\/\/en.wikipedia.org.\/wiki\/Standard_RAID_levels\n1460. Bosnia and Herzegovina  \u2014  http:\/\/en.wikipedia.org.\/wiki\/Bosnia_and_Herzegovina\n1461. Barcelona  \u2014  http:\/\/en.wikipedia.org.\/wiki\/Barcelona\n1462. Tiger Woods  \u2014  http:\/\/en.wikipedia.org.\/wiki\/Tiger_Woods\n1463. Commonwealth of Nations  \u2014  http:\/\/en.wikipedia.org.\/wiki\/Commonwealth_of_Nations\n1464. Charles Dickens  \u2014  http:\/\/en.wikipedia.org.\/wiki\/Charles_Dickens\n1465. List of Greek mythological figures  \u2014  http:\/\/en.wikipedia.org.\/wiki\/List_of_Greek_mythological_figures\n1466. General Dynamics F-16 Fighting Falcon  \u2014  http:\/\/en.wikipedia.org.\/wiki\/General_Dynamics_F-16_Fighting_Falcon\n1467. Camilla, Duchess of Cornwall  \u2014  http:\/\/en.wikipedia.org.\/wiki\/Camilla%2C_Duchess_of_Cornwall\n1468. Fridtjof Nansen  \u2014  http:\/\/en.wikipedia.org.\/wiki\/Fridtjof_Nansen\n1469. Salma Hayek  \u2014  http:\/\/en.wikipedia.org.\/wiki\/Salma_Hayek\n1470. Xi Jinping  \u2014  http:\/\/en.wikipedia.org.\/wiki\/Xi_Jinping\n1471. Dominican Republic  \u2014  http:\/\/en.wikipedia.org.\/wiki\/Dominican_Republic\n1472. Nicolas Cage  \u2014  http:\/\/en.wikipedia.org.\/wiki\/Nicolas_Cage\n1473. Big data  \u2014  http:\/\/en.wikipedia.org.\/wiki\/Big_data\n1474. Anne Frank  \u2014  http:\/\/en.wikipedia.org.\/wiki\/Anne_Frank\n1475. J. R. R. Tolkien  \u2014  http:\/\/en.wikipedia.org.\/wiki\/J._R._R._Tolkien\n1476. Reputation (Taylor Swift album)  \u2014  http:\/\/en.wikipedia.org.\/wiki\/Reputation_(Taylor_Swift_album)\n1477. Xbox One  \u2014  http:\/\/en.wikipedia.org.\/wiki\/Xbox_One\n1478. John D. Rockefeller  \u2014  http:\/\/en.wikipedia.org.\/wiki\/John_D._Rockefeller\n1479. Jupiter  \u2014  http:\/\/en.wikipedia.org.\/wiki\/Jupiter\n1480. Julia Roberts  \u2014  http:\/\/en.wikipedia.org.\/wiki\/Julia_Roberts\n1481. Rose McGowan  \u2014  http:\/\/en.wikipedia.org.\/wiki\/Rose_McGowan\n1482. United States Senate elections, 2018  \u2014  http:\/\/en.wikipedia.org.\/wiki\/United_States_Senate_elections%2C_2018\n1483. Game of Thrones (season 1)  \u2014  http:\/\/en.wikipedia.org.\/wiki\/Game_of_Thrones_(season_1)\n1484. Timeless (TV series)  \u2014  http:\/\/en.wikipedia.org.\/wiki\/Timeless_(TV_series)\n1485. Tim Curry  \u2014  http:\/\/en.wikipedia.org.\/wiki\/Tim_Curry\n1486. Jews  \u2014  http:\/\/en.wikipedia.org.\/wiki\/Jews\n1487. Imagine Dragons  \u2014  http:\/\/en.wikipedia.org.\/wiki\/Imagine_Dragons\n1488. Deepika Padukone  \u2014  http:\/\/en.wikipedia.org.\/wiki\/Deepika_Padukone\n1489. Jigsaw (2017 film)  \u2014  http:\/\/en.wikipedia.org.\/wiki\/Jigsaw_(2017_film)\n1490. Albert, Prince Consort  \u2014  http:\/\/en.wikipedia.org.\/wiki\/Albert%2C_Prince_Consort\n1491. Down syndrome  \u2014  http:\/\/en.wikipedia.org.\/wiki\/Down_syndrome\n1492. List of Hallmark Channel Original Movies  \u2014  http:\/\/en.wikipedia.org.\/wiki\/List_of_Hallmark_Channel_Original_Movies\n1493. Native Americans in the United States  \u2014  http:\/\/en.wikipedia.org.\/wiki\/Native_Americans_in_the_United_States\n1494. List of Elementary episodes  \u2014  http:\/\/en.wikipedia.org.\/wiki\/List_of_Elementary_episodes\n1495. Wilhelm II, German Emperor  \u2014  http:\/\/en.wikipedia.org.\/wiki\/Wilhelm_II%2C_German_Emperor\n1496. Judy Garland  \u2014  http:\/\/en.wikipedia.org.\/wiki\/Judy_Garland\n1497. The Big Short (film)  \u2014  http:\/\/en.wikipedia.org.\/wiki\/The_Big_Short_(film)\n1498. Water  \u2014  http:\/\/en.wikipedia.org.\/wiki\/Water\n1499. G20  \u2014  http:\/\/en.wikipedia.org.\/wiki\/G20\n","miniList":"1400. Henry VII of England\n1401. Slovenia\n1402. IBM\n1403. Tiger\n1404. The Lion King\n1405. Al Pacino\n1406. Woodrow Wilson\n1407. Great Pyramid of Giza\n1408. Bipolar disorder\n1409. Chile\n1410. Josh Brolin\n1411. List of U.S. state abbreviations\n1412. Charles I of England\n1413. Jared Leto\n1414. Rome\n1415. Crown-rump length\n1416. Manson Family\n1417. Lisa Bonet\n1418. Bed size\n1419. GNU General Public License\n1420. Diabetes mellitus\n1421. Sofia Boutella\n1422. Bette Davis\n1423. United States presidential line of succession\n1424. World War II casualties\n1425. PHP\n1426. Lyme disease\n1427. HIV\/AIDS\n1428. Demography of the United States\n1429. Bashar al-Assad\n1430. Antarctica\n1431. Special relativity\n1432. Martin Shkreli\n1433. Black Pink\n1434. The Young Pope\n1435. 2018 Winter Olympics\n1436. Sherlock Holmes\n1437. Anthony Rapp\n1438. Wi-Fi\n1439. Saoirse Ronan\n1440. Eva Mendes\n1441. Bernie Sanders\n1442. Iraq\n1443. Flag of the United States\n1444. John F. Kelly\n1445. Harvard University\n1446. Golden State Warriors\n1447. Gibraltar\n1448. Samsung\n1449. Golden ratio\n1450. Steven Mnuchin\n1451. Mongolia\n1452. John Wayne Gacy\n1453. Daylight saving time\n1454. Occam's razor\n1455. C++\n1456. George Orwell\n1457. FC Bayern Munich\n1458. Jack the Ripper\n1459. Standard RAID levels\n1460. Bosnia and Herzegovina\n1461. Barcelona\n1462. Tiger Woods\n1463. Commonwealth of Nations\n1464. Charles Dickens\n1465. List of Greek mythological figures\n1466. General Dynamics F-16 Fighting Falcon\n1467. Camilla, Duchess of Cornwall\n1468. Fridtjof Nansen\n1469. Salma Hayek\n1470. Xi Jinping\n1471. Dominican Republic\n1472. Nicolas Cage\n1473. Big data\n1474. Anne Frank\n1475. J. R. R. Tolkien\n1476. Reputation (Taylor Swift album)\n1477. Xbox One\n1478. John D. Rockefeller\n1479. Jupiter\n1480. Julia Roberts\n1481. Rose McGowan\n1482. United States Senate elections, 2018\n1483. Game of Thrones (season 1)\n1484. Timeless (TV series)\n1485. Tim Curry\n1486. Jews\n1487. Imagine Dragons\n1488. Deepika Padukone\n1489. Jigsaw (2017 film)\n1490. Albert, Prince Consort\n1491. Down syndrome\n1492. List of Hallmark Channel Original Movies\n1493. Native Americans in the United States\n1494. List of Elementary episodes\n1495. Wilhelm II, German Emperor\n1496. Judy Garland\n1497. The Big Short (film)\n1498. Water\n1499. G20\n"}
