{"start":1501,"end":1600,"count":5616717,"type":"pageviews","pageSize":100,"page":15,"pages":56168,"columns":[{"label":"","property":"pageviews","sortable":false}],"items":[{"pageviews":"1500. <a target=\"_blank\" href=\"http://en.wikipedia.org./wiki/Thanksgiving\">Thanksgiving</a>"},{"pageviews":"1501. <a target=\"_blank\" href=\"http://en.wikipedia.org./wiki/Essay\">Essay</a>"},{"pageviews":"1502. <a target=\"_blank\" href=\"http://en.wikipedia.org./wiki/Starbucks\">Starbucks</a>"},{"pageviews":"1503. <a target=\"_blank\" href=\"http://en.wikipedia.org./wiki/Macau\">Macau</a>"},{"pageviews":"1504. <a target=\"_blank\" href=\"http://en.wikipedia.org./wiki/The_Shape_of_Water\">The Shape of Water</a>"},{"pageviews":"1505. <a target=\"_blank\" href=\"http://en.wikipedia.org./wiki/Katherine_Langford\">Katherine Langford</a>"},{"pageviews":"1506. <a target=\"_blank\" href=\"http://en.wikipedia.org./wiki/Elizabeth_Olsen\">Elizabeth Olsen</a>"},{"pageviews":"1507. <a target=\"_blank\" href=\"http://en.wikipedia.org./wiki/Zoroastrianism\">Zoroastrianism</a>"},{"pageviews":"1508. <a target=\"_blank\" href=\"http://en.wikipedia.org./wiki/List_of_countries_by_GDP_(nominal)_per_capita\">List of countries by GDP (nominal) per capita</a>"},{"pageviews":"1509. <a target=\"_blank\" href=\"http://en.wikipedia.org./wiki/Alec_Baldwin\">Alec Baldwin</a>"},{"pageviews":"1510. <a target=\"_blank\" href=\"http://en.wikipedia.org./wiki/Cinco_de_Mayo\">Cinco de Mayo</a>"},{"pageviews":"1511. <a target=\"_blank\" href=\"http://en.wikipedia.org./wiki/La_Liga\">La Liga</a>"},{"pageviews":"1512. <a target=\"_blank\" href=\"http://en.wikipedia.org./wiki/Lil_Uzi_Vert\">Lil Uzi Vert</a>"},{"pageviews":"1513. <a target=\"_blank\" href=\"http://en.wikipedia.org./wiki/Jurassic_World\">Jurassic World</a>"},{"pageviews":"1514. <a target=\"_blank\" href=\"http://en.wikipedia.org./wiki/Anne%2C_Queen_of_Great_Britain\">Anne, Queen of Great Britain</a>"},{"pageviews":"1515. <a target=\"_blank\" href=\"http://en.wikipedia.org./wiki/List_of_countries_by_Human_Development_Index\">List of countries by Human Development Index</a>"},{"pageviews":"1516. <a target=\"_blank\" href=\"http://en.wikipedia.org./wiki/Kylie_Jenner\">Kylie Jenner</a>"},{"pageviews":"1517. <a target=\"_blank\" href=\"http://en.wikipedia.org./wiki/Nike%2C_Inc.\">Nike, Inc.</a>"},{"pageviews":"1518. <a target=\"_blank\" href=\"http://en.wikipedia.org./wiki/Maisie_Williams\">Maisie Williams</a>"},{"pageviews":"1519. <a target=\"_blank\" href=\"http://en.wikipedia.org./wiki/ABBA\">ABBA</a>"},{"pageviews":"1520. <a target=\"_blank\" href=\"http://en.wikipedia.org./wiki/XVideos\">XVideos</a>"},{"pageviews":"1521. <a target=\"_blank\" href=\"http://en.wikipedia.org./wiki/Thanos\">Thanos</a>"},{"pageviews":"1522. <a target=\"_blank\" href=\"http://en.wikipedia.org./wiki/Alessia_Cara\">Alessia Cara</a>"},{"pageviews":"1523. <a target=\"_blank\" href=\"http://en.wikipedia.org./wiki/Miguel_Ferrer\">Miguel Ferrer</a>"},{"pageviews":"1524. <a target=\"_blank\" href=\"http://en.wikipedia.org./wiki/Zaha_Hadid\">Zaha Hadid</a>"},{"pageviews":"1525. <a target=\"_blank\" href=\"http://en.wikipedia.org./wiki/Manchester_Arena_bombing\">Manchester Arena bombing</a>"},{"pageviews":"1526. <a target=\"_blank\" href=\"http://en.wikipedia.org./wiki/Lithuania\">Lithuania</a>"},{"pageviews":"1527. <a target=\"_blank\" href=\"http://en.wikipedia.org./wiki/Amino_acid\">Amino acid</a>"},{"pageviews":"1528. <a target=\"_blank\" href=\"http://en.wikipedia.org./wiki/Black_hole\">Black hole</a>"},{"pageviews":"1529. <a target=\"_blank\" href=\"http://en.wikipedia.org./wiki/List_of_countries_by_GDP_(PPP)\">List of countries by GDP (PPP)</a>"},{"pageviews":"1530. <a target=\"_blank\" href=\"http://en.wikipedia.org./wiki/2017_Africa_Cup_of_Nations\">2017 Africa Cup of Nations</a>"},{"pageviews":"1531. <a target=\"_blank\" href=\"http://en.wikipedia.org./wiki/JSON\">JSON</a>"},{"pageviews":"1532. <a target=\"_blank\" href=\"http://en.wikipedia.org./wiki/Meme\">Meme</a>"},{"pageviews":"1533. <a target=\"_blank\" href=\"http://en.wikipedia.org./wiki/Financial_crisis_of_2007%E2%80%932008\">Financial crisis of 2007–2008</a>"},{"pageviews":"1534. <a target=\"_blank\" href=\"http://en.wikipedia.org./wiki/John_Travolta\">John Travolta</a>"},{"pageviews":"1535. <a target=\"_blank\" href=\"http://en.wikipedia.org./wiki/Pretty_Little_Liars_(season_7)\">Pretty Little Liars (season 7)</a>"},{"pageviews":"1536. <a target=\"_blank\" href=\"http://en.wikipedia.org./wiki/Bluetooth\">Bluetooth</a>"},{"pageviews":"1537. <a target=\"_blank\" href=\"http://en.wikipedia.org./wiki/Mandy_Moore\">Mandy Moore</a>"},{"pageviews":"1538. <a target=\"_blank\" href=\"http://en.wikipedia.org./wiki/War_Machine_(film)\">War Machine (film)</a>"},{"pageviews":"1539. <a target=\"_blank\" href=\"http://en.wikipedia.org./wiki/Osama_bin_Laden\">Osama bin Laden</a>"},{"pageviews":"1540. <a target=\"_blank\" href=\"http://en.wikipedia.org./wiki/Nazism\">Nazism</a>"},{"pageviews":"1541. <a target=\"_blank\" href=\"http://en.wikipedia.org./wiki/Quantico_(TV_series)\">Quantico (TV series)</a>"},{"pageviews":"1542. <a target=\"_blank\" href=\"http://en.wikipedia.org./wiki/Alibaba_Group\">Alibaba Group</a>"},{"pageviews":"1543. <a target=\"_blank\" href=\"http://en.wikipedia.org./wiki/Swastika\">Swastika</a>"},{"pageviews":"1544. <a target=\"_blank\" href=\"http://en.wikipedia.org./wiki/SummerSlam_(2017)\">SummerSlam (2017)</a>"},{"pageviews":"1545. <a target=\"_blank\" href=\"http://en.wikipedia.org./wiki/List_of_most-disliked_YouTube_videos\">List of most-disliked YouTube videos</a>"},{"pageviews":"1546. <a target=\"_blank\" href=\"http://en.wikipedia.org./wiki/Joan_of_Arc\">Joan of Arc</a>"},{"pageviews":"1547. <a target=\"_blank\" href=\"http://en.wikipedia.org./wiki/Costa_Rica\">Costa Rica</a>"},{"pageviews":"1548. <a target=\"_blank\" href=\"http://en.wikipedia.org./wiki/Blog\">Blog</a>"},{"pageviews":"1549. <a target=\"_blank\" href=\"http://en.wikipedia.org./wiki/Adventure_Time\">Adventure Time</a>"},{"pageviews":"1550. <a target=\"_blank\" href=\"http://en.wikipedia.org./wiki/Pneumonia\">Pneumonia</a>"},{"pageviews":"1551. <a target=\"_blank\" href=\"http://en.wikipedia.org./wiki/SQL\">SQL</a>"},{"pageviews":"1552. <a target=\"_blank\" href=\"http://en.wikipedia.org./wiki/Kirsten_Dunst\">Kirsten Dunst</a>"},{"pageviews":"1553. <a target=\"_blank\" href=\"http://en.wikipedia.org./wiki/Bebe_Rexha\">Bebe Rexha</a>"},{"pageviews":"1554. <a target=\"_blank\" href=\"http://en.wikipedia.org./wiki/Marxism\">Marxism</a>"},{"pageviews":"1555. <a target=\"_blank\" href=\"http://en.wikipedia.org./wiki/Kenya\">Kenya</a>"},{"pageviews":"1556. <a target=\"_blank\" href=\"http://en.wikipedia.org./wiki/Knowledge\">Knowledge</a>"},{"pageviews":"1557. <a target=\"_blank\" href=\"http://en.wikipedia.org./wiki/List_of_The_Simpsons_episodes\">List of The Simpsons episodes</a>"},{"pageviews":"1558. <a target=\"_blank\" href=\"http://en.wikipedia.org./wiki/Grigori_Rasputin\">Grigori Rasputin</a>"},{"pageviews":"1559. <a target=\"_blank\" href=\"http://en.wikipedia.org./wiki/List_of_American_Dad!_episodes\">List of American Dad! episodes</a>"},{"pageviews":"1560. <a target=\"_blank\" href=\"http://en.wikipedia.org./wiki/%C3%B7_(album)\">÷ (album)</a>"},{"pageviews":"1561. <a target=\"_blank\" href=\"http://en.wikipedia.org./wiki/Rice\">Rice</a>"},{"pageviews":"1562. <a target=\"_blank\" href=\"http://en.wikipedia.org./wiki/Dave_Franco\">Dave Franco</a>"},{"pageviews":"1563. <a target=\"_blank\" href=\"http://en.wikipedia.org./wiki/Bradley_Cooper\">Bradley Cooper</a>"},{"pageviews":"1564. <a target=\"_blank\" href=\"http://en.wikipedia.org./wiki/Steppenwolf_(comics)\">Steppenwolf (comics)</a>"},{"pageviews":"1565. <a target=\"_blank\" href=\"http://en.wikipedia.org./wiki/Berlin\">Berlin</a>"},{"pageviews":"1566. <a target=\"_blank\" href=\"http://en.wikipedia.org./wiki/United_States_Army\">United States Army</a>"},{"pageviews":"1567. <a target=\"_blank\" href=\"http://en.wikipedia.org./wiki/Parks_and_Recreation\">Parks and Recreation</a>"},{"pageviews":"1568. <a target=\"_blank\" href=\"http://en.wikipedia.org./wiki/Prince_Andrew%2C_Duke_of_York\">Prince Andrew, Duke of York</a>"},{"pageviews":"1569. <a target=\"_blank\" href=\"http://en.wikipedia.org./wiki/Knights_Templar\">Knights Templar</a>"},{"pageviews":"1570. <a target=\"_blank\" href=\"http://en.wikipedia.org./wiki/AK-47\">AK-47</a>"},{"pageviews":"1571. <a target=\"_blank\" href=\"http://en.wikipedia.org./wiki/The_Accountant_(2016_film)\">The Accountant (2016 film)</a>"},{"pageviews":"1572. <a target=\"_blank\" href=\"http://en.wikipedia.org./wiki/Undefined\">Undefined</a>"},{"pageviews":"1573. <a target=\"_blank\" href=\"http://en.wikipedia.org./wiki/Dark_City_(1998_film)\">Dark City (1998 film)</a>"},{"pageviews":"1574. <a target=\"_blank\" href=\"http://en.wikipedia.org./wiki/World_Wide_Web\">World Wide Web</a>"},{"pageviews":"1575. <a target=\"_blank\" href=\"http://en.wikipedia.org./wiki/Usain_Bolt\">Usain Bolt</a>"},{"pageviews":"1576. <a target=\"_blank\" href=\"http://en.wikipedia.org./wiki/Domain_Name_System\">Domain Name System</a>"},{"pageviews":"1577. <a target=\"_blank\" href=\"http://en.wikipedia.org./wiki/The_Vampire_Diaries_(season_8)\">The Vampire Diaries (season 8)</a>"},{"pageviews":"1578. <a target=\"_blank\" href=\"http://en.wikipedia.org./wiki/Wales\">Wales</a>"},{"pageviews":"1579. <a target=\"_blank\" href=\"http://en.wikipedia.org./wiki/The_Great_Gatsby\">The Great Gatsby</a>"},{"pageviews":"1580. <a target=\"_blank\" href=\"http://en.wikipedia.org./wiki/Wolverine_(character)\">Wolverine (character)</a>"},{"pageviews":"1581. <a target=\"_blank\" href=\"http://en.wikipedia.org./wiki/Coca-Cola\">Coca-Cola</a>"},{"pageviews":"1582. <a target=\"_blank\" href=\"http://en.wikipedia.org./wiki/Easter\">Easter</a>"},{"pageviews":"1583. <a target=\"_blank\" href=\"http://en.wikipedia.org./wiki/Proxy_server\">Proxy server</a>"},{"pageviews":"1584. <a target=\"_blank\" href=\"http://en.wikipedia.org./wiki/Furious_7\">Furious 7</a>"},{"pageviews":"1585. <a target=\"_blank\" href=\"http://en.wikipedia.org./wiki/Taron_Egerton\">Taron Egerton</a>"},{"pageviews":"1586. <a target=\"_blank\" href=\"http://en.wikipedia.org./wiki/Trans-Pacific_Partnership\">Trans-Pacific Partnership</a>"},{"pageviews":"1587. <a target=\"_blank\" href=\"http://en.wikipedia.org./wiki/Charlie_Hunnam\">Charlie Hunnam</a>"},{"pageviews":"1588. <a target=\"_blank\" href=\"http://en.wikipedia.org./wiki/Multiple_sclerosis\">Multiple sclerosis</a>"},{"pageviews":"1589. <a target=\"_blank\" href=\"http://en.wikipedia.org./wiki/Bahrain\">Bahrain</a>"},{"pageviews":"1590. <a target=\"_blank\" href=\"http://en.wikipedia.org./wiki/Penny_Dreadful_(film)\">Penny Dreadful (film)</a>"},{"pageviews":"1591. <a target=\"_blank\" href=\"http://en.wikipedia.org./wiki/Ragnar%C3%B6k\">Ragnarök</a>"},{"pageviews":"1592. <a target=\"_blank\" href=\"http://en.wikipedia.org./wiki/Jack_Nicholson\">Jack Nicholson</a>"},{"pageviews":"1593. <a target=\"_blank\" href=\"http://en.wikipedia.org./wiki/English_Wikipedia\">English Wikipedia</a>"},{"pageviews":"1594. <a target=\"_blank\" href=\"http://en.wikipedia.org./wiki/2004_Indian_Ocean_earthquake_and_tsunami\">2004 Indian Ocean earthquake and tsunami</a>"},{"pageviews":"1595. <a target=\"_blank\" href=\"http://en.wikipedia.org./wiki/Auschwitz_concentration_camp\">Auschwitz concentration camp</a>"},{"pageviews":"1596. <a target=\"_blank\" href=\"http://en.wikipedia.org./wiki/The_Lord_of_the_Rings\">The Lord of the Rings</a>"},{"pageviews":"1597. <a target=\"_blank\" href=\"http://en.wikipedia.org./wiki/Christian_Bale\">Christian Bale</a>"},{"pageviews":"1598. <a target=\"_blank\" href=\"http://en.wikipedia.org./wiki/Martin_Scorsese\">Martin Scorsese</a>"},{"pageviews":"1599. <a target=\"_blank\" href=\"http://en.wikipedia.org./wiki/Aamir_Khan\">Aamir Khan</a>"}],"list":"1500. Thanksgiving  \u2014  http:\/\/en.wikipedia.org.\/wiki\/Thanksgiving\n1501. Essay  \u2014  http:\/\/en.wikipedia.org.\/wiki\/Essay\n1502. Starbucks  \u2014  http:\/\/en.wikipedia.org.\/wiki\/Starbucks\n1503. Macau  \u2014  http:\/\/en.wikipedia.org.\/wiki\/Macau\n1504. The Shape of Water  \u2014  http:\/\/en.wikipedia.org.\/wiki\/The_Shape_of_Water\n1505. Katherine Langford  \u2014  http:\/\/en.wikipedia.org.\/wiki\/Katherine_Langford\n1506. Elizabeth Olsen  \u2014  http:\/\/en.wikipedia.org.\/wiki\/Elizabeth_Olsen\n1507. Zoroastrianism  \u2014  http:\/\/en.wikipedia.org.\/wiki\/Zoroastrianism\n1508. List of countries by GDP (nominal) per capita  \u2014  http:\/\/en.wikipedia.org.\/wiki\/List_of_countries_by_GDP_(nominal)_per_capita\n1509. Alec Baldwin  \u2014  http:\/\/en.wikipedia.org.\/wiki\/Alec_Baldwin\n1510. Cinco de Mayo  \u2014  http:\/\/en.wikipedia.org.\/wiki\/Cinco_de_Mayo\n1511. La Liga  \u2014  http:\/\/en.wikipedia.org.\/wiki\/La_Liga\n1512. Lil Uzi Vert  \u2014  http:\/\/en.wikipedia.org.\/wiki\/Lil_Uzi_Vert\n1513. Jurassic World  \u2014  http:\/\/en.wikipedia.org.\/wiki\/Jurassic_World\n1514. Anne, Queen of Great Britain  \u2014  http:\/\/en.wikipedia.org.\/wiki\/Anne%2C_Queen_of_Great_Britain\n1515. List of countries by Human Development Index  \u2014  http:\/\/en.wikipedia.org.\/wiki\/List_of_countries_by_Human_Development_Index\n1516. Kylie Jenner  \u2014  http:\/\/en.wikipedia.org.\/wiki\/Kylie_Jenner\n1517. Nike, Inc.  \u2014  http:\/\/en.wikipedia.org.\/wiki\/Nike%2C_Inc.\n1518. Maisie Williams  \u2014  http:\/\/en.wikipedia.org.\/wiki\/Maisie_Williams\n1519. ABBA  \u2014  http:\/\/en.wikipedia.org.\/wiki\/ABBA\n1520. XVideos  \u2014  http:\/\/en.wikipedia.org.\/wiki\/XVideos\n1521. Thanos  \u2014  http:\/\/en.wikipedia.org.\/wiki\/Thanos\n1522. Alessia Cara  \u2014  http:\/\/en.wikipedia.org.\/wiki\/Alessia_Cara\n1523. Miguel Ferrer  \u2014  http:\/\/en.wikipedia.org.\/wiki\/Miguel_Ferrer\n1524. Zaha Hadid  \u2014  http:\/\/en.wikipedia.org.\/wiki\/Zaha_Hadid\n1525. Manchester Arena bombing  \u2014  http:\/\/en.wikipedia.org.\/wiki\/Manchester_Arena_bombing\n1526. Lithuania  \u2014  http:\/\/en.wikipedia.org.\/wiki\/Lithuania\n1527. Amino acid  \u2014  http:\/\/en.wikipedia.org.\/wiki\/Amino_acid\n1528. Black hole  \u2014  http:\/\/en.wikipedia.org.\/wiki\/Black_hole\n1529. List of countries by GDP (PPP)  \u2014  http:\/\/en.wikipedia.org.\/wiki\/List_of_countries_by_GDP_(PPP)\n1530. 2017 Africa Cup of Nations  \u2014  http:\/\/en.wikipedia.org.\/wiki\/2017_Africa_Cup_of_Nations\n1531. JSON  \u2014  http:\/\/en.wikipedia.org.\/wiki\/JSON\n1532. Meme  \u2014  http:\/\/en.wikipedia.org.\/wiki\/Meme\n1533. Financial crisis of 2007\u20132008  \u2014  http:\/\/en.wikipedia.org.\/wiki\/Financial_crisis_of_2007%E2%80%932008\n1534. John Travolta  \u2014  http:\/\/en.wikipedia.org.\/wiki\/John_Travolta\n1535. Pretty Little Liars (season 7)  \u2014  http:\/\/en.wikipedia.org.\/wiki\/Pretty_Little_Liars_(season_7)\n1536. Bluetooth  \u2014  http:\/\/en.wikipedia.org.\/wiki\/Bluetooth\n1537. Mandy Moore  \u2014  http:\/\/en.wikipedia.org.\/wiki\/Mandy_Moore\n1538. War Machine (film)  \u2014  http:\/\/en.wikipedia.org.\/wiki\/War_Machine_(film)\n1539. Osama bin Laden  \u2014  http:\/\/en.wikipedia.org.\/wiki\/Osama_bin_Laden\n1540. Nazism  \u2014  http:\/\/en.wikipedia.org.\/wiki\/Nazism\n1541. Quantico (TV series)  \u2014  http:\/\/en.wikipedia.org.\/wiki\/Quantico_(TV_series)\n1542. Alibaba Group  \u2014  http:\/\/en.wikipedia.org.\/wiki\/Alibaba_Group\n1543. Swastika  \u2014  http:\/\/en.wikipedia.org.\/wiki\/Swastika\n1544. SummerSlam (2017)  \u2014  http:\/\/en.wikipedia.org.\/wiki\/SummerSlam_(2017)\n1545. List of most-disliked YouTube videos  \u2014  http:\/\/en.wikipedia.org.\/wiki\/List_of_most-disliked_YouTube_videos\n1546. Joan of Arc  \u2014  http:\/\/en.wikipedia.org.\/wiki\/Joan_of_Arc\n1547. Costa Rica  \u2014  http:\/\/en.wikipedia.org.\/wiki\/Costa_Rica\n1548. Blog  \u2014  http:\/\/en.wikipedia.org.\/wiki\/Blog\n1549. Adventure Time  \u2014  http:\/\/en.wikipedia.org.\/wiki\/Adventure_Time\n1550. Pneumonia  \u2014  http:\/\/en.wikipedia.org.\/wiki\/Pneumonia\n1551. SQL  \u2014  http:\/\/en.wikipedia.org.\/wiki\/SQL\n1552. Kirsten Dunst  \u2014  http:\/\/en.wikipedia.org.\/wiki\/Kirsten_Dunst\n1553. Bebe Rexha  \u2014  http:\/\/en.wikipedia.org.\/wiki\/Bebe_Rexha\n1554. Marxism  \u2014  http:\/\/en.wikipedia.org.\/wiki\/Marxism\n1555. Kenya  \u2014  http:\/\/en.wikipedia.org.\/wiki\/Kenya\n1556. Knowledge  \u2014  http:\/\/en.wikipedia.org.\/wiki\/Knowledge\n1557. List of The Simpsons episodes  \u2014  http:\/\/en.wikipedia.org.\/wiki\/List_of_The_Simpsons_episodes\n1558. Grigori Rasputin  \u2014  http:\/\/en.wikipedia.org.\/wiki\/Grigori_Rasputin\n1559. List of American Dad! episodes  \u2014  http:\/\/en.wikipedia.org.\/wiki\/List_of_American_Dad!_episodes\n1560. \u00F7 (album)  \u2014  http:\/\/en.wikipedia.org.\/wiki\/%C3%B7_(album)\n1561. Rice  \u2014  http:\/\/en.wikipedia.org.\/wiki\/Rice\n1562. Dave Franco  \u2014  http:\/\/en.wikipedia.org.\/wiki\/Dave_Franco\n1563. Bradley Cooper  \u2014  http:\/\/en.wikipedia.org.\/wiki\/Bradley_Cooper\n1564. Steppenwolf (comics)  \u2014  http:\/\/en.wikipedia.org.\/wiki\/Steppenwolf_(comics)\n1565. Berlin  \u2014  http:\/\/en.wikipedia.org.\/wiki\/Berlin\n1566. United States Army  \u2014  http:\/\/en.wikipedia.org.\/wiki\/United_States_Army\n1567. Parks and Recreation  \u2014  http:\/\/en.wikipedia.org.\/wiki\/Parks_and_Recreation\n1568. Prince Andrew, Duke of York  \u2014  http:\/\/en.wikipedia.org.\/wiki\/Prince_Andrew%2C_Duke_of_York\n1569. Knights Templar  \u2014  http:\/\/en.wikipedia.org.\/wiki\/Knights_Templar\n1570. AK-47  \u2014  http:\/\/en.wikipedia.org.\/wiki\/AK-47\n1571. The Accountant (2016 film)  \u2014  http:\/\/en.wikipedia.org.\/wiki\/The_Accountant_(2016_film)\n1572. Undefined  \u2014  http:\/\/en.wikipedia.org.\/wiki\/Undefined\n1573. Dark City (1998 film)  \u2014  http:\/\/en.wikipedia.org.\/wiki\/Dark_City_(1998_film)\n1574. World Wide Web  \u2014  http:\/\/en.wikipedia.org.\/wiki\/World_Wide_Web\n1575. Usain Bolt  \u2014  http:\/\/en.wikipedia.org.\/wiki\/Usain_Bolt\n1576. Domain Name System  \u2014  http:\/\/en.wikipedia.org.\/wiki\/Domain_Name_System\n1577. The Vampire Diaries (season 8)  \u2014  http:\/\/en.wikipedia.org.\/wiki\/The_Vampire_Diaries_(season_8)\n1578. Wales  \u2014  http:\/\/en.wikipedia.org.\/wiki\/Wales\n1579. The Great Gatsby  \u2014  http:\/\/en.wikipedia.org.\/wiki\/The_Great_Gatsby\n1580. Wolverine (character)  \u2014  http:\/\/en.wikipedia.org.\/wiki\/Wolverine_(character)\n1581. Coca-Cola  \u2014  http:\/\/en.wikipedia.org.\/wiki\/Coca-Cola\n1582. Easter  \u2014  http:\/\/en.wikipedia.org.\/wiki\/Easter\n1583. Proxy server  \u2014  http:\/\/en.wikipedia.org.\/wiki\/Proxy_server\n1584. Furious 7  \u2014  http:\/\/en.wikipedia.org.\/wiki\/Furious_7\n1585. Taron Egerton  \u2014  http:\/\/en.wikipedia.org.\/wiki\/Taron_Egerton\n1586. Trans-Pacific Partnership  \u2014  http:\/\/en.wikipedia.org.\/wiki\/Trans-Pacific_Partnership\n1587. Charlie Hunnam  \u2014  http:\/\/en.wikipedia.org.\/wiki\/Charlie_Hunnam\n1588. Multiple sclerosis  \u2014  http:\/\/en.wikipedia.org.\/wiki\/Multiple_sclerosis\n1589. Bahrain  \u2014  http:\/\/en.wikipedia.org.\/wiki\/Bahrain\n1590. Penny Dreadful (film)  \u2014  http:\/\/en.wikipedia.org.\/wiki\/Penny_Dreadful_(film)\n1591. Ragnar\u00F6k  \u2014  http:\/\/en.wikipedia.org.\/wiki\/Ragnar%C3%B6k\n1592. Jack Nicholson  \u2014  http:\/\/en.wikipedia.org.\/wiki\/Jack_Nicholson\n1593. English Wikipedia  \u2014  http:\/\/en.wikipedia.org.\/wiki\/English_Wikipedia\n1594. 2004 Indian Ocean earthquake and tsunami  \u2014  http:\/\/en.wikipedia.org.\/wiki\/2004_Indian_Ocean_earthquake_and_tsunami\n1595. Auschwitz concentration camp  \u2014  http:\/\/en.wikipedia.org.\/wiki\/Auschwitz_concentration_camp\n1596. The Lord of the Rings  \u2014  http:\/\/en.wikipedia.org.\/wiki\/The_Lord_of_the_Rings\n1597. Christian Bale  \u2014  http:\/\/en.wikipedia.org.\/wiki\/Christian_Bale\n1598. Martin Scorsese  \u2014  http:\/\/en.wikipedia.org.\/wiki\/Martin_Scorsese\n1599. Aamir Khan  \u2014  http:\/\/en.wikipedia.org.\/wiki\/Aamir_Khan\n","miniList":"1500. Thanksgiving\n1501. Essay\n1502. Starbucks\n1503. Macau\n1504. The Shape of Water\n1505. Katherine Langford\n1506. Elizabeth Olsen\n1507. Zoroastrianism\n1508. List of countries by GDP (nominal) per capita\n1509. Alec Baldwin\n1510. Cinco de Mayo\n1511. La Liga\n1512. Lil Uzi Vert\n1513. Jurassic World\n1514. Anne, Queen of Great Britain\n1515. List of countries by Human Development Index\n1516. Kylie Jenner\n1517. Nike, Inc.\n1518. Maisie Williams\n1519. ABBA\n1520. XVideos\n1521. Thanos\n1522. Alessia Cara\n1523. Miguel Ferrer\n1524. Zaha Hadid\n1525. Manchester Arena bombing\n1526. Lithuania\n1527. Amino acid\n1528. Black hole\n1529. List of countries by GDP (PPP)\n1530. 2017 Africa Cup of Nations\n1531. JSON\n1532. Meme\n1533. Financial crisis of 2007\u20132008\n1534. John Travolta\n1535. Pretty Little Liars (season 7)\n1536. Bluetooth\n1537. Mandy Moore\n1538. War Machine (film)\n1539. Osama bin Laden\n1540. Nazism\n1541. Quantico (TV series)\n1542. Alibaba Group\n1543. Swastika\n1544. SummerSlam (2017)\n1545. List of most-disliked YouTube videos\n1546. Joan of Arc\n1547. Costa Rica\n1548. Blog\n1549. Adventure Time\n1550. Pneumonia\n1551. SQL\n1552. Kirsten Dunst\n1553. Bebe Rexha\n1554. Marxism\n1555. Kenya\n1556. Knowledge\n1557. List of The Simpsons episodes\n1558. Grigori Rasputin\n1559. List of American Dad! episodes\n1560. \u00F7 (album)\n1561. Rice\n1562. Dave Franco\n1563. Bradley Cooper\n1564. Steppenwolf (comics)\n1565. Berlin\n1566. United States Army\n1567. Parks and Recreation\n1568. Prince Andrew, Duke of York\n1569. Knights Templar\n1570. AK-47\n1571. The Accountant (2016 film)\n1572. Undefined\n1573. Dark City (1998 film)\n1574. World Wide Web\n1575. Usain Bolt\n1576. Domain Name System\n1577. The Vampire Diaries (season 8)\n1578. Wales\n1579. The Great Gatsby\n1580. Wolverine (character)\n1581. Coca-Cola\n1582. Easter\n1583. Proxy server\n1584. Furious 7\n1585. Taron Egerton\n1586. Trans-Pacific Partnership\n1587. Charlie Hunnam\n1588. Multiple sclerosis\n1589. Bahrain\n1590. Penny Dreadful (film)\n1591. Ragnar\u00F6k\n1592. Jack Nicholson\n1593. English Wikipedia\n1594. 2004 Indian Ocean earthquake and tsunami\n1595. Auschwitz concentration camp\n1596. The Lord of the Rings\n1597. Christian Bale\n1598. Martin Scorsese\n1599. Aamir Khan\n"}
