{"start":1601,"end":1700,"count":5616717,"type":"pageviews","pageSize":100,"page":16,"pages":56168,"columns":[{"label":"","property":"pageviews","sortable":false}],"items":[{"pageviews":"1600. <a target=\"_blank\" href=\"http://en.wikipedia.org./wiki/2014_FIFA_World_Cup\">2014 FIFA World Cup</a>"},{"pageviews":"1601. <a target=\"_blank\" href=\"http://en.wikipedia.org./wiki/How_I_Met_Your_Mother\">How I Met Your Mother</a>"},{"pageviews":"1602. <a target=\"_blank\" href=\"http://en.wikipedia.org./wiki/Romani_people\">Romani people</a>"},{"pageviews":"1603. <a target=\"_blank\" href=\"http://en.wikipedia.org./wiki/UFC_209\">UFC 209</a>"},{"pageviews":"1604. <a target=\"_blank\" href=\"http://en.wikipedia.org./wiki/Latvia\">Latvia</a>"},{"pageviews":"1605. <a target=\"_blank\" href=\"http://en.wikipedia.org./wiki/Black_Sabbath\">Black Sabbath</a>"},{"pageviews":"1606. <a target=\"_blank\" href=\"http://en.wikipedia.org./wiki/Battle_of_Stalingrad\">Battle of Stalingrad</a>"},{"pageviews":"1607. <a target=\"_blank\" href=\"http://en.wikipedia.org./wiki/Shania_Twain\">Shania Twain</a>"},{"pageviews":"1608. <a target=\"_blank\" href=\"http://en.wikipedia.org./wiki/Bones_(TV_series)\">Bones (TV series)</a>"},{"pageviews":"1609. <a target=\"_blank\" href=\"http://en.wikipedia.org./wiki/Robert_F._Kennedy\">Robert F. Kennedy</a>"},{"pageviews":"1610. <a target=\"_blank\" href=\"http://en.wikipedia.org./wiki/Algeria\">Algeria</a>"},{"pageviews":"1611. <a target=\"_blank\" href=\"http://en.wikipedia.org./wiki/United_States_presidential_election%2C_2020\">United States presidential election, 2020</a>"},{"pageviews":"1612. <a target=\"_blank\" href=\"http://en.wikipedia.org./wiki/Pentatonix\">Pentatonix</a>"},{"pageviews":"1613. <a target=\"_blank\" href=\"http://en.wikipedia.org./wiki/Chlo%C3%AB_Grace_Moretz\">Chloë Grace Moretz</a>"},{"pageviews":"1614. <a target=\"_blank\" href=\"http://en.wikipedia.org./wiki/Lil_Wayne\">Lil Wayne</a>"},{"pageviews":"1615. <a target=\"_blank\" href=\"http://en.wikipedia.org./wiki/United_States_Marine_Corps\">United States Marine Corps</a>"},{"pageviews":"1616. <a target=\"_blank\" href=\"http://en.wikipedia.org./wiki/Amyotrophic_lateral_sclerosis\">Amyotrophic lateral sclerosis</a>"},{"pageviews":"1617. <a target=\"_blank\" href=\"http://en.wikipedia.org./wiki/Stanley_Kubrick\">Stanley Kubrick</a>"},{"pageviews":"1618. <a target=\"_blank\" href=\"http://en.wikipedia.org./wiki/United_States_Congress\">United States Congress</a>"},{"pageviews":"1619. <a target=\"_blank\" href=\"http://en.wikipedia.org./wiki/The_Shawshank_Redemption\">The Shawshank Redemption</a>"},{"pageviews":"1620. <a target=\"_blank\" href=\"http://en.wikipedia.org./wiki/Database\">Database</a>"},{"pageviews":"1621. <a target=\"_blank\" href=\"http://en.wikipedia.org./wiki/Sarah_Paulson\">Sarah Paulson</a>"},{"pageviews":"1622. <a target=\"_blank\" href=\"http://en.wikipedia.org./wiki/Tropical_cyclone\">Tropical cyclone</a>"},{"pageviews":"1623. <a target=\"_blank\" href=\"http://en.wikipedia.org./wiki/Big_Five_personality_traits\">Big Five personality traits</a>"},{"pageviews":"1624. <a target=\"_blank\" href=\"http://en.wikipedia.org./wiki/Radiohead\">Radiohead</a>"},{"pageviews":"1625. <a target=\"_blank\" href=\"http://en.wikipedia.org./wiki/Michelangelo\">Michelangelo</a>"},{"pageviews":"1626. <a target=\"_blank\" href=\"http://en.wikipedia.org./wiki/Laura_Dern\">Laura Dern</a>"},{"pageviews":"1627. <a target=\"_blank\" href=\"http://en.wikipedia.org./wiki/Scandal_(TV_series)\">Scandal (TV series)</a>"},{"pageviews":"1628. <a target=\"_blank\" href=\"http://en.wikipedia.org./wiki/Armenian_Genocide\">Armenian Genocide</a>"},{"pageviews":"1629. <a target=\"_blank\" href=\"http://en.wikipedia.org./wiki/United_States_Navy\">United States Navy</a>"},{"pageviews":"1630. <a target=\"_blank\" href=\"http://en.wikipedia.org./wiki/Elementary_(TV_series)\">Elementary (TV series)</a>"},{"pageviews":"1631. <a target=\"_blank\" href=\"http://en.wikipedia.org./wiki/Dab_(dance)\">Dab (dance)</a>"},{"pageviews":"1632. <a target=\"_blank\" href=\"http://en.wikipedia.org./wiki/Taylor_series\">Taylor series</a>"},{"pageviews":"1633. <a target=\"_blank\" href=\"http://en.wikipedia.org./wiki/Zoe_Saldana\">Zoe Saldana</a>"},{"pageviews":"1634. <a target=\"_blank\" href=\"http://en.wikipedia.org./wiki/Daniel_Craig\">Daniel Craig</a>"},{"pageviews":"1635. <a target=\"_blank\" href=\"http://en.wikipedia.org./wiki/2002_FIFA_World_Cup\">2002 FIFA World Cup</a>"},{"pageviews":"1636. <a target=\"_blank\" href=\"http://en.wikipedia.org./wiki/The_Star-Spangled_Banner\">The Star-Spangled Banner</a>"},{"pageviews":"1637. <a target=\"_blank\" href=\"http://en.wikipedia.org./wiki/Google_Search\">Google Search</a>"},{"pageviews":"1638. <a target=\"_blank\" href=\"http://en.wikipedia.org./wiki/Rani_Padmini\">Rani Padmini</a>"},{"pageviews":"1639. <a target=\"_blank\" href=\"http://en.wikipedia.org./wiki/Saddam_Hussein\">Saddam Hussein</a>"},{"pageviews":"1640. <a target=\"_blank\" href=\"http://en.wikipedia.org./wiki/U2\">U2</a>"},{"pageviews":"1641. <a target=\"_blank\" href=\"http://en.wikipedia.org./wiki/Philadelphia\">Philadelphia</a>"},{"pageviews":"1642. <a target=\"_blank\" href=\"http://en.wikipedia.org./wiki/Liam_Neeson\">Liam Neeson</a>"},{"pageviews":"1643. <a target=\"_blank\" href=\"http://en.wikipedia.org./wiki/H._H._Holmes\">H. H. Holmes</a>"},{"pageviews":"1644. <a target=\"_blank\" href=\"http://en.wikipedia.org./wiki/David_Beckham\">David Beckham</a>"},{"pageviews":"1645. <a target=\"_blank\" href=\"http://en.wikipedia.org./wiki/List_of_best-selling_music_artists\">List of best-selling music artists</a>"},{"pageviews":"1646. <a target=\"_blank\" href=\"http://en.wikipedia.org./wiki/Otilonium_bromide\">Otilonium bromide</a>"},{"pageviews":"1647. <a target=\"_blank\" href=\"http://en.wikipedia.org./wiki/Five_Nights_at_Freddy's\">Five Nights at Freddy's</a>"},{"pageviews":"1648. <a target=\"_blank\" href=\"http://en.wikipedia.org./wiki/Colosseum\">Colosseum</a>"},{"pageviews":"1649. <a target=\"_blank\" href=\"http://en.wikipedia.org./wiki/Bob_Ross\">Bob Ross</a>"},{"pageviews":"1650. <a target=\"_blank\" href=\"http://en.wikipedia.org./wiki/Digital_marketing\">Digital marketing</a>"},{"pageviews":"1651. <a target=\"_blank\" href=\"http://en.wikipedia.org./wiki/Oxygen\">Oxygen</a>"},{"pageviews":"1652. <a target=\"_blank\" href=\"http://en.wikipedia.org./wiki/R_(programming_language)\">R (programming language)</a>"},{"pageviews":"1653. <a target=\"_blank\" href=\"http://en.wikipedia.org./wiki/Jordan_Peele\">Jordan Peele</a>"},{"pageviews":"1654. <a target=\"_blank\" href=\"http://en.wikipedia.org./wiki/List_of_Blindspot_episodes\">List of Blindspot episodes</a>"},{"pageviews":"1655. <a target=\"_blank\" href=\"http://en.wikipedia.org./wiki/Sandra_Bullock\">Sandra Bullock</a>"},{"pageviews":"1656. <a target=\"_blank\" href=\"http://en.wikipedia.org./wiki/List_of_countries_by_past_and_projected_GDP_(PPP)\">List of countries by past and projected GDP (PPP)</a>"},{"pageviews":"1657. <a target=\"_blank\" href=\"http://en.wikipedia.org./wiki/Daft_Punk\">Daft Punk</a>"},{"pageviews":"1658. <a target=\"_blank\" href=\"http://en.wikipedia.org./wiki/Madagascar\">Madagascar</a>"},{"pageviews":"1659. <a target=\"_blank\" href=\"http://en.wikipedia.org./wiki/Mad_Men\">Mad Men</a>"},{"pageviews":"1660. <a target=\"_blank\" href=\"http://en.wikipedia.org./wiki/James_Corden\">James Corden</a>"},{"pageviews":"1661. <a target=\"_blank\" href=\"http://en.wikipedia.org./wiki/List_of_films_considered_the_best\">List of films considered the best</a>"},{"pageviews":"1662. <a target=\"_blank\" href=\"http://en.wikipedia.org./wiki/Historical_rankings_of_presidents_of_the_United_States\">Historical rankings of presidents of the United States</a>"},{"pageviews":"1663. <a target=\"_blank\" href=\"http://en.wikipedia.org./wiki/List_of_films_considered_the_worst\">List of films considered the worst</a>"},{"pageviews":"1664. <a target=\"_blank\" href=\"http://en.wikipedia.org./wiki/Rotten_Tomatoes\">Rotten Tomatoes</a>"},{"pageviews":"1665. <a target=\"_blank\" href=\"http://en.wikipedia.org./wiki/Odin\">Odin</a>"},{"pageviews":"1666. <a target=\"_blank\" href=\"http://en.wikipedia.org./wiki/Salvador_Dal%C3%AD\">Salvador Dalí</a>"},{"pageviews":"1667. <a target=\"_blank\" href=\"http://en.wikipedia.org./wiki/Romanticism\">Romanticism</a>"},{"pageviews":"1668. <a target=\"_blank\" href=\"http://en.wikipedia.org./wiki/Kesha\">Kesha</a>"},{"pageviews":"1669. <a target=\"_blank\" href=\"http://en.wikipedia.org./wiki/Dakota_Johnson\">Dakota Johnson</a>"},{"pageviews":"1670. <a target=\"_blank\" href=\"http://en.wikipedia.org./wiki/Chris_Brown\">Chris Brown</a>"},{"pageviews":"1671. <a target=\"_blank\" href=\"http://en.wikipedia.org./wiki/Republic_of_Macedonia\">Republic of Macedonia</a>"},{"pageviews":"1672. <a target=\"_blank\" href=\"http://en.wikipedia.org./wiki/Kim_Il-sung\">Kim Il-sung</a>"},{"pageviews":"1673. <a target=\"_blank\" href=\"http://en.wikipedia.org./wiki/Naomi_Watts\">Naomi Watts</a>"},{"pageviews":"1674. <a target=\"_blank\" href=\"http://en.wikipedia.org./wiki/Sachin_Tendulkar\">Sachin Tendulkar</a>"},{"pageviews":"1675. <a target=\"_blank\" href=\"http://en.wikipedia.org./wiki/Human_penis_size\">Human penis size</a>"},{"pageviews":"1676. <a target=\"_blank\" href=\"http://en.wikipedia.org./wiki/Pulp_Fiction\">Pulp Fiction</a>"},{"pageviews":"1677. <a target=\"_blank\" href=\"http://en.wikipedia.org./wiki/List_of_Games_with_Gold_games\">List of Games with Gold games</a>"},{"pageviews":"1678. <a target=\"_blank\" href=\"http://en.wikipedia.org./wiki/Damien_Chazelle\">Damien Chazelle</a>"},{"pageviews":"1679. <a target=\"_blank\" href=\"http://en.wikipedia.org./wiki/List_of_countries_by_cement_production\">List of countries by cement production</a>"},{"pageviews":"1680. <a target=\"_blank\" href=\"http://en.wikipedia.org./wiki/Rachel_Weisz\">Rachel Weisz</a>"},{"pageviews":"1681. <a target=\"_blank\" href=\"http://en.wikipedia.org./wiki/List_of_Bollywood_films_of_2016\">List of Bollywood films of 2016</a>"},{"pageviews":"1682. <a target=\"_blank\" href=\"http://en.wikipedia.org./wiki/Eagles_(band)\">Eagles (band)</a>"},{"pageviews":"1683. <a target=\"_blank\" href=\"http://en.wikipedia.org./wiki/The_Dark_Knight_(film)\">The Dark Knight (film)</a>"},{"pageviews":"1684. <a target=\"_blank\" href=\"http://en.wikipedia.org./wiki/Deep_learning\">Deep learning</a>"},{"pageviews":"1685. <a target=\"_blank\" href=\"http://en.wikipedia.org./wiki/Elizabeth_Warren\">Elizabeth Warren</a>"},{"pageviews":"1686. <a target=\"_blank\" href=\"http://en.wikipedia.org./wiki/Big_Bang\">Big Bang</a>"},{"pageviews":"1687. <a target=\"_blank\" href=\"http://en.wikipedia.org./wiki/Zeus\">Zeus</a>"},{"pageviews":"1688. <a target=\"_blank\" href=\"http://en.wikipedia.org./wiki/Baby_boomers\">Baby boomers</a>"},{"pageviews":"1689. <a target=\"_blank\" href=\"http://en.wikipedia.org./wiki/SpongeBob_SquarePants\">SpongeBob SquarePants</a>"},{"pageviews":"1690. <a target=\"_blank\" href=\"http://en.wikipedia.org./wiki/Matt_Lauer\">Matt Lauer</a>"},{"pageviews":"1691. <a target=\"_blank\" href=\"http://en.wikipedia.org./wiki/Sisyphus\">Sisyphus</a>"},{"pageviews":"1692. <a target=\"_blank\" href=\"http://en.wikipedia.org./wiki/Mohammad_bin_Salman\">Mohammad bin Salman</a>"},{"pageviews":"1693. <a target=\"_blank\" href=\"http://en.wikipedia.org./wiki/Tom_Hiddleston\">Tom Hiddleston</a>"},{"pageviews":"1694. <a target=\"_blank\" href=\"http://en.wikipedia.org./wiki/Trainspotting_(film)\">Trainspotting (film)</a>"},{"pageviews":"1695. <a target=\"_blank\" href=\"http://en.wikipedia.org./wiki/Spectre_(2015_film)\">Spectre (2015 film)</a>"},{"pageviews":"1696. <a target=\"_blank\" href=\"http://en.wikipedia.org./wiki/Load_testing\">Load testing</a>"},{"pageviews":"1697. <a target=\"_blank\" href=\"http://en.wikipedia.org./wiki/Jessica_Jones_(TV_series)\">Jessica Jones (TV series)</a>"},{"pageviews":"1698. <a target=\"_blank\" href=\"http://en.wikipedia.org./wiki/Michael_Sheen\">Michael Sheen</a>"},{"pageviews":"1699. <a target=\"_blank\" href=\"http://en.wikipedia.org./wiki/Cannabis_(drug)\">Cannabis (drug)</a>"}],"list":"1600. 2014 FIFA World Cup  \u2014  http:\/\/en.wikipedia.org.\/wiki\/2014_FIFA_World_Cup\n1601. How I Met Your Mother  \u2014  http:\/\/en.wikipedia.org.\/wiki\/How_I_Met_Your_Mother\n1602. Romani people  \u2014  http:\/\/en.wikipedia.org.\/wiki\/Romani_people\n1603. UFC 209  \u2014  http:\/\/en.wikipedia.org.\/wiki\/UFC_209\n1604. Latvia  \u2014  http:\/\/en.wikipedia.org.\/wiki\/Latvia\n1605. Black Sabbath  \u2014  http:\/\/en.wikipedia.org.\/wiki\/Black_Sabbath\n1606. Battle of Stalingrad  \u2014  http:\/\/en.wikipedia.org.\/wiki\/Battle_of_Stalingrad\n1607. Shania Twain  \u2014  http:\/\/en.wikipedia.org.\/wiki\/Shania_Twain\n1608. Bones (TV series)  \u2014  http:\/\/en.wikipedia.org.\/wiki\/Bones_(TV_series)\n1609. Robert F. Kennedy  \u2014  http:\/\/en.wikipedia.org.\/wiki\/Robert_F._Kennedy\n1610. Algeria  \u2014  http:\/\/en.wikipedia.org.\/wiki\/Algeria\n1611. United States presidential election, 2020  \u2014  http:\/\/en.wikipedia.org.\/wiki\/United_States_presidential_election%2C_2020\n1612. Pentatonix  \u2014  http:\/\/en.wikipedia.org.\/wiki\/Pentatonix\n1613. Chlo\u00EB Grace Moretz  \u2014  http:\/\/en.wikipedia.org.\/wiki\/Chlo%C3%AB_Grace_Moretz\n1614. Lil Wayne  \u2014  http:\/\/en.wikipedia.org.\/wiki\/Lil_Wayne\n1615. United States Marine Corps  \u2014  http:\/\/en.wikipedia.org.\/wiki\/United_States_Marine_Corps\n1616. Amyotrophic lateral sclerosis  \u2014  http:\/\/en.wikipedia.org.\/wiki\/Amyotrophic_lateral_sclerosis\n1617. Stanley Kubrick  \u2014  http:\/\/en.wikipedia.org.\/wiki\/Stanley_Kubrick\n1618. United States Congress  \u2014  http:\/\/en.wikipedia.org.\/wiki\/United_States_Congress\n1619. The Shawshank Redemption  \u2014  http:\/\/en.wikipedia.org.\/wiki\/The_Shawshank_Redemption\n1620. Database  \u2014  http:\/\/en.wikipedia.org.\/wiki\/Database\n1621. Sarah Paulson  \u2014  http:\/\/en.wikipedia.org.\/wiki\/Sarah_Paulson\n1622. Tropical cyclone  \u2014  http:\/\/en.wikipedia.org.\/wiki\/Tropical_cyclone\n1623. Big Five personality traits  \u2014  http:\/\/en.wikipedia.org.\/wiki\/Big_Five_personality_traits\n1624. Radiohead  \u2014  http:\/\/en.wikipedia.org.\/wiki\/Radiohead\n1625. Michelangelo  \u2014  http:\/\/en.wikipedia.org.\/wiki\/Michelangelo\n1626. Laura Dern  \u2014  http:\/\/en.wikipedia.org.\/wiki\/Laura_Dern\n1627. Scandal (TV series)  \u2014  http:\/\/en.wikipedia.org.\/wiki\/Scandal_(TV_series)\n1628. Armenian Genocide  \u2014  http:\/\/en.wikipedia.org.\/wiki\/Armenian_Genocide\n1629. United States Navy  \u2014  http:\/\/en.wikipedia.org.\/wiki\/United_States_Navy\n1630. Elementary (TV series)  \u2014  http:\/\/en.wikipedia.org.\/wiki\/Elementary_(TV_series)\n1631. Dab (dance)  \u2014  http:\/\/en.wikipedia.org.\/wiki\/Dab_(dance)\n1632. Taylor series  \u2014  http:\/\/en.wikipedia.org.\/wiki\/Taylor_series\n1633. Zoe Saldana  \u2014  http:\/\/en.wikipedia.org.\/wiki\/Zoe_Saldana\n1634. Daniel Craig  \u2014  http:\/\/en.wikipedia.org.\/wiki\/Daniel_Craig\n1635. 2002 FIFA World Cup  \u2014  http:\/\/en.wikipedia.org.\/wiki\/2002_FIFA_World_Cup\n1636. The Star-Spangled Banner  \u2014  http:\/\/en.wikipedia.org.\/wiki\/The_Star-Spangled_Banner\n1637. Google Search  \u2014  http:\/\/en.wikipedia.org.\/wiki\/Google_Search\n1638. Rani Padmini  \u2014  http:\/\/en.wikipedia.org.\/wiki\/Rani_Padmini\n1639. Saddam Hussein  \u2014  http:\/\/en.wikipedia.org.\/wiki\/Saddam_Hussein\n1640. U2  \u2014  http:\/\/en.wikipedia.org.\/wiki\/U2\n1641. Philadelphia  \u2014  http:\/\/en.wikipedia.org.\/wiki\/Philadelphia\n1642. Liam Neeson  \u2014  http:\/\/en.wikipedia.org.\/wiki\/Liam_Neeson\n1643. H. H. Holmes  \u2014  http:\/\/en.wikipedia.org.\/wiki\/H._H._Holmes\n1644. David Beckham  \u2014  http:\/\/en.wikipedia.org.\/wiki\/David_Beckham\n1645. List of best-selling music artists  \u2014  http:\/\/en.wikipedia.org.\/wiki\/List_of_best-selling_music_artists\n1646. Otilonium bromide  \u2014  http:\/\/en.wikipedia.org.\/wiki\/Otilonium_bromide\n1647. Five Nights at Freddy's  \u2014  http:\/\/en.wikipedia.org.\/wiki\/Five_Nights_at_Freddy's\n1648. Colosseum  \u2014  http:\/\/en.wikipedia.org.\/wiki\/Colosseum\n1649. Bob Ross  \u2014  http:\/\/en.wikipedia.org.\/wiki\/Bob_Ross\n1650. Digital marketing  \u2014  http:\/\/en.wikipedia.org.\/wiki\/Digital_marketing\n1651. Oxygen  \u2014  http:\/\/en.wikipedia.org.\/wiki\/Oxygen\n1652. R (programming language)  \u2014  http:\/\/en.wikipedia.org.\/wiki\/R_(programming_language)\n1653. Jordan Peele  \u2014  http:\/\/en.wikipedia.org.\/wiki\/Jordan_Peele\n1654. List of Blindspot episodes  \u2014  http:\/\/en.wikipedia.org.\/wiki\/List_of_Blindspot_episodes\n1655. Sandra Bullock  \u2014  http:\/\/en.wikipedia.org.\/wiki\/Sandra_Bullock\n1656. List of countries by past and projected GDP (PPP)  \u2014  http:\/\/en.wikipedia.org.\/wiki\/List_of_countries_by_past_and_projected_GDP_(PPP)\n1657. Daft Punk  \u2014  http:\/\/en.wikipedia.org.\/wiki\/Daft_Punk\n1658. Madagascar  \u2014  http:\/\/en.wikipedia.org.\/wiki\/Madagascar\n1659. Mad Men  \u2014  http:\/\/en.wikipedia.org.\/wiki\/Mad_Men\n1660. James Corden  \u2014  http:\/\/en.wikipedia.org.\/wiki\/James_Corden\n1661. List of films considered the best  \u2014  http:\/\/en.wikipedia.org.\/wiki\/List_of_films_considered_the_best\n1662. Historical rankings of presidents of the United States  \u2014  http:\/\/en.wikipedia.org.\/wiki\/Historical_rankings_of_presidents_of_the_United_States\n1663. List of films considered the worst  \u2014  http:\/\/en.wikipedia.org.\/wiki\/List_of_films_considered_the_worst\n1664. Rotten Tomatoes  \u2014  http:\/\/en.wikipedia.org.\/wiki\/Rotten_Tomatoes\n1665. Odin  \u2014  http:\/\/en.wikipedia.org.\/wiki\/Odin\n1666. Salvador Dal\u00ED  \u2014  http:\/\/en.wikipedia.org.\/wiki\/Salvador_Dal%C3%AD\n1667. Romanticism  \u2014  http:\/\/en.wikipedia.org.\/wiki\/Romanticism\n1668. Kesha  \u2014  http:\/\/en.wikipedia.org.\/wiki\/Kesha\n1669. Dakota Johnson  \u2014  http:\/\/en.wikipedia.org.\/wiki\/Dakota_Johnson\n1670. Chris Brown  \u2014  http:\/\/en.wikipedia.org.\/wiki\/Chris_Brown\n1671. Republic of Macedonia  \u2014  http:\/\/en.wikipedia.org.\/wiki\/Republic_of_Macedonia\n1672. Kim Il-sung  \u2014  http:\/\/en.wikipedia.org.\/wiki\/Kim_Il-sung\n1673. Naomi Watts  \u2014  http:\/\/en.wikipedia.org.\/wiki\/Naomi_Watts\n1674. Sachin Tendulkar  \u2014  http:\/\/en.wikipedia.org.\/wiki\/Sachin_Tendulkar\n1675. Human penis size  \u2014  http:\/\/en.wikipedia.org.\/wiki\/Human_penis_size\n1676. Pulp Fiction  \u2014  http:\/\/en.wikipedia.org.\/wiki\/Pulp_Fiction\n1677. List of Games with Gold games  \u2014  http:\/\/en.wikipedia.org.\/wiki\/List_of_Games_with_Gold_games\n1678. Damien Chazelle  \u2014  http:\/\/en.wikipedia.org.\/wiki\/Damien_Chazelle\n1679. List of countries by cement production  \u2014  http:\/\/en.wikipedia.org.\/wiki\/List_of_countries_by_cement_production\n1680. Rachel Weisz  \u2014  http:\/\/en.wikipedia.org.\/wiki\/Rachel_Weisz\n1681. List of Bollywood films of 2016  \u2014  http:\/\/en.wikipedia.org.\/wiki\/List_of_Bollywood_films_of_2016\n1682. Eagles (band)  \u2014  http:\/\/en.wikipedia.org.\/wiki\/Eagles_(band)\n1683. The Dark Knight (film)  \u2014  http:\/\/en.wikipedia.org.\/wiki\/The_Dark_Knight_(film)\n1684. Deep learning  \u2014  http:\/\/en.wikipedia.org.\/wiki\/Deep_learning\n1685. Elizabeth Warren  \u2014  http:\/\/en.wikipedia.org.\/wiki\/Elizabeth_Warren\n1686. Big Bang  \u2014  http:\/\/en.wikipedia.org.\/wiki\/Big_Bang\n1687. Zeus  \u2014  http:\/\/en.wikipedia.org.\/wiki\/Zeus\n1688. Baby boomers  \u2014  http:\/\/en.wikipedia.org.\/wiki\/Baby_boomers\n1689. SpongeBob SquarePants  \u2014  http:\/\/en.wikipedia.org.\/wiki\/SpongeBob_SquarePants\n1690. Matt Lauer  \u2014  http:\/\/en.wikipedia.org.\/wiki\/Matt_Lauer\n1691. Sisyphus  \u2014  http:\/\/en.wikipedia.org.\/wiki\/Sisyphus\n1692. Mohammad bin Salman  \u2014  http:\/\/en.wikipedia.org.\/wiki\/Mohammad_bin_Salman\n1693. Tom Hiddleston  \u2014  http:\/\/en.wikipedia.org.\/wiki\/Tom_Hiddleston\n1694. Trainspotting (film)  \u2014  http:\/\/en.wikipedia.org.\/wiki\/Trainspotting_(film)\n1695. Spectre (2015 film)  \u2014  http:\/\/en.wikipedia.org.\/wiki\/Spectre_(2015_film)\n1696. Load testing  \u2014  http:\/\/en.wikipedia.org.\/wiki\/Load_testing\n1697. Jessica Jones (TV series)  \u2014  http:\/\/en.wikipedia.org.\/wiki\/Jessica_Jones_(TV_series)\n1698. Michael Sheen  \u2014  http:\/\/en.wikipedia.org.\/wiki\/Michael_Sheen\n1699. Cannabis (drug)  \u2014  http:\/\/en.wikipedia.org.\/wiki\/Cannabis_(drug)\n","miniList":"1600. 2014 FIFA World Cup\n1601. How I Met Your Mother\n1602. Romani people\n1603. UFC 209\n1604. Latvia\n1605. Black Sabbath\n1606. Battle of Stalingrad\n1607. Shania Twain\n1608. Bones (TV series)\n1609. Robert F. Kennedy\n1610. Algeria\n1611. United States presidential election, 2020\n1612. Pentatonix\n1613. Chlo\u00EB Grace Moretz\n1614. Lil Wayne\n1615. United States Marine Corps\n1616. Amyotrophic lateral sclerosis\n1617. Stanley Kubrick\n1618. United States Congress\n1619. The Shawshank Redemption\n1620. Database\n1621. Sarah Paulson\n1622. Tropical cyclone\n1623. Big Five personality traits\n1624. Radiohead\n1625. Michelangelo\n1626. Laura Dern\n1627. Scandal (TV series)\n1628. Armenian Genocide\n1629. United States Navy\n1630. Elementary (TV series)\n1631. Dab (dance)\n1632. Taylor series\n1633. Zoe Saldana\n1634. Daniel Craig\n1635. 2002 FIFA World Cup\n1636. The Star-Spangled Banner\n1637. Google Search\n1638. Rani Padmini\n1639. Saddam Hussein\n1640. U2\n1641. Philadelphia\n1642. Liam Neeson\n1643. H. H. Holmes\n1644. David Beckham\n1645. List of best-selling music artists\n1646. Otilonium bromide\n1647. Five Nights at Freddy's\n1648. Colosseum\n1649. Bob Ross\n1650. Digital marketing\n1651. Oxygen\n1652. R (programming language)\n1653. Jordan Peele\n1654. List of Blindspot episodes\n1655. Sandra Bullock\n1656. List of countries by past and projected GDP (PPP)\n1657. Daft Punk\n1658. Madagascar\n1659. Mad Men\n1660. James Corden\n1661. List of films considered the best\n1662. Historical rankings of presidents of the United States\n1663. List of films considered the worst\n1664. Rotten Tomatoes\n1665. Odin\n1666. Salvador Dal\u00ED\n1667. Romanticism\n1668. Kesha\n1669. Dakota Johnson\n1670. Chris Brown\n1671. Republic of Macedonia\n1672. Kim Il-sung\n1673. Naomi Watts\n1674. Sachin Tendulkar\n1675. Human penis size\n1676. Pulp Fiction\n1677. List of Games with Gold games\n1678. Damien Chazelle\n1679. List of countries by cement production\n1680. Rachel Weisz\n1681. List of Bollywood films of 2016\n1682. Eagles (band)\n1683. The Dark Knight (film)\n1684. Deep learning\n1685. Elizabeth Warren\n1686. Big Bang\n1687. Zeus\n1688. Baby boomers\n1689. SpongeBob SquarePants\n1690. Matt Lauer\n1691. Sisyphus\n1692. Mohammad bin Salman\n1693. Tom Hiddleston\n1694. Trainspotting (film)\n1695. Spectre (2015 film)\n1696. Load testing\n1697. Jessica Jones (TV series)\n1698. Michael Sheen\n1699. Cannabis (drug)\n"}
