{"start":1701,"end":1800,"count":5616717,"type":"pageviews","pageSize":100,"page":17,"pages":56168,"columns":[{"label":"","property":"pageviews","sortable":false}],"items":[{"pageviews":"1700. <a target=\"_blank\" href=\"http://en.wikipedia.org./wiki/Houston\">Houston</a>"},{"pageviews":"1701. <a target=\"_blank\" href=\"http://en.wikipedia.org./wiki/Need_for_Speed\">Need for Speed</a>"},{"pageviews":"1702. <a target=\"_blank\" href=\"http://en.wikipedia.org./wiki/Jessica_Jones\">Jessica Jones</a>"},{"pageviews":"1703. <a target=\"_blank\" href=\"http://en.wikipedia.org./wiki/Vagina\">Vagina</a>"},{"pageviews":"1704. <a target=\"_blank\" href=\"http://en.wikipedia.org./wiki/Ridley_Scott\">Ridley Scott</a>"},{"pageviews":"1705. <a target=\"_blank\" href=\"http://en.wikipedia.org./wiki/Amelia_Earhart\">Amelia Earhart</a>"},{"pageviews":"1706. <a target=\"_blank\" href=\"http://en.wikipedia.org./wiki/Atlanta\">Atlanta</a>"},{"pageviews":"1707. <a target=\"_blank\" href=\"http://en.wikipedia.org./wiki/Barry_Seal\">Barry Seal</a>"},{"pageviews":"1708. <a target=\"_blank\" href=\"http://en.wikipedia.org./wiki/Okto\">Okto</a>"},{"pageviews":"1709. <a target=\"_blank\" href=\"http://en.wikipedia.org./wiki/Logan_Paul\">Logan Paul</a>"},{"pageviews":"1710. <a target=\"_blank\" href=\"http://en.wikipedia.org./wiki/Lovebug\">Lovebug</a>"},{"pageviews":"1711. <a target=\"_blank\" href=\"http://en.wikipedia.org./wiki/Ghana\">Ghana</a>"},{"pageviews":"1712. <a target=\"_blank\" href=\"http://en.wikipedia.org./wiki/Jane_Fonda\">Jane Fonda</a>"},{"pageviews":"1713. <a target=\"_blank\" href=\"http://en.wikipedia.org./wiki/Psychology\">Psychology</a>"},{"pageviews":"1714. <a target=\"_blank\" href=\"http://en.wikipedia.org./wiki/Asia\">Asia</a>"},{"pageviews":"1715. <a target=\"_blank\" href=\"http://en.wikipedia.org./wiki/Reddit\">Reddit</a>"},{"pageviews":"1716. <a target=\"_blank\" href=\"http://en.wikipedia.org./wiki/Bicycle\">Bicycle</a>"},{"pageviews":"1717. <a target=\"_blank\" href=\"http://en.wikipedia.org./wiki/Nirvana_(band)\">Nirvana (band)</a>"},{"pageviews":"1718. <a target=\"_blank\" href=\"http://en.wikipedia.org./wiki/T2_Trainspotting\">T2 Trainspotting</a>"},{"pageviews":"1719. <a target=\"_blank\" href=\"http://en.wikipedia.org./wiki/Gold\">Gold</a>"},{"pageviews":"1720. <a target=\"_blank\" href=\"http://en.wikipedia.org./wiki/Vancouver\">Vancouver</a>"},{"pageviews":"1721. <a target=\"_blank\" href=\"http://en.wikipedia.org./wiki/ITIL\">ITIL</a>"},{"pageviews":"1722. <a target=\"_blank\" href=\"http://en.wikipedia.org./wiki/Holi\">Holi</a>"},{"pageviews":"1723. <a target=\"_blank\" href=\"http://en.wikipedia.org./wiki/Iraq_War\">Iraq War</a>"},{"pageviews":"1724. <a target=\"_blank\" href=\"http://en.wikipedia.org./wiki/Steven_Seagal\">Steven Seagal</a>"},{"pageviews":"1725. <a target=\"_blank\" href=\"http://en.wikipedia.org./wiki/Scoville_scale\">Scoville scale</a>"},{"pageviews":"1726. <a target=\"_blank\" href=\"http://en.wikipedia.org./wiki/Giant_panda\">Giant panda</a>"},{"pageviews":"1727. <a target=\"_blank\" href=\"http://en.wikipedia.org./wiki/Ashkenazi_Jews\">Ashkenazi Jews</a>"},{"pageviews":"1728. <a target=\"_blank\" href=\"http://en.wikipedia.org./wiki/Akshay_Kumar\">Akshay Kumar</a>"},{"pageviews":"1729. <a target=\"_blank\" href=\"http://en.wikipedia.org./wiki/Alice_Cooper\">Alice Cooper</a>"},{"pageviews":"1730. <a target=\"_blank\" href=\"http://en.wikipedia.org./wiki/United_States_presidential_election%2C_2008\">United States presidential election, 2008</a>"},{"pageviews":"1731. <a target=\"_blank\" href=\"http://en.wikipedia.org./wiki/HTTP_403\">HTTP 403</a>"},{"pageviews":"1732. <a target=\"_blank\" href=\"http://en.wikipedia.org./wiki/Depeche_Mode\">Depeche Mode</a>"},{"pageviews":"1733. <a target=\"_blank\" href=\"http://en.wikipedia.org./wiki/PayPal\">PayPal</a>"},{"pageviews":"1734. <a target=\"_blank\" href=\"http://en.wikipedia.org./wiki/Sharon_Tate\">Sharon Tate</a>"},{"pageviews":"1735. <a target=\"_blank\" href=\"http://en.wikipedia.org./wiki/Marisa_Tomei\">Marisa Tomei</a>"},{"pageviews":"1736. <a target=\"_blank\" href=\"http://en.wikipedia.org./wiki/James_Bond\">James Bond</a>"},{"pageviews":"1737. <a target=\"_blank\" href=\"http://en.wikipedia.org./wiki/Into_the_Badlands_(TV_series)\">Into the Badlands (TV series)</a>"},{"pageviews":"1738. <a target=\"_blank\" href=\"http://en.wikipedia.org./wiki/Inception\">Inception</a>"},{"pageviews":"1739. <a target=\"_blank\" href=\"http://en.wikipedia.org./wiki/Star_Trek_Beyond\">Star Trek Beyond</a>"},{"pageviews":"1740. <a target=\"_blank\" href=\"http://en.wikipedia.org./wiki/The_Sopranos\">The Sopranos</a>"},{"pageviews":"1741. <a target=\"_blank\" href=\"http://en.wikipedia.org./wiki/Socrates\">Socrates</a>"},{"pageviews":"1742. <a target=\"_blank\" href=\"http://en.wikipedia.org./wiki/Samuel_L._Jackson\">Samuel L. Jackson</a>"},{"pageviews":"1743. <a target=\"_blank\" href=\"http://en.wikipedia.org./wiki/Kaabil\">Kaabil</a>"},{"pageviews":"1744. <a target=\"_blank\" href=\"http://en.wikipedia.org./wiki/Frozen_(2013_film)\">Frozen (2013 film)</a>"},{"pageviews":"1745. <a target=\"_blank\" href=\"http://en.wikipedia.org./wiki/John_Wayne\">John Wayne</a>"},{"pageviews":"1746. <a target=\"_blank\" href=\"http://en.wikipedia.org./wiki/PID_controller\">PID controller</a>"},{"pageviews":"1747. <a target=\"_blank\" href=\"http://en.wikipedia.org./wiki/Spanish_language\">Spanish language</a>"},{"pageviews":"1748. <a target=\"_blank\" href=\"http://en.wikipedia.org./wiki/Paul_Ryan\">Paul Ryan</a>"},{"pageviews":"1749. <a target=\"_blank\" href=\"http://en.wikipedia.org./wiki/Forrest_Gump\">Forrest Gump</a>"},{"pageviews":"1750. <a target=\"_blank\" href=\"http://en.wikipedia.org./wiki/Mesopotamia\">Mesopotamia</a>"},{"pageviews":"1751. <a target=\"_blank\" href=\"http://en.wikipedia.org./wiki/Bates_Motel_(TV_series)\">Bates Motel (TV series)</a>"},{"pageviews":"1752. <a target=\"_blank\" href=\"http://en.wikipedia.org./wiki/Pound_sterling\">Pound sterling</a>"},{"pageviews":"1753. <a target=\"_blank\" href=\"http://en.wikipedia.org./wiki/Howard_Hughes\">Howard Hughes</a>"},{"pageviews":"1754. <a target=\"_blank\" href=\"http://en.wikipedia.org./wiki/Bill_Nye\">Bill Nye</a>"},{"pageviews":"1755. <a target=\"_blank\" href=\"http://en.wikipedia.org./wiki/Red_panda\">Red panda</a>"},{"pageviews":"1756. <a target=\"_blank\" href=\"http://en.wikipedia.org./wiki/Joe_Rogan\">Joe Rogan</a>"},{"pageviews":"1757. <a target=\"_blank\" href=\"http://en.wikipedia.org./wiki/Daniel_Radcliffe\">Daniel Radcliffe</a>"},{"pageviews":"1758. <a target=\"_blank\" href=\"http://en.wikipedia.org./wiki/Georges_St-Pierre\">Georges St-Pierre</a>"},{"pageviews":"1759. <a target=\"_blank\" href=\"http://en.wikipedia.org./wiki/Bruce_Springsteen\">Bruce Springsteen</a>"},{"pageviews":"1760. <a target=\"_blank\" href=\"http://en.wikipedia.org./wiki/Airbus_A350_XWB\">Airbus A350 XWB</a>"},{"pageviews":"1761. <a target=\"_blank\" href=\"http://en.wikipedia.org./wiki/Silicon_Valley\">Silicon Valley</a>"},{"pageviews":"1762. <a target=\"_blank\" href=\"http://en.wikipedia.org./wiki/Nicole_Scherzinger\">Nicole Scherzinger</a>"},{"pageviews":"1763. <a target=\"_blank\" href=\"http://en.wikipedia.org./wiki/Venus\">Venus</a>"},{"pageviews":"1764. <a target=\"_blank\" href=\"http://en.wikipedia.org./wiki/PCI_Express\">PCI Express</a>"},{"pageviews":"1765. <a target=\"_blank\" href=\"http://en.wikipedia.org./wiki/Las_Vegas\">Las Vegas</a>"},{"pageviews":"1766. <a target=\"_blank\" href=\"http://en.wikipedia.org./wiki/Socialism\">Socialism</a>"},{"pageviews":"1767. <a target=\"_blank\" href=\"http://en.wikipedia.org./wiki/Macaulay_Culkin\">Macaulay Culkin</a>"},{"pageviews":"1768. <a target=\"_blank\" href=\"http://en.wikipedia.org./wiki/SpaceX\">SpaceX</a>"},{"pageviews":"1769. <a target=\"_blank\" href=\"http://en.wikipedia.org./wiki/The_Big_Sick\">The Big Sick</a>"},{"pageviews":"1770. <a target=\"_blank\" href=\"http://en.wikipedia.org./wiki/Ethanol\">Ethanol</a>"},{"pageviews":"1771. <a target=\"_blank\" href=\"http://en.wikipedia.org./wiki/Borderline_personality_disorder\">Borderline personality disorder</a>"},{"pageviews":"1772. <a target=\"_blank\" href=\"http://en.wikipedia.org./wiki/DRM\">DRM</a>"},{"pageviews":"1773. <a target=\"_blank\" href=\"http://en.wikipedia.org./wiki/Michael_Caine\">Michael Caine</a>"},{"pageviews":"1774. <a target=\"_blank\" href=\"http://en.wikipedia.org./wiki/List_of_U.S._states_and_territories_by_population\">List of U.S. states and territories by population</a>"},{"pageviews":"1775. <a target=\"_blank\" href=\"http://en.wikipedia.org./wiki/Australia_Plus\">Australia Plus</a>"},{"pageviews":"1776. <a target=\"_blank\" href=\"http://en.wikipedia.org./wiki/Jane_the_Virgin\">Jane the Virgin</a>"},{"pageviews":"1777. <a target=\"_blank\" href=\"http://en.wikipedia.org./wiki/Sharia\">Sharia</a>"},{"pageviews":"1778. <a target=\"_blank\" href=\"http://en.wikipedia.org./wiki/Dylan_Minnette\">Dylan Minnette</a>"},{"pageviews":"1779. <a target=\"_blank\" href=\"http://en.wikipedia.org./wiki/Julian_Assange\">Julian Assange</a>"},{"pageviews":"1780. <a target=\"_blank\" href=\"http://en.wikipedia.org./wiki/Sons_of_Anarchy\">Sons of Anarchy</a>"},{"pageviews":"1781. <a target=\"_blank\" href=\"http://en.wikipedia.org./wiki/Donald_Trump_Jr.\">Donald Trump Jr.</a>"},{"pageviews":"1782. <a target=\"_blank\" href=\"http://en.wikipedia.org./wiki/Roman_numerals\">Roman numerals</a>"},{"pageviews":"1783. <a target=\"_blank\" href=\"http://en.wikipedia.org./wiki/List_of_Hindi_film_families\">List of Hindi film families</a>"},{"pageviews":"1784. <a target=\"_blank\" href=\"http://en.wikipedia.org./wiki/Haiti\">Haiti</a>"},{"pageviews":"1785. <a target=\"_blank\" href=\"http://en.wikipedia.org./wiki/Kaley_Cuoco\">Kaley Cuoco</a>"},{"pageviews":"1786. <a target=\"_blank\" href=\"http://en.wikipedia.org./wiki/Transmission_Control_Protocol\">Transmission Control Protocol</a>"},{"pageviews":"1787. <a target=\"_blank\" href=\"http://en.wikipedia.org./wiki/UFC_217\">UFC 217</a>"},{"pageviews":"1788. <a target=\"_blank\" href=\"http://en.wikipedia.org./wiki/Darren_Aronofsky\">Darren Aronofsky</a>"},{"pageviews":"1789. <a target=\"_blank\" href=\"http://en.wikipedia.org./wiki/Sally_Yates\">Sally Yates</a>"},{"pageviews":"1790. <a target=\"_blank\" href=\"http://en.wikipedia.org./wiki/Alexis_Ohanian\">Alexis Ohanian</a>"},{"pageviews":"1791. <a target=\"_blank\" href=\"http://en.wikipedia.org./wiki/Lysergic_acid_diethylamide\">Lysergic acid diethylamide</a>"},{"pageviews":"1792. <a target=\"_blank\" href=\"http://en.wikipedia.org./wiki/Lost_(TV_series)\">Lost (TV series)</a>"},{"pageviews":"1793. <a target=\"_blank\" href=\"http://en.wikipedia.org./wiki/Victoria\">Victoria</a>"},{"pageviews":"1794. <a target=\"_blank\" href=\"http://en.wikipedia.org./wiki/Binomial_distribution\">Binomial distribution</a>"},{"pageviews":"1795. <a target=\"_blank\" href=\"http://en.wikipedia.org./wiki/Kris_Jenner\">Kris Jenner</a>"},{"pageviews":"1796. <a target=\"_blank\" href=\"http://en.wikipedia.org./wiki/Eurovision_Song_Contest_2018\">Eurovision Song Contest 2018</a>"},{"pageviews":"1797. <a target=\"_blank\" href=\"http://en.wikipedia.org./wiki/Liechtenstein\">Liechtenstein</a>"},{"pageviews":"1798. <a target=\"_blank\" href=\"http://en.wikipedia.org./wiki/UFC_211\">UFC 211</a>"},{"pageviews":"1799. <a target=\"_blank\" href=\"http://en.wikipedia.org./wiki/Gurmeet_Ram_Rahim_Singh\">Gurmeet Ram Rahim Singh</a>"}],"list":"1700. Houston  \u2014  http:\/\/en.wikipedia.org.\/wiki\/Houston\n1701. Need for Speed  \u2014  http:\/\/en.wikipedia.org.\/wiki\/Need_for_Speed\n1702. Jessica Jones  \u2014  http:\/\/en.wikipedia.org.\/wiki\/Jessica_Jones\n1703. Vagina  \u2014  http:\/\/en.wikipedia.org.\/wiki\/Vagina\n1704. Ridley Scott  \u2014  http:\/\/en.wikipedia.org.\/wiki\/Ridley_Scott\n1705. Amelia Earhart  \u2014  http:\/\/en.wikipedia.org.\/wiki\/Amelia_Earhart\n1706. Atlanta  \u2014  http:\/\/en.wikipedia.org.\/wiki\/Atlanta\n1707. Barry Seal  \u2014  http:\/\/en.wikipedia.org.\/wiki\/Barry_Seal\n1708. Okto  \u2014  http:\/\/en.wikipedia.org.\/wiki\/Okto\n1709. Logan Paul  \u2014  http:\/\/en.wikipedia.org.\/wiki\/Logan_Paul\n1710. Lovebug  \u2014  http:\/\/en.wikipedia.org.\/wiki\/Lovebug\n1711. Ghana  \u2014  http:\/\/en.wikipedia.org.\/wiki\/Ghana\n1712. Jane Fonda  \u2014  http:\/\/en.wikipedia.org.\/wiki\/Jane_Fonda\n1713. Psychology  \u2014  http:\/\/en.wikipedia.org.\/wiki\/Psychology\n1714. Asia  \u2014  http:\/\/en.wikipedia.org.\/wiki\/Asia\n1715. Reddit  \u2014  http:\/\/en.wikipedia.org.\/wiki\/Reddit\n1716. Bicycle  \u2014  http:\/\/en.wikipedia.org.\/wiki\/Bicycle\n1717. Nirvana (band)  \u2014  http:\/\/en.wikipedia.org.\/wiki\/Nirvana_(band)\n1718. T2 Trainspotting  \u2014  http:\/\/en.wikipedia.org.\/wiki\/T2_Trainspotting\n1719. Gold  \u2014  http:\/\/en.wikipedia.org.\/wiki\/Gold\n1720. Vancouver  \u2014  http:\/\/en.wikipedia.org.\/wiki\/Vancouver\n1721. ITIL  \u2014  http:\/\/en.wikipedia.org.\/wiki\/ITIL\n1722. Holi  \u2014  http:\/\/en.wikipedia.org.\/wiki\/Holi\n1723. Iraq War  \u2014  http:\/\/en.wikipedia.org.\/wiki\/Iraq_War\n1724. Steven Seagal  \u2014  http:\/\/en.wikipedia.org.\/wiki\/Steven_Seagal\n1725. Scoville scale  \u2014  http:\/\/en.wikipedia.org.\/wiki\/Scoville_scale\n1726. Giant panda  \u2014  http:\/\/en.wikipedia.org.\/wiki\/Giant_panda\n1727. Ashkenazi Jews  \u2014  http:\/\/en.wikipedia.org.\/wiki\/Ashkenazi_Jews\n1728. Akshay Kumar  \u2014  http:\/\/en.wikipedia.org.\/wiki\/Akshay_Kumar\n1729. Alice Cooper  \u2014  http:\/\/en.wikipedia.org.\/wiki\/Alice_Cooper\n1730. United States presidential election, 2008  \u2014  http:\/\/en.wikipedia.org.\/wiki\/United_States_presidential_election%2C_2008\n1731. HTTP 403  \u2014  http:\/\/en.wikipedia.org.\/wiki\/HTTP_403\n1732. Depeche Mode  \u2014  http:\/\/en.wikipedia.org.\/wiki\/Depeche_Mode\n1733. PayPal  \u2014  http:\/\/en.wikipedia.org.\/wiki\/PayPal\n1734. Sharon Tate  \u2014  http:\/\/en.wikipedia.org.\/wiki\/Sharon_Tate\n1735. Marisa Tomei  \u2014  http:\/\/en.wikipedia.org.\/wiki\/Marisa_Tomei\n1736. James Bond  \u2014  http:\/\/en.wikipedia.org.\/wiki\/James_Bond\n1737. Into the Badlands (TV series)  \u2014  http:\/\/en.wikipedia.org.\/wiki\/Into_the_Badlands_(TV_series)\n1738. Inception  \u2014  http:\/\/en.wikipedia.org.\/wiki\/Inception\n1739. Star Trek Beyond  \u2014  http:\/\/en.wikipedia.org.\/wiki\/Star_Trek_Beyond\n1740. The Sopranos  \u2014  http:\/\/en.wikipedia.org.\/wiki\/The_Sopranos\n1741. Socrates  \u2014  http:\/\/en.wikipedia.org.\/wiki\/Socrates\n1742. Samuel L. Jackson  \u2014  http:\/\/en.wikipedia.org.\/wiki\/Samuel_L._Jackson\n1743. Kaabil  \u2014  http:\/\/en.wikipedia.org.\/wiki\/Kaabil\n1744. Frozen (2013 film)  \u2014  http:\/\/en.wikipedia.org.\/wiki\/Frozen_(2013_film)\n1745. John Wayne  \u2014  http:\/\/en.wikipedia.org.\/wiki\/John_Wayne\n1746. PID controller  \u2014  http:\/\/en.wikipedia.org.\/wiki\/PID_controller\n1747. Spanish language  \u2014  http:\/\/en.wikipedia.org.\/wiki\/Spanish_language\n1748. Paul Ryan  \u2014  http:\/\/en.wikipedia.org.\/wiki\/Paul_Ryan\n1749. Forrest Gump  \u2014  http:\/\/en.wikipedia.org.\/wiki\/Forrest_Gump\n1750. Mesopotamia  \u2014  http:\/\/en.wikipedia.org.\/wiki\/Mesopotamia\n1751. Bates Motel (TV series)  \u2014  http:\/\/en.wikipedia.org.\/wiki\/Bates_Motel_(TV_series)\n1752. Pound sterling  \u2014  http:\/\/en.wikipedia.org.\/wiki\/Pound_sterling\n1753. Howard Hughes  \u2014  http:\/\/en.wikipedia.org.\/wiki\/Howard_Hughes\n1754. Bill Nye  \u2014  http:\/\/en.wikipedia.org.\/wiki\/Bill_Nye\n1755. Red panda  \u2014  http:\/\/en.wikipedia.org.\/wiki\/Red_panda\n1756. Joe Rogan  \u2014  http:\/\/en.wikipedia.org.\/wiki\/Joe_Rogan\n1757. Daniel Radcliffe  \u2014  http:\/\/en.wikipedia.org.\/wiki\/Daniel_Radcliffe\n1758. Georges St-Pierre  \u2014  http:\/\/en.wikipedia.org.\/wiki\/Georges_St-Pierre\n1759. Bruce Springsteen  \u2014  http:\/\/en.wikipedia.org.\/wiki\/Bruce_Springsteen\n1760. Airbus A350 XWB  \u2014  http:\/\/en.wikipedia.org.\/wiki\/Airbus_A350_XWB\n1761. Silicon Valley  \u2014  http:\/\/en.wikipedia.org.\/wiki\/Silicon_Valley\n1762. Nicole Scherzinger  \u2014  http:\/\/en.wikipedia.org.\/wiki\/Nicole_Scherzinger\n1763. Venus  \u2014  http:\/\/en.wikipedia.org.\/wiki\/Venus\n1764. PCI Express  \u2014  http:\/\/en.wikipedia.org.\/wiki\/PCI_Express\n1765. Las Vegas  \u2014  http:\/\/en.wikipedia.org.\/wiki\/Las_Vegas\n1766. Socialism  \u2014  http:\/\/en.wikipedia.org.\/wiki\/Socialism\n1767. Macaulay Culkin  \u2014  http:\/\/en.wikipedia.org.\/wiki\/Macaulay_Culkin\n1768. SpaceX  \u2014  http:\/\/en.wikipedia.org.\/wiki\/SpaceX\n1769. The Big Sick  \u2014  http:\/\/en.wikipedia.org.\/wiki\/The_Big_Sick\n1770. Ethanol  \u2014  http:\/\/en.wikipedia.org.\/wiki\/Ethanol\n1771. Borderline personality disorder  \u2014  http:\/\/en.wikipedia.org.\/wiki\/Borderline_personality_disorder\n1772. DRM  \u2014  http:\/\/en.wikipedia.org.\/wiki\/DRM\n1773. Michael Caine  \u2014  http:\/\/en.wikipedia.org.\/wiki\/Michael_Caine\n1774. List of U.S. states and territories by population  \u2014  http:\/\/en.wikipedia.org.\/wiki\/List_of_U.S._states_and_territories_by_population\n1775. Australia Plus  \u2014  http:\/\/en.wikipedia.org.\/wiki\/Australia_Plus\n1776. Jane the Virgin  \u2014  http:\/\/en.wikipedia.org.\/wiki\/Jane_the_Virgin\n1777. Sharia  \u2014  http:\/\/en.wikipedia.org.\/wiki\/Sharia\n1778. Dylan Minnette  \u2014  http:\/\/en.wikipedia.org.\/wiki\/Dylan_Minnette\n1779. Julian Assange  \u2014  http:\/\/en.wikipedia.org.\/wiki\/Julian_Assange\n1780. Sons of Anarchy  \u2014  http:\/\/en.wikipedia.org.\/wiki\/Sons_of_Anarchy\n1781. Donald Trump Jr.  \u2014  http:\/\/en.wikipedia.org.\/wiki\/Donald_Trump_Jr.\n1782. Roman numerals  \u2014  http:\/\/en.wikipedia.org.\/wiki\/Roman_numerals\n1783. List of Hindi film families  \u2014  http:\/\/en.wikipedia.org.\/wiki\/List_of_Hindi_film_families\n1784. Haiti  \u2014  http:\/\/en.wikipedia.org.\/wiki\/Haiti\n1785. Kaley Cuoco  \u2014  http:\/\/en.wikipedia.org.\/wiki\/Kaley_Cuoco\n1786. Transmission Control Protocol  \u2014  http:\/\/en.wikipedia.org.\/wiki\/Transmission_Control_Protocol\n1787. UFC 217  \u2014  http:\/\/en.wikipedia.org.\/wiki\/UFC_217\n1788. Darren Aronofsky  \u2014  http:\/\/en.wikipedia.org.\/wiki\/Darren_Aronofsky\n1789. Sally Yates  \u2014  http:\/\/en.wikipedia.org.\/wiki\/Sally_Yates\n1790. Alexis Ohanian  \u2014  http:\/\/en.wikipedia.org.\/wiki\/Alexis_Ohanian\n1791. Lysergic acid diethylamide  \u2014  http:\/\/en.wikipedia.org.\/wiki\/Lysergic_acid_diethylamide\n1792. Lost (TV series)  \u2014  http:\/\/en.wikipedia.org.\/wiki\/Lost_(TV_series)\n1793. Victoria  \u2014  http:\/\/en.wikipedia.org.\/wiki\/Victoria\n1794. Binomial distribution  \u2014  http:\/\/en.wikipedia.org.\/wiki\/Binomial_distribution\n1795. Kris Jenner  \u2014  http:\/\/en.wikipedia.org.\/wiki\/Kris_Jenner\n1796. Eurovision Song Contest 2018  \u2014  http:\/\/en.wikipedia.org.\/wiki\/Eurovision_Song_Contest_2018\n1797. Liechtenstein  \u2014  http:\/\/en.wikipedia.org.\/wiki\/Liechtenstein\n1798. UFC 211  \u2014  http:\/\/en.wikipedia.org.\/wiki\/UFC_211\n1799. Gurmeet Ram Rahim Singh  \u2014  http:\/\/en.wikipedia.org.\/wiki\/Gurmeet_Ram_Rahim_Singh\n","miniList":"1700. Houston\n1701. Need for Speed\n1702. Jessica Jones\n1703. Vagina\n1704. Ridley Scott\n1705. Amelia Earhart\n1706. Atlanta\n1707. Barry Seal\n1708. Okto\n1709. Logan Paul\n1710. Lovebug\n1711. Ghana\n1712. Jane Fonda\n1713. Psychology\n1714. Asia\n1715. Reddit\n1716. Bicycle\n1717. Nirvana (band)\n1718. T2 Trainspotting\n1719. Gold\n1720. Vancouver\n1721. ITIL\n1722. Holi\n1723. Iraq War\n1724. Steven Seagal\n1725. Scoville scale\n1726. Giant panda\n1727. Ashkenazi Jews\n1728. Akshay Kumar\n1729. Alice Cooper\n1730. United States presidential election, 2008\n1731. HTTP 403\n1732. Depeche Mode\n1733. PayPal\n1734. Sharon Tate\n1735. Marisa Tomei\n1736. James Bond\n1737. Into the Badlands (TV series)\n1738. Inception\n1739. Star Trek Beyond\n1740. The Sopranos\n1741. Socrates\n1742. Samuel L. Jackson\n1743. Kaabil\n1744. Frozen (2013 film)\n1745. John Wayne\n1746. PID controller\n1747. Spanish language\n1748. Paul Ryan\n1749. Forrest Gump\n1750. Mesopotamia\n1751. Bates Motel (TV series)\n1752. Pound sterling\n1753. Howard Hughes\n1754. Bill Nye\n1755. Red panda\n1756. Joe Rogan\n1757. Daniel Radcliffe\n1758. Georges St-Pierre\n1759. Bruce Springsteen\n1760. Airbus A350 XWB\n1761. Silicon Valley\n1762. Nicole Scherzinger\n1763. Venus\n1764. PCI Express\n1765. Las Vegas\n1766. Socialism\n1767. Macaulay Culkin\n1768. SpaceX\n1769. The Big Sick\n1770. Ethanol\n1771. Borderline personality disorder\n1772. DRM\n1773. Michael Caine\n1774. List of U.S. states and territories by population\n1775. Australia Plus\n1776. Jane the Virgin\n1777. Sharia\n1778. Dylan Minnette\n1779. Julian Assange\n1780. Sons of Anarchy\n1781. Donald Trump Jr.\n1782. Roman numerals\n1783. List of Hindi film families\n1784. Haiti\n1785. Kaley Cuoco\n1786. Transmission Control Protocol\n1787. UFC 217\n1788. Darren Aronofsky\n1789. Sally Yates\n1790. Alexis Ohanian\n1791. Lysergic acid diethylamide\n1792. Lost (TV series)\n1793. Victoria\n1794. Binomial distribution\n1795. Kris Jenner\n1796. Eurovision Song Contest 2018\n1797. Liechtenstein\n1798. UFC 211\n1799. Gurmeet Ram Rahim Singh\n"}
