{"start":1801,"end":1900,"count":5616717,"type":"pageviews","pageSize":100,"page":18,"pages":56168,"columns":[{"label":"","property":"pageviews","sortable":false}],"items":[{"pageviews":"1800. <a target=\"_blank\" href=\"http://en.wikipedia.org./wiki/Harry_Kane\">Harry Kane</a>"},{"pageviews":"1801. <a target=\"_blank\" href=\"http://en.wikipedia.org./wiki/USB-C\">USB-C</a>"},{"pageviews":"1802. <a target=\"_blank\" href=\"http://en.wikipedia.org./wiki/Kate_McKinnon\">Kate McKinnon</a>"},{"pageviews":"1803. <a target=\"_blank\" href=\"http://en.wikipedia.org./wiki/Cricket\">Cricket</a>"},{"pageviews":"1804. <a target=\"_blank\" href=\"http://en.wikipedia.org./wiki/The_Snowman_(2017_film)\">The Snowman (2017 film)</a>"},{"pageviews":"1805. <a target=\"_blank\" href=\"http://en.wikipedia.org./wiki/Kendall_Jenner\">Kendall Jenner</a>"},{"pageviews":"1806. <a target=\"_blank\" href=\"http://en.wikipedia.org./wiki/Peru\">Peru</a>"},{"pageviews":"1807. <a target=\"_blank\" href=\"http://en.wikipedia.org./wiki/Rag'n'Bone_Man\">Rag'n'Bone Man</a>"},{"pageviews":"1808. <a target=\"_blank\" href=\"http://en.wikipedia.org./wiki/Eddie_Murphy\">Eddie Murphy</a>"},{"pageviews":"1809. <a target=\"_blank\" href=\"http://en.wikipedia.org./wiki/La7\">La7</a>"},{"pageviews":"1810. <a target=\"_blank\" href=\"http://en.wikipedia.org./wiki/Cascading_Style_Sheets\">Cascading Style Sheets</a>"},{"pageviews":"1811. <a target=\"_blank\" href=\"http://en.wikipedia.org./wiki/Roe_v._Wade\">Roe v. Wade</a>"},{"pageviews":"1812. <a target=\"_blank\" href=\"http://en.wikipedia.org./wiki/Porter's_five_forces_analysis\">Porter's five forces analysis</a>"},{"pageviews":"1813. <a target=\"_blank\" href=\"http://en.wikipedia.org./wiki/.NET_Framework\">.NET Framework</a>"},{"pageviews":"1814. <a target=\"_blank\" href=\"http://en.wikipedia.org./wiki/Pierce_Brosnan\">Pierce Brosnan</a>"},{"pageviews":"1815. <a target=\"_blank\" href=\"http://en.wikipedia.org./wiki/QR_code\">QR code</a>"},{"pageviews":"1816. <a target=\"_blank\" href=\"http://en.wikipedia.org./wiki/List_of_states_with_nuclear_weapons\">List of states with nuclear weapons</a>"},{"pageviews":"1817. <a target=\"_blank\" href=\"http://en.wikipedia.org./wiki/Credit_score_in_the_United_States\">Credit score in the United States</a>"},{"pageviews":"1818. <a target=\"_blank\" href=\"http://en.wikipedia.org./wiki/Earthquake\">Earthquake</a>"},{"pageviews":"1819. <a target=\"_blank\" href=\"http://en.wikipedia.org./wiki/Anime\">Anime</a>"},{"pageviews":"1820. <a target=\"_blank\" href=\"http://en.wikipedia.org./wiki/Ready_Player_One\">Ready Player One</a>"},{"pageviews":"1821. <a target=\"_blank\" href=\"http://en.wikipedia.org./wiki/Ozzy_Osbourne\">Ozzy Osbourne</a>"},{"pageviews":"1822. <a target=\"_blank\" href=\"http://en.wikipedia.org./wiki/Magic_Johnson\">Magic Johnson</a>"},{"pageviews":"1823. <a target=\"_blank\" href=\"http://en.wikipedia.org./wiki/Gini_coefficient\">Gini coefficient</a>"},{"pageviews":"1824. <a target=\"_blank\" href=\"http://en.wikipedia.org./wiki/Power_(TV_series)\">Power (TV series)</a>"},{"pageviews":"1825. <a target=\"_blank\" href=\"http://en.wikipedia.org./wiki/Master_of_None\">Master of None</a>"},{"pageviews":"1826. <a target=\"_blank\" href=\"http://en.wikipedia.org./wiki/Fidel_Castro\">Fidel Castro</a>"},{"pageviews":"1827. <a target=\"_blank\" href=\"http://en.wikipedia.org./wiki/Jack_Ma\">Jack Ma</a>"},{"pageviews":"1828. <a target=\"_blank\" href=\"http://en.wikipedia.org./wiki/Seychelles\">Seychelles</a>"},{"pageviews":"1829. <a target=\"_blank\" href=\"http://en.wikipedia.org./wiki/American_Revolution\">American Revolution</a>"},{"pageviews":"1830. <a target=\"_blank\" href=\"http://en.wikipedia.org./wiki/Rashida_Jones\">Rashida Jones</a>"},{"pageviews":"1831. <a target=\"_blank\" href=\"http://en.wikipedia.org./wiki/Northern_Ireland\">Northern Ireland</a>"},{"pageviews":"1832. <a target=\"_blank\" href=\"http://en.wikipedia.org./wiki/Pollution\">Pollution</a>"},{"pageviews":"1833. <a target=\"_blank\" href=\"http://en.wikipedia.org./wiki/Stellan_Skarsg%C3%A5rd\">Stellan Skarsgård</a>"},{"pageviews":"1834. <a target=\"_blank\" href=\"http://en.wikipedia.org./wiki/Gwyneth_Paltrow\">Gwyneth Paltrow</a>"},{"pageviews":"1835. <a target=\"_blank\" href=\"http://en.wikipedia.org./wiki/Mersal_(film)\">Mersal (film)</a>"},{"pageviews":"1836. <a target=\"_blank\" href=\"http://en.wikipedia.org./wiki/Oasis_(band)\">Oasis (band)</a>"},{"pageviews":"1837. <a target=\"_blank\" href=\"http://en.wikipedia.org./wiki/Ringo_Starr\">Ringo Starr</a>"},{"pageviews":"1838. <a target=\"_blank\" href=\"http://en.wikipedia.org./wiki/Latin_honors\">Latin honors</a>"},{"pageviews":"1839. <a target=\"_blank\" href=\"http://en.wikipedia.org./wiki/Lorem_ipsum\">Lorem ipsum</a>"},{"pageviews":"1840. <a target=\"_blank\" href=\"http://en.wikipedia.org./wiki/Electromagnetic_spectrum\">Electromagnetic spectrum</a>"},{"pageviews":"1841. <a target=\"_blank\" href=\"http://en.wikipedia.org./wiki/Evan_Rachel_Wood\">Evan Rachel Wood</a>"},{"pageviews":"1842. <a target=\"_blank\" href=\"http://en.wikipedia.org./wiki/MS-13\">MS-13</a>"},{"pageviews":"1843. <a target=\"_blank\" href=\"http://en.wikipedia.org./wiki/Zo%C3%AB_Kravitz\">Zoë Kravitz</a>"},{"pageviews":"1844. <a target=\"_blank\" href=\"http://en.wikipedia.org./wiki/Boeing_B-52_Stratofortress\">Boeing B-52 Stratofortress</a>"},{"pageviews":"1845. <a target=\"_blank\" href=\"http://en.wikipedia.org./wiki/Survivor_Series_(2017)\">Survivor Series (2017)</a>"},{"pageviews":"1846. <a target=\"_blank\" href=\"http://en.wikipedia.org./wiki/BoJack_Horseman\">BoJack Horseman</a>"},{"pageviews":"1847. <a target=\"_blank\" href=\"http://en.wikipedia.org./wiki/Software\">Software</a>"},{"pageviews":"1848. <a target=\"_blank\" href=\"http://en.wikipedia.org./wiki/Brunei\">Brunei</a>"},{"pageviews":"1849. <a target=\"_blank\" href=\"http://en.wikipedia.org./wiki/Muammar_Gaddafi\">Muammar Gaddafi</a>"},{"pageviews":"1850. <a target=\"_blank\" href=\"http://en.wikipedia.org./wiki/Hans_Zimmer\">Hans Zimmer</a>"},{"pageviews":"1851. <a target=\"_blank\" href=\"http://en.wikipedia.org./wiki/Anushka_Shetty\">Anushka Shetty</a>"},{"pageviews":"1852. <a target=\"_blank\" href=\"http://en.wikipedia.org./wiki/UFC_214\">UFC 214</a>"},{"pageviews":"1853. <a target=\"_blank\" href=\"http://en.wikipedia.org./wiki/Shadowhunters\">Shadowhunters</a>"},{"pageviews":"1854. <a target=\"_blank\" href=\"http://en.wikipedia.org./wiki/Principal_component_analysis\">Principal component analysis</a>"},{"pageviews":"1855. <a target=\"_blank\" href=\"http://en.wikipedia.org./wiki/Ruth_Bader_Ginsburg\">Ruth Bader Ginsburg</a>"},{"pageviews":"1856. <a target=\"_blank\" href=\"http://en.wikipedia.org./wiki/The_Hidden_Wiki\">The Hidden Wiki</a>"},{"pageviews":"1857. <a target=\"_blank\" href=\"http://en.wikipedia.org./wiki/Student's_t-test\">Student's t-test</a>"},{"pageviews":"1858. <a target=\"_blank\" href=\"http://en.wikipedia.org./wiki/One_Piece\">One Piece</a>"},{"pageviews":"1859. <a target=\"_blank\" href=\"http://en.wikipedia.org./wiki/Michelle_Williams_(actress)\">Michelle Williams (actress)</a>"},{"pageviews":"1860. <a target=\"_blank\" href=\"http://en.wikipedia.org./wiki/Glen_Campbell\">Glen Campbell</a>"},{"pageviews":"1861. <a target=\"_blank\" href=\"http://en.wikipedia.org./wiki/Michael_Keaton\">Michael Keaton</a>"},{"pageviews":"1862. <a target=\"_blank\" href=\"http://en.wikipedia.org./wiki/Logistic_regression\">Logistic regression</a>"},{"pageviews":"1863. <a target=\"_blank\" href=\"http://en.wikipedia.org./wiki/Runaways_(TV_series)\">Runaways (TV series)</a>"},{"pageviews":"1864. <a target=\"_blank\" href=\"http://en.wikipedia.org./wiki/Ancient_Egypt\">Ancient Egypt</a>"},{"pageviews":"1865. <a target=\"_blank\" href=\"http://en.wikipedia.org./wiki/Resident_Evil\">Resident Evil</a>"},{"pageviews":"1866. <a target=\"_blank\" href=\"http://en.wikipedia.org./wiki/Jordan_Peterson\">Jordan Peterson</a>"},{"pageviews":"1867. <a target=\"_blank\" href=\"http://en.wikipedia.org./wiki/Vatican_City\">Vatican City</a>"},{"pageviews":"1868. <a target=\"_blank\" href=\"http://en.wikipedia.org./wiki/The_Beach_Boys\">The Beach Boys</a>"},{"pageviews":"1869. <a target=\"_blank\" href=\"http://en.wikipedia.org./wiki/Amsterdam\">Amsterdam</a>"},{"pageviews":"1870. <a target=\"_blank\" href=\"http://en.wikipedia.org./wiki/Simon_Cowell\">Simon Cowell</a>"},{"pageviews":"1871. <a target=\"_blank\" href=\"http://en.wikipedia.org./wiki/Wentworth_Miller\">Wentworth Miller</a>"},{"pageviews":"1872. <a target=\"_blank\" href=\"http://en.wikipedia.org./wiki/Marshall_McLuhan\">Marshall McLuhan</a>"},{"pageviews":"1873. <a target=\"_blank\" href=\"http://en.wikipedia.org./wiki/Shailene_Woodley\">Shailene Woodley</a>"},{"pageviews":"1874. <a target=\"_blank\" href=\"http://en.wikipedia.org./wiki/Narcissistic_personality_disorder\">Narcissistic personality disorder</a>"},{"pageviews":"1875. <a target=\"_blank\" href=\"http://en.wikipedia.org./wiki/Oman\">Oman</a>"},{"pageviews":"1876. <a target=\"_blank\" href=\"http://en.wikipedia.org./wiki/Helen_Keller\">Helen Keller</a>"},{"pageviews":"1877. <a target=\"_blank\" href=\"http://en.wikipedia.org./wiki/Regression_analysis\">Regression analysis</a>"},{"pageviews":"1878. <a target=\"_blank\" href=\"http://en.wikipedia.org./wiki/Johann_Sebastian_Bach\">Johann Sebastian Bach</a>"},{"pageviews":"1879. <a target=\"_blank\" href=\"http://en.wikipedia.org./wiki/Milky_Way\">Milky Way</a>"},{"pageviews":"1880. <a target=\"_blank\" href=\"http://en.wikipedia.org./wiki/United_Kingdom_general_election%2C_2015\">United Kingdom general election, 2015</a>"},{"pageviews":"1881. <a target=\"_blank\" href=\"http://en.wikipedia.org./wiki/The_Founder\">The Founder</a>"},{"pageviews":"1882. <a target=\"_blank\" href=\"http://en.wikipedia.org./wiki/Somalia\">Somalia</a>"},{"pageviews":"1883. <a target=\"_blank\" href=\"http://en.wikipedia.org./wiki/List_of_HTTP_header_fields\">List of HTTP header fields</a>"},{"pageviews":"1884. <a target=\"_blank\" href=\"http://en.wikipedia.org./wiki/Elizabeth_Taylor\">Elizabeth Taylor</a>"},{"pageviews":"1885. <a target=\"_blank\" href=\"http://en.wikipedia.org./wiki/That_'70s_Show\">That '70s Show</a>"},{"pageviews":"1886. <a target=\"_blank\" href=\"http://en.wikipedia.org./wiki/Continent\">Continent</a>"},{"pageviews":"1887. <a target=\"_blank\" href=\"http://en.wikipedia.org./wiki/Detroit\">Detroit</a>"},{"pageviews":"1888. <a target=\"_blank\" href=\"http://en.wikipedia.org./wiki/Jeffrey_Dean_Morgan\">Jeffrey Dean Morgan</a>"},{"pageviews":"1889. <a target=\"_blank\" href=\"http://en.wikipedia.org./wiki/Green_Day\">Green Day</a>"},{"pageviews":"1890. <a target=\"_blank\" href=\"http://en.wikipedia.org./wiki/2016_NBA_draft\">2016 NBA draft</a>"},{"pageviews":"1891. <a target=\"_blank\" href=\"http://en.wikipedia.org./wiki/Silk_Road\">Silk Road</a>"},{"pageviews":"1892. <a target=\"_blank\" href=\"http://en.wikipedia.org./wiki/Systems_development_life_cycle\">Systems development life cycle</a>"},{"pageviews":"1893. <a target=\"_blank\" href=\"http://en.wikipedia.org./wiki/Olympic_Games\">Olympic Games</a>"},{"pageviews":"1894. <a target=\"_blank\" href=\"http://en.wikipedia.org./wiki/Uzbekistan\">Uzbekistan</a>"},{"pageviews":"1895. <a target=\"_blank\" href=\"http://en.wikipedia.org./wiki/Japanese_language\">Japanese language</a>"},{"pageviews":"1896. <a target=\"_blank\" href=\"http://en.wikipedia.org./wiki/Dancing_with_the_Stars_(U.S._season_24)\">Dancing with the Stars (U.S. season 24)</a>"},{"pageviews":"1897. <a target=\"_blank\" href=\"http://en.wikipedia.org./wiki/21_Savage\">21 Savage</a>"},{"pageviews":"1898. <a target=\"_blank\" href=\"http://en.wikipedia.org./wiki/Montreal\">Montreal</a>"},{"pageviews":"1899. <a target=\"_blank\" href=\"http://en.wikipedia.org./wiki/Girls_(TV_series)\">Girls (TV series)</a>"}],"list":"1800. Harry Kane  \u2014  http:\/\/en.wikipedia.org.\/wiki\/Harry_Kane\n1801. USB-C  \u2014  http:\/\/en.wikipedia.org.\/wiki\/USB-C\n1802. Kate McKinnon  \u2014  http:\/\/en.wikipedia.org.\/wiki\/Kate_McKinnon\n1803. Cricket  \u2014  http:\/\/en.wikipedia.org.\/wiki\/Cricket\n1804. The Snowman (2017 film)  \u2014  http:\/\/en.wikipedia.org.\/wiki\/The_Snowman_(2017_film)\n1805. Kendall Jenner  \u2014  http:\/\/en.wikipedia.org.\/wiki\/Kendall_Jenner\n1806. Peru  \u2014  http:\/\/en.wikipedia.org.\/wiki\/Peru\n1807. Rag'n'Bone Man  \u2014  http:\/\/en.wikipedia.org.\/wiki\/Rag'n'Bone_Man\n1808. Eddie Murphy  \u2014  http:\/\/en.wikipedia.org.\/wiki\/Eddie_Murphy\n1809. La7  \u2014  http:\/\/en.wikipedia.org.\/wiki\/La7\n1810. Cascading Style Sheets  \u2014  http:\/\/en.wikipedia.org.\/wiki\/Cascading_Style_Sheets\n1811. Roe v. Wade  \u2014  http:\/\/en.wikipedia.org.\/wiki\/Roe_v._Wade\n1812. Porter's five forces analysis  \u2014  http:\/\/en.wikipedia.org.\/wiki\/Porter's_five_forces_analysis\n1813. .NET Framework  \u2014  http:\/\/en.wikipedia.org.\/wiki\/.NET_Framework\n1814. Pierce Brosnan  \u2014  http:\/\/en.wikipedia.org.\/wiki\/Pierce_Brosnan\n1815. QR code  \u2014  http:\/\/en.wikipedia.org.\/wiki\/QR_code\n1816. List of states with nuclear weapons  \u2014  http:\/\/en.wikipedia.org.\/wiki\/List_of_states_with_nuclear_weapons\n1817. Credit score in the United States  \u2014  http:\/\/en.wikipedia.org.\/wiki\/Credit_score_in_the_United_States\n1818. Earthquake  \u2014  http:\/\/en.wikipedia.org.\/wiki\/Earthquake\n1819. Anime  \u2014  http:\/\/en.wikipedia.org.\/wiki\/Anime\n1820. Ready Player One  \u2014  http:\/\/en.wikipedia.org.\/wiki\/Ready_Player_One\n1821. Ozzy Osbourne  \u2014  http:\/\/en.wikipedia.org.\/wiki\/Ozzy_Osbourne\n1822. Magic Johnson  \u2014  http:\/\/en.wikipedia.org.\/wiki\/Magic_Johnson\n1823. Gini coefficient  \u2014  http:\/\/en.wikipedia.org.\/wiki\/Gini_coefficient\n1824. Power (TV series)  \u2014  http:\/\/en.wikipedia.org.\/wiki\/Power_(TV_series)\n1825. Master of None  \u2014  http:\/\/en.wikipedia.org.\/wiki\/Master_of_None\n1826. Fidel Castro  \u2014  http:\/\/en.wikipedia.org.\/wiki\/Fidel_Castro\n1827. Jack Ma  \u2014  http:\/\/en.wikipedia.org.\/wiki\/Jack_Ma\n1828. Seychelles  \u2014  http:\/\/en.wikipedia.org.\/wiki\/Seychelles\n1829. American Revolution  \u2014  http:\/\/en.wikipedia.org.\/wiki\/American_Revolution\n1830. Rashida Jones  \u2014  http:\/\/en.wikipedia.org.\/wiki\/Rashida_Jones\n1831. Northern Ireland  \u2014  http:\/\/en.wikipedia.org.\/wiki\/Northern_Ireland\n1832. Pollution  \u2014  http:\/\/en.wikipedia.org.\/wiki\/Pollution\n1833. Stellan Skarsg\u00E5rd  \u2014  http:\/\/en.wikipedia.org.\/wiki\/Stellan_Skarsg%C3%A5rd\n1834. Gwyneth Paltrow  \u2014  http:\/\/en.wikipedia.org.\/wiki\/Gwyneth_Paltrow\n1835. Mersal (film)  \u2014  http:\/\/en.wikipedia.org.\/wiki\/Mersal_(film)\n1836. Oasis (band)  \u2014  http:\/\/en.wikipedia.org.\/wiki\/Oasis_(band)\n1837. Ringo Starr  \u2014  http:\/\/en.wikipedia.org.\/wiki\/Ringo_Starr\n1838. Latin honors  \u2014  http:\/\/en.wikipedia.org.\/wiki\/Latin_honors\n1839. Lorem ipsum  \u2014  http:\/\/en.wikipedia.org.\/wiki\/Lorem_ipsum\n1840. Electromagnetic spectrum  \u2014  http:\/\/en.wikipedia.org.\/wiki\/Electromagnetic_spectrum\n1841. Evan Rachel Wood  \u2014  http:\/\/en.wikipedia.org.\/wiki\/Evan_Rachel_Wood\n1842. MS-13  \u2014  http:\/\/en.wikipedia.org.\/wiki\/MS-13\n1843. Zo\u00EB Kravitz  \u2014  http:\/\/en.wikipedia.org.\/wiki\/Zo%C3%AB_Kravitz\n1844. Boeing B-52 Stratofortress  \u2014  http:\/\/en.wikipedia.org.\/wiki\/Boeing_B-52_Stratofortress\n1845. Survivor Series (2017)  \u2014  http:\/\/en.wikipedia.org.\/wiki\/Survivor_Series_(2017)\n1846. BoJack Horseman  \u2014  http:\/\/en.wikipedia.org.\/wiki\/BoJack_Horseman\n1847. Software  \u2014  http:\/\/en.wikipedia.org.\/wiki\/Software\n1848. Brunei  \u2014  http:\/\/en.wikipedia.org.\/wiki\/Brunei\n1849. Muammar Gaddafi  \u2014  http:\/\/en.wikipedia.org.\/wiki\/Muammar_Gaddafi\n1850. Hans Zimmer  \u2014  http:\/\/en.wikipedia.org.\/wiki\/Hans_Zimmer\n1851. Anushka Shetty  \u2014  http:\/\/en.wikipedia.org.\/wiki\/Anushka_Shetty\n1852. UFC 214  \u2014  http:\/\/en.wikipedia.org.\/wiki\/UFC_214\n1853. Shadowhunters  \u2014  http:\/\/en.wikipedia.org.\/wiki\/Shadowhunters\n1854. Principal component analysis  \u2014  http:\/\/en.wikipedia.org.\/wiki\/Principal_component_analysis\n1855. Ruth Bader Ginsburg  \u2014  http:\/\/en.wikipedia.org.\/wiki\/Ruth_Bader_Ginsburg\n1856. The Hidden Wiki  \u2014  http:\/\/en.wikipedia.org.\/wiki\/The_Hidden_Wiki\n1857. Student's t-test  \u2014  http:\/\/en.wikipedia.org.\/wiki\/Student's_t-test\n1858. One Piece  \u2014  http:\/\/en.wikipedia.org.\/wiki\/One_Piece\n1859. Michelle Williams (actress)  \u2014  http:\/\/en.wikipedia.org.\/wiki\/Michelle_Williams_(actress)\n1860. Glen Campbell  \u2014  http:\/\/en.wikipedia.org.\/wiki\/Glen_Campbell\n1861. Michael Keaton  \u2014  http:\/\/en.wikipedia.org.\/wiki\/Michael_Keaton\n1862. Logistic regression  \u2014  http:\/\/en.wikipedia.org.\/wiki\/Logistic_regression\n1863. Runaways (TV series)  \u2014  http:\/\/en.wikipedia.org.\/wiki\/Runaways_(TV_series)\n1864. Ancient Egypt  \u2014  http:\/\/en.wikipedia.org.\/wiki\/Ancient_Egypt\n1865. Resident Evil  \u2014  http:\/\/en.wikipedia.org.\/wiki\/Resident_Evil\n1866. Jordan Peterson  \u2014  http:\/\/en.wikipedia.org.\/wiki\/Jordan_Peterson\n1867. Vatican City  \u2014  http:\/\/en.wikipedia.org.\/wiki\/Vatican_City\n1868. The Beach Boys  \u2014  http:\/\/en.wikipedia.org.\/wiki\/The_Beach_Boys\n1869. Amsterdam  \u2014  http:\/\/en.wikipedia.org.\/wiki\/Amsterdam\n1870. Simon Cowell  \u2014  http:\/\/en.wikipedia.org.\/wiki\/Simon_Cowell\n1871. Wentworth Miller  \u2014  http:\/\/en.wikipedia.org.\/wiki\/Wentworth_Miller\n1872. Marshall McLuhan  \u2014  http:\/\/en.wikipedia.org.\/wiki\/Marshall_McLuhan\n1873. Shailene Woodley  \u2014  http:\/\/en.wikipedia.org.\/wiki\/Shailene_Woodley\n1874. Narcissistic personality disorder  \u2014  http:\/\/en.wikipedia.org.\/wiki\/Narcissistic_personality_disorder\n1875. Oman  \u2014  http:\/\/en.wikipedia.org.\/wiki\/Oman\n1876. Helen Keller  \u2014  http:\/\/en.wikipedia.org.\/wiki\/Helen_Keller\n1877. Regression analysis  \u2014  http:\/\/en.wikipedia.org.\/wiki\/Regression_analysis\n1878. Johann Sebastian Bach  \u2014  http:\/\/en.wikipedia.org.\/wiki\/Johann_Sebastian_Bach\n1879. Milky Way  \u2014  http:\/\/en.wikipedia.org.\/wiki\/Milky_Way\n1880. United Kingdom general election, 2015  \u2014  http:\/\/en.wikipedia.org.\/wiki\/United_Kingdom_general_election%2C_2015\n1881. The Founder  \u2014  http:\/\/en.wikipedia.org.\/wiki\/The_Founder\n1882. Somalia  \u2014  http:\/\/en.wikipedia.org.\/wiki\/Somalia\n1883. List of HTTP header fields  \u2014  http:\/\/en.wikipedia.org.\/wiki\/List_of_HTTP_header_fields\n1884. Elizabeth Taylor  \u2014  http:\/\/en.wikipedia.org.\/wiki\/Elizabeth_Taylor\n1885. That '70s Show  \u2014  http:\/\/en.wikipedia.org.\/wiki\/That_'70s_Show\n1886. Continent  \u2014  http:\/\/en.wikipedia.org.\/wiki\/Continent\n1887. Detroit  \u2014  http:\/\/en.wikipedia.org.\/wiki\/Detroit\n1888. Jeffrey Dean Morgan  \u2014  http:\/\/en.wikipedia.org.\/wiki\/Jeffrey_Dean_Morgan\n1889. Green Day  \u2014  http:\/\/en.wikipedia.org.\/wiki\/Green_Day\n1890. 2016 NBA draft  \u2014  http:\/\/en.wikipedia.org.\/wiki\/2016_NBA_draft\n1891. Silk Road  \u2014  http:\/\/en.wikipedia.org.\/wiki\/Silk_Road\n1892. Systems development life cycle  \u2014  http:\/\/en.wikipedia.org.\/wiki\/Systems_development_life_cycle\n1893. Olympic Games  \u2014  http:\/\/en.wikipedia.org.\/wiki\/Olympic_Games\n1894. Uzbekistan  \u2014  http:\/\/en.wikipedia.org.\/wiki\/Uzbekistan\n1895. Japanese language  \u2014  http:\/\/en.wikipedia.org.\/wiki\/Japanese_language\n1896. Dancing with the Stars (U.S. season 24)  \u2014  http:\/\/en.wikipedia.org.\/wiki\/Dancing_with_the_Stars_(U.S._season_24)\n1897. 21 Savage  \u2014  http:\/\/en.wikipedia.org.\/wiki\/21_Savage\n1898. Montreal  \u2014  http:\/\/en.wikipedia.org.\/wiki\/Montreal\n1899. Girls (TV series)  \u2014  http:\/\/en.wikipedia.org.\/wiki\/Girls_(TV_series)\n","miniList":"1800. Harry Kane\n1801. USB-C\n1802. Kate McKinnon\n1803. Cricket\n1804. The Snowman (2017 film)\n1805. Kendall Jenner\n1806. Peru\n1807. Rag'n'Bone Man\n1808. Eddie Murphy\n1809. La7\n1810. Cascading Style Sheets\n1811. Roe v. Wade\n1812. Porter's five forces analysis\n1813. .NET Framework\n1814. Pierce Brosnan\n1815. QR code\n1816. List of states with nuclear weapons\n1817. Credit score in the United States\n1818. Earthquake\n1819. Anime\n1820. Ready Player One\n1821. Ozzy Osbourne\n1822. Magic Johnson\n1823. Gini coefficient\n1824. Power (TV series)\n1825. Master of None\n1826. Fidel Castro\n1827. Jack Ma\n1828. Seychelles\n1829. American Revolution\n1830. Rashida Jones\n1831. Northern Ireland\n1832. Pollution\n1833. Stellan Skarsg\u00E5rd\n1834. Gwyneth Paltrow\n1835. Mersal (film)\n1836. Oasis (band)\n1837. Ringo Starr\n1838. Latin honors\n1839. Lorem ipsum\n1840. Electromagnetic spectrum\n1841. Evan Rachel Wood\n1842. MS-13\n1843. Zo\u00EB Kravitz\n1844. Boeing B-52 Stratofortress\n1845. Survivor Series (2017)\n1846. BoJack Horseman\n1847. Software\n1848. Brunei\n1849. Muammar Gaddafi\n1850. Hans Zimmer\n1851. Anushka Shetty\n1852. UFC 214\n1853. Shadowhunters\n1854. Principal component analysis\n1855. Ruth Bader Ginsburg\n1856. The Hidden Wiki\n1857. Student's t-test\n1858. One Piece\n1859. Michelle Williams (actress)\n1860. Glen Campbell\n1861. Michael Keaton\n1862. Logistic regression\n1863. Runaways (TV series)\n1864. Ancient Egypt\n1865. Resident Evil\n1866. Jordan Peterson\n1867. Vatican City\n1868. The Beach Boys\n1869. Amsterdam\n1870. Simon Cowell\n1871. Wentworth Miller\n1872. Marshall McLuhan\n1873. Shailene Woodley\n1874. Narcissistic personality disorder\n1875. Oman\n1876. Helen Keller\n1877. Regression analysis\n1878. Johann Sebastian Bach\n1879. Milky Way\n1880. United Kingdom general election, 2015\n1881. The Founder\n1882. Somalia\n1883. List of HTTP header fields\n1884. Elizabeth Taylor\n1885. That '70s Show\n1886. Continent\n1887. Detroit\n1888. Jeffrey Dean Morgan\n1889. Green Day\n1890. 2016 NBA draft\n1891. Silk Road\n1892. Systems development life cycle\n1893. Olympic Games\n1894. Uzbekistan\n1895. Japanese language\n1896. Dancing with the Stars (U.S. season 24)\n1897. 21 Savage\n1898. Montreal\n1899. Girls (TV series)\n"}
