{"start":1901,"end":2000,"count":5616717,"type":"pageviews","pageSize":100,"page":19,"pages":56168,"columns":[{"label":"","property":"pageviews","sortable":false}],"items":[{"pageviews":"1900. <a target=\"_blank\" href=\"http://en.wikipedia.org./wiki/Machu_Picchu\">Machu Picchu</a>"},{"pageviews":"1901. <a target=\"_blank\" href=\"http://en.wikipedia.org./wiki/Sex_position\">Sex position</a>"},{"pageviews":"1902. <a target=\"_blank\" href=\"http://en.wikipedia.org./wiki/Middle_East\">Middle East</a>"},{"pageviews":"1903. <a target=\"_blank\" href=\"http://en.wikipedia.org./wiki/Autism\">Autism</a>"},{"pageviews":"1904. <a target=\"_blank\" href=\"http://en.wikipedia.org./wiki/Salman_of_Saudi_Arabia\">Salman of Saudi Arabia</a>"},{"pageviews":"1905. <a target=\"_blank\" href=\"http://en.wikipedia.org./wiki/Edmund_Kemper\">Edmund Kemper</a>"},{"pageviews":"1906. <a target=\"_blank\" href=\"http://en.wikipedia.org./wiki/Lobotomy\">Lobotomy</a>"},{"pageviews":"1907. <a target=\"_blank\" href=\"http://en.wikipedia.org./wiki/Germany_national_football_team\">Germany national football team</a>"},{"pageviews":"1908. <a target=\"_blank\" href=\"http://en.wikipedia.org./wiki/Globalization\">Globalization</a>"},{"pageviews":"1909. <a target=\"_blank\" href=\"http://en.wikipedia.org./wiki/Fifty_Shades_of_Grey\">Fifty Shades of Grey</a>"},{"pageviews":"1910. <a target=\"_blank\" href=\"http://en.wikipedia.org./wiki/Six-Day_War\">Six-Day War</a>"},{"pageviews":"1911. <a target=\"_blank\" href=\"http://en.wikipedia.org./wiki/Inferno_(Dante)\">Inferno (Dante)</a>"},{"pageviews":"1912. <a target=\"_blank\" href=\"http://en.wikipedia.org./wiki/Santa_Clarita_Diet\">Santa Clarita Diet</a>"},{"pageviews":"1913. <a target=\"_blank\" href=\"http://en.wikipedia.org./wiki/Sgt._Pepper's_Lonely_Hearts_Club_Band\">Sgt. Pepper's Lonely Hearts Club Band</a>"},{"pageviews":"1914. <a target=\"_blank\" href=\"http://en.wikipedia.org./wiki/Teen_Wolf_(season_6)\">Teen Wolf (season 6)</a>"},{"pageviews":"1915. <a target=\"_blank\" href=\"http://en.wikipedia.org./wiki/Logan_Lucky\">Logan Lucky</a>"},{"pageviews":"1916. <a target=\"_blank\" href=\"http://en.wikipedia.org./wiki/Kirk_Douglas\">Kirk Douglas</a>"},{"pageviews":"1917. <a target=\"_blank\" href=\"http://en.wikipedia.org./wiki/Charlie_Puth\">Charlie Puth</a>"},{"pageviews":"1918. <a target=\"_blank\" href=\"http://en.wikipedia.org./wiki/Lily_James\">Lily James</a>"},{"pageviews":"1919. <a target=\"_blank\" href=\"http://en.wikipedia.org./wiki/House_of_Cards_(season_5)\">House of Cards (season 5)</a>"},{"pageviews":"1920. <a target=\"_blank\" href=\"http://en.wikipedia.org./wiki/Aircraft_carrier\">Aircraft carrier</a>"},{"pageviews":"1921. <a target=\"_blank\" href=\"http://en.wikipedia.org./wiki/Latin\">Latin</a>"},{"pageviews":"1922. <a target=\"_blank\" href=\"http://en.wikipedia.org./wiki/Isle_of_Man\">Isle of Man</a>"},{"pageviews":"1923. <a target=\"_blank\" href=\"http://en.wikipedia.org./wiki/Pok%C3%A9mon\">Pokémon</a>"},{"pageviews":"1924. <a target=\"_blank\" href=\"http://en.wikipedia.org./wiki/Postmodernism\">Postmodernism</a>"},{"pageviews":"1925. <a target=\"_blank\" href=\"http://en.wikipedia.org./wiki/Marie_Antoinette\">Marie Antoinette</a>"},{"pageviews":"1926. <a target=\"_blank\" href=\"http://en.wikipedia.org./wiki/Civil_rights_movement\">Civil rights movement</a>"},{"pageviews":"1927. <a target=\"_blank\" href=\"http://en.wikipedia.org./wiki/Iron_Maiden\">Iron Maiden</a>"},{"pageviews":"1928. <a target=\"_blank\" href=\"http://en.wikipedia.org./wiki/Eva_Green\">Eva Green</a>"},{"pageviews":"1929. <a target=\"_blank\" href=\"http://en.wikipedia.org./wiki/Succession_to_the_British_throne\">Succession to the British throne</a>"},{"pageviews":"1930. <a target=\"_blank\" href=\"http://en.wikipedia.org./wiki/NASA\">NASA</a>"},{"pageviews":"1931. <a target=\"_blank\" href=\"http://en.wikipedia.org./wiki/Larry_Page\">Larry Page</a>"},{"pageviews":"1932. <a target=\"_blank\" href=\"http://en.wikipedia.org./wiki/Bessie_Coleman\">Bessie Coleman</a>"},{"pageviews":"1933. <a target=\"_blank\" href=\"http://en.wikipedia.org./wiki/New_Orleans\">New Orleans</a>"},{"pageviews":"1934. <a target=\"_blank\" href=\"http://en.wikipedia.org./wiki/Magna_Carta\">Magna Carta</a>"},{"pageviews":"1935. <a target=\"_blank\" href=\"http://en.wikipedia.org./wiki/Massachusetts\">Massachusetts</a>"},{"pageviews":"1936. <a target=\"_blank\" href=\"http://en.wikipedia.org./wiki/Spice_Girls\">Spice Girls</a>"},{"pageviews":"1937. <a target=\"_blank\" href=\"http://en.wikipedia.org./wiki/Grand_Theft_Auto\">Grand Theft Auto</a>"},{"pageviews":"1938. <a target=\"_blank\" href=\"http://en.wikipedia.org./wiki/List_of_Unicode_characters\">List of Unicode characters</a>"},{"pageviews":"1939. <a target=\"_blank\" href=\"http://en.wikipedia.org./wiki/Stevie_Wonder\">Stevie Wonder</a>"},{"pageviews":"1940. <a target=\"_blank\" href=\"http://en.wikipedia.org./wiki/Adam_West\">Adam West</a>"},{"pageviews":"1941. <a target=\"_blank\" href=\"http://en.wikipedia.org./wiki/Adobe_Photoshop\">Adobe Photoshop</a>"},{"pageviews":"1942. <a target=\"_blank\" href=\"http://en.wikipedia.org./wiki/Bryce_Dallas_Howard\">Bryce Dallas Howard</a>"},{"pageviews":"1943. <a target=\"_blank\" href=\"http://en.wikipedia.org./wiki/Kevin_Hart\">Kevin Hart</a>"},{"pageviews":"1944. <a target=\"_blank\" href=\"http://en.wikipedia.org./wiki/Stevie_Nicks\">Stevie Nicks</a>"},{"pageviews":"1945. <a target=\"_blank\" href=\"http://en.wikipedia.org./wiki/Antoine-Augustin_Parmentier\">Antoine-Augustin Parmentier</a>"},{"pageviews":"1946. <a target=\"_blank\" href=\"http://en.wikipedia.org./wiki/Microsoft_Word\">Microsoft Word</a>"},{"pageviews":"1947. <a target=\"_blank\" href=\"http://en.wikipedia.org./wiki/2016_Summer_Olympics\">2016 Summer Olympics</a>"},{"pageviews":"1948. <a target=\"_blank\" href=\"http://en.wikipedia.org./wiki/Shanghai\">Shanghai</a>"},{"pageviews":"1949. <a target=\"_blank\" href=\"http://en.wikipedia.org./wiki/Central_Intelligence_Agency\">Central Intelligence Agency</a>"},{"pageviews":"1950. <a target=\"_blank\" href=\"http://en.wikipedia.org./wiki/Roman_Reigns\">Roman Reigns</a>"},{"pageviews":"1951. <a target=\"_blank\" href=\"http://en.wikipedia.org./wiki/Confidence_interval\">Confidence interval</a>"},{"pageviews":"1952. <a target=\"_blank\" href=\"http://en.wikipedia.org./wiki/John_Legend\">John Legend</a>"},{"pageviews":"1953. <a target=\"_blank\" href=\"http://en.wikipedia.org./wiki/Vlad_the_Impaler\">Vlad the Impaler</a>"},{"pageviews":"1954. <a target=\"_blank\" href=\"http://en.wikipedia.org./wiki/Good_Kid%2C_M.A.A.D_City\">Good Kid, M.A.A.D City</a>"},{"pageviews":"1955. <a target=\"_blank\" href=\"http://en.wikipedia.org./wiki/Twenty-fifth_Amendment_to_the_United_States_Constitution\">Twenty-fifth Amendment to the United States Constitution</a>"},{"pageviews":"1956. <a target=\"_blank\" href=\"http://en.wikipedia.org./wiki/Mikhail_Gorbachev\">Mikhail Gorbachev</a>"},{"pageviews":"1957. <a target=\"_blank\" href=\"http://en.wikipedia.org./wiki/Kumail_Nanjiani\">Kumail Nanjiani</a>"},{"pageviews":"1958. <a target=\"_blank\" href=\"http://en.wikipedia.org./wiki/Methamphetamine\">Methamphetamine</a>"},{"pageviews":"1959. <a target=\"_blank\" href=\"http://en.wikipedia.org./wiki/Emoji\">Emoji</a>"},{"pageviews":"1960. <a target=\"_blank\" href=\"http://en.wikipedia.org./wiki/Schutzstaffel\">Schutzstaffel</a>"},{"pageviews":"1961. <a target=\"_blank\" href=\"http://en.wikipedia.org./wiki/Michael_Bisping\">Michael Bisping</a>"},{"pageviews":"1962. <a target=\"_blank\" href=\"http://en.wikipedia.org./wiki/Carbon\">Carbon</a>"},{"pageviews":"1963. <a target=\"_blank\" href=\"http://en.wikipedia.org./wiki/Kenneth_Branagh\">Kenneth Branagh</a>"},{"pageviews":"1964. <a target=\"_blank\" href=\"http://en.wikipedia.org./wiki/Boeing_747\">Boeing 747</a>"},{"pageviews":"1965. <a target=\"_blank\" href=\"http://en.wikipedia.org./wiki/Pharrell_Williams\">Pharrell Williams</a>"},{"pageviews":"1966. <a target=\"_blank\" href=\"http://en.wikipedia.org./wiki/Coordinated_Universal_Time\">Coordinated Universal Time</a>"},{"pageviews":"1967. <a target=\"_blank\" href=\"http://en.wikipedia.org./wiki/Oscar_Wilde\">Oscar Wilde</a>"},{"pageviews":"1968. <a target=\"_blank\" href=\"http://en.wikipedia.org./wiki/Nuclear_weapon\">Nuclear weapon</a>"},{"pageviews":"1969. <a target=\"_blank\" href=\"http://en.wikipedia.org./wiki/Iron\">Iron</a>"},{"pageviews":"1970. <a target=\"_blank\" href=\"http://en.wikipedia.org./wiki/World_population\">World population</a>"},{"pageviews":"1971. <a target=\"_blank\" href=\"http://en.wikipedia.org./wiki/Channing_Tatum\">Channing Tatum</a>"},{"pageviews":"1972. <a target=\"_blank\" href=\"http://en.wikipedia.org./wiki/Bj%C3%B6rk\">Björk</a>"},{"pageviews":"1973. <a target=\"_blank\" href=\"http://en.wikipedia.org./wiki/Pearson_correlation_coefficient\">Pearson correlation coefficient</a>"},{"pageviews":"1974. <a target=\"_blank\" href=\"http://en.wikipedia.org./wiki/Thor_(film)\">Thor (film)</a>"},{"pageviews":"1975. <a target=\"_blank\" href=\"http://en.wikipedia.org./wiki/Model%E2%80%93view%E2%80%93controller\">Model–view–controller</a>"},{"pageviews":"1976. <a target=\"_blank\" href=\"http://en.wikipedia.org./wiki/Arabic\">Arabic</a>"},{"pageviews":"1977. <a target=\"_blank\" href=\"http://en.wikipedia.org./wiki/New_Girl\">New Girl</a>"},{"pageviews":"1978. <a target=\"_blank\" href=\"http://en.wikipedia.org./wiki/Cocaine\">Cocaine</a>"},{"pageviews":"1979. <a target=\"_blank\" href=\"http://en.wikipedia.org./wiki/Slovakia\">Slovakia</a>"},{"pageviews":"1980. <a target=\"_blank\" href=\"http://en.wikipedia.org./wiki/Apartheid\">Apartheid</a>"},{"pageviews":"1981. <a target=\"_blank\" href=\"http://en.wikipedia.org./wiki/Dopamine\">Dopamine</a>"},{"pageviews":"1982. <a target=\"_blank\" href=\"http://en.wikipedia.org./wiki/Enterprise_resource_planning\">Enterprise resource planning</a>"},{"pageviews":"1983. <a target=\"_blank\" href=\"http://en.wikipedia.org./wiki/Existentialism\">Existentialism</a>"},{"pageviews":"1984. <a target=\"_blank\" href=\"http://en.wikipedia.org./wiki/Fourier_transform\">Fourier transform</a>"},{"pageviews":"1985. <a target=\"_blank\" href=\"http://en.wikipedia.org./wiki/Billy_Joel\">Billy Joel</a>"},{"pageviews":"1986. <a target=\"_blank\" href=\"http://en.wikipedia.org./wiki/List_of_Pixar_films\">List of Pixar films</a>"},{"pageviews":"1987. <a target=\"_blank\" href=\"http://en.wikipedia.org./wiki/Mary_Elizabeth_Winstead\">Mary Elizabeth Winstead</a>"},{"pageviews":"1988. <a target=\"_blank\" href=\"http://en.wikipedia.org./wiki/Downton_Abbey\">Downton Abbey</a>"},{"pageviews":"1989. <a target=\"_blank\" href=\"http://en.wikipedia.org./wiki/List_of_English_terms_of_venery%2C_by_animal\">List of English terms of venery, by animal</a>"},{"pageviews":"1990. <a target=\"_blank\" href=\"http://en.wikipedia.org./wiki/Impeachment_of_Bill_Clinton\">Impeachment of Bill Clinton</a>"},{"pageviews":"1991. <a target=\"_blank\" href=\"http://en.wikipedia.org./wiki/Display_resolution\">Display resolution</a>"},{"pageviews":"1992. <a target=\"_blank\" href=\"http://en.wikipedia.org./wiki/Pizzagate_conspiracy_theory\">Pizzagate conspiracy theory</a>"},{"pageviews":"1993. <a target=\"_blank\" href=\"http://en.wikipedia.org./wiki/The_Deuce_(TV_series)\">The Deuce (TV series)</a>"},{"pageviews":"1994. <a target=\"_blank\" href=\"http://en.wikipedia.org./wiki/Dinosaur\">Dinosaur</a>"},{"pageviews":"1995. <a target=\"_blank\" href=\"http://en.wikipedia.org./wiki/Will_%26_Grace\">Will & Grace</a>"},{"pageviews":"1996. <a target=\"_blank\" href=\"http://en.wikipedia.org./wiki/Rockwell_B-1_Lancer\">Rockwell B-1 Lancer</a>"},{"pageviews":"1997. <a target=\"_blank\" href=\"http://en.wikipedia.org./wiki/Copper\">Copper</a>"},{"pageviews":"1998. <a target=\"_blank\" href=\"http://en.wikipedia.org./wiki/Yemen\">Yemen</a>"},{"pageviews":"1999. <a target=\"_blank\" href=\"http://en.wikipedia.org./wiki/Typhoon_Haiyan\">Typhoon Haiyan</a>"}],"list":"1900. Machu Picchu  \u2014  http:\/\/en.wikipedia.org.\/wiki\/Machu_Picchu\n1901. Sex position  \u2014  http:\/\/en.wikipedia.org.\/wiki\/Sex_position\n1902. Middle East  \u2014  http:\/\/en.wikipedia.org.\/wiki\/Middle_East\n1903. Autism  \u2014  http:\/\/en.wikipedia.org.\/wiki\/Autism\n1904. Salman of Saudi Arabia  \u2014  http:\/\/en.wikipedia.org.\/wiki\/Salman_of_Saudi_Arabia\n1905. Edmund Kemper  \u2014  http:\/\/en.wikipedia.org.\/wiki\/Edmund_Kemper\n1906. Lobotomy  \u2014  http:\/\/en.wikipedia.org.\/wiki\/Lobotomy\n1907. Germany national football team  \u2014  http:\/\/en.wikipedia.org.\/wiki\/Germany_national_football_team\n1908. Globalization  \u2014  http:\/\/en.wikipedia.org.\/wiki\/Globalization\n1909. Fifty Shades of Grey  \u2014  http:\/\/en.wikipedia.org.\/wiki\/Fifty_Shades_of_Grey\n1910. Six-Day War  \u2014  http:\/\/en.wikipedia.org.\/wiki\/Six-Day_War\n1911. Inferno (Dante)  \u2014  http:\/\/en.wikipedia.org.\/wiki\/Inferno_(Dante)\n1912. Santa Clarita Diet  \u2014  http:\/\/en.wikipedia.org.\/wiki\/Santa_Clarita_Diet\n1913. Sgt. Pepper's Lonely Hearts Club Band  \u2014  http:\/\/en.wikipedia.org.\/wiki\/Sgt._Pepper's_Lonely_Hearts_Club_Band\n1914. Teen Wolf (season 6)  \u2014  http:\/\/en.wikipedia.org.\/wiki\/Teen_Wolf_(season_6)\n1915. Logan Lucky  \u2014  http:\/\/en.wikipedia.org.\/wiki\/Logan_Lucky\n1916. Kirk Douglas  \u2014  http:\/\/en.wikipedia.org.\/wiki\/Kirk_Douglas\n1917. Charlie Puth  \u2014  http:\/\/en.wikipedia.org.\/wiki\/Charlie_Puth\n1918. Lily James  \u2014  http:\/\/en.wikipedia.org.\/wiki\/Lily_James\n1919. House of Cards (season 5)  \u2014  http:\/\/en.wikipedia.org.\/wiki\/House_of_Cards_(season_5)\n1920. Aircraft carrier  \u2014  http:\/\/en.wikipedia.org.\/wiki\/Aircraft_carrier\n1921. Latin  \u2014  http:\/\/en.wikipedia.org.\/wiki\/Latin\n1922. Isle of Man  \u2014  http:\/\/en.wikipedia.org.\/wiki\/Isle_of_Man\n1923. Pok\u00E9mon  \u2014  http:\/\/en.wikipedia.org.\/wiki\/Pok%C3%A9mon\n1924. Postmodernism  \u2014  http:\/\/en.wikipedia.org.\/wiki\/Postmodernism\n1925. Marie Antoinette  \u2014  http:\/\/en.wikipedia.org.\/wiki\/Marie_Antoinette\n1926. Civil rights movement  \u2014  http:\/\/en.wikipedia.org.\/wiki\/Civil_rights_movement\n1927. Iron Maiden  \u2014  http:\/\/en.wikipedia.org.\/wiki\/Iron_Maiden\n1928. Eva Green  \u2014  http:\/\/en.wikipedia.org.\/wiki\/Eva_Green\n1929. Succession to the British throne  \u2014  http:\/\/en.wikipedia.org.\/wiki\/Succession_to_the_British_throne\n1930. NASA  \u2014  http:\/\/en.wikipedia.org.\/wiki\/NASA\n1931. Larry Page  \u2014  http:\/\/en.wikipedia.org.\/wiki\/Larry_Page\n1932. Bessie Coleman  \u2014  http:\/\/en.wikipedia.org.\/wiki\/Bessie_Coleman\n1933. New Orleans  \u2014  http:\/\/en.wikipedia.org.\/wiki\/New_Orleans\n1934. Magna Carta  \u2014  http:\/\/en.wikipedia.org.\/wiki\/Magna_Carta\n1935. Massachusetts  \u2014  http:\/\/en.wikipedia.org.\/wiki\/Massachusetts\n1936. Spice Girls  \u2014  http:\/\/en.wikipedia.org.\/wiki\/Spice_Girls\n1937. Grand Theft Auto  \u2014  http:\/\/en.wikipedia.org.\/wiki\/Grand_Theft_Auto\n1938. List of Unicode characters  \u2014  http:\/\/en.wikipedia.org.\/wiki\/List_of_Unicode_characters\n1939. Stevie Wonder  \u2014  http:\/\/en.wikipedia.org.\/wiki\/Stevie_Wonder\n1940. Adam West  \u2014  http:\/\/en.wikipedia.org.\/wiki\/Adam_West\n1941. Adobe Photoshop  \u2014  http:\/\/en.wikipedia.org.\/wiki\/Adobe_Photoshop\n1942. Bryce Dallas Howard  \u2014  http:\/\/en.wikipedia.org.\/wiki\/Bryce_Dallas_Howard\n1943. Kevin Hart  \u2014  http:\/\/en.wikipedia.org.\/wiki\/Kevin_Hart\n1944. Stevie Nicks  \u2014  http:\/\/en.wikipedia.org.\/wiki\/Stevie_Nicks\n1945. Antoine-Augustin Parmentier  \u2014  http:\/\/en.wikipedia.org.\/wiki\/Antoine-Augustin_Parmentier\n1946. Microsoft Word  \u2014  http:\/\/en.wikipedia.org.\/wiki\/Microsoft_Word\n1947. 2016 Summer Olympics  \u2014  http:\/\/en.wikipedia.org.\/wiki\/2016_Summer_Olympics\n1948. Shanghai  \u2014  http:\/\/en.wikipedia.org.\/wiki\/Shanghai\n1949. Central Intelligence Agency  \u2014  http:\/\/en.wikipedia.org.\/wiki\/Central_Intelligence_Agency\n1950. Roman Reigns  \u2014  http:\/\/en.wikipedia.org.\/wiki\/Roman_Reigns\n1951. Confidence interval  \u2014  http:\/\/en.wikipedia.org.\/wiki\/Confidence_interval\n1952. John Legend  \u2014  http:\/\/en.wikipedia.org.\/wiki\/John_Legend\n1953. Vlad the Impaler  \u2014  http:\/\/en.wikipedia.org.\/wiki\/Vlad_the_Impaler\n1954. Good Kid, M.A.A.D City  \u2014  http:\/\/en.wikipedia.org.\/wiki\/Good_Kid%2C_M.A.A.D_City\n1955. Twenty-fifth Amendment to the United States Constitution  \u2014  http:\/\/en.wikipedia.org.\/wiki\/Twenty-fifth_Amendment_to_the_United_States_Constitution\n1956. Mikhail Gorbachev  \u2014  http:\/\/en.wikipedia.org.\/wiki\/Mikhail_Gorbachev\n1957. Kumail Nanjiani  \u2014  http:\/\/en.wikipedia.org.\/wiki\/Kumail_Nanjiani\n1958. Methamphetamine  \u2014  http:\/\/en.wikipedia.org.\/wiki\/Methamphetamine\n1959. Emoji  \u2014  http:\/\/en.wikipedia.org.\/wiki\/Emoji\n1960. Schutzstaffel  \u2014  http:\/\/en.wikipedia.org.\/wiki\/Schutzstaffel\n1961. Michael Bisping  \u2014  http:\/\/en.wikipedia.org.\/wiki\/Michael_Bisping\n1962. Carbon  \u2014  http:\/\/en.wikipedia.org.\/wiki\/Carbon\n1963. Kenneth Branagh  \u2014  http:\/\/en.wikipedia.org.\/wiki\/Kenneth_Branagh\n1964. Boeing 747  \u2014  http:\/\/en.wikipedia.org.\/wiki\/Boeing_747\n1965. Pharrell Williams  \u2014  http:\/\/en.wikipedia.org.\/wiki\/Pharrell_Williams\n1966. Coordinated Universal Time  \u2014  http:\/\/en.wikipedia.org.\/wiki\/Coordinated_Universal_Time\n1967. Oscar Wilde  \u2014  http:\/\/en.wikipedia.org.\/wiki\/Oscar_Wilde\n1968. Nuclear weapon  \u2014  http:\/\/en.wikipedia.org.\/wiki\/Nuclear_weapon\n1969. Iron  \u2014  http:\/\/en.wikipedia.org.\/wiki\/Iron\n1970. World population  \u2014  http:\/\/en.wikipedia.org.\/wiki\/World_population\n1971. Channing Tatum  \u2014  http:\/\/en.wikipedia.org.\/wiki\/Channing_Tatum\n1972. Bj\u00F6rk  \u2014  http:\/\/en.wikipedia.org.\/wiki\/Bj%C3%B6rk\n1973. Pearson correlation coefficient  \u2014  http:\/\/en.wikipedia.org.\/wiki\/Pearson_correlation_coefficient\n1974. Thor (film)  \u2014  http:\/\/en.wikipedia.org.\/wiki\/Thor_(film)\n1975. Model\u2013view\u2013controller  \u2014  http:\/\/en.wikipedia.org.\/wiki\/Model%E2%80%93view%E2%80%93controller\n1976. Arabic  \u2014  http:\/\/en.wikipedia.org.\/wiki\/Arabic\n1977. New Girl  \u2014  http:\/\/en.wikipedia.org.\/wiki\/New_Girl\n1978. Cocaine  \u2014  http:\/\/en.wikipedia.org.\/wiki\/Cocaine\n1979. Slovakia  \u2014  http:\/\/en.wikipedia.org.\/wiki\/Slovakia\n1980. Apartheid  \u2014  http:\/\/en.wikipedia.org.\/wiki\/Apartheid\n1981. Dopamine  \u2014  http:\/\/en.wikipedia.org.\/wiki\/Dopamine\n1982. Enterprise resource planning  \u2014  http:\/\/en.wikipedia.org.\/wiki\/Enterprise_resource_planning\n1983. Existentialism  \u2014  http:\/\/en.wikipedia.org.\/wiki\/Existentialism\n1984. Fourier transform  \u2014  http:\/\/en.wikipedia.org.\/wiki\/Fourier_transform\n1985. Billy Joel  \u2014  http:\/\/en.wikipedia.org.\/wiki\/Billy_Joel\n1986. List of Pixar films  \u2014  http:\/\/en.wikipedia.org.\/wiki\/List_of_Pixar_films\n1987. Mary Elizabeth Winstead  \u2014  http:\/\/en.wikipedia.org.\/wiki\/Mary_Elizabeth_Winstead\n1988. Downton Abbey  \u2014  http:\/\/en.wikipedia.org.\/wiki\/Downton_Abbey\n1989. List of English terms of venery, by animal  \u2014  http:\/\/en.wikipedia.org.\/wiki\/List_of_English_terms_of_venery%2C_by_animal\n1990. Impeachment of Bill Clinton  \u2014  http:\/\/en.wikipedia.org.\/wiki\/Impeachment_of_Bill_Clinton\n1991. Display resolution  \u2014  http:\/\/en.wikipedia.org.\/wiki\/Display_resolution\n1992. Pizzagate conspiracy theory  \u2014  http:\/\/en.wikipedia.org.\/wiki\/Pizzagate_conspiracy_theory\n1993. The Deuce (TV series)  \u2014  http:\/\/en.wikipedia.org.\/wiki\/The_Deuce_(TV_series)\n1994. Dinosaur  \u2014  http:\/\/en.wikipedia.org.\/wiki\/Dinosaur\n1995. Will & Grace  \u2014  http:\/\/en.wikipedia.org.\/wiki\/Will_%26_Grace\n1996. Rockwell B-1 Lancer  \u2014  http:\/\/en.wikipedia.org.\/wiki\/Rockwell_B-1_Lancer\n1997. Copper  \u2014  http:\/\/en.wikipedia.org.\/wiki\/Copper\n1998. Yemen  \u2014  http:\/\/en.wikipedia.org.\/wiki\/Yemen\n1999. Typhoon Haiyan  \u2014  http:\/\/en.wikipedia.org.\/wiki\/Typhoon_Haiyan\n","miniList":"1900. Machu Picchu\n1901. Sex position\n1902. Middle East\n1903. Autism\n1904. Salman of Saudi Arabia\n1905. Edmund Kemper\n1906. Lobotomy\n1907. Germany national football team\n1908. Globalization\n1909. Fifty Shades of Grey\n1910. Six-Day War\n1911. Inferno (Dante)\n1912. Santa Clarita Diet\n1913. Sgt. Pepper's Lonely Hearts Club Band\n1914. Teen Wolf (season 6)\n1915. Logan Lucky\n1916. Kirk Douglas\n1917. Charlie Puth\n1918. Lily James\n1919. House of Cards (season 5)\n1920. Aircraft carrier\n1921. Latin\n1922. Isle of Man\n1923. Pok\u00E9mon\n1924. Postmodernism\n1925. Marie Antoinette\n1926. Civil rights movement\n1927. Iron Maiden\n1928. Eva Green\n1929. Succession to the British throne\n1930. NASA\n1931. Larry Page\n1932. Bessie Coleman\n1933. New Orleans\n1934. Magna Carta\n1935. Massachusetts\n1936. Spice Girls\n1937. Grand Theft Auto\n1938. List of Unicode characters\n1939. Stevie Wonder\n1940. Adam West\n1941. Adobe Photoshop\n1942. Bryce Dallas Howard\n1943. Kevin Hart\n1944. Stevie Nicks\n1945. Antoine-Augustin Parmentier\n1946. Microsoft Word\n1947. 2016 Summer Olympics\n1948. Shanghai\n1949. Central Intelligence Agency\n1950. Roman Reigns\n1951. Confidence interval\n1952. John Legend\n1953. Vlad the Impaler\n1954. Good Kid, M.A.A.D City\n1955. Twenty-fifth Amendment to the United States Constitution\n1956. Mikhail Gorbachev\n1957. Kumail Nanjiani\n1958. Methamphetamine\n1959. Emoji\n1960. Schutzstaffel\n1961. Michael Bisping\n1962. Carbon\n1963. Kenneth Branagh\n1964. Boeing 747\n1965. Pharrell Williams\n1966. Coordinated Universal Time\n1967. Oscar Wilde\n1968. Nuclear weapon\n1969. Iron\n1970. World population\n1971. Channing Tatum\n1972. Bj\u00F6rk\n1973. Pearson correlation coefficient\n1974. Thor (film)\n1975. Model\u2013view\u2013controller\n1976. Arabic\n1977. New Girl\n1978. Cocaine\n1979. Slovakia\n1980. Apartheid\n1981. Dopamine\n1982. Enterprise resource planning\n1983. Existentialism\n1984. Fourier transform\n1985. Billy Joel\n1986. List of Pixar films\n1987. Mary Elizabeth Winstead\n1988. Downton Abbey\n1989. List of English terms of venery, by animal\n1990. Impeachment of Bill Clinton\n1991. Display resolution\n1992. Pizzagate conspiracy theory\n1993. The Deuce (TV series)\n1994. Dinosaur\n1995. Will & Grace\n1996. Rockwell B-1 Lancer\n1997. Copper\n1998. Yemen\n1999. Typhoon Haiyan\n"}
