{"start":201,"end":300,"count":5616717,"type":"pageviews","pageSize":100,"page":2,"pages":56168,"columns":[{"label":"","property":"pageviews","sortable":false}],"items":[{"pageviews":"200. <a target=\"_blank\" href=\"http://en.wikipedia.org./wiki/List_of_stand-up_comedians_from_the_United_Kingdom\">List of stand-up comedians from the United Kingdom</a>"},{"pageviews":"201. <a target=\"_blank\" href=\"http://en.wikipedia.org./wiki/Puerto_Rico\">Puerto Rico</a>"},{"pageviews":"202. <a target=\"_blank\" href=\"http://en.wikipedia.org./wiki/Designated_Survivor_(TV_series)\">Designated Survivor (TV series)</a>"},{"pageviews":"203. <a target=\"_blank\" href=\"http://en.wikipedia.org./wiki/List_of_United_States_stand-up_comedians\">List of United States stand-up comedians</a>"},{"pageviews":"204. <a target=\"_blank\" href=\"http://en.wikipedia.org./wiki/List_of_The_Big_Bang_Theory_episodes\">List of The Big Bang Theory episodes</a>"},{"pageviews":"205. <a target=\"_blank\" href=\"http://en.wikipedia.org./wiki/Legends_of_Tomorrow\">Legends of Tomorrow</a>"},{"pageviews":"206. <a target=\"_blank\" href=\"http://en.wikipedia.org./wiki/List_of_stand-up_comedians\">List of stand-up comedians</a>"},{"pageviews":"207. <a target=\"_blank\" href=\"http://en.wikipedia.org./wiki/Bookmark\">Bookmark</a>"},{"pageviews":"208. <a target=\"_blank\" href=\"http://en.wikipedia.org./wiki/Princess_Margaret%2C_Countess_of_Snowdon\">Princess Margaret, Countess of Snowdon</a>"},{"pageviews":"209. <a target=\"_blank\" href=\"http://en.wikipedia.org./wiki/Manchester_United_F.C.\">Manchester United F.C.</a>"},{"pageviews":"210. <a target=\"_blank\" href=\"http://en.wikipedia.org./wiki/The_Pirate_Bay\">The Pirate Bay</a>"},{"pageviews":"211. <a target=\"_blank\" href=\"http://en.wikipedia.org./wiki/Michael_Jordan\">Michael Jordan</a>"},{"pageviews":"212. <a target=\"_blank\" href=\"http://en.wikipedia.org./wiki/List_of_countries_by_GDP_(nominal)\">List of countries by GDP (nominal)</a>"},{"pageviews":"213. <a target=\"_blank\" href=\"http://en.wikipedia.org./wiki/Joseph_Stalin\">Joseph Stalin</a>"},{"pageviews":"214. <a target=\"_blank\" href=\"http://en.wikipedia.org./wiki/Emma_Stone\">Emma Stone</a>"},{"pageviews":"215. <a target=\"_blank\" href=\"http://en.wikipedia.org./wiki/Lady_Gaga\">Lady Gaga</a>"},{"pageviews":"216. <a target=\"_blank\" href=\"http://en.wikipedia.org./wiki/Big_Little_Lies_(TV_series)\">Big Little Lies (TV series)</a>"},{"pageviews":"217. <a target=\"_blank\" href=\"http://en.wikipedia.org./wiki/List_of_Australian_stand-up_comedians\">List of Australian stand-up comedians</a>"},{"pageviews":"218. <a target=\"_blank\" href=\"http://en.wikipedia.org./wiki/List_of_Canadian_stand-up_comedians\">List of Canadian stand-up comedians</a>"},{"pageviews":"219. <a target=\"_blank\" href=\"http://en.wikipedia.org./wiki/Stephen_Hawking\">Stephen Hawking</a>"},{"pageviews":"220. <a target=\"_blank\" href=\"http://en.wikipedia.org./wiki/Kikaider\">Kikaider</a>"},{"pageviews":"221. <a target=\"_blank\" href=\"http://en.wikipedia.org./wiki/Al-Buwaydah\">Al-Buwaydah</a>"},{"pageviews":"222. <a target=\"_blank\" href=\"http://en.wikipedia.org./wiki/Buwaydah\">Buwaydah</a>"},{"pageviews":"223. <a target=\"_blank\" href=\"http://en.wikipedia.org./wiki/Tony_Romo\">Tony Romo</a>"},{"pageviews":"224. <a target=\"_blank\" href=\"http://en.wikipedia.org./wiki/Elvis_Presley\">Elvis Presley</a>"},{"pageviews":"225. <a target=\"_blank\" href=\"http://en.wikipedia.org./wiki/Al-Bassa\">Al-Bassa</a>"},{"pageviews":"226. <a target=\"_blank\" href=\"http://en.wikipedia.org./wiki/Suit\">Suit</a>"},{"pageviews":"227. <a target=\"_blank\" href=\"http://en.wikipedia.org./wiki/Al-Bassah\">Al-Bassah</a>"},{"pageviews":"228. <a target=\"_blank\" href=\"http://en.wikipedia.org./wiki/Ivanka_Trump\">Ivanka Trump</a>"},{"pageviews":"229. <a target=\"_blank\" href=\"http://en.wikipedia.org./wiki/Hidden_Figures\">Hidden Figures</a>"},{"pageviews":"230. <a target=\"_blank\" href=\"http://en.wikipedia.org./wiki/President_of_the_United_States\">President of the United States</a>"},{"pageviews":"231. <a target=\"_blank\" href=\"http://en.wikipedia.org./wiki/Assassin's_Creed\">Assassin's Creed</a>"},{"pageviews":"232. <a target=\"_blank\" href=\"http://en.wikipedia.org./wiki/Soviet_Union\">Soviet Union</a>"},{"pageviews":"233. <a target=\"_blank\" href=\"http://en.wikipedia.org./wiki/List_of_Supergirl_episodes\">List of Supergirl episodes</a>"},{"pageviews":"234. <a target=\"_blank\" href=\"http://en.wikipedia.org./wiki/Jeff_Bezos\">Jeff Bezos</a>"},{"pageviews":"235. <a target=\"_blank\" href=\"http://en.wikipedia.org./wiki/Krauss-Maffei_Wegmann\">Krauss-Maffei Wegmann</a>"},{"pageviews":"236. <a target=\"_blank\" href=\"http://en.wikipedia.org./wiki/Mother!\">Mother!</a>"},{"pageviews":"237. <a target=\"_blank\" href=\"http://en.wikipedia.org./wiki/Justin_Bieber\">Justin Bieber</a>"},{"pageviews":"238. <a target=\"_blank\" href=\"http://en.wikipedia.org./wiki/Blue_Whale_(game)\">Blue Whale (game)</a>"},{"pageviews":"239. <a target=\"_blank\" href=\"http://en.wikipedia.org./wiki/History_of_the_FIFA_World_Cup\">History of the FIFA World Cup</a>"},{"pageviews":"240. <a target=\"_blank\" href=\"http://en.wikipedia.org./wiki/London\">London</a>"},{"pageviews":"241. <a target=\"_blank\" href=\"http://en.wikipedia.org./wiki/Korean_War\">Korean War</a>"},{"pageviews":"242. <a target=\"_blank\" href=\"http://en.wikipedia.org./wiki/Myanmar\">Myanmar</a>"},{"pageviews":"243. <a target=\"_blank\" href=\"http://en.wikipedia.org./wiki/Napoleon\">Napoleon</a>"},{"pageviews":"244. <a target=\"_blank\" href=\"http://en.wikipedia.org./wiki/Hong_Kong\">Hong Kong</a>"},{"pageviews":"245. <a target=\"_blank\" href=\"http://en.wikipedia.org./wiki/Donald_Glover\">Donald Glover</a>"},{"pageviews":"246. <a target=\"_blank\" href=\"http://en.wikipedia.org./wiki/List_of_United_States_cities_by_population\">List of United States cities by population</a>"},{"pageviews":"247. <a target=\"_blank\" href=\"http://en.wikipedia.org./wiki/Normal_distribution\">Normal distribution</a>"},{"pageviews":"248. <a target=\"_blank\" href=\"http://en.wikipedia.org./wiki/Spain\">Spain</a>"},{"pageviews":"249. <a target=\"_blank\" href=\"http://en.wikipedia.org./wiki/Doctor_Who\">Doctor Who</a>"},{"pageviews":"250. <a target=\"_blank\" href=\"http://en.wikipedia.org./wiki/The_Bahamas\">The Bahamas</a>"},{"pageviews":"251. <a target=\"_blank\" href=\"http://en.wikipedia.org./wiki/Arrow_(TV_series)\">Arrow (TV series)</a>"},{"pageviews":"252. <a target=\"_blank\" href=\"http://en.wikipedia.org./wiki/Periodic_table\">Periodic table</a>"},{"pageviews":"253. <a target=\"_blank\" href=\"http://en.wikipedia.org./wiki/Lion_(2016_film)\">Lion (2016 film)</a>"},{"pageviews":"254. <a target=\"_blank\" href=\"http://en.wikipedia.org./wiki/George_Washington\">George Washington</a>"},{"pageviews":"255. <a target=\"_blank\" href=\"http://en.wikipedia.org./wiki/Catalonia\">Catalonia</a>"},{"pageviews":"256. <a target=\"_blank\" href=\"http://en.wikipedia.org./wiki/New_Zealand\">New Zealand</a>"},{"pageviews":"257. <a target=\"_blank\" href=\"http://en.wikipedia.org./wiki/Battle_of_Dunkirk\">Battle of Dunkirk</a>"},{"pageviews":"258. <a target=\"_blank\" href=\"http://en.wikipedia.org./wiki/Better_Call_Saul\">Better Call Saul</a>"},{"pageviews":"259. <a target=\"_blank\" href=\"http://en.wikipedia.org./wiki/George_H._W._Bush\">George H. W. Bush</a>"},{"pageviews":"260. <a target=\"_blank\" href=\"http://en.wikipedia.org./wiki/Mark_Zuckerberg\">Mark Zuckerberg</a>"},{"pageviews":"261. <a target=\"_blank\" href=\"http://en.wikipedia.org./wiki/The_Expanse_(TV_series)\">The Expanse (TV series)</a>"},{"pageviews":"262. <a target=\"_blank\" href=\"http://en.wikipedia.org./wiki/Ryan_Gosling\">Ryan Gosling</a>"},{"pageviews":"263. <a target=\"_blank\" href=\"http://en.wikipedia.org./wiki/List_of_Doctor_Who_episodes\">List of Doctor Who episodes</a>"},{"pageviews":"264. <a target=\"_blank\" href=\"http://en.wikipedia.org./wiki/Richard_Nixon\">Richard Nixon</a>"},{"pageviews":"265. <a target=\"_blank\" href=\"http://en.wikipedia.org./wiki/'Ain_Ghazal\">'Ain Ghazal</a>"},{"pageviews":"266. <a target=\"_blank\" href=\"http://en.wikipedia.org./wiki/Taboo_(2017_TV_series)\">Taboo (2017 TV series)</a>"},{"pageviews":"267. <a target=\"_blank\" href=\"http://en.wikipedia.org./wiki/Emma_Watson\">Emma Watson</a>"},{"pageviews":"268. <a target=\"_blank\" href=\"http://en.wikipedia.org./wiki/Ayn_Ghazal\">Ayn Ghazal</a>"},{"pageviews":"269. <a target=\"_blank\" href=\"http://en.wikipedia.org./wiki/Iron_Fist_(TV_series)\">Iron Fist (TV series)</a>"},{"pageviews":"270. <a target=\"_blank\" href=\"http://en.wikipedia.org./wiki/Selena_Gomez\">Selena Gomez</a>"},{"pageviews":"271. <a target=\"_blank\" href=\"http://en.wikipedia.org./wiki/Elizabeth_I_of_England\">Elizabeth I of England</a>"},{"pageviews":"272. <a target=\"_blank\" href=\"http://en.wikipedia.org./wiki/Jimmy_Carter\">Jimmy Carter</a>"},{"pageviews":"273. <a target=\"_blank\" href=\"http://en.wikipedia.org./wiki/Bill_Paxton\">Bill Paxton</a>"},{"pageviews":"274. <a target=\"_blank\" href=\"http://en.wikipedia.org./wiki/Bruno_Mars\">Bruno Mars</a>"},{"pageviews":"275. <a target=\"_blank\" href=\"http://en.wikipedia.org./wiki/List_of_Sherlock_episodes\">List of Sherlock episodes</a>"},{"pageviews":"276. <a target=\"_blank\" href=\"http://en.wikipedia.org./wiki/IMDb\">IMDb</a>"},{"pageviews":"277. <a target=\"_blank\" href=\"http://en.wikipedia.org./wiki/Education\">Education</a>"},{"pageviews":"278. <a target=\"_blank\" href=\"http://en.wikipedia.org./wiki/Pornhub\">Pornhub</a>"},{"pageviews":"279. <a target=\"_blank\" href=\"http://en.wikipedia.org./wiki/Betsy_DeVos\">Betsy DeVos</a>"},{"pageviews":"280. <a target=\"_blank\" href=\"http://en.wikipedia.org./wiki/Arnold_Schwarzenegger\">Arnold Schwarzenegger</a>"},{"pageviews":"281. <a target=\"_blank\" href=\"http://en.wikipedia.org./wiki/Kendrick_Lamar\">Kendrick Lamar</a>"},{"pageviews":"282. <a target=\"_blank\" href=\"http://en.wikipedia.org./wiki/Pakistan\">Pakistan</a>"},{"pageviews":"283. <a target=\"_blank\" href=\"http://en.wikipedia.org./wiki/List_of_Lucifer_episodes\">List of Lucifer episodes</a>"},{"pageviews":"284. <a target=\"_blank\" href=\"http://en.wikipedia.org./wiki/War_for_the_Planet_of_the_Apes\">War for the Planet of the Apes</a>"},{"pageviews":"285. <a target=\"_blank\" href=\"http://en.wikipedia.org./wiki/David_Hahn\">David Hahn</a>"},{"pageviews":"286. <a target=\"_blank\" href=\"http://en.wikipedia.org./wiki/George_W._Bush\">George W. Bush</a>"},{"pageviews":"287. <a target=\"_blank\" href=\"http://en.wikipedia.org./wiki/Leonardo_da_Vinci\">Leonardo da Vinci</a>"},{"pageviews":"288. <a target=\"_blank\" href=\"http://en.wikipedia.org./wiki/South_Africa\">South Africa</a>"},{"pageviews":"289. <a target=\"_blank\" href=\"http://en.wikipedia.org./wiki/South_Korea\">South Korea</a>"},{"pageviews":"290. <a target=\"_blank\" href=\"http://en.wikipedia.org./wiki/Taiwan\">Taiwan</a>"},{"pageviews":"291. <a target=\"_blank\" href=\"http://en.wikipedia.org./wiki/English_language\">English language</a>"},{"pageviews":"292. <a target=\"_blank\" href=\"http://en.wikipedia.org./wiki/Prussia\">Prussia</a>"},{"pageviews":"293. <a target=\"_blank\" href=\"http://en.wikipedia.org./wiki/Harry_Potter\">Harry Potter</a>"},{"pageviews":"294. <a target=\"_blank\" href=\"http://en.wikipedia.org./wiki/Sweden\">Sweden</a>"},{"pageviews":"295. <a target=\"_blank\" href=\"http://en.wikipedia.org./wiki/Nintendo_Switch\">Nintendo Switch</a>"},{"pageviews":"296. <a target=\"_blank\" href=\"http://en.wikipedia.org./wiki/Migos\">Migos</a>"},{"pageviews":"297. <a target=\"_blank\" href=\"http://en.wikipedia.org./wiki/The_Defenders_(miniseries)\">The Defenders (miniseries)</a>"},{"pageviews":"298. <a target=\"_blank\" href=\"http://en.wikipedia.org./wiki/Android_version_history\">Android version history</a>"},{"pageviews":"299. <a target=\"_blank\" href=\"http://en.wikipedia.org./wiki/Supergirl_(TV_series)\">Supergirl (TV series)</a>"}],"list":"200. List of stand-up comedians from the United Kingdom  \u2014  http:\/\/en.wikipedia.org.\/wiki\/List_of_stand-up_comedians_from_the_United_Kingdom\n201. Puerto Rico  \u2014  http:\/\/en.wikipedia.org.\/wiki\/Puerto_Rico\n202. Designated Survivor (TV series)  \u2014  http:\/\/en.wikipedia.org.\/wiki\/Designated_Survivor_(TV_series)\n203. List of United States stand-up comedians  \u2014  http:\/\/en.wikipedia.org.\/wiki\/List_of_United_States_stand-up_comedians\n204. List of The Big Bang Theory episodes  \u2014  http:\/\/en.wikipedia.org.\/wiki\/List_of_The_Big_Bang_Theory_episodes\n205. Legends of Tomorrow  \u2014  http:\/\/en.wikipedia.org.\/wiki\/Legends_of_Tomorrow\n206. List of stand-up comedians  \u2014  http:\/\/en.wikipedia.org.\/wiki\/List_of_stand-up_comedians\n207. Bookmark  \u2014  http:\/\/en.wikipedia.org.\/wiki\/Bookmark\n208. Princess Margaret, Countess of Snowdon  \u2014  http:\/\/en.wikipedia.org.\/wiki\/Princess_Margaret%2C_Countess_of_Snowdon\n209. Manchester United F.C.  \u2014  http:\/\/en.wikipedia.org.\/wiki\/Manchester_United_F.C.\n210. The Pirate Bay  \u2014  http:\/\/en.wikipedia.org.\/wiki\/The_Pirate_Bay\n211. Michael Jordan  \u2014  http:\/\/en.wikipedia.org.\/wiki\/Michael_Jordan\n212. List of countries by GDP (nominal)  \u2014  http:\/\/en.wikipedia.org.\/wiki\/List_of_countries_by_GDP_(nominal)\n213. Joseph Stalin  \u2014  http:\/\/en.wikipedia.org.\/wiki\/Joseph_Stalin\n214. Emma Stone  \u2014  http:\/\/en.wikipedia.org.\/wiki\/Emma_Stone\n215. Lady Gaga  \u2014  http:\/\/en.wikipedia.org.\/wiki\/Lady_Gaga\n216. Big Little Lies (TV series)  \u2014  http:\/\/en.wikipedia.org.\/wiki\/Big_Little_Lies_(TV_series)\n217. List of Australian stand-up comedians  \u2014  http:\/\/en.wikipedia.org.\/wiki\/List_of_Australian_stand-up_comedians\n218. List of Canadian stand-up comedians  \u2014  http:\/\/en.wikipedia.org.\/wiki\/List_of_Canadian_stand-up_comedians\n219. Stephen Hawking  \u2014  http:\/\/en.wikipedia.org.\/wiki\/Stephen_Hawking\n220. Kikaider  \u2014  http:\/\/en.wikipedia.org.\/wiki\/Kikaider\n221. Al-Buwaydah  \u2014  http:\/\/en.wikipedia.org.\/wiki\/Al-Buwaydah\n222. Buwaydah  \u2014  http:\/\/en.wikipedia.org.\/wiki\/Buwaydah\n223. Tony Romo  \u2014  http:\/\/en.wikipedia.org.\/wiki\/Tony_Romo\n224. Elvis Presley  \u2014  http:\/\/en.wikipedia.org.\/wiki\/Elvis_Presley\n225. Al-Bassa  \u2014  http:\/\/en.wikipedia.org.\/wiki\/Al-Bassa\n226. Suit  \u2014  http:\/\/en.wikipedia.org.\/wiki\/Suit\n227. Al-Bassah  \u2014  http:\/\/en.wikipedia.org.\/wiki\/Al-Bassah\n228. Ivanka Trump  \u2014  http:\/\/en.wikipedia.org.\/wiki\/Ivanka_Trump\n229. Hidden Figures  \u2014  http:\/\/en.wikipedia.org.\/wiki\/Hidden_Figures\n230. President of the United States  \u2014  http:\/\/en.wikipedia.org.\/wiki\/President_of_the_United_States\n231. Assassin's Creed  \u2014  http:\/\/en.wikipedia.org.\/wiki\/Assassin's_Creed\n232. Soviet Union  \u2014  http:\/\/en.wikipedia.org.\/wiki\/Soviet_Union\n233. List of Supergirl episodes  \u2014  http:\/\/en.wikipedia.org.\/wiki\/List_of_Supergirl_episodes\n234. Jeff Bezos  \u2014  http:\/\/en.wikipedia.org.\/wiki\/Jeff_Bezos\n235. Krauss-Maffei Wegmann  \u2014  http:\/\/en.wikipedia.org.\/wiki\/Krauss-Maffei_Wegmann\n236. Mother!  \u2014  http:\/\/en.wikipedia.org.\/wiki\/Mother!\n237. Justin Bieber  \u2014  http:\/\/en.wikipedia.org.\/wiki\/Justin_Bieber\n238. Blue Whale (game)  \u2014  http:\/\/en.wikipedia.org.\/wiki\/Blue_Whale_(game)\n239. History of the FIFA World Cup  \u2014  http:\/\/en.wikipedia.org.\/wiki\/History_of_the_FIFA_World_Cup\n240. London  \u2014  http:\/\/en.wikipedia.org.\/wiki\/London\n241. Korean War  \u2014  http:\/\/en.wikipedia.org.\/wiki\/Korean_War\n242. Myanmar  \u2014  http:\/\/en.wikipedia.org.\/wiki\/Myanmar\n243. Napoleon  \u2014  http:\/\/en.wikipedia.org.\/wiki\/Napoleon\n244. Hong Kong  \u2014  http:\/\/en.wikipedia.org.\/wiki\/Hong_Kong\n245. Donald Glover  \u2014  http:\/\/en.wikipedia.org.\/wiki\/Donald_Glover\n246. List of United States cities by population  \u2014  http:\/\/en.wikipedia.org.\/wiki\/List_of_United_States_cities_by_population\n247. Normal distribution  \u2014  http:\/\/en.wikipedia.org.\/wiki\/Normal_distribution\n248. Spain  \u2014  http:\/\/en.wikipedia.org.\/wiki\/Spain\n249. Doctor Who  \u2014  http:\/\/en.wikipedia.org.\/wiki\/Doctor_Who\n250. The Bahamas  \u2014  http:\/\/en.wikipedia.org.\/wiki\/The_Bahamas\n251. Arrow (TV series)  \u2014  http:\/\/en.wikipedia.org.\/wiki\/Arrow_(TV_series)\n252. Periodic table  \u2014  http:\/\/en.wikipedia.org.\/wiki\/Periodic_table\n253. Lion (2016 film)  \u2014  http:\/\/en.wikipedia.org.\/wiki\/Lion_(2016_film)\n254. George Washington  \u2014  http:\/\/en.wikipedia.org.\/wiki\/George_Washington\n255. Catalonia  \u2014  http:\/\/en.wikipedia.org.\/wiki\/Catalonia\n256. New Zealand  \u2014  http:\/\/en.wikipedia.org.\/wiki\/New_Zealand\n257. Battle of Dunkirk  \u2014  http:\/\/en.wikipedia.org.\/wiki\/Battle_of_Dunkirk\n258. Better Call Saul  \u2014  http:\/\/en.wikipedia.org.\/wiki\/Better_Call_Saul\n259. George H. W. Bush  \u2014  http:\/\/en.wikipedia.org.\/wiki\/George_H._W._Bush\n260. Mark Zuckerberg  \u2014  http:\/\/en.wikipedia.org.\/wiki\/Mark_Zuckerberg\n261. The Expanse (TV series)  \u2014  http:\/\/en.wikipedia.org.\/wiki\/The_Expanse_(TV_series)\n262. Ryan Gosling  \u2014  http:\/\/en.wikipedia.org.\/wiki\/Ryan_Gosling\n263. List of Doctor Who episodes  \u2014  http:\/\/en.wikipedia.org.\/wiki\/List_of_Doctor_Who_episodes\n264. Richard Nixon  \u2014  http:\/\/en.wikipedia.org.\/wiki\/Richard_Nixon\n265. 'Ain Ghazal  \u2014  http:\/\/en.wikipedia.org.\/wiki\/'Ain_Ghazal\n266. Taboo (2017 TV series)  \u2014  http:\/\/en.wikipedia.org.\/wiki\/Taboo_(2017_TV_series)\n267. Emma Watson  \u2014  http:\/\/en.wikipedia.org.\/wiki\/Emma_Watson\n268. Ayn Ghazal  \u2014  http:\/\/en.wikipedia.org.\/wiki\/Ayn_Ghazal\n269. Iron Fist (TV series)  \u2014  http:\/\/en.wikipedia.org.\/wiki\/Iron_Fist_(TV_series)\n270. Selena Gomez  \u2014  http:\/\/en.wikipedia.org.\/wiki\/Selena_Gomez\n271. Elizabeth I of England  \u2014  http:\/\/en.wikipedia.org.\/wiki\/Elizabeth_I_of_England\n272. Jimmy Carter  \u2014  http:\/\/en.wikipedia.org.\/wiki\/Jimmy_Carter\n273. Bill Paxton  \u2014  http:\/\/en.wikipedia.org.\/wiki\/Bill_Paxton\n274. Bruno Mars  \u2014  http:\/\/en.wikipedia.org.\/wiki\/Bruno_Mars\n275. List of Sherlock episodes  \u2014  http:\/\/en.wikipedia.org.\/wiki\/List_of_Sherlock_episodes\n276. IMDb  \u2014  http:\/\/en.wikipedia.org.\/wiki\/IMDb\n277. Education  \u2014  http:\/\/en.wikipedia.org.\/wiki\/Education\n278. Pornhub  \u2014  http:\/\/en.wikipedia.org.\/wiki\/Pornhub\n279. Betsy DeVos  \u2014  http:\/\/en.wikipedia.org.\/wiki\/Betsy_DeVos\n280. Arnold Schwarzenegger  \u2014  http:\/\/en.wikipedia.org.\/wiki\/Arnold_Schwarzenegger\n281. Kendrick Lamar  \u2014  http:\/\/en.wikipedia.org.\/wiki\/Kendrick_Lamar\n282. Pakistan  \u2014  http:\/\/en.wikipedia.org.\/wiki\/Pakistan\n283. List of Lucifer episodes  \u2014  http:\/\/en.wikipedia.org.\/wiki\/List_of_Lucifer_episodes\n284. War for the Planet of the Apes  \u2014  http:\/\/en.wikipedia.org.\/wiki\/War_for_the_Planet_of_the_Apes\n285. David Hahn  \u2014  http:\/\/en.wikipedia.org.\/wiki\/David_Hahn\n286. George W. Bush  \u2014  http:\/\/en.wikipedia.org.\/wiki\/George_W._Bush\n287. Leonardo da Vinci  \u2014  http:\/\/en.wikipedia.org.\/wiki\/Leonardo_da_Vinci\n288. South Africa  \u2014  http:\/\/en.wikipedia.org.\/wiki\/South_Africa\n289. South Korea  \u2014  http:\/\/en.wikipedia.org.\/wiki\/South_Korea\n290. Taiwan  \u2014  http:\/\/en.wikipedia.org.\/wiki\/Taiwan\n291. English language  \u2014  http:\/\/en.wikipedia.org.\/wiki\/English_language\n292. Prussia  \u2014  http:\/\/en.wikipedia.org.\/wiki\/Prussia\n293. Harry Potter  \u2014  http:\/\/en.wikipedia.org.\/wiki\/Harry_Potter\n294. Sweden  \u2014  http:\/\/en.wikipedia.org.\/wiki\/Sweden\n295. Nintendo Switch  \u2014  http:\/\/en.wikipedia.org.\/wiki\/Nintendo_Switch\n296. Migos  \u2014  http:\/\/en.wikipedia.org.\/wiki\/Migos\n297. The Defenders (miniseries)  \u2014  http:\/\/en.wikipedia.org.\/wiki\/The_Defenders_(miniseries)\n298. Android version history  \u2014  http:\/\/en.wikipedia.org.\/wiki\/Android_version_history\n299. Supergirl (TV series)  \u2014  http:\/\/en.wikipedia.org.\/wiki\/Supergirl_(TV_series)\n","miniList":"200. List of stand-up comedians from the United Kingdom\n201. Puerto Rico\n202. Designated Survivor (TV series)\n203. List of United States stand-up comedians\n204. List of The Big Bang Theory episodes\n205. Legends of Tomorrow\n206. List of stand-up comedians\n207. Bookmark\n208. Princess Margaret, Countess of Snowdon\n209. Manchester United F.C.\n210. The Pirate Bay\n211. Michael Jordan\n212. List of countries by GDP (nominal)\n213. Joseph Stalin\n214. Emma Stone\n215. Lady Gaga\n216. Big Little Lies (TV series)\n217. List of Australian stand-up comedians\n218. List of Canadian stand-up comedians\n219. Stephen Hawking\n220. Kikaider\n221. Al-Buwaydah\n222. Buwaydah\n223. Tony Romo\n224. Elvis Presley\n225. Al-Bassa\n226. Suit\n227. Al-Bassah\n228. Ivanka Trump\n229. Hidden Figures\n230. President of the United States\n231. Assassin's Creed\n232. Soviet Union\n233. List of Supergirl episodes\n234. Jeff Bezos\n235. Krauss-Maffei Wegmann\n236. Mother!\n237. Justin Bieber\n238. Blue Whale (game)\n239. History of the FIFA World Cup\n240. London\n241. Korean War\n242. Myanmar\n243. Napoleon\n244. Hong Kong\n245. Donald Glover\n246. List of United States cities by population\n247. Normal distribution\n248. Spain\n249. Doctor Who\n250. The Bahamas\n251. Arrow (TV series)\n252. Periodic table\n253. Lion (2016 film)\n254. George Washington\n255. Catalonia\n256. New Zealand\n257. Battle of Dunkirk\n258. Better Call Saul\n259. George H. W. Bush\n260. Mark Zuckerberg\n261. The Expanse (TV series)\n262. Ryan Gosling\n263. List of Doctor Who episodes\n264. Richard Nixon\n265. 'Ain Ghazal\n266. Taboo (2017 TV series)\n267. Emma Watson\n268. Ayn Ghazal\n269. Iron Fist (TV series)\n270. Selena Gomez\n271. Elizabeth I of England\n272. Jimmy Carter\n273. Bill Paxton\n274. Bruno Mars\n275. List of Sherlock episodes\n276. IMDb\n277. Education\n278. Pornhub\n279. Betsy DeVos\n280. Arnold Schwarzenegger\n281. Kendrick Lamar\n282. Pakistan\n283. List of Lucifer episodes\n284. War for the Planet of the Apes\n285. David Hahn\n286. George W. Bush\n287. Leonardo da Vinci\n288. South Africa\n289. South Korea\n290. Taiwan\n291. English language\n292. Prussia\n293. Harry Potter\n294. Sweden\n295. Nintendo Switch\n296. Migos\n297. The Defenders (miniseries)\n298. Android version history\n299. Supergirl (TV series)\n"}
