{"start":2001,"end":2100,"count":5616717,"type":"pageviews","pageSize":100,"page":20,"pages":56168,"columns":[{"label":"","property":"pageviews","sortable":false}],"items":[{"pageviews":"2000. <a target=\"_blank\" href=\"http://en.wikipedia.org./wiki/GLOW_(TV_series)\">GLOW (TV series)</a>"},{"pageviews":"2001. <a target=\"_blank\" href=\"http://en.wikipedia.org./wiki/Cancer\">Cancer</a>"},{"pageviews":"2002. <a target=\"_blank\" href=\"http://en.wikipedia.org./wiki/AS_Monaco_FC\">AS Monaco FC</a>"},{"pageviews":"2003. <a target=\"_blank\" href=\"http://en.wikipedia.org./wiki/Great_Britain\">Great Britain</a>"},{"pageviews":"2004. <a target=\"_blank\" href=\"http://en.wikipedia.org./wiki/Tsar_Bomba\">Tsar Bomba</a>"},{"pageviews":"2005. <a target=\"_blank\" href=\"http://en.wikipedia.org./wiki/Zinedine_Zidane\">Zinedine Zidane</a>"},{"pageviews":"2006. <a target=\"_blank\" href=\"http://en.wikipedia.org./wiki/Dijkstra's_algorithm\">Dijkstra's algorithm</a>"},{"pageviews":"2007. <a target=\"_blank\" href=\"http://en.wikipedia.org./wiki/Ezra_Miller\">Ezra Miller</a>"},{"pageviews":"2008. <a target=\"_blank\" href=\"http://en.wikipedia.org./wiki/OECD\">OECD</a>"},{"pageviews":"2009. <a target=\"_blank\" href=\"http://en.wikipedia.org./wiki/Dafne_Keen\">Dafne Keen</a>"},{"pageviews":"2010. <a target=\"_blank\" href=\"http://en.wikipedia.org./wiki/Michelle_Pfeiffer\">Michelle Pfeiffer</a>"},{"pageviews":"2011. <a target=\"_blank\" href=\"http://en.wikipedia.org./wiki/Curb_Your_Enthusiasm\">Curb Your Enthusiasm</a>"},{"pageviews":"2012. <a target=\"_blank\" href=\"http://en.wikipedia.org./wiki/Josef_Mengele\">Josef Mengele</a>"},{"pageviews":"2013. <a target=\"_blank\" href=\"http://en.wikipedia.org./wiki/Brazil_national_football_team\">Brazil national football team</a>"},{"pageviews":"2014. <a target=\"_blank\" href=\"http://en.wikipedia.org./wiki/Lee_Harvey_Oswald\">Lee Harvey Oswald</a>"},{"pageviews":"2015. <a target=\"_blank\" href=\"http://en.wikipedia.org./wiki/Tanzania\">Tanzania</a>"},{"pageviews":"2016. <a target=\"_blank\" href=\"http://en.wikipedia.org./wiki/Enrique_Iglesias\">Enrique Iglesias</a>"},{"pageviews":"2017. <a target=\"_blank\" href=\"http://en.wikipedia.org./wiki/The_Wolf_of_Wall_Street_(2013_film)\">The Wolf of Wall Street (2013 film)</a>"},{"pageviews":"2018. <a target=\"_blank\" href=\"http://en.wikipedia.org./wiki/Spotify\">Spotify</a>"},{"pageviews":"2019. <a target=\"_blank\" href=\"http://en.wikipedia.org./wiki/Nina_Dobrev\">Nina Dobrev</a>"},{"pageviews":"2020. <a target=\"_blank\" href=\"http://en.wikipedia.org./wiki/Manhattan\">Manhattan</a>"},{"pageviews":"2021. <a target=\"_blank\" href=\"http://en.wikipedia.org./wiki/Billboard_Hot_100\">Billboard Hot 100</a>"},{"pageviews":"2022. <a target=\"_blank\" href=\"http://en.wikipedia.org./wiki/Seoul\">Seoul</a>"},{"pageviews":"2023. <a target=\"_blank\" href=\"http://en.wikipedia.org./wiki/William_the_Conqueror\">William the Conqueror</a>"},{"pageviews":"2024. <a target=\"_blank\" href=\"http://en.wikipedia.org./wiki/Henry_Ford\">Henry Ford</a>"},{"pageviews":"2025. <a target=\"_blank\" href=\"http://en.wikipedia.org./wiki/Joseph_Goebbels\">Joseph Goebbels</a>"},{"pageviews":"2026. <a target=\"_blank\" href=\"http://en.wikipedia.org./wiki/More_Life\">More Life</a>"},{"pageviews":"2027. <a target=\"_blank\" href=\"http://en.wikipedia.org./wiki/Anya_Taylor-Joy\">Anya Taylor-Joy</a>"},{"pageviews":"2028. <a target=\"_blank\" href=\"http://en.wikipedia.org./wiki/List_of_tallest_buildings\">List of tallest buildings</a>"},{"pageviews":"2029. <a target=\"_blank\" href=\"http://en.wikipedia.org./wiki/List_of_Star_vs._the_Forces_of_Evil_episodes\">List of Star vs. the Forces of Evil episodes</a>"},{"pageviews":"2030. <a target=\"_blank\" href=\"http://en.wikipedia.org./wiki/Mughal_Empire\">Mughal Empire</a>"},{"pageviews":"2031. <a target=\"_blank\" href=\"http://en.wikipedia.org./wiki/International_Space_Station\">International Space Station</a>"},{"pageviews":"2032. <a target=\"_blank\" href=\"http://en.wikipedia.org./wiki/Rebecca_Ferguson\">Rebecca Ferguson</a>"},{"pageviews":"2033. <a target=\"_blank\" href=\"http://en.wikipedia.org./wiki/Joule\">Joule</a>"},{"pageviews":"2034. <a target=\"_blank\" href=\"http://en.wikipedia.org./wiki/Bill_O'Reilly_(political_commentator)\">Bill O'Reilly (political commentator)</a>"},{"pageviews":"2035. <a target=\"_blank\" href=\"http://en.wikipedia.org./wiki/America's_Got_Talent\">America's Got Talent</a>"},{"pageviews":"2036. <a target=\"_blank\" href=\"http://en.wikipedia.org./wiki/Constantine_the_Great\">Constantine the Great</a>"},{"pageviews":"2037. <a target=\"_blank\" href=\"http://en.wikipedia.org./wiki/The_Wire\">The Wire</a>"},{"pageviews":"2038. <a target=\"_blank\" href=\"http://en.wikipedia.org./wiki/Find_My_iPhone\">Find My iPhone</a>"},{"pageviews":"2039. <a target=\"_blank\" href=\"http://en.wikipedia.org./wiki/Nationalities_and_regions_of_Spain\">Nationalities and regions of Spain</a>"},{"pageviews":"2040. <a target=\"_blank\" href=\"http://en.wikipedia.org./wiki/Communication\">Communication</a>"},{"pageviews":"2041. <a target=\"_blank\" href=\"http://en.wikipedia.org./wiki/Everton_F.C.\">Everton F.C.</a>"},{"pageviews":"2042. <a target=\"_blank\" href=\"http://en.wikipedia.org./wiki/MDMA\">MDMA</a>"},{"pageviews":"2043. <a target=\"_blank\" href=\"http://en.wikipedia.org./wiki/Bonnie_and_Clyde\">Bonnie and Clyde</a>"},{"pageviews":"2044. <a target=\"_blank\" href=\"http://en.wikipedia.org./wiki/DuckTales_(2017_TV_series)\">DuckTales (2017 TV series)</a>"},{"pageviews":"2045. <a target=\"_blank\" href=\"http://en.wikipedia.org./wiki/List_of_metropolitan_statistical_areas\">List of metropolitan statistical areas</a>"},{"pageviews":"2046. <a target=\"_blank\" href=\"http://en.wikipedia.org./wiki/BMW\">BMW</a>"},{"pageviews":"2047. <a target=\"_blank\" href=\"http://en.wikipedia.org./wiki/Mexico_City\">Mexico City</a>"},{"pageviews":"2048. <a target=\"_blank\" href=\"http://en.wikipedia.org./wiki/Boston_Marathon_bombing\">Boston Marathon bombing</a>"},{"pageviews":"2049. <a target=\"_blank\" href=\"http://en.wikipedia.org./wiki/First_Amendment_to_the_United_States_Constitution\">First Amendment to the United States Constitution</a>"},{"pageviews":"2050. <a target=\"_blank\" href=\"http://en.wikipedia.org./wiki/Viola_Davis\">Viola Davis</a>"},{"pageviews":"2051. <a target=\"_blank\" href=\"http://en.wikipedia.org./wiki/The_Girl_on_the_Train_(2016_film)\">The Girl on the Train (2016 film)</a>"},{"pageviews":"2052. <a target=\"_blank\" href=\"http://en.wikipedia.org./wiki/Lindsay_Lohan\">Lindsay Lohan</a>"},{"pageviews":"2053. <a target=\"_blank\" href=\"http://en.wikipedia.org./wiki/Moscow\">Moscow</a>"},{"pageviews":"2054. <a target=\"_blank\" href=\"http://en.wikipedia.org./wiki/Seven_Wonders_of_the_Ancient_World\">Seven Wonders of the Ancient World</a>"},{"pageviews":"2055. <a target=\"_blank\" href=\"http://en.wikipedia.org./wiki/Gravity\">Gravity</a>"},{"pageviews":"2056. <a target=\"_blank\" href=\"http://en.wikipedia.org./wiki/Jab_Harry_Met_Sejal\">Jab Harry Met Sejal</a>"},{"pageviews":"2057. <a target=\"_blank\" href=\"http://en.wikipedia.org./wiki/Fiji\">Fiji</a>"},{"pageviews":"2058. <a target=\"_blank\" href=\"http://en.wikipedia.org./wiki/F._Scott_Fitzgerald\">F. Scott Fitzgerald</a>"},{"pageviews":"2059. <a target=\"_blank\" href=\"http://en.wikipedia.org./wiki/Hawaii_Five-0_(2010_TV_series)\">Hawaii Five-0 (2010 TV series)</a>"},{"pageviews":"2060. <a target=\"_blank\" href=\"http://en.wikipedia.org./wiki/Attention_deficit_hyperactivity_disorder\">Attention deficit hyperactivity disorder</a>"},{"pageviews":"2061. <a target=\"_blank\" href=\"http://en.wikipedia.org./wiki/Steve_Carell\">Steve Carell</a>"},{"pageviews":"2062. <a target=\"_blank\" href=\"http://en.wikipedia.org./wiki/Apollo_11\">Apollo 11</a>"},{"pageviews":"2063. <a target=\"_blank\" href=\"http://en.wikipedia.org./wiki/Jamie_Foxx\">Jamie Foxx</a>"},{"pageviews":"2064. <a target=\"_blank\" href=\"http://en.wikipedia.org./wiki/Anton_Yelchin\">Anton Yelchin</a>"},{"pageviews":"2065. <a target=\"_blank\" href=\"http://en.wikipedia.org./wiki/Debbie_Reynolds\">Debbie Reynolds</a>"},{"pageviews":"2066. <a target=\"_blank\" href=\"http://en.wikipedia.org./wiki/Vaishnavism\">Vaishnavism</a>"},{"pageviews":"2067. <a target=\"_blank\" href=\"http://en.wikipedia.org./wiki/J._Paul_Getty\">J. Paul Getty</a>"},{"pageviews":"2068. <a target=\"_blank\" href=\"http://en.wikipedia.org./wiki/Overwatch_(video_game)\">Overwatch (video game)</a>"},{"pageviews":"2069. <a target=\"_blank\" href=\"http://en.wikipedia.org./wiki/Eric_Harris_and_Dylan_Klebold\">Eric Harris and Dylan Klebold</a>"},{"pageviews":"2070. <a target=\"_blank\" href=\"http://en.wikipedia.org./wiki/Parkinson's_disease\">Parkinson's disease</a>"},{"pageviews":"2071. <a target=\"_blank\" href=\"http://en.wikipedia.org./wiki/Nikolaj_Coster-Waldau\">Nikolaj Coster-Waldau</a>"},{"pageviews":"2072. <a target=\"_blank\" href=\"http://en.wikipedia.org./wiki/Betty_White\">Betty White</a>"},{"pageviews":"2073. <a target=\"_blank\" href=\"http://en.wikipedia.org./wiki/Sean_Combs\">Sean Combs</a>"},{"pageviews":"2074. <a target=\"_blank\" href=\"http://en.wikipedia.org./wiki/Nestl%C3%A9\">Nestlé</a>"},{"pageviews":"2075. <a target=\"_blank\" href=\"http://en.wikipedia.org./wiki/Beijing\">Beijing</a>"},{"pageviews":"2076. <a target=\"_blank\" href=\"http://en.wikipedia.org./wiki/Gary_Oldman\">Gary Oldman</a>"},{"pageviews":"2077. <a target=\"_blank\" href=\"http://en.wikipedia.org./wiki/Justin_Theroux\">Justin Theroux</a>"},{"pageviews":"2078. <a target=\"_blank\" href=\"http://en.wikipedia.org./wiki/Jamie_Dornan\">Jamie Dornan</a>"},{"pageviews":"2079. <a target=\"_blank\" href=\"http://en.wikipedia.org./wiki/DreamWorks_Animation\">DreamWorks Animation</a>"},{"pageviews":"2080. <a target=\"_blank\" href=\"http://en.wikipedia.org./wiki/Judaism\">Judaism</a>"},{"pageviews":"2081. <a target=\"_blank\" href=\"http://en.wikipedia.org./wiki/%22Weird_Al%22_Yankovic\">\"Weird Al\" Yankovic</a>"},{"pageviews":"2082. <a target=\"_blank\" href=\"http://en.wikipedia.org./wiki/Hell_or_High_Water_(film)\">Hell or High Water (film)</a>"},{"pageviews":"2083. <a target=\"_blank\" href=\"http://en.wikipedia.org./wiki/Capital_punishment\">Capital punishment</a>"},{"pageviews":"2084. <a target=\"_blank\" href=\"http://en.wikipedia.org./wiki/Woody_Harrelson\">Woody Harrelson</a>"},{"pageviews":"2085. <a target=\"_blank\" href=\"http://en.wikipedia.org./wiki/ISO_3166-1_alpha-2\">ISO 3166-1 alpha-2</a>"},{"pageviews":"2086. <a target=\"_blank\" href=\"http://en.wikipedia.org./wiki/IZombie_(TV_series)\">IZombie (TV series)</a>"},{"pageviews":"2087. <a target=\"_blank\" href=\"http://en.wikipedia.org./wiki/Google_Translate\">Google Translate</a>"},{"pageviews":"2088. <a target=\"_blank\" href=\"http://en.wikipedia.org./wiki/Inter_Milan\">Inter Milan</a>"},{"pageviews":"2089. <a target=\"_blank\" href=\"http://en.wikipedia.org./wiki/Belize\">Belize</a>"},{"pageviews":"2090. <a target=\"_blank\" href=\"http://en.wikipedia.org./wiki/Democracy\">Democracy</a>"},{"pageviews":"2091. <a target=\"_blank\" href=\"http://en.wikipedia.org./wiki/Schindler's_List\">Schindler's List</a>"},{"pageviews":"2092. <a target=\"_blank\" href=\"http://en.wikipedia.org./wiki/Current_members_of_the_United_States_Senate\">Current members of the United States Senate</a>"},{"pageviews":"2093. <a target=\"_blank\" href=\"http://en.wikipedia.org./wiki/The_Greatest_Showman\">The Greatest Showman</a>"},{"pageviews":"2094. <a target=\"_blank\" href=\"http://en.wikipedia.org./wiki/The_Beguiled_(2017_film)\">The Beguiled (2017 film)</a>"},{"pageviews":"2095. <a target=\"_blank\" href=\"http://en.wikipedia.org./wiki/Dancing_with_the_Stars_(U.S._TV_series)\">Dancing with the Stars (U.S. TV series)</a>"},{"pageviews":"2096. <a target=\"_blank\" href=\"http://en.wikipedia.org./wiki/Quebec\">Quebec</a>"},{"pageviews":"2097. <a target=\"_blank\" href=\"http://en.wikipedia.org./wiki/Chi-squared_test\">Chi-squared test</a>"},{"pageviews":"2098. <a target=\"_blank\" href=\"http://en.wikipedia.org./wiki/Ansel_Elgort\">Ansel Elgort</a>"},{"pageviews":"2099. <a target=\"_blank\" href=\"http://en.wikipedia.org./wiki/Bruce_Willis\">Bruce Willis</a>"}],"list":"2000. GLOW (TV series)  \u2014  http:\/\/en.wikipedia.org.\/wiki\/GLOW_(TV_series)\n2001. Cancer  \u2014  http:\/\/en.wikipedia.org.\/wiki\/Cancer\n2002. AS Monaco FC  \u2014  http:\/\/en.wikipedia.org.\/wiki\/AS_Monaco_FC\n2003. Great Britain  \u2014  http:\/\/en.wikipedia.org.\/wiki\/Great_Britain\n2004. Tsar Bomba  \u2014  http:\/\/en.wikipedia.org.\/wiki\/Tsar_Bomba\n2005. Zinedine Zidane  \u2014  http:\/\/en.wikipedia.org.\/wiki\/Zinedine_Zidane\n2006. Dijkstra's algorithm  \u2014  http:\/\/en.wikipedia.org.\/wiki\/Dijkstra's_algorithm\n2007. Ezra Miller  \u2014  http:\/\/en.wikipedia.org.\/wiki\/Ezra_Miller\n2008. OECD  \u2014  http:\/\/en.wikipedia.org.\/wiki\/OECD\n2009. Dafne Keen  \u2014  http:\/\/en.wikipedia.org.\/wiki\/Dafne_Keen\n2010. Michelle Pfeiffer  \u2014  http:\/\/en.wikipedia.org.\/wiki\/Michelle_Pfeiffer\n2011. Curb Your Enthusiasm  \u2014  http:\/\/en.wikipedia.org.\/wiki\/Curb_Your_Enthusiasm\n2012. Josef Mengele  \u2014  http:\/\/en.wikipedia.org.\/wiki\/Josef_Mengele\n2013. Brazil national football team  \u2014  http:\/\/en.wikipedia.org.\/wiki\/Brazil_national_football_team\n2014. Lee Harvey Oswald  \u2014  http:\/\/en.wikipedia.org.\/wiki\/Lee_Harvey_Oswald\n2015. Tanzania  \u2014  http:\/\/en.wikipedia.org.\/wiki\/Tanzania\n2016. Enrique Iglesias  \u2014  http:\/\/en.wikipedia.org.\/wiki\/Enrique_Iglesias\n2017. The Wolf of Wall Street (2013 film)  \u2014  http:\/\/en.wikipedia.org.\/wiki\/The_Wolf_of_Wall_Street_(2013_film)\n2018. Spotify  \u2014  http:\/\/en.wikipedia.org.\/wiki\/Spotify\n2019. Nina Dobrev  \u2014  http:\/\/en.wikipedia.org.\/wiki\/Nina_Dobrev\n2020. Manhattan  \u2014  http:\/\/en.wikipedia.org.\/wiki\/Manhattan\n2021. Billboard Hot 100  \u2014  http:\/\/en.wikipedia.org.\/wiki\/Billboard_Hot_100\n2022. Seoul  \u2014  http:\/\/en.wikipedia.org.\/wiki\/Seoul\n2023. William the Conqueror  \u2014  http:\/\/en.wikipedia.org.\/wiki\/William_the_Conqueror\n2024. Henry Ford  \u2014  http:\/\/en.wikipedia.org.\/wiki\/Henry_Ford\n2025. Joseph Goebbels  \u2014  http:\/\/en.wikipedia.org.\/wiki\/Joseph_Goebbels\n2026. More Life  \u2014  http:\/\/en.wikipedia.org.\/wiki\/More_Life\n2027. Anya Taylor-Joy  \u2014  http:\/\/en.wikipedia.org.\/wiki\/Anya_Taylor-Joy\n2028. List of tallest buildings  \u2014  http:\/\/en.wikipedia.org.\/wiki\/List_of_tallest_buildings\n2029. List of Star vs. the Forces of Evil episodes  \u2014  http:\/\/en.wikipedia.org.\/wiki\/List_of_Star_vs._the_Forces_of_Evil_episodes\n2030. Mughal Empire  \u2014  http:\/\/en.wikipedia.org.\/wiki\/Mughal_Empire\n2031. International Space Station  \u2014  http:\/\/en.wikipedia.org.\/wiki\/International_Space_Station\n2032. Rebecca Ferguson  \u2014  http:\/\/en.wikipedia.org.\/wiki\/Rebecca_Ferguson\n2033. Joule  \u2014  http:\/\/en.wikipedia.org.\/wiki\/Joule\n2034. Bill O'Reilly (political commentator)  \u2014  http:\/\/en.wikipedia.org.\/wiki\/Bill_O'Reilly_(political_commentator)\n2035. America's Got Talent  \u2014  http:\/\/en.wikipedia.org.\/wiki\/America's_Got_Talent\n2036. Constantine the Great  \u2014  http:\/\/en.wikipedia.org.\/wiki\/Constantine_the_Great\n2037. The Wire  \u2014  http:\/\/en.wikipedia.org.\/wiki\/The_Wire\n2038. Find My iPhone  \u2014  http:\/\/en.wikipedia.org.\/wiki\/Find_My_iPhone\n2039. Nationalities and regions of Spain  \u2014  http:\/\/en.wikipedia.org.\/wiki\/Nationalities_and_regions_of_Spain\n2040. Communication  \u2014  http:\/\/en.wikipedia.org.\/wiki\/Communication\n2041. Everton F.C.  \u2014  http:\/\/en.wikipedia.org.\/wiki\/Everton_F.C.\n2042. MDMA  \u2014  http:\/\/en.wikipedia.org.\/wiki\/MDMA\n2043. Bonnie and Clyde  \u2014  http:\/\/en.wikipedia.org.\/wiki\/Bonnie_and_Clyde\n2044. DuckTales (2017 TV series)  \u2014  http:\/\/en.wikipedia.org.\/wiki\/DuckTales_(2017_TV_series)\n2045. List of metropolitan statistical areas  \u2014  http:\/\/en.wikipedia.org.\/wiki\/List_of_metropolitan_statistical_areas\n2046. BMW  \u2014  http:\/\/en.wikipedia.org.\/wiki\/BMW\n2047. Mexico City  \u2014  http:\/\/en.wikipedia.org.\/wiki\/Mexico_City\n2048. Boston Marathon bombing  \u2014  http:\/\/en.wikipedia.org.\/wiki\/Boston_Marathon_bombing\n2049. First Amendment to the United States Constitution  \u2014  http:\/\/en.wikipedia.org.\/wiki\/First_Amendment_to_the_United_States_Constitution\n2050. Viola Davis  \u2014  http:\/\/en.wikipedia.org.\/wiki\/Viola_Davis\n2051. The Girl on the Train (2016 film)  \u2014  http:\/\/en.wikipedia.org.\/wiki\/The_Girl_on_the_Train_(2016_film)\n2052. Lindsay Lohan  \u2014  http:\/\/en.wikipedia.org.\/wiki\/Lindsay_Lohan\n2053. Moscow  \u2014  http:\/\/en.wikipedia.org.\/wiki\/Moscow\n2054. Seven Wonders of the Ancient World  \u2014  http:\/\/en.wikipedia.org.\/wiki\/Seven_Wonders_of_the_Ancient_World\n2055. Gravity  \u2014  http:\/\/en.wikipedia.org.\/wiki\/Gravity\n2056. Jab Harry Met Sejal  \u2014  http:\/\/en.wikipedia.org.\/wiki\/Jab_Harry_Met_Sejal\n2057. Fiji  \u2014  http:\/\/en.wikipedia.org.\/wiki\/Fiji\n2058. F. Scott Fitzgerald  \u2014  http:\/\/en.wikipedia.org.\/wiki\/F._Scott_Fitzgerald\n2059. Hawaii Five-0 (2010 TV series)  \u2014  http:\/\/en.wikipedia.org.\/wiki\/Hawaii_Five-0_(2010_TV_series)\n2060. Attention deficit hyperactivity disorder  \u2014  http:\/\/en.wikipedia.org.\/wiki\/Attention_deficit_hyperactivity_disorder\n2061. Steve Carell  \u2014  http:\/\/en.wikipedia.org.\/wiki\/Steve_Carell\n2062. Apollo 11  \u2014  http:\/\/en.wikipedia.org.\/wiki\/Apollo_11\n2063. Jamie Foxx  \u2014  http:\/\/en.wikipedia.org.\/wiki\/Jamie_Foxx\n2064. Anton Yelchin  \u2014  http:\/\/en.wikipedia.org.\/wiki\/Anton_Yelchin\n2065. Debbie Reynolds  \u2014  http:\/\/en.wikipedia.org.\/wiki\/Debbie_Reynolds\n2066. Vaishnavism  \u2014  http:\/\/en.wikipedia.org.\/wiki\/Vaishnavism\n2067. J. Paul Getty  \u2014  http:\/\/en.wikipedia.org.\/wiki\/J._Paul_Getty\n2068. Overwatch (video game)  \u2014  http:\/\/en.wikipedia.org.\/wiki\/Overwatch_(video_game)\n2069. Eric Harris and Dylan Klebold  \u2014  http:\/\/en.wikipedia.org.\/wiki\/Eric_Harris_and_Dylan_Klebold\n2070. Parkinson's disease  \u2014  http:\/\/en.wikipedia.org.\/wiki\/Parkinson's_disease\n2071. Nikolaj Coster-Waldau  \u2014  http:\/\/en.wikipedia.org.\/wiki\/Nikolaj_Coster-Waldau\n2072. Betty White  \u2014  http:\/\/en.wikipedia.org.\/wiki\/Betty_White\n2073. Sean Combs  \u2014  http:\/\/en.wikipedia.org.\/wiki\/Sean_Combs\n2074. Nestl\u00E9  \u2014  http:\/\/en.wikipedia.org.\/wiki\/Nestl%C3%A9\n2075. Beijing  \u2014  http:\/\/en.wikipedia.org.\/wiki\/Beijing\n2076. Gary Oldman  \u2014  http:\/\/en.wikipedia.org.\/wiki\/Gary_Oldman\n2077. Justin Theroux  \u2014  http:\/\/en.wikipedia.org.\/wiki\/Justin_Theroux\n2078. Jamie Dornan  \u2014  http:\/\/en.wikipedia.org.\/wiki\/Jamie_Dornan\n2079. DreamWorks Animation  \u2014  http:\/\/en.wikipedia.org.\/wiki\/DreamWorks_Animation\n2080. Judaism  \u2014  http:\/\/en.wikipedia.org.\/wiki\/Judaism\n2081. \"Weird Al\" Yankovic  \u2014  http:\/\/en.wikipedia.org.\/wiki\/%22Weird_Al%22_Yankovic\n2082. Hell or High Water (film)  \u2014  http:\/\/en.wikipedia.org.\/wiki\/Hell_or_High_Water_(film)\n2083. Capital punishment  \u2014  http:\/\/en.wikipedia.org.\/wiki\/Capital_punishment\n2084. Woody Harrelson  \u2014  http:\/\/en.wikipedia.org.\/wiki\/Woody_Harrelson\n2085. ISO 3166-1 alpha-2  \u2014  http:\/\/en.wikipedia.org.\/wiki\/ISO_3166-1_alpha-2\n2086. IZombie (TV series)  \u2014  http:\/\/en.wikipedia.org.\/wiki\/IZombie_(TV_series)\n2087. Google Translate  \u2014  http:\/\/en.wikipedia.org.\/wiki\/Google_Translate\n2088. Inter Milan  \u2014  http:\/\/en.wikipedia.org.\/wiki\/Inter_Milan\n2089. Belize  \u2014  http:\/\/en.wikipedia.org.\/wiki\/Belize\n2090. Democracy  \u2014  http:\/\/en.wikipedia.org.\/wiki\/Democracy\n2091. Schindler's List  \u2014  http:\/\/en.wikipedia.org.\/wiki\/Schindler's_List\n2092. Current members of the United States Senate  \u2014  http:\/\/en.wikipedia.org.\/wiki\/Current_members_of_the_United_States_Senate\n2093. The Greatest Showman  \u2014  http:\/\/en.wikipedia.org.\/wiki\/The_Greatest_Showman\n2094. The Beguiled (2017 film)  \u2014  http:\/\/en.wikipedia.org.\/wiki\/The_Beguiled_(2017_film)\n2095. Dancing with the Stars (U.S. TV series)  \u2014  http:\/\/en.wikipedia.org.\/wiki\/Dancing_with_the_Stars_(U.S._TV_series)\n2096. Quebec  \u2014  http:\/\/en.wikipedia.org.\/wiki\/Quebec\n2097. Chi-squared test  \u2014  http:\/\/en.wikipedia.org.\/wiki\/Chi-squared_test\n2098. Ansel Elgort  \u2014  http:\/\/en.wikipedia.org.\/wiki\/Ansel_Elgort\n2099. Bruce Willis  \u2014  http:\/\/en.wikipedia.org.\/wiki\/Bruce_Willis\n","miniList":"2000. GLOW (TV series)\n2001. Cancer\n2002. AS Monaco FC\n2003. Great Britain\n2004. Tsar Bomba\n2005. Zinedine Zidane\n2006. Dijkstra's algorithm\n2007. Ezra Miller\n2008. OECD\n2009. Dafne Keen\n2010. Michelle Pfeiffer\n2011. Curb Your Enthusiasm\n2012. Josef Mengele\n2013. Brazil national football team\n2014. Lee Harvey Oswald\n2015. Tanzania\n2016. Enrique Iglesias\n2017. The Wolf of Wall Street (2013 film)\n2018. Spotify\n2019. Nina Dobrev\n2020. Manhattan\n2021. Billboard Hot 100\n2022. Seoul\n2023. William the Conqueror\n2024. Henry Ford\n2025. Joseph Goebbels\n2026. More Life\n2027. Anya Taylor-Joy\n2028. List of tallest buildings\n2029. List of Star vs. the Forces of Evil episodes\n2030. Mughal Empire\n2031. International Space Station\n2032. Rebecca Ferguson\n2033. Joule\n2034. Bill O'Reilly (political commentator)\n2035. America's Got Talent\n2036. Constantine the Great\n2037. The Wire\n2038. Find My iPhone\n2039. Nationalities and regions of Spain\n2040. Communication\n2041. Everton F.C.\n2042. MDMA\n2043. Bonnie and Clyde\n2044. DuckTales (2017 TV series)\n2045. List of metropolitan statistical areas\n2046. BMW\n2047. Mexico City\n2048. Boston Marathon bombing\n2049. First Amendment to the United States Constitution\n2050. Viola Davis\n2051. The Girl on the Train (2016 film)\n2052. Lindsay Lohan\n2053. Moscow\n2054. Seven Wonders of the Ancient World\n2055. Gravity\n2056. Jab Harry Met Sejal\n2057. Fiji\n2058. F. Scott Fitzgerald\n2059. Hawaii Five-0 (2010 TV series)\n2060. Attention deficit hyperactivity disorder\n2061. Steve Carell\n2062. Apollo 11\n2063. Jamie Foxx\n2064. Anton Yelchin\n2065. Debbie Reynolds\n2066. Vaishnavism\n2067. J. Paul Getty\n2068. Overwatch (video game)\n2069. Eric Harris and Dylan Klebold\n2070. Parkinson's disease\n2071. Nikolaj Coster-Waldau\n2072. Betty White\n2073. Sean Combs\n2074. Nestl\u00E9\n2075. Beijing\n2076. Gary Oldman\n2077. Justin Theroux\n2078. Jamie Dornan\n2079. DreamWorks Animation\n2080. Judaism\n2081. \"Weird Al\" Yankovic\n2082. Hell or High Water (film)\n2083. Capital punishment\n2084. Woody Harrelson\n2085. ISO 3166-1 alpha-2\n2086. IZombie (TV series)\n2087. Google Translate\n2088. Inter Milan\n2089. Belize\n2090. Democracy\n2091. Schindler's List\n2092. Current members of the United States Senate\n2093. The Greatest Showman\n2094. The Beguiled (2017 film)\n2095. Dancing with the Stars (U.S. TV series)\n2096. Quebec\n2097. Chi-squared test\n2098. Ansel Elgort\n2099. Bruce Willis\n"}
