{"start":2101,"end":2200,"count":5616717,"type":"pageviews","pageSize":100,"page":21,"pages":56168,"columns":[{"label":"","property":"pageviews","sortable":false}],"items":[{"pageviews":"2100. <a target=\"_blank\" href=\"http://en.wikipedia.org./wiki/Pennsylvania\">Pennsylvania</a>"},{"pageviews":"2101. <a target=\"_blank\" href=\"http://en.wikipedia.org./wiki/Andy_Murray\">Andy Murray</a>"},{"pageviews":"2102. <a target=\"_blank\" href=\"http://en.wikipedia.org./wiki/Kyrgyzstan\">Kyrgyzstan</a>"},{"pageviews":"2103. <a target=\"_blank\" href=\"http://en.wikipedia.org./wiki/The_Legend_of_Zelda\">The Legend of Zelda</a>"},{"pageviews":"2104. <a target=\"_blank\" href=\"http://en.wikipedia.org./wiki/Dhiban%2C_Jordan\">Dhiban, Jordan</a>"},{"pageviews":"2105. <a target=\"_blank\" href=\"http://en.wikipedia.org./wiki/Annabelle_(film)\">Annabelle (film)</a>"},{"pageviews":"2106. <a target=\"_blank\" href=\"http://en.wikipedia.org./wiki/Wu-Tang_Clan\">Wu-Tang Clan</a>"},{"pageviews":"2107. <a target=\"_blank\" href=\"http://en.wikipedia.org./wiki/Dawn_of_the_Planet_of_the_Apes\">Dawn of the Planet of the Apes</a>"},{"pageviews":"2108. <a target=\"_blank\" href=\"http://en.wikipedia.org./wiki/Alicia_Keys\">Alicia Keys</a>"},{"pageviews":"2109. <a target=\"_blank\" href=\"http://en.wikipedia.org./wiki/Prey_(2017_video_game)\">Prey (2017 video game)</a>"},{"pageviews":"2110. <a target=\"_blank\" href=\"http://en.wikipedia.org./wiki/Eigenvalues_and_eigenvectors\">Eigenvalues and eigenvectors</a>"},{"pageviews":"2111. <a target=\"_blank\" href=\"http://en.wikipedia.org./wiki/List_of_Intel_Core_i7_microprocessors\">List of Intel Core i7 microprocessors</a>"},{"pageviews":"2112. <a target=\"_blank\" href=\"http://en.wikipedia.org./wiki/Rae_Sremmurd\">Rae Sremmurd</a>"},{"pageviews":"2113. <a target=\"_blank\" href=\"http://en.wikipedia.org./wiki/Ivar_the_Boneless\">Ivar the Boneless</a>"},{"pageviews":"2114. <a target=\"_blank\" href=\"http://en.wikipedia.org./wiki/Feminism\">Feminism</a>"},{"pageviews":"2115. <a target=\"_blank\" href=\"http://en.wikipedia.org./wiki/Alfred_the_Great\">Alfred the Great</a>"},{"pageviews":"2116. <a target=\"_blank\" href=\"http://en.wikipedia.org./wiki/Bayes'_theorem\">Bayes' theorem</a>"},{"pageviews":"2117. <a target=\"_blank\" href=\"http://en.wikipedia.org./wiki/Bryan_Cranston\">Bryan Cranston</a>"},{"pageviews":"2118. <a target=\"_blank\" href=\"http://en.wikipedia.org./wiki/Newton's_laws_of_motion\">Newton's laws of motion</a>"},{"pageviews":"2119. <a target=\"_blank\" href=\"http://en.wikipedia.org./wiki/List_of_Supernatural_episodes\">List of Supernatural episodes</a>"},{"pageviews":"2120. <a target=\"_blank\" href=\"http://en.wikipedia.org./wiki/Prince_Edward%2C_Earl_of_Wessex\">Prince Edward, Earl of Wessex</a>"},{"pageviews":"2121. <a target=\"_blank\" href=\"http://en.wikipedia.org./wiki/Agriculture\">Agriculture</a>"},{"pageviews":"2122. <a target=\"_blank\" href=\"http://en.wikipedia.org./wiki/Pluto\">Pluto</a>"},{"pageviews":"2123. <a target=\"_blank\" href=\"http://en.wikipedia.org./wiki/Marlene_Dietrich\">Marlene Dietrich</a>"},{"pageviews":"2124. <a target=\"_blank\" href=\"http://en.wikipedia.org./wiki/Glock\">Glock</a>"},{"pageviews":"2125. <a target=\"_blank\" href=\"http://en.wikipedia.org./wiki/Neanderthal\">Neanderthal</a>"},{"pageviews":"2126. <a target=\"_blank\" href=\"http://en.wikipedia.org./wiki/Goldie_Hawn\">Goldie Hawn</a>"},{"pageviews":"2127. <a target=\"_blank\" href=\"http://en.wikipedia.org./wiki/John_Mayer\">John Mayer</a>"},{"pageviews":"2128. <a target=\"_blank\" href=\"http://en.wikipedia.org./wiki/Don_Rickles\">Don Rickles</a>"},{"pageviews":"2129. <a target=\"_blank\" href=\"http://en.wikipedia.org./wiki/Christina_Grimmie\">Christina Grimmie</a>"},{"pageviews":"2130. <a target=\"_blank\" href=\"http://en.wikipedia.org./wiki/Stonehenge\">Stonehenge</a>"},{"pageviews":"2131. <a target=\"_blank\" href=\"http://en.wikipedia.org./wiki/Gaslighting\">Gaslighting</a>"},{"pageviews":"2132. <a target=\"_blank\" href=\"http://en.wikipedia.org./wiki/List_of_Criminal_Minds_episodes\">List of Criminal Minds episodes</a>"},{"pageviews":"2133. <a target=\"_blank\" href=\"http://en.wikipedia.org./wiki/Neoliberalism\">Neoliberalism</a>"},{"pageviews":"2134. <a target=\"_blank\" href=\"http://en.wikipedia.org./wiki/Taliban\">Taliban</a>"},{"pageviews":"2135. <a target=\"_blank\" href=\"http://en.wikipedia.org./wiki/Star_Wars_Battlefront_II_(2017_video_game)\">Star Wars Battlefront II (2017 video game)</a>"},{"pageviews":"2136. <a target=\"_blank\" href=\"http://en.wikipedia.org./wiki/Michael_Schumacher\">Michael Schumacher</a>"},{"pageviews":"2137. <a target=\"_blank\" href=\"http://en.wikipedia.org./wiki/Emma_Roberts\">Emma Roberts</a>"},{"pageviews":"2138. <a target=\"_blank\" href=\"http://en.wikipedia.org./wiki/Milo_Ventimiglia\">Milo Ventimiglia</a>"},{"pageviews":"2139. <a target=\"_blank\" href=\"http://en.wikipedia.org./wiki/Finn_Wolfhard\">Finn Wolfhard</a>"},{"pageviews":"2140. <a target=\"_blank\" href=\"http://en.wikipedia.org./wiki/Cuban_Missile_Crisis\">Cuban Missile Crisis</a>"},{"pageviews":"2141. <a target=\"_blank\" href=\"http://en.wikipedia.org./wiki/Anonymous_(group)\">Anonymous (group)</a>"},{"pageviews":"2142. <a target=\"_blank\" href=\"http://en.wikipedia.org./wiki/Aaliyah\">Aaliyah</a>"},{"pageviews":"2143. <a target=\"_blank\" href=\"http://en.wikipedia.org./wiki/Armie_Hammer\">Armie Hammer</a>"},{"pageviews":"2144. <a target=\"_blank\" href=\"http://en.wikipedia.org./wiki/Charles_II_of_England\">Charles II of England</a>"},{"pageviews":"2145. <a target=\"_blank\" href=\"http://en.wikipedia.org./wiki/Jodie_Foster\">Jodie Foster</a>"},{"pageviews":"2146. <a target=\"_blank\" href=\"http://en.wikipedia.org./wiki/The_Shannara_Chronicles\">The Shannara Chronicles</a>"},{"pageviews":"2147. <a target=\"_blank\" href=\"http://en.wikipedia.org./wiki/Beauty_and_the_Beast_(1991_film)\">Beauty and the Beast (1991 film)</a>"},{"pageviews":"2148. <a target=\"_blank\" href=\"http://en.wikipedia.org./wiki/List_of_UFC_champions\">List of UFC champions</a>"},{"pageviews":"2149. <a target=\"_blank\" href=\"http://en.wikipedia.org./wiki/List_of_average_human_height_worldwide\">List of average human height worldwide</a>"},{"pageviews":"2150. <a target=\"_blank\" href=\"http://en.wikipedia.org./wiki/Jonestown\">Jonestown</a>"},{"pageviews":"2151. <a target=\"_blank\" href=\"http://en.wikipedia.org./wiki/Girls'_Generation\">Girls' Generation</a>"},{"pageviews":"2152. <a target=\"_blank\" href=\"http://en.wikipedia.org./wiki/Ford_Motor_Company\">Ford Motor Company</a>"},{"pageviews":"2153. <a target=\"_blank\" href=\"http://en.wikipedia.org./wiki/Phil_Collins\">Phil Collins</a>"},{"pageviews":"2154. <a target=\"_blank\" href=\"http://en.wikipedia.org./wiki/Ron_Howard\">Ron Howard</a>"},{"pageviews":"2155. <a target=\"_blank\" href=\"http://en.wikipedia.org./wiki/Saturn\">Saturn</a>"},{"pageviews":"2156. <a target=\"_blank\" href=\"http://en.wikipedia.org./wiki/Demi_Moore\">Demi Moore</a>"},{"pageviews":"2157. <a target=\"_blank\" href=\"http://en.wikipedia.org./wiki/Neil_deGrasse_Tyson\">Neil deGrasse Tyson</a>"},{"pageviews":"2158. <a target=\"_blank\" href=\"http://en.wikipedia.org./wiki/Favicon\">Favicon</a>"},{"pageviews":"2159. <a target=\"_blank\" href=\"http://en.wikipedia.org./wiki/United_States_Senate_special_election_in_Alabama%2C_2017\">United States Senate special election in Alabama, 2017</a>"},{"pageviews":"2160. <a target=\"_blank\" href=\"http://en.wikipedia.org./wiki/Technology\">Technology</a>"},{"pageviews":"2161. <a target=\"_blank\" href=\"http://en.wikipedia.org./wiki/Alzheimer's_disease\">Alzheimer's disease</a>"},{"pageviews":"2162. <a target=\"_blank\" href=\"http://en.wikipedia.org./wiki/Ian_McKellen\">Ian McKellen</a>"},{"pageviews":"2163. <a target=\"_blank\" href=\"http://en.wikipedia.org./wiki/Okja\">Okja</a>"},{"pageviews":"2164. <a target=\"_blank\" href=\"http://en.wikipedia.org./wiki/National_and_regional_identity_in_Spain\">National and regional identity in Spain</a>"},{"pageviews":"2165. <a target=\"_blank\" href=\"http://en.wikipedia.org./wiki/Strong_Girl_Bong-soon\">Strong Girl Bong-soon</a>"},{"pageviews":"2166. <a target=\"_blank\" href=\"http://en.wikipedia.org./wiki/The_Shining_(film)\">The Shining (film)</a>"},{"pageviews":"2167. <a target=\"_blank\" href=\"http://en.wikipedia.org./wiki/E-commerce\">E-commerce</a>"},{"pageviews":"2168. <a target=\"_blank\" href=\"http://en.wikipedia.org./wiki/Credit_bureau\">Credit bureau</a>"},{"pageviews":"2169. <a target=\"_blank\" href=\"http://en.wikipedia.org./wiki/Martin_Sheen\">Martin Sheen</a>"},{"pageviews":"2170. <a target=\"_blank\" href=\"http://en.wikipedia.org./wiki/Fifty_Shades_of_Grey_(film)\">Fifty Shades of Grey (film)</a>"},{"pageviews":"2171. <a target=\"_blank\" href=\"http://en.wikipedia.org./wiki/Tyler%2C_the_Creator\">Tyler, the Creator</a>"},{"pageviews":"2172. <a target=\"_blank\" href=\"http://en.wikipedia.org./wiki/Breitbart_News\">Breitbart News</a>"},{"pageviews":"2173. <a target=\"_blank\" href=\"http://en.wikipedia.org./wiki/Reign_(TV_series)\">Reign (TV series)</a>"},{"pageviews":"2174. <a target=\"_blank\" href=\"http://en.wikipedia.org./wiki/Steve_McQueen\">Steve McQueen</a>"},{"pageviews":"2175. <a target=\"_blank\" href=\"http://en.wikipedia.org./wiki/French_language\">French language</a>"},{"pageviews":"2176. <a target=\"_blank\" href=\"http://en.wikipedia.org./wiki/Warner_Bros.\">Warner Bros.</a>"},{"pageviews":"2177. <a target=\"_blank\" href=\"http://en.wikipedia.org./wiki/The_Strain_(TV_series)\">The Strain (TV series)</a>"},{"pageviews":"2178. <a target=\"_blank\" href=\"http://en.wikipedia.org./wiki/While_You_Were_Sleeping_(2017_TV_series)\">While You Were Sleeping (2017 TV series)</a>"},{"pageviews":"2179. <a target=\"_blank\" href=\"http://en.wikipedia.org./wiki/Julia_Louis-Dreyfus\">Julia Louis-Dreyfus</a>"},{"pageviews":"2180. <a target=\"_blank\" href=\"http://en.wikipedia.org./wiki/Stephen_Colbert\">Stephen Colbert</a>"},{"pageviews":"2181. <a target=\"_blank\" href=\"http://en.wikipedia.org./wiki/Ayn_Rand\">Ayn Rand</a>"},{"pageviews":"2182. <a target=\"_blank\" href=\"http://en.wikipedia.org./wiki/LGBT\">LGBT</a>"},{"pageviews":"2183. <a target=\"_blank\" href=\"http://en.wikipedia.org./wiki/List_of_Jane_the_Virgin_episodes\">List of Jane the Virgin episodes</a>"},{"pageviews":"2184. <a target=\"_blank\" href=\"http://en.wikipedia.org./wiki/Chris_Kyle\">Chris Kyle</a>"},{"pageviews":"2185. <a target=\"_blank\" href=\"http://en.wikipedia.org./wiki/Sean_Bean\">Sean Bean</a>"},{"pageviews":"2186. <a target=\"_blank\" href=\"http://en.wikipedia.org./wiki/Broadchurch\">Broadchurch</a>"},{"pageviews":"2187. <a target=\"_blank\" href=\"http://en.wikipedia.org./wiki/Kiss_(band)\">Kiss (band)</a>"},{"pageviews":"2188. <a target=\"_blank\" href=\"http://en.wikipedia.org./wiki/Soundgarden\">Soundgarden</a>"},{"pageviews":"2189. <a target=\"_blank\" href=\"http://en.wikipedia.org./wiki/Entropy\">Entropy</a>"},{"pageviews":"2190. <a target=\"_blank\" href=\"http://en.wikipedia.org./wiki/Bah%C3%A1'%C3%AD_Faith\">Bahá'í Faith</a>"},{"pageviews":"2191. <a target=\"_blank\" href=\"http://en.wikipedia.org./wiki/Chechnya\">Chechnya</a>"},{"pageviews":"2192. <a target=\"_blank\" href=\"http://en.wikipedia.org./wiki/Talulah_Riley\">Talulah Riley</a>"},{"pageviews":"2193. <a target=\"_blank\" href=\"http://en.wikipedia.org./wiki/UFC_213\">UFC 213</a>"},{"pageviews":"2194. <a target=\"_blank\" href=\"http://en.wikipedia.org./wiki/Band_of_Brothers_(miniseries)\">Band of Brothers (miniseries)</a>"},{"pageviews":"2195. <a target=\"_blank\" href=\"http://en.wikipedia.org./wiki/Heinrich_Himmler\">Heinrich Himmler</a>"},{"pageviews":"2196. <a target=\"_blank\" href=\"http://en.wikipedia.org./wiki/Orphan_Black\">Orphan Black</a>"},{"pageviews":"2197. <a target=\"_blank\" href=\"http://en.wikipedia.org./wiki/Light-emitting_diode\">Light-emitting diode</a>"},{"pageviews":"2198. <a target=\"_blank\" href=\"http://en.wikipedia.org./wiki/Adidas\">Adidas</a>"},{"pageviews":"2199. <a target=\"_blank\" href=\"http://en.wikipedia.org./wiki/Backstreet_Boys\">Backstreet Boys</a>"}],"list":"2100. Pennsylvania  \u2014  http:\/\/en.wikipedia.org.\/wiki\/Pennsylvania\n2101. Andy Murray  \u2014  http:\/\/en.wikipedia.org.\/wiki\/Andy_Murray\n2102. Kyrgyzstan  \u2014  http:\/\/en.wikipedia.org.\/wiki\/Kyrgyzstan\n2103. The Legend of Zelda  \u2014  http:\/\/en.wikipedia.org.\/wiki\/The_Legend_of_Zelda\n2104. Dhiban, Jordan  \u2014  http:\/\/en.wikipedia.org.\/wiki\/Dhiban%2C_Jordan\n2105. Annabelle (film)  \u2014  http:\/\/en.wikipedia.org.\/wiki\/Annabelle_(film)\n2106. Wu-Tang Clan  \u2014  http:\/\/en.wikipedia.org.\/wiki\/Wu-Tang_Clan\n2107. Dawn of the Planet of the Apes  \u2014  http:\/\/en.wikipedia.org.\/wiki\/Dawn_of_the_Planet_of_the_Apes\n2108. Alicia Keys  \u2014  http:\/\/en.wikipedia.org.\/wiki\/Alicia_Keys\n2109. Prey (2017 video game)  \u2014  http:\/\/en.wikipedia.org.\/wiki\/Prey_(2017_video_game)\n2110. Eigenvalues and eigenvectors  \u2014  http:\/\/en.wikipedia.org.\/wiki\/Eigenvalues_and_eigenvectors\n2111. List of Intel Core i7 microprocessors  \u2014  http:\/\/en.wikipedia.org.\/wiki\/List_of_Intel_Core_i7_microprocessors\n2112. Rae Sremmurd  \u2014  http:\/\/en.wikipedia.org.\/wiki\/Rae_Sremmurd\n2113. Ivar the Boneless  \u2014  http:\/\/en.wikipedia.org.\/wiki\/Ivar_the_Boneless\n2114. Feminism  \u2014  http:\/\/en.wikipedia.org.\/wiki\/Feminism\n2115. Alfred the Great  \u2014  http:\/\/en.wikipedia.org.\/wiki\/Alfred_the_Great\n2116. Bayes' theorem  \u2014  http:\/\/en.wikipedia.org.\/wiki\/Bayes'_theorem\n2117. Bryan Cranston  \u2014  http:\/\/en.wikipedia.org.\/wiki\/Bryan_Cranston\n2118. Newton's laws of motion  \u2014  http:\/\/en.wikipedia.org.\/wiki\/Newton's_laws_of_motion\n2119. List of Supernatural episodes  \u2014  http:\/\/en.wikipedia.org.\/wiki\/List_of_Supernatural_episodes\n2120. Prince Edward, Earl of Wessex  \u2014  http:\/\/en.wikipedia.org.\/wiki\/Prince_Edward%2C_Earl_of_Wessex\n2121. Agriculture  \u2014  http:\/\/en.wikipedia.org.\/wiki\/Agriculture\n2122. Pluto  \u2014  http:\/\/en.wikipedia.org.\/wiki\/Pluto\n2123. Marlene Dietrich  \u2014  http:\/\/en.wikipedia.org.\/wiki\/Marlene_Dietrich\n2124. Glock  \u2014  http:\/\/en.wikipedia.org.\/wiki\/Glock\n2125. Neanderthal  \u2014  http:\/\/en.wikipedia.org.\/wiki\/Neanderthal\n2126. Goldie Hawn  \u2014  http:\/\/en.wikipedia.org.\/wiki\/Goldie_Hawn\n2127. John Mayer  \u2014  http:\/\/en.wikipedia.org.\/wiki\/John_Mayer\n2128. Don Rickles  \u2014  http:\/\/en.wikipedia.org.\/wiki\/Don_Rickles\n2129. Christina Grimmie  \u2014  http:\/\/en.wikipedia.org.\/wiki\/Christina_Grimmie\n2130. Stonehenge  \u2014  http:\/\/en.wikipedia.org.\/wiki\/Stonehenge\n2131. Gaslighting  \u2014  http:\/\/en.wikipedia.org.\/wiki\/Gaslighting\n2132. List of Criminal Minds episodes  \u2014  http:\/\/en.wikipedia.org.\/wiki\/List_of_Criminal_Minds_episodes\n2133. Neoliberalism  \u2014  http:\/\/en.wikipedia.org.\/wiki\/Neoliberalism\n2134. Taliban  \u2014  http:\/\/en.wikipedia.org.\/wiki\/Taliban\n2135. Star Wars Battlefront II (2017 video game)  \u2014  http:\/\/en.wikipedia.org.\/wiki\/Star_Wars_Battlefront_II_(2017_video_game)\n2136. Michael Schumacher  \u2014  http:\/\/en.wikipedia.org.\/wiki\/Michael_Schumacher\n2137. Emma Roberts  \u2014  http:\/\/en.wikipedia.org.\/wiki\/Emma_Roberts\n2138. Milo Ventimiglia  \u2014  http:\/\/en.wikipedia.org.\/wiki\/Milo_Ventimiglia\n2139. Finn Wolfhard  \u2014  http:\/\/en.wikipedia.org.\/wiki\/Finn_Wolfhard\n2140. Cuban Missile Crisis  \u2014  http:\/\/en.wikipedia.org.\/wiki\/Cuban_Missile_Crisis\n2141. Anonymous (group)  \u2014  http:\/\/en.wikipedia.org.\/wiki\/Anonymous_(group)\n2142. Aaliyah  \u2014  http:\/\/en.wikipedia.org.\/wiki\/Aaliyah\n2143. Armie Hammer  \u2014  http:\/\/en.wikipedia.org.\/wiki\/Armie_Hammer\n2144. Charles II of England  \u2014  http:\/\/en.wikipedia.org.\/wiki\/Charles_II_of_England\n2145. Jodie Foster  \u2014  http:\/\/en.wikipedia.org.\/wiki\/Jodie_Foster\n2146. The Shannara Chronicles  \u2014  http:\/\/en.wikipedia.org.\/wiki\/The_Shannara_Chronicles\n2147. Beauty and the Beast (1991 film)  \u2014  http:\/\/en.wikipedia.org.\/wiki\/Beauty_and_the_Beast_(1991_film)\n2148. List of UFC champions  \u2014  http:\/\/en.wikipedia.org.\/wiki\/List_of_UFC_champions\n2149. List of average human height worldwide  \u2014  http:\/\/en.wikipedia.org.\/wiki\/List_of_average_human_height_worldwide\n2150. Jonestown  \u2014  http:\/\/en.wikipedia.org.\/wiki\/Jonestown\n2151. Girls' Generation  \u2014  http:\/\/en.wikipedia.org.\/wiki\/Girls'_Generation\n2152. Ford Motor Company  \u2014  http:\/\/en.wikipedia.org.\/wiki\/Ford_Motor_Company\n2153. Phil Collins  \u2014  http:\/\/en.wikipedia.org.\/wiki\/Phil_Collins\n2154. Ron Howard  \u2014  http:\/\/en.wikipedia.org.\/wiki\/Ron_Howard\n2155. Saturn  \u2014  http:\/\/en.wikipedia.org.\/wiki\/Saturn\n2156. Demi Moore  \u2014  http:\/\/en.wikipedia.org.\/wiki\/Demi_Moore\n2157. Neil deGrasse Tyson  \u2014  http:\/\/en.wikipedia.org.\/wiki\/Neil_deGrasse_Tyson\n2158. Favicon  \u2014  http:\/\/en.wikipedia.org.\/wiki\/Favicon\n2159. United States Senate special election in Alabama, 2017  \u2014  http:\/\/en.wikipedia.org.\/wiki\/United_States_Senate_special_election_in_Alabama%2C_2017\n2160. Technology  \u2014  http:\/\/en.wikipedia.org.\/wiki\/Technology\n2161. Alzheimer's disease  \u2014  http:\/\/en.wikipedia.org.\/wiki\/Alzheimer's_disease\n2162. Ian McKellen  \u2014  http:\/\/en.wikipedia.org.\/wiki\/Ian_McKellen\n2163. Okja  \u2014  http:\/\/en.wikipedia.org.\/wiki\/Okja\n2164. National and regional identity in Spain  \u2014  http:\/\/en.wikipedia.org.\/wiki\/National_and_regional_identity_in_Spain\n2165. Strong Girl Bong-soon  \u2014  http:\/\/en.wikipedia.org.\/wiki\/Strong_Girl_Bong-soon\n2166. The Shining (film)  \u2014  http:\/\/en.wikipedia.org.\/wiki\/The_Shining_(film)\n2167. E-commerce  \u2014  http:\/\/en.wikipedia.org.\/wiki\/E-commerce\n2168. Credit bureau  \u2014  http:\/\/en.wikipedia.org.\/wiki\/Credit_bureau\n2169. Martin Sheen  \u2014  http:\/\/en.wikipedia.org.\/wiki\/Martin_Sheen\n2170. Fifty Shades of Grey (film)  \u2014  http:\/\/en.wikipedia.org.\/wiki\/Fifty_Shades_of_Grey_(film)\n2171. Tyler, the Creator  \u2014  http:\/\/en.wikipedia.org.\/wiki\/Tyler%2C_the_Creator\n2172. Breitbart News  \u2014  http:\/\/en.wikipedia.org.\/wiki\/Breitbart_News\n2173. Reign (TV series)  \u2014  http:\/\/en.wikipedia.org.\/wiki\/Reign_(TV_series)\n2174. Steve McQueen  \u2014  http:\/\/en.wikipedia.org.\/wiki\/Steve_McQueen\n2175. French language  \u2014  http:\/\/en.wikipedia.org.\/wiki\/French_language\n2176. Warner Bros.  \u2014  http:\/\/en.wikipedia.org.\/wiki\/Warner_Bros.\n2177. The Strain (TV series)  \u2014  http:\/\/en.wikipedia.org.\/wiki\/The_Strain_(TV_series)\n2178. While You Were Sleeping (2017 TV series)  \u2014  http:\/\/en.wikipedia.org.\/wiki\/While_You_Were_Sleeping_(2017_TV_series)\n2179. Julia Louis-Dreyfus  \u2014  http:\/\/en.wikipedia.org.\/wiki\/Julia_Louis-Dreyfus\n2180. Stephen Colbert  \u2014  http:\/\/en.wikipedia.org.\/wiki\/Stephen_Colbert\n2181. Ayn Rand  \u2014  http:\/\/en.wikipedia.org.\/wiki\/Ayn_Rand\n2182. LGBT  \u2014  http:\/\/en.wikipedia.org.\/wiki\/LGBT\n2183. List of Jane the Virgin episodes  \u2014  http:\/\/en.wikipedia.org.\/wiki\/List_of_Jane_the_Virgin_episodes\n2184. Chris Kyle  \u2014  http:\/\/en.wikipedia.org.\/wiki\/Chris_Kyle\n2185. Sean Bean  \u2014  http:\/\/en.wikipedia.org.\/wiki\/Sean_Bean\n2186. Broadchurch  \u2014  http:\/\/en.wikipedia.org.\/wiki\/Broadchurch\n2187. Kiss (band)  \u2014  http:\/\/en.wikipedia.org.\/wiki\/Kiss_(band)\n2188. Soundgarden  \u2014  http:\/\/en.wikipedia.org.\/wiki\/Soundgarden\n2189. Entropy  \u2014  http:\/\/en.wikipedia.org.\/wiki\/Entropy\n2190. Bah\u00E1'\u00ED Faith  \u2014  http:\/\/en.wikipedia.org.\/wiki\/Bah%C3%A1'%C3%AD_Faith\n2191. Chechnya  \u2014  http:\/\/en.wikipedia.org.\/wiki\/Chechnya\n2192. Talulah Riley  \u2014  http:\/\/en.wikipedia.org.\/wiki\/Talulah_Riley\n2193. UFC 213  \u2014  http:\/\/en.wikipedia.org.\/wiki\/UFC_213\n2194. Band of Brothers (miniseries)  \u2014  http:\/\/en.wikipedia.org.\/wiki\/Band_of_Brothers_(miniseries)\n2195. Heinrich Himmler  \u2014  http:\/\/en.wikipedia.org.\/wiki\/Heinrich_Himmler\n2196. Orphan Black  \u2014  http:\/\/en.wikipedia.org.\/wiki\/Orphan_Black\n2197. Light-emitting diode  \u2014  http:\/\/en.wikipedia.org.\/wiki\/Light-emitting_diode\n2198. Adidas  \u2014  http:\/\/en.wikipedia.org.\/wiki\/Adidas\n2199. Backstreet Boys  \u2014  http:\/\/en.wikipedia.org.\/wiki\/Backstreet_Boys\n","miniList":"2100. Pennsylvania\n2101. Andy Murray\n2102. Kyrgyzstan\n2103. The Legend of Zelda\n2104. Dhiban, Jordan\n2105. Annabelle (film)\n2106. Wu-Tang Clan\n2107. Dawn of the Planet of the Apes\n2108. Alicia Keys\n2109. Prey (2017 video game)\n2110. Eigenvalues and eigenvectors\n2111. List of Intel Core i7 microprocessors\n2112. Rae Sremmurd\n2113. Ivar the Boneless\n2114. Feminism\n2115. Alfred the Great\n2116. Bayes' theorem\n2117. Bryan Cranston\n2118. Newton's laws of motion\n2119. List of Supernatural episodes\n2120. Prince Edward, Earl of Wessex\n2121. Agriculture\n2122. Pluto\n2123. Marlene Dietrich\n2124. Glock\n2125. Neanderthal\n2126. Goldie Hawn\n2127. John Mayer\n2128. Don Rickles\n2129. Christina Grimmie\n2130. Stonehenge\n2131. Gaslighting\n2132. List of Criminal Minds episodes\n2133. Neoliberalism\n2134. Taliban\n2135. Star Wars Battlefront II (2017 video game)\n2136. Michael Schumacher\n2137. Emma Roberts\n2138. Milo Ventimiglia\n2139. Finn Wolfhard\n2140. Cuban Missile Crisis\n2141. Anonymous (group)\n2142. Aaliyah\n2143. Armie Hammer\n2144. Charles II of England\n2145. Jodie Foster\n2146. The Shannara Chronicles\n2147. Beauty and the Beast (1991 film)\n2148. List of UFC champions\n2149. List of average human height worldwide\n2150. Jonestown\n2151. Girls' Generation\n2152. Ford Motor Company\n2153. Phil Collins\n2154. Ron Howard\n2155. Saturn\n2156. Demi Moore\n2157. Neil deGrasse Tyson\n2158. Favicon\n2159. United States Senate special election in Alabama, 2017\n2160. Technology\n2161. Alzheimer's disease\n2162. Ian McKellen\n2163. Okja\n2164. National and regional identity in Spain\n2165. Strong Girl Bong-soon\n2166. The Shining (film)\n2167. E-commerce\n2168. Credit bureau\n2169. Martin Sheen\n2170. Fifty Shades of Grey (film)\n2171. Tyler, the Creator\n2172. Breitbart News\n2173. Reign (TV series)\n2174. Steve McQueen\n2175. French language\n2176. Warner Bros.\n2177. The Strain (TV series)\n2178. While You Were Sleeping (2017 TV series)\n2179. Julia Louis-Dreyfus\n2180. Stephen Colbert\n2181. Ayn Rand\n2182. LGBT\n2183. List of Jane the Virgin episodes\n2184. Chris Kyle\n2185. Sean Bean\n2186. Broadchurch\n2187. Kiss (band)\n2188. Soundgarden\n2189. Entropy\n2190. Bah\u00E1'\u00ED Faith\n2191. Chechnya\n2192. Talulah Riley\n2193. UFC 213\n2194. Band of Brothers (miniseries)\n2195. Heinrich Himmler\n2196. Orphan Black\n2197. Light-emitting diode\n2198. Adidas\n2199. Backstreet Boys\n"}
