{"start":2201,"end":2300,"count":5616717,"type":"pageviews","pageSize":100,"page":22,"pages":56168,"columns":[{"label":"","property":"pageviews","sortable":false}],"items":[{"pageviews":"2200. <a target=\"_blank\" href=\"http://en.wikipedia.org./wiki/UFC_210\">UFC 210</a>"},{"pageviews":"2201. <a target=\"_blank\" href=\"http://en.wikipedia.org./wiki/List_of_Scorpion_episodes\">List of Scorpion episodes</a>"},{"pageviews":"2202. <a target=\"_blank\" href=\"http://en.wikipedia.org./wiki/Dave_Chappelle\">Dave Chappelle</a>"},{"pageviews":"2203. <a target=\"_blank\" href=\"http://en.wikipedia.org./wiki/Cheryl_(singer)\">Cheryl (singer)</a>"},{"pageviews":"2204. <a target=\"_blank\" href=\"http://en.wikipedia.org./wiki/Romeo_and_Juliet\">Romeo and Juliet</a>"},{"pageviews":"2205. <a target=\"_blank\" href=\"http://en.wikipedia.org./wiki/Melissa_Benoist\">Melissa Benoist</a>"},{"pageviews":"2206. <a target=\"_blank\" href=\"http://en.wikipedia.org./wiki/White_House\">White House</a>"},{"pageviews":"2207. <a target=\"_blank\" href=\"http://en.wikipedia.org./wiki/List_of_Orange_Is_the_New_Black_episodes\">List of Orange Is the New Black episodes</a>"},{"pageviews":"2208. <a target=\"_blank\" href=\"http://en.wikipedia.org./wiki/Impeachment_in_the_United_States\">Impeachment in the United States</a>"},{"pageviews":"2209. <a target=\"_blank\" href=\"http://en.wikipedia.org./wiki/Borussia_Dortmund\">Borussia Dortmund</a>"},{"pageviews":"2210. <a target=\"_blank\" href=\"http://en.wikipedia.org./wiki/Neil_Young\">Neil Young</a>"},{"pageviews":"2211. <a target=\"_blank\" href=\"http://en.wikipedia.org./wiki/Paramore\">Paramore</a>"},{"pageviews":"2212. <a target=\"_blank\" href=\"http://en.wikipedia.org./wiki/M16_rifle\">M16 rifle</a>"},{"pageviews":"2213. <a target=\"_blank\" href=\"http://en.wikipedia.org./wiki/Computer_science\">Computer science</a>"},{"pageviews":"2214. <a target=\"_blank\" href=\"http://en.wikipedia.org./wiki/Northrop_Grumman_B-2_Spirit\">Northrop Grumman B-2 Spirit</a>"},{"pageviews":"2215. <a target=\"_blank\" href=\"http://en.wikipedia.org./wiki/Papua_New_Guinea\">Papua New Guinea</a>"},{"pageviews":"2216. <a target=\"_blank\" href=\"http://en.wikipedia.org./wiki/Salesforce.com\">Salesforce.com</a>"},{"pageviews":"2217. <a target=\"_blank\" href=\"http://en.wikipedia.org./wiki/Ed_Roberts_(activist)\">Ed Roberts (activist)</a>"},{"pageviews":"2218. <a target=\"_blank\" href=\"http://en.wikipedia.org./wiki/Mick_Jagger\">Mick Jagger</a>"},{"pageviews":"2219. <a target=\"_blank\" href=\"http://en.wikipedia.org./wiki/List_of_Pretty_Little_Liars_episodes\">List of Pretty Little Liars episodes</a>"},{"pageviews":"2220. <a target=\"_blank\" href=\"http://en.wikipedia.org./wiki/Ana_de_Armas\">Ana de Armas</a>"},{"pageviews":"2221. <a target=\"_blank\" href=\"http://en.wikipedia.org./wiki/Rita_Ora\">Rita Ora</a>"},{"pageviews":"2222. <a target=\"_blank\" href=\"http://en.wikipedia.org./wiki/Hard_disk_drive\">Hard disk drive</a>"},{"pageviews":"2223. <a target=\"_blank\" href=\"http://en.wikipedia.org./wiki/Kuwait\">Kuwait</a>"},{"pageviews":"2224. <a target=\"_blank\" href=\"http://en.wikipedia.org./wiki/Austria-Hungary\">Austria-Hungary</a>"},{"pageviews":"2225. <a target=\"_blank\" href=\"http://en.wikipedia.org./wiki/Paracetamol\">Paracetamol</a>"},{"pageviews":"2226. <a target=\"_blank\" href=\"http://en.wikipedia.org./wiki/Shiva\">Shiva</a>"},{"pageviews":"2227. <a target=\"_blank\" href=\"http://en.wikipedia.org./wiki/M%2AA%2AS%2AH_(TV_series)\">M*A*S*H (TV series)</a>"},{"pageviews":"2228. <a target=\"_blank\" href=\"http://en.wikipedia.org./wiki/Schr%C3%B6dinger's_cat\">Schrödinger's cat</a>"},{"pageviews":"2229. <a target=\"_blank\" href=\"http://en.wikipedia.org./wiki/Circulatory_system\">Circulatory system</a>"},{"pageviews":"2230. <a target=\"_blank\" href=\"http://en.wikipedia.org./wiki/Aaron_Rodgers\">Aaron Rodgers</a>"},{"pageviews":"2231. <a target=\"_blank\" href=\"http://en.wikipedia.org./wiki/Lena_Dunham\">Lena Dunham</a>"},{"pageviews":"2232. <a target=\"_blank\" href=\"http://en.wikipedia.org./wiki/Dark_Matter_(TV_series)\">Dark Matter (TV series)</a>"},{"pageviews":"2233. <a target=\"_blank\" href=\"http://en.wikipedia.org./wiki/Apollo\">Apollo</a>"},{"pageviews":"2234. <a target=\"_blank\" href=\"http://en.wikipedia.org./wiki/Anthony_Hopkins\">Anthony Hopkins</a>"},{"pageviews":"2235. <a target=\"_blank\" href=\"http://en.wikipedia.org./wiki/Sarah_Silverman\">Sarah Silverman</a>"},{"pageviews":"2236. <a target=\"_blank\" href=\"http://en.wikipedia.org./wiki/KJ_Apa\">KJ Apa</a>"},{"pageviews":"2237. <a target=\"_blank\" href=\"http://en.wikipedia.org./wiki/Jessica_Alba\">Jessica Alba</a>"},{"pageviews":"2238. <a target=\"_blank\" href=\"http://en.wikipedia.org./wiki/Game_theory\">Game theory</a>"},{"pageviews":"2239. <a target=\"_blank\" href=\"http://en.wikipedia.org./wiki/Anal_sex\">Anal sex</a>"},{"pageviews":"2240. <a target=\"_blank\" href=\"http://en.wikipedia.org./wiki/Jon_Bernthal\">Jon Bernthal</a>"},{"pageviews":"2241. <a target=\"_blank\" href=\"http://en.wikipedia.org./wiki/Milla_Jovovich\">Milla Jovovich</a>"},{"pageviews":"2242. <a target=\"_blank\" href=\"http://en.wikipedia.org./wiki/Kaya_Scodelario\">Kaya Scodelario</a>"},{"pageviews":"2243. <a target=\"_blank\" href=\"http://en.wikipedia.org./wiki/Fergie_(singer)\">Fergie (singer)</a>"},{"pageviews":"2244. <a target=\"_blank\" href=\"http://en.wikipedia.org./wiki/SOCKS\">SOCKS</a>"},{"pageviews":"2245. <a target=\"_blank\" href=\"http://en.wikipedia.org./wiki/List_of_the_verified_oldest_people\">List of the verified oldest people</a>"},{"pageviews":"2246. <a target=\"_blank\" href=\"http://en.wikipedia.org./wiki/Leon_Trotsky\">Leon Trotsky</a>"},{"pageviews":"2247. <a target=\"_blank\" href=\"http://en.wikipedia.org./wiki/Grace_Kelly\">Grace Kelly</a>"},{"pageviews":"2248. <a target=\"_blank\" href=\"http://en.wikipedia.org./wiki/Murder_on_the_Orient_Express\">Murder on the Orient Express</a>"},{"pageviews":"2249. <a target=\"_blank\" href=\"http://en.wikipedia.org./wiki/The_Hateful_Eight\">The Hateful Eight</a>"},{"pageviews":"2250. <a target=\"_blank\" href=\"http://en.wikipedia.org./wiki/Fred_Korematsu\">Fred Korematsu</a>"},{"pageviews":"2251. <a target=\"_blank\" href=\"http://en.wikipedia.org./wiki/10_Cloverfield_Lane\">10 Cloverfield Lane</a>"},{"pageviews":"2252. <a target=\"_blank\" href=\"http://en.wikipedia.org./wiki/List_of_Tamil_films_of_2017\">List of Tamil films of 2017</a>"},{"pageviews":"2253. <a target=\"_blank\" href=\"http://en.wikipedia.org./wiki/Moldova\">Moldova</a>"},{"pageviews":"2254. <a target=\"_blank\" href=\"http://en.wikipedia.org./wiki/The_Voice_(U.S._season_12)\">The Voice (U.S. season 12)</a>"},{"pageviews":"2255. <a target=\"_blank\" href=\"http://en.wikipedia.org./wiki/Information_technology\">Information technology</a>"},{"pageviews":"2256. <a target=\"_blank\" href=\"http://en.wikipedia.org./wiki/Bermuda\">Bermuda</a>"},{"pageviews":"2257. <a target=\"_blank\" href=\"http://en.wikipedia.org./wiki/Jessica_Biel\">Jessica Biel</a>"},{"pageviews":"2258. <a target=\"_blank\" href=\"http://en.wikipedia.org./wiki/Dave_Grohl\">Dave Grohl</a>"},{"pageviews":"2259. <a target=\"_blank\" href=\"http://en.wikipedia.org./wiki/Apache_Hadoop\">Apache Hadoop</a>"},{"pageviews":"2260. <a target=\"_blank\" href=\"http://en.wikipedia.org./wiki/Kombucha\">Kombucha</a>"},{"pageviews":"2261. <a target=\"_blank\" href=\"http://en.wikipedia.org./wiki/Sepsis\">Sepsis</a>"},{"pageviews":"2262. <a target=\"_blank\" href=\"http://en.wikipedia.org./wiki/Saroo_Brierley\">Saroo Brierley</a>"},{"pageviews":"2263. <a target=\"_blank\" href=\"http://en.wikipedia.org./wiki/Ram_Nath_Kovind\">Ram Nath Kovind</a>"},{"pageviews":"2264. <a target=\"_blank\" href=\"http://en.wikipedia.org./wiki/Microsoft_Office\">Microsoft Office</a>"},{"pageviews":"2265. <a target=\"_blank\" href=\"http://en.wikipedia.org./wiki/Fred_Trump\">Fred Trump</a>"},{"pageviews":"2266. <a target=\"_blank\" href=\"http://en.wikipedia.org./wiki/Reformation\">Reformation</a>"},{"pageviews":"2267. <a target=\"_blank\" href=\"http://en.wikipedia.org./wiki/Hayao_Miyazaki\">Hayao Miyazaki</a>"},{"pageviews":"2268. <a target=\"_blank\" href=\"http://en.wikipedia.org./wiki/Paul_Newman\">Paul Newman</a>"},{"pageviews":"2269. <a target=\"_blank\" href=\"http://en.wikipedia.org./wiki/Jawaharlal_Nehru\">Jawaharlal Nehru</a>"},{"pageviews":"2270. <a target=\"_blank\" href=\"http://en.wikipedia.org./wiki/Dutch_general_election%2C_2017\">Dutch general election, 2017</a>"},{"pageviews":"2271. <a target=\"_blank\" href=\"http://en.wikipedia.org./wiki/Lynyrd_Skynyrd\">Lynyrd Skynyrd</a>"},{"pageviews":"2272. <a target=\"_blank\" href=\"http://en.wikipedia.org./wiki/Lewis_Hamilton\">Lewis Hamilton</a>"},{"pageviews":"2273. <a target=\"_blank\" href=\"http://en.wikipedia.org./wiki/Kareem_Abdul-Jabbar\">Kareem Abdul-Jabbar</a>"},{"pageviews":"2274. <a target=\"_blank\" href=\"http://en.wikipedia.org./wiki/Eastern_Orthodox_Church\">Eastern Orthodox Church</a>"},{"pageviews":"2275. <a target=\"_blank\" href=\"http://en.wikipedia.org./wiki/John_Locke\">John Locke</a>"},{"pageviews":"2276. <a target=\"_blank\" href=\"http://en.wikipedia.org./wiki/Auli%CA%BBi_Cravalho\">Auliʻi Cravalho</a>"},{"pageviews":"2277. <a target=\"_blank\" href=\"http://en.wikipedia.org./wiki/Cape_Verde\">Cape Verde</a>"},{"pageviews":"2278. <a target=\"_blank\" href=\"http://en.wikipedia.org./wiki/Car\">Car</a>"},{"pageviews":"2279. <a target=\"_blank\" href=\"http://en.wikipedia.org./wiki/Amal_Clooney\">Amal Clooney</a>"},{"pageviews":"2280. <a target=\"_blank\" href=\"http://en.wikipedia.org./wiki/Raccoon\">Raccoon</a>"},{"pageviews":"2281. <a target=\"_blank\" href=\"http://en.wikipedia.org./wiki/H._P._Lovecraft\">H. P. Lovecraft</a>"},{"pageviews":"2282. <a target=\"_blank\" href=\"http://en.wikipedia.org./wiki/Melissa_McCarthy\">Melissa McCarthy</a>"},{"pageviews":"2283. <a target=\"_blank\" href=\"http://en.wikipedia.org./wiki/Democratic_Unionist_Party\">Democratic Unionist Party</a>"},{"pageviews":"2284. <a target=\"_blank\" href=\"http://en.wikipedia.org./wiki/Cobie_Smulders\">Cobie Smulders</a>"},{"pageviews":"2285. <a target=\"_blank\" href=\"http://en.wikipedia.org./wiki/Shooter_(TV_series)\">Shooter (TV series)</a>"},{"pageviews":"2286. <a target=\"_blank\" href=\"http://en.wikipedia.org./wiki/Dot_product\">Dot product</a>"},{"pageviews":"2287. <a target=\"_blank\" href=\"http://en.wikipedia.org./wiki/The_Last_Ship_(TV_series)\">The Last Ship (TV series)</a>"},{"pageviews":"2288. <a target=\"_blank\" href=\"http://en.wikipedia.org./wiki/Colony_(TV_series)\">Colony (TV series)</a>"},{"pageviews":"2289. <a target=\"_blank\" href=\"http://en.wikipedia.org./wiki/Joaquin_Phoenix\">Joaquin Phoenix</a>"},{"pageviews":"2290. <a target=\"_blank\" href=\"http://en.wikipedia.org./wiki/Qing_dynasty\">Qing dynasty</a>"},{"pageviews":"2291. <a target=\"_blank\" href=\"http://en.wikipedia.org./wiki/Lockheed_SR-71_Blackbird\">Lockheed SR-71 Blackbird</a>"},{"pageviews":"2292. <a target=\"_blank\" href=\"http://en.wikipedia.org./wiki/Adam_Warlock\">Adam Warlock</a>"},{"pageviews":"2293. <a target=\"_blank\" href=\"http://en.wikipedia.org./wiki/Cameron_Diaz\">Cameron Diaz</a>"},{"pageviews":"2294. <a target=\"_blank\" href=\"http://en.wikipedia.org./wiki/Sam_Smith_(singer)\">Sam Smith (singer)</a>"},{"pageviews":"2295. <a target=\"_blank\" href=\"http://en.wikipedia.org./wiki/Wind_River_(film)\">Wind River (film)</a>"},{"pageviews":"2296. <a target=\"_blank\" href=\"http://en.wikipedia.org./wiki/Andorra\">Andorra</a>"},{"pageviews":"2297. <a target=\"_blank\" href=\"http://en.wikipedia.org./wiki/Chrissy_Teigen\">Chrissy Teigen</a>"},{"pageviews":"2298. <a target=\"_blank\" href=\"http://en.wikipedia.org./wiki/Scandinavia\">Scandinavia</a>"},{"pageviews":"2299. <a target=\"_blank\" href=\"http://en.wikipedia.org./wiki/Henry_Cavill\">Henry Cavill</a>"}],"list":"2200. UFC 210  \u2014  http:\/\/en.wikipedia.org.\/wiki\/UFC_210\n2201. List of Scorpion episodes  \u2014  http:\/\/en.wikipedia.org.\/wiki\/List_of_Scorpion_episodes\n2202. Dave Chappelle  \u2014  http:\/\/en.wikipedia.org.\/wiki\/Dave_Chappelle\n2203. Cheryl (singer)  \u2014  http:\/\/en.wikipedia.org.\/wiki\/Cheryl_(singer)\n2204. Romeo and Juliet  \u2014  http:\/\/en.wikipedia.org.\/wiki\/Romeo_and_Juliet\n2205. Melissa Benoist  \u2014  http:\/\/en.wikipedia.org.\/wiki\/Melissa_Benoist\n2206. White House  \u2014  http:\/\/en.wikipedia.org.\/wiki\/White_House\n2207. List of Orange Is the New Black episodes  \u2014  http:\/\/en.wikipedia.org.\/wiki\/List_of_Orange_Is_the_New_Black_episodes\n2208. Impeachment in the United States  \u2014  http:\/\/en.wikipedia.org.\/wiki\/Impeachment_in_the_United_States\n2209. Borussia Dortmund  \u2014  http:\/\/en.wikipedia.org.\/wiki\/Borussia_Dortmund\n2210. Neil Young  \u2014  http:\/\/en.wikipedia.org.\/wiki\/Neil_Young\n2211. Paramore  \u2014  http:\/\/en.wikipedia.org.\/wiki\/Paramore\n2212. M16 rifle  \u2014  http:\/\/en.wikipedia.org.\/wiki\/M16_rifle\n2213. Computer science  \u2014  http:\/\/en.wikipedia.org.\/wiki\/Computer_science\n2214. Northrop Grumman B-2 Spirit  \u2014  http:\/\/en.wikipedia.org.\/wiki\/Northrop_Grumman_B-2_Spirit\n2215. Papua New Guinea  \u2014  http:\/\/en.wikipedia.org.\/wiki\/Papua_New_Guinea\n2216. Salesforce.com  \u2014  http:\/\/en.wikipedia.org.\/wiki\/Salesforce.com\n2217. Ed Roberts (activist)  \u2014  http:\/\/en.wikipedia.org.\/wiki\/Ed_Roberts_(activist)\n2218. Mick Jagger  \u2014  http:\/\/en.wikipedia.org.\/wiki\/Mick_Jagger\n2219. List of Pretty Little Liars episodes  \u2014  http:\/\/en.wikipedia.org.\/wiki\/List_of_Pretty_Little_Liars_episodes\n2220. Ana de Armas  \u2014  http:\/\/en.wikipedia.org.\/wiki\/Ana_de_Armas\n2221. Rita Ora  \u2014  http:\/\/en.wikipedia.org.\/wiki\/Rita_Ora\n2222. Hard disk drive  \u2014  http:\/\/en.wikipedia.org.\/wiki\/Hard_disk_drive\n2223. Kuwait  \u2014  http:\/\/en.wikipedia.org.\/wiki\/Kuwait\n2224. Austria-Hungary  \u2014  http:\/\/en.wikipedia.org.\/wiki\/Austria-Hungary\n2225. Paracetamol  \u2014  http:\/\/en.wikipedia.org.\/wiki\/Paracetamol\n2226. Shiva  \u2014  http:\/\/en.wikipedia.org.\/wiki\/Shiva\n2227. M*A*S*H (TV series)  \u2014  http:\/\/en.wikipedia.org.\/wiki\/M%2AA%2AS%2AH_(TV_series)\n2228. Schr\u00F6dinger's cat  \u2014  http:\/\/en.wikipedia.org.\/wiki\/Schr%C3%B6dinger's_cat\n2229. Circulatory system  \u2014  http:\/\/en.wikipedia.org.\/wiki\/Circulatory_system\n2230. Aaron Rodgers  \u2014  http:\/\/en.wikipedia.org.\/wiki\/Aaron_Rodgers\n2231. Lena Dunham  \u2014  http:\/\/en.wikipedia.org.\/wiki\/Lena_Dunham\n2232. Dark Matter (TV series)  \u2014  http:\/\/en.wikipedia.org.\/wiki\/Dark_Matter_(TV_series)\n2233. Apollo  \u2014  http:\/\/en.wikipedia.org.\/wiki\/Apollo\n2234. Anthony Hopkins  \u2014  http:\/\/en.wikipedia.org.\/wiki\/Anthony_Hopkins\n2235. Sarah Silverman  \u2014  http:\/\/en.wikipedia.org.\/wiki\/Sarah_Silverman\n2236. KJ Apa  \u2014  http:\/\/en.wikipedia.org.\/wiki\/KJ_Apa\n2237. Jessica Alba  \u2014  http:\/\/en.wikipedia.org.\/wiki\/Jessica_Alba\n2238. Game theory  \u2014  http:\/\/en.wikipedia.org.\/wiki\/Game_theory\n2239. Anal sex  \u2014  http:\/\/en.wikipedia.org.\/wiki\/Anal_sex\n2240. Jon Bernthal  \u2014  http:\/\/en.wikipedia.org.\/wiki\/Jon_Bernthal\n2241. Milla Jovovich  \u2014  http:\/\/en.wikipedia.org.\/wiki\/Milla_Jovovich\n2242. Kaya Scodelario  \u2014  http:\/\/en.wikipedia.org.\/wiki\/Kaya_Scodelario\n2243. Fergie (singer)  \u2014  http:\/\/en.wikipedia.org.\/wiki\/Fergie_(singer)\n2244. SOCKS  \u2014  http:\/\/en.wikipedia.org.\/wiki\/SOCKS\n2245. List of the verified oldest people  \u2014  http:\/\/en.wikipedia.org.\/wiki\/List_of_the_verified_oldest_people\n2246. Leon Trotsky  \u2014  http:\/\/en.wikipedia.org.\/wiki\/Leon_Trotsky\n2247. Grace Kelly  \u2014  http:\/\/en.wikipedia.org.\/wiki\/Grace_Kelly\n2248. Murder on the Orient Express  \u2014  http:\/\/en.wikipedia.org.\/wiki\/Murder_on_the_Orient_Express\n2249. The Hateful Eight  \u2014  http:\/\/en.wikipedia.org.\/wiki\/The_Hateful_Eight\n2250. Fred Korematsu  \u2014  http:\/\/en.wikipedia.org.\/wiki\/Fred_Korematsu\n2251. 10 Cloverfield Lane  \u2014  http:\/\/en.wikipedia.org.\/wiki\/10_Cloverfield_Lane\n2252. List of Tamil films of 2017  \u2014  http:\/\/en.wikipedia.org.\/wiki\/List_of_Tamil_films_of_2017\n2253. Moldova  \u2014  http:\/\/en.wikipedia.org.\/wiki\/Moldova\n2254. The Voice (U.S. season 12)  \u2014  http:\/\/en.wikipedia.org.\/wiki\/The_Voice_(U.S._season_12)\n2255. Information technology  \u2014  http:\/\/en.wikipedia.org.\/wiki\/Information_technology\n2256. Bermuda  \u2014  http:\/\/en.wikipedia.org.\/wiki\/Bermuda\n2257. Jessica Biel  \u2014  http:\/\/en.wikipedia.org.\/wiki\/Jessica_Biel\n2258. Dave Grohl  \u2014  http:\/\/en.wikipedia.org.\/wiki\/Dave_Grohl\n2259. Apache Hadoop  \u2014  http:\/\/en.wikipedia.org.\/wiki\/Apache_Hadoop\n2260. Kombucha  \u2014  http:\/\/en.wikipedia.org.\/wiki\/Kombucha\n2261. Sepsis  \u2014  http:\/\/en.wikipedia.org.\/wiki\/Sepsis\n2262. Saroo Brierley  \u2014  http:\/\/en.wikipedia.org.\/wiki\/Saroo_Brierley\n2263. Ram Nath Kovind  \u2014  http:\/\/en.wikipedia.org.\/wiki\/Ram_Nath_Kovind\n2264. Microsoft Office  \u2014  http:\/\/en.wikipedia.org.\/wiki\/Microsoft_Office\n2265. Fred Trump  \u2014  http:\/\/en.wikipedia.org.\/wiki\/Fred_Trump\n2266. Reformation  \u2014  http:\/\/en.wikipedia.org.\/wiki\/Reformation\n2267. Hayao Miyazaki  \u2014  http:\/\/en.wikipedia.org.\/wiki\/Hayao_Miyazaki\n2268. Paul Newman  \u2014  http:\/\/en.wikipedia.org.\/wiki\/Paul_Newman\n2269. Jawaharlal Nehru  \u2014  http:\/\/en.wikipedia.org.\/wiki\/Jawaharlal_Nehru\n2270. Dutch general election, 2017  \u2014  http:\/\/en.wikipedia.org.\/wiki\/Dutch_general_election%2C_2017\n2271. Lynyrd Skynyrd  \u2014  http:\/\/en.wikipedia.org.\/wiki\/Lynyrd_Skynyrd\n2272. Lewis Hamilton  \u2014  http:\/\/en.wikipedia.org.\/wiki\/Lewis_Hamilton\n2273. Kareem Abdul-Jabbar  \u2014  http:\/\/en.wikipedia.org.\/wiki\/Kareem_Abdul-Jabbar\n2274. Eastern Orthodox Church  \u2014  http:\/\/en.wikipedia.org.\/wiki\/Eastern_Orthodox_Church\n2275. John Locke  \u2014  http:\/\/en.wikipedia.org.\/wiki\/John_Locke\n2276. Auli\u02BBi Cravalho  \u2014  http:\/\/en.wikipedia.org.\/wiki\/Auli%CA%BBi_Cravalho\n2277. Cape Verde  \u2014  http:\/\/en.wikipedia.org.\/wiki\/Cape_Verde\n2278. Car  \u2014  http:\/\/en.wikipedia.org.\/wiki\/Car\n2279. Amal Clooney  \u2014  http:\/\/en.wikipedia.org.\/wiki\/Amal_Clooney\n2280. Raccoon  \u2014  http:\/\/en.wikipedia.org.\/wiki\/Raccoon\n2281. H. P. Lovecraft  \u2014  http:\/\/en.wikipedia.org.\/wiki\/H._P._Lovecraft\n2282. Melissa McCarthy  \u2014  http:\/\/en.wikipedia.org.\/wiki\/Melissa_McCarthy\n2283. Democratic Unionist Party  \u2014  http:\/\/en.wikipedia.org.\/wiki\/Democratic_Unionist_Party\n2284. Cobie Smulders  \u2014  http:\/\/en.wikipedia.org.\/wiki\/Cobie_Smulders\n2285. Shooter (TV series)  \u2014  http:\/\/en.wikipedia.org.\/wiki\/Shooter_(TV_series)\n2286. Dot product  \u2014  http:\/\/en.wikipedia.org.\/wiki\/Dot_product\n2287. The Last Ship (TV series)  \u2014  http:\/\/en.wikipedia.org.\/wiki\/The_Last_Ship_(TV_series)\n2288. Colony (TV series)  \u2014  http:\/\/en.wikipedia.org.\/wiki\/Colony_(TV_series)\n2289. Joaquin Phoenix  \u2014  http:\/\/en.wikipedia.org.\/wiki\/Joaquin_Phoenix\n2290. Qing dynasty  \u2014  http:\/\/en.wikipedia.org.\/wiki\/Qing_dynasty\n2291. Lockheed SR-71 Blackbird  \u2014  http:\/\/en.wikipedia.org.\/wiki\/Lockheed_SR-71_Blackbird\n2292. Adam Warlock  \u2014  http:\/\/en.wikipedia.org.\/wiki\/Adam_Warlock\n2293. Cameron Diaz  \u2014  http:\/\/en.wikipedia.org.\/wiki\/Cameron_Diaz\n2294. Sam Smith (singer)  \u2014  http:\/\/en.wikipedia.org.\/wiki\/Sam_Smith_(singer)\n2295. Wind River (film)  \u2014  http:\/\/en.wikipedia.org.\/wiki\/Wind_River_(film)\n2296. Andorra  \u2014  http:\/\/en.wikipedia.org.\/wiki\/Andorra\n2297. Chrissy Teigen  \u2014  http:\/\/en.wikipedia.org.\/wiki\/Chrissy_Teigen\n2298. Scandinavia  \u2014  http:\/\/en.wikipedia.org.\/wiki\/Scandinavia\n2299. Henry Cavill  \u2014  http:\/\/en.wikipedia.org.\/wiki\/Henry_Cavill\n","miniList":"2200. UFC 210\n2201. List of Scorpion episodes\n2202. Dave Chappelle\n2203. Cheryl (singer)\n2204. Romeo and Juliet\n2205. Melissa Benoist\n2206. White House\n2207. List of Orange Is the New Black episodes\n2208. Impeachment in the United States\n2209. Borussia Dortmund\n2210. Neil Young\n2211. Paramore\n2212. M16 rifle\n2213. Computer science\n2214. Northrop Grumman B-2 Spirit\n2215. Papua New Guinea\n2216. Salesforce.com\n2217. Ed Roberts (activist)\n2218. Mick Jagger\n2219. List of Pretty Little Liars episodes\n2220. Ana de Armas\n2221. Rita Ora\n2222. Hard disk drive\n2223. Kuwait\n2224. Austria-Hungary\n2225. Paracetamol\n2226. Shiva\n2227. M*A*S*H (TV series)\n2228. Schr\u00F6dinger's cat\n2229. Circulatory system\n2230. Aaron Rodgers\n2231. Lena Dunham\n2232. Dark Matter (TV series)\n2233. Apollo\n2234. Anthony Hopkins\n2235. Sarah Silverman\n2236. KJ Apa\n2237. Jessica Alba\n2238. Game theory\n2239. Anal sex\n2240. Jon Bernthal\n2241. Milla Jovovich\n2242. Kaya Scodelario\n2243. Fergie (singer)\n2244. SOCKS\n2245. List of the verified oldest people\n2246. Leon Trotsky\n2247. Grace Kelly\n2248. Murder on the Orient Express\n2249. The Hateful Eight\n2250. Fred Korematsu\n2251. 10 Cloverfield Lane\n2252. List of Tamil films of 2017\n2253. Moldova\n2254. The Voice (U.S. season 12)\n2255. Information technology\n2256. Bermuda\n2257. Jessica Biel\n2258. Dave Grohl\n2259. Apache Hadoop\n2260. Kombucha\n2261. Sepsis\n2262. Saroo Brierley\n2263. Ram Nath Kovind\n2264. Microsoft Office\n2265. Fred Trump\n2266. Reformation\n2267. Hayao Miyazaki\n2268. Paul Newman\n2269. Jawaharlal Nehru\n2270. Dutch general election, 2017\n2271. Lynyrd Skynyrd\n2272. Lewis Hamilton\n2273. Kareem Abdul-Jabbar\n2274. Eastern Orthodox Church\n2275. John Locke\n2276. Auli\u02BBi Cravalho\n2277. Cape Verde\n2278. Car\n2279. Amal Clooney\n2280. Raccoon\n2281. H. P. Lovecraft\n2282. Melissa McCarthy\n2283. Democratic Unionist Party\n2284. Cobie Smulders\n2285. Shooter (TV series)\n2286. Dot product\n2287. The Last Ship (TV series)\n2288. Colony (TV series)\n2289. Joaquin Phoenix\n2290. Qing dynasty\n2291. Lockheed SR-71 Blackbird\n2292. Adam Warlock\n2293. Cameron Diaz\n2294. Sam Smith (singer)\n2295. Wind River (film)\n2296. Andorra\n2297. Chrissy Teigen\n2298. Scandinavia\n2299. Henry Cavill\n"}
