{"start":2301,"end":2400,"count":5616717,"type":"pageviews","pageSize":100,"page":23,"pages":56168,"columns":[{"label":"","property":"pageviews","sortable":false}],"items":[{"pageviews":"2300. <a target=\"_blank\" href=\"http://en.wikipedia.org./wiki/Bird\">Bird</a>"},{"pageviews":"2301. <a target=\"_blank\" href=\"http://en.wikipedia.org./wiki/Paige_(wrestler)\">Paige (wrestler)</a>"},{"pageviews":"2302. <a target=\"_blank\" href=\"http://en.wikipedia.org./wiki/Liam_Gallagher\">Liam Gallagher</a>"},{"pageviews":"2303. <a target=\"_blank\" href=\"http://en.wikipedia.org./wiki/United_Airlines\">United Airlines</a>"},{"pageviews":"2304. <a target=\"_blank\" href=\"http://en.wikipedia.org./wiki/Tomi_Lahren\">Tomi Lahren</a>"},{"pageviews":"2305. <a target=\"_blank\" href=\"http://en.wikipedia.org./wiki/Scorpion_(TV_series)\">Scorpion (TV series)</a>"},{"pageviews":"2306. <a target=\"_blank\" href=\"http://en.wikipedia.org./wiki/Washington_(state)\">Washington (state)</a>"},{"pageviews":"2307. <a target=\"_blank\" href=\"http://en.wikipedia.org./wiki/Guyana\">Guyana</a>"},{"pageviews":"2308. <a target=\"_blank\" href=\"http://en.wikipedia.org./wiki/John_Krasinski\">John Krasinski</a>"},{"pageviews":"2309. <a target=\"_blank\" href=\"http://en.wikipedia.org./wiki/Provinces_and_territories_of_Canada\">Provinces and territories of Canada</a>"},{"pageviews":"2310. <a target=\"_blank\" href=\"http://en.wikipedia.org./wiki/Billie_Lourd\">Billie Lourd</a>"},{"pageviews":"2311. <a target=\"_blank\" href=\"http://en.wikipedia.org./wiki/Neil_Armstrong\">Neil Armstrong</a>"},{"pageviews":"2312. <a target=\"_blank\" href=\"http://en.wikipedia.org./wiki/Rwandan_genocide\">Rwandan genocide</a>"},{"pageviews":"2313. <a target=\"_blank\" href=\"http://en.wikipedia.org./wiki/Detroit_(film)\">Detroit (film)</a>"},{"pageviews":"2314. <a target=\"_blank\" href=\"http://en.wikipedia.org./wiki/Big_Brother_19_(U.S.)\">Big Brother 19 (U.S.)</a>"},{"pageviews":"2315. <a target=\"_blank\" href=\"http://en.wikipedia.org./wiki/The_Foreigner_(2017_film)\">The Foreigner (2017 film)</a>"},{"pageviews":"2316. <a target=\"_blank\" href=\"http://en.wikipedia.org./wiki/Sydney\">Sydney</a>"},{"pageviews":"2317. <a target=\"_blank\" href=\"http://en.wikipedia.org./wiki/Venus_Williams\">Venus Williams</a>"},{"pageviews":"2318. <a target=\"_blank\" href=\"http://en.wikipedia.org./wiki/Microsoft_Excel\">Microsoft Excel</a>"},{"pageviews":"2319. <a target=\"_blank\" href=\"http://en.wikipedia.org./wiki/Diban\">Diban</a>"},{"pageviews":"2320. <a target=\"_blank\" href=\"http://en.wikipedia.org./wiki/List_of_Silicon_Valley_episodes\">List of Silicon Valley episodes</a>"},{"pageviews":"2321. <a target=\"_blank\" href=\"http://en.wikipedia.org./wiki/DisplayPort\">DisplayPort</a>"},{"pageviews":"2322. <a target=\"_blank\" href=\"http://en.wikipedia.org./wiki/Amanda_Seyfried\">Amanda Seyfried</a>"},{"pageviews":"2323. <a target=\"_blank\" href=\"http://en.wikipedia.org./wiki/Oracle_Corporation\">Oracle Corporation</a>"},{"pageviews":"2324. <a target=\"_blank\" href=\"http://en.wikipedia.org./wiki/Ubuntu_(operating_system)\">Ubuntu (operating system)</a>"},{"pageviews":"2325. <a target=\"_blank\" href=\"http://en.wikipedia.org./wiki/Allison_Williams_(actress)\">Allison Williams (actress)</a>"},{"pageviews":"2326. <a target=\"_blank\" href=\"http://en.wikipedia.org./wiki/Yugoslavia\">Yugoslavia</a>"},{"pageviews":"2327. <a target=\"_blank\" href=\"http://en.wikipedia.org./wiki/African_Americans\">African Americans</a>"},{"pageviews":"2328. <a target=\"_blank\" href=\"http://en.wikipedia.org./wiki/Veep\">Veep</a>"},{"pageviews":"2329. <a target=\"_blank\" href=\"http://en.wikipedia.org./wiki/Deontay_Wilder\">Deontay Wilder</a>"},{"pageviews":"2330. <a target=\"_blank\" href=\"http://en.wikipedia.org./wiki/Prague\">Prague</a>"},{"pageviews":"2331. <a target=\"_blank\" href=\"http://en.wikipedia.org./wiki/Vienna\">Vienna</a>"},{"pageviews":"2332. <a target=\"_blank\" href=\"http://en.wikipedia.org./wiki/Dean_Martin\">Dean Martin</a>"},{"pageviews":"2333. <a target=\"_blank\" href=\"http://en.wikipedia.org./wiki/Rupert_Murdoch\">Rupert Murdoch</a>"},{"pageviews":"2334. <a target=\"_blank\" href=\"http://en.wikipedia.org./wiki/Protestantism\">Protestantism</a>"},{"pageviews":"2335. <a target=\"_blank\" href=\"http://en.wikipedia.org./wiki/Charlie_Murphy\">Charlie Murphy</a>"},{"pageviews":"2336. <a target=\"_blank\" href=\"http://en.wikipedia.org./wiki/Cillian_Murphy\">Cillian Murphy</a>"},{"pageviews":"2337. <a target=\"_blank\" href=\"http://en.wikipedia.org./wiki/Cassini%E2%80%93Huygens\">Cassini–Huygens</a>"},{"pageviews":"2338. <a target=\"_blank\" href=\"http://en.wikipedia.org./wiki/IEEE_802.11\">IEEE 802.11</a>"},{"pageviews":"2339. <a target=\"_blank\" href=\"http://en.wikipedia.org./wiki/Tim_Eriksen\">Tim Eriksen</a>"},{"pageviews":"2340. <a target=\"_blank\" href=\"http://en.wikipedia.org./wiki/Object-oriented_programming\">Object-oriented programming</a>"},{"pageviews":"2341. <a target=\"_blank\" href=\"http://en.wikipedia.org./wiki/Mercury_(element)\">Mercury (element)</a>"},{"pageviews":"2342. <a target=\"_blank\" href=\"http://en.wikipedia.org./wiki/Hyperloop\">Hyperloop</a>"},{"pageviews":"2343. <a target=\"_blank\" href=\"http://en.wikipedia.org./wiki/Luis_Fonsi\">Luis Fonsi</a>"},{"pageviews":"2344. <a target=\"_blank\" href=\"http://en.wikipedia.org./wiki/Faroe_Islands\">Faroe Islands</a>"},{"pageviews":"2345. <a target=\"_blank\" href=\"http://en.wikipedia.org./wiki/How_to_Get_Away_with_Murder_(season_3)\">How to Get Away with Murder (season 3)</a>"},{"pageviews":"2346. <a target=\"_blank\" href=\"http://en.wikipedia.org./wiki/Spanish_Civil_War\">Spanish Civil War</a>"},{"pageviews":"2347. <a target=\"_blank\" href=\"http://en.wikipedia.org./wiki/Liam_Payne\">Liam Payne</a>"},{"pageviews":"2348. <a target=\"_blank\" href=\"http://en.wikipedia.org./wiki/Dylan_O'Brien\">Dylan O'Brien</a>"},{"pageviews":"2349. <a target=\"_blank\" href=\"http://en.wikipedia.org./wiki/Falklands_War\">Falklands War</a>"},{"pageviews":"2350. <a target=\"_blank\" href=\"http://en.wikipedia.org./wiki/Anne_Boleyn\">Anne Boleyn</a>"},{"pageviews":"2351. <a target=\"_blank\" href=\"http://en.wikipedia.org./wiki/4chan\">4chan</a>"},{"pageviews":"2352. <a target=\"_blank\" href=\"http://en.wikipedia.org./wiki/Call_Me_by_Your_Name_(film)\">Call Me by Your Name (film)</a>"},{"pageviews":"2353. <a target=\"_blank\" href=\"http://en.wikipedia.org./wiki/Linear_regression\">Linear regression</a>"},{"pageviews":"2354. <a target=\"_blank\" href=\"http://en.wikipedia.org./wiki/Happy_Death_Day\">Happy Death Day</a>"},{"pageviews":"2355. <a target=\"_blank\" href=\"http://en.wikipedia.org./wiki/Schengen_Area\">Schengen Area</a>"},{"pageviews":"2356. <a target=\"_blank\" href=\"http://en.wikipedia.org./wiki/List_of_One_Piece_episodes_(seasons_15%E2%80%93current)\">List of One Piece episodes (seasons 15–current)</a>"},{"pageviews":"2357. <a target=\"_blank\" href=\"http://en.wikipedia.org./wiki/Brown_v._Board_of_Education\">Brown v. Board of Education</a>"},{"pageviews":"2358. <a target=\"_blank\" href=\"http://en.wikipedia.org./wiki/Jude_Law\">Jude Law</a>"},{"pageviews":"2359. <a target=\"_blank\" href=\"http://en.wikipedia.org./wiki/Credit_history\">Credit history</a>"},{"pageviews":"2360. <a target=\"_blank\" href=\"http://en.wikipedia.org./wiki/German_Empire\">German Empire</a>"},{"pageviews":"2361. <a target=\"_blank\" href=\"http://en.wikipedia.org./wiki/Immanuel_Kant\">Immanuel Kant</a>"},{"pageviews":"2362. <a target=\"_blank\" href=\"http://en.wikipedia.org./wiki/Mel_B\">Mel B</a>"},{"pageviews":"2363. <a target=\"_blank\" href=\"http://en.wikipedia.org./wiki/Law_of_the_Jungle_(TV_series)\">Law of the Jungle (TV series)</a>"},{"pageviews":"2364. <a target=\"_blank\" href=\"http://en.wikipedia.org./wiki/Legend_of_the_Blue_Sea\">Legend of the Blue Sea</a>"},{"pageviews":"2365. <a target=\"_blank\" href=\"http://en.wikipedia.org./wiki/Echo_Fox\">Echo Fox</a>"},{"pageviews":"2366. <a target=\"_blank\" href=\"http://en.wikipedia.org./wiki/The_Revenant_(2015_film)\">The Revenant (2015 film)</a>"},{"pageviews":"2367. <a target=\"_blank\" href=\"http://en.wikipedia.org./wiki/Bali\">Bali</a>"},{"pageviews":"2368. <a target=\"_blank\" href=\"http://en.wikipedia.org./wiki/Coefficient_of_determination\">Coefficient of determination</a>"},{"pageviews":"2369. <a target=\"_blank\" href=\"http://en.wikipedia.org./wiki/Adam_Levine\">Adam Levine</a>"},{"pageviews":"2370. <a target=\"_blank\" href=\"http://en.wikipedia.org./wiki/Agatha_Christie\">Agatha Christie</a>"},{"pageviews":"2371. <a target=\"_blank\" href=\"http://en.wikipedia.org./wiki/File_Transfer_Protocol\">File Transfer Protocol</a>"},{"pageviews":"2372. <a target=\"_blank\" href=\"http://en.wikipedia.org./wiki/List_of_Twin_Peaks_episodes\">List of Twin Peaks episodes</a>"},{"pageviews":"2373. <a target=\"_blank\" href=\"http://en.wikipedia.org./wiki/It_Comes_at_Night\">It Comes at Night</a>"},{"pageviews":"2374. <a target=\"_blank\" href=\"http://en.wikipedia.org./wiki/Boris_Yeltsin\">Boris Yeltsin</a>"},{"pageviews":"2375. <a target=\"_blank\" href=\"http://en.wikipedia.org./wiki/Body_mass_index\">Body mass index</a>"},{"pageviews":"2376. <a target=\"_blank\" href=\"http://en.wikipedia.org./wiki/Giannis_Antetokounmpo\">Giannis Antetokounmpo</a>"},{"pageviews":"2377. <a target=\"_blank\" href=\"http://en.wikipedia.org./wiki/Toyota\">Toyota</a>"},{"pageviews":"2378. <a target=\"_blank\" href=\"http://en.wikipedia.org./wiki/Rosario_Dawson\">Rosario Dawson</a>"},{"pageviews":"2379. <a target=\"_blank\" href=\"http://en.wikipedia.org./wiki/Wallis_Simpson\">Wallis Simpson</a>"},{"pageviews":"2380. <a target=\"_blank\" href=\"http://en.wikipedia.org./wiki/Ramadan\">Ramadan</a>"},{"pageviews":"2381. <a target=\"_blank\" href=\"http://en.wikipedia.org./wiki/Tessa_Thompson\">Tessa Thompson</a>"},{"pageviews":"2382. <a target=\"_blank\" href=\"http://en.wikipedia.org./wiki/Caffeine\">Caffeine</a>"},{"pageviews":"2383. <a target=\"_blank\" href=\"http://en.wikipedia.org./wiki/England_national_football_team\">England national football team</a>"},{"pageviews":"2384. <a target=\"_blank\" href=\"http://en.wikipedia.org./wiki/Natalia_Dyer\">Natalia Dyer</a>"},{"pageviews":"2385. <a target=\"_blank\" href=\"http://en.wikipedia.org./wiki/Russell_Westbrook\">Russell Westbrook</a>"},{"pageviews":"2386. <a target=\"_blank\" href=\"http://en.wikipedia.org./wiki/Frank_Ocean\">Frank Ocean</a>"},{"pageviews":"2387. <a target=\"_blank\" href=\"http://en.wikipedia.org./wiki/Planck_constant\">Planck constant</a>"},{"pageviews":"2388. <a target=\"_blank\" href=\"http://en.wikipedia.org./wiki/Battle_of_Okinawa\">Battle of Okinawa</a>"},{"pageviews":"2389. <a target=\"_blank\" href=\"http://en.wikipedia.org./wiki/Slash_(musician)\">Slash (musician)</a>"},{"pageviews":"2390. <a target=\"_blank\" href=\"http://en.wikipedia.org./wiki/Rodrigo_Duterte\">Rodrigo Duterte</a>"},{"pageviews":"2391. <a target=\"_blank\" href=\"http://en.wikipedia.org./wiki/William_III_of_England\">William III of England</a>"},{"pageviews":"2392. <a target=\"_blank\" href=\"http://en.wikipedia.org./wiki/State_of_Palestine\">State of Palestine</a>"},{"pageviews":"2393. <a target=\"_blank\" href=\"http://en.wikipedia.org./wiki/The_Good_Fight\">The Good Fight</a>"},{"pageviews":"2394. <a target=\"_blank\" href=\"http://en.wikipedia.org./wiki/Ashley_Judd\">Ashley Judd</a>"},{"pageviews":"2395. <a target=\"_blank\" href=\"http://en.wikipedia.org./wiki/Tutankhamun\">Tutankhamun</a>"},{"pageviews":"2396. <a target=\"_blank\" href=\"http://en.wikipedia.org./wiki/Euro\">Euro</a>"},{"pageviews":"2397. <a target=\"_blank\" href=\"http://en.wikipedia.org./wiki/Laos\">Laos</a>"},{"pageviews":"2398. <a target=\"_blank\" href=\"http://en.wikipedia.org./wiki/Fastlane_(2017)\">Fastlane (2017)</a>"},{"pageviews":"2399. <a target=\"_blank\" href=\"http://en.wikipedia.org./wiki/Alexa_Internet\">Alexa Internet</a>"}],"list":"2300. Bird  \u2014  http:\/\/en.wikipedia.org.\/wiki\/Bird\n2301. Paige (wrestler)  \u2014  http:\/\/en.wikipedia.org.\/wiki\/Paige_(wrestler)\n2302. Liam Gallagher  \u2014  http:\/\/en.wikipedia.org.\/wiki\/Liam_Gallagher\n2303. United Airlines  \u2014  http:\/\/en.wikipedia.org.\/wiki\/United_Airlines\n2304. Tomi Lahren  \u2014  http:\/\/en.wikipedia.org.\/wiki\/Tomi_Lahren\n2305. Scorpion (TV series)  \u2014  http:\/\/en.wikipedia.org.\/wiki\/Scorpion_(TV_series)\n2306. Washington (state)  \u2014  http:\/\/en.wikipedia.org.\/wiki\/Washington_(state)\n2307. Guyana  \u2014  http:\/\/en.wikipedia.org.\/wiki\/Guyana\n2308. John Krasinski  \u2014  http:\/\/en.wikipedia.org.\/wiki\/John_Krasinski\n2309. Provinces and territories of Canada  \u2014  http:\/\/en.wikipedia.org.\/wiki\/Provinces_and_territories_of_Canada\n2310. Billie Lourd  \u2014  http:\/\/en.wikipedia.org.\/wiki\/Billie_Lourd\n2311. Neil Armstrong  \u2014  http:\/\/en.wikipedia.org.\/wiki\/Neil_Armstrong\n2312. Rwandan genocide  \u2014  http:\/\/en.wikipedia.org.\/wiki\/Rwandan_genocide\n2313. Detroit (film)  \u2014  http:\/\/en.wikipedia.org.\/wiki\/Detroit_(film)\n2314. Big Brother 19 (U.S.)  \u2014  http:\/\/en.wikipedia.org.\/wiki\/Big_Brother_19_(U.S.)\n2315. The Foreigner (2017 film)  \u2014  http:\/\/en.wikipedia.org.\/wiki\/The_Foreigner_(2017_film)\n2316. Sydney  \u2014  http:\/\/en.wikipedia.org.\/wiki\/Sydney\n2317. Venus Williams  \u2014  http:\/\/en.wikipedia.org.\/wiki\/Venus_Williams\n2318. Microsoft Excel  \u2014  http:\/\/en.wikipedia.org.\/wiki\/Microsoft_Excel\n2319. Diban  \u2014  http:\/\/en.wikipedia.org.\/wiki\/Diban\n2320. List of Silicon Valley episodes  \u2014  http:\/\/en.wikipedia.org.\/wiki\/List_of_Silicon_Valley_episodes\n2321. DisplayPort  \u2014  http:\/\/en.wikipedia.org.\/wiki\/DisplayPort\n2322. Amanda Seyfried  \u2014  http:\/\/en.wikipedia.org.\/wiki\/Amanda_Seyfried\n2323. Oracle Corporation  \u2014  http:\/\/en.wikipedia.org.\/wiki\/Oracle_Corporation\n2324. Ubuntu (operating system)  \u2014  http:\/\/en.wikipedia.org.\/wiki\/Ubuntu_(operating_system)\n2325. Allison Williams (actress)  \u2014  http:\/\/en.wikipedia.org.\/wiki\/Allison_Williams_(actress)\n2326. Yugoslavia  \u2014  http:\/\/en.wikipedia.org.\/wiki\/Yugoslavia\n2327. African Americans  \u2014  http:\/\/en.wikipedia.org.\/wiki\/African_Americans\n2328. Veep  \u2014  http:\/\/en.wikipedia.org.\/wiki\/Veep\n2329. Deontay Wilder  \u2014  http:\/\/en.wikipedia.org.\/wiki\/Deontay_Wilder\n2330. Prague  \u2014  http:\/\/en.wikipedia.org.\/wiki\/Prague\n2331. Vienna  \u2014  http:\/\/en.wikipedia.org.\/wiki\/Vienna\n2332. Dean Martin  \u2014  http:\/\/en.wikipedia.org.\/wiki\/Dean_Martin\n2333. Rupert Murdoch  \u2014  http:\/\/en.wikipedia.org.\/wiki\/Rupert_Murdoch\n2334. Protestantism  \u2014  http:\/\/en.wikipedia.org.\/wiki\/Protestantism\n2335. Charlie Murphy  \u2014  http:\/\/en.wikipedia.org.\/wiki\/Charlie_Murphy\n2336. Cillian Murphy  \u2014  http:\/\/en.wikipedia.org.\/wiki\/Cillian_Murphy\n2337. Cassini\u2013Huygens  \u2014  http:\/\/en.wikipedia.org.\/wiki\/Cassini%E2%80%93Huygens\n2338. IEEE 802.11  \u2014  http:\/\/en.wikipedia.org.\/wiki\/IEEE_802.11\n2339. Tim Eriksen  \u2014  http:\/\/en.wikipedia.org.\/wiki\/Tim_Eriksen\n2340. Object-oriented programming  \u2014  http:\/\/en.wikipedia.org.\/wiki\/Object-oriented_programming\n2341. Mercury (element)  \u2014  http:\/\/en.wikipedia.org.\/wiki\/Mercury_(element)\n2342. Hyperloop  \u2014  http:\/\/en.wikipedia.org.\/wiki\/Hyperloop\n2343. Luis Fonsi  \u2014  http:\/\/en.wikipedia.org.\/wiki\/Luis_Fonsi\n2344. Faroe Islands  \u2014  http:\/\/en.wikipedia.org.\/wiki\/Faroe_Islands\n2345. How to Get Away with Murder (season 3)  \u2014  http:\/\/en.wikipedia.org.\/wiki\/How_to_Get_Away_with_Murder_(season_3)\n2346. Spanish Civil War  \u2014  http:\/\/en.wikipedia.org.\/wiki\/Spanish_Civil_War\n2347. Liam Payne  \u2014  http:\/\/en.wikipedia.org.\/wiki\/Liam_Payne\n2348. Dylan O'Brien  \u2014  http:\/\/en.wikipedia.org.\/wiki\/Dylan_O'Brien\n2349. Falklands War  \u2014  http:\/\/en.wikipedia.org.\/wiki\/Falklands_War\n2350. Anne Boleyn  \u2014  http:\/\/en.wikipedia.org.\/wiki\/Anne_Boleyn\n2351. 4chan  \u2014  http:\/\/en.wikipedia.org.\/wiki\/4chan\n2352. Call Me by Your Name (film)  \u2014  http:\/\/en.wikipedia.org.\/wiki\/Call_Me_by_Your_Name_(film)\n2353. Linear regression  \u2014  http:\/\/en.wikipedia.org.\/wiki\/Linear_regression\n2354. Happy Death Day  \u2014  http:\/\/en.wikipedia.org.\/wiki\/Happy_Death_Day\n2355. Schengen Area  \u2014  http:\/\/en.wikipedia.org.\/wiki\/Schengen_Area\n2356. List of One Piece episodes (seasons 15\u2013current)  \u2014  http:\/\/en.wikipedia.org.\/wiki\/List_of_One_Piece_episodes_(seasons_15%E2%80%93current)\n2357. Brown v. Board of Education  \u2014  http:\/\/en.wikipedia.org.\/wiki\/Brown_v._Board_of_Education\n2358. Jude Law  \u2014  http:\/\/en.wikipedia.org.\/wiki\/Jude_Law\n2359. Credit history  \u2014  http:\/\/en.wikipedia.org.\/wiki\/Credit_history\n2360. German Empire  \u2014  http:\/\/en.wikipedia.org.\/wiki\/German_Empire\n2361. Immanuel Kant  \u2014  http:\/\/en.wikipedia.org.\/wiki\/Immanuel_Kant\n2362. Mel B  \u2014  http:\/\/en.wikipedia.org.\/wiki\/Mel_B\n2363. Law of the Jungle (TV series)  \u2014  http:\/\/en.wikipedia.org.\/wiki\/Law_of_the_Jungle_(TV_series)\n2364. Legend of the Blue Sea  \u2014  http:\/\/en.wikipedia.org.\/wiki\/Legend_of_the_Blue_Sea\n2365. Echo Fox  \u2014  http:\/\/en.wikipedia.org.\/wiki\/Echo_Fox\n2366. The Revenant (2015 film)  \u2014  http:\/\/en.wikipedia.org.\/wiki\/The_Revenant_(2015_film)\n2367. Bali  \u2014  http:\/\/en.wikipedia.org.\/wiki\/Bali\n2368. Coefficient of determination  \u2014  http:\/\/en.wikipedia.org.\/wiki\/Coefficient_of_determination\n2369. Adam Levine  \u2014  http:\/\/en.wikipedia.org.\/wiki\/Adam_Levine\n2370. Agatha Christie  \u2014  http:\/\/en.wikipedia.org.\/wiki\/Agatha_Christie\n2371. File Transfer Protocol  \u2014  http:\/\/en.wikipedia.org.\/wiki\/File_Transfer_Protocol\n2372. List of Twin Peaks episodes  \u2014  http:\/\/en.wikipedia.org.\/wiki\/List_of_Twin_Peaks_episodes\n2373. It Comes at Night  \u2014  http:\/\/en.wikipedia.org.\/wiki\/It_Comes_at_Night\n2374. Boris Yeltsin  \u2014  http:\/\/en.wikipedia.org.\/wiki\/Boris_Yeltsin\n2375. Body mass index  \u2014  http:\/\/en.wikipedia.org.\/wiki\/Body_mass_index\n2376. Giannis Antetokounmpo  \u2014  http:\/\/en.wikipedia.org.\/wiki\/Giannis_Antetokounmpo\n2377. Toyota  \u2014  http:\/\/en.wikipedia.org.\/wiki\/Toyota\n2378. Rosario Dawson  \u2014  http:\/\/en.wikipedia.org.\/wiki\/Rosario_Dawson\n2379. Wallis Simpson  \u2014  http:\/\/en.wikipedia.org.\/wiki\/Wallis_Simpson\n2380. Ramadan  \u2014  http:\/\/en.wikipedia.org.\/wiki\/Ramadan\n2381. Tessa Thompson  \u2014  http:\/\/en.wikipedia.org.\/wiki\/Tessa_Thompson\n2382. Caffeine  \u2014  http:\/\/en.wikipedia.org.\/wiki\/Caffeine\n2383. England national football team  \u2014  http:\/\/en.wikipedia.org.\/wiki\/England_national_football_team\n2384. Natalia Dyer  \u2014  http:\/\/en.wikipedia.org.\/wiki\/Natalia_Dyer\n2385. Russell Westbrook  \u2014  http:\/\/en.wikipedia.org.\/wiki\/Russell_Westbrook\n2386. Frank Ocean  \u2014  http:\/\/en.wikipedia.org.\/wiki\/Frank_Ocean\n2387. Planck constant  \u2014  http:\/\/en.wikipedia.org.\/wiki\/Planck_constant\n2388. Battle of Okinawa  \u2014  http:\/\/en.wikipedia.org.\/wiki\/Battle_of_Okinawa\n2389. Slash (musician)  \u2014  http:\/\/en.wikipedia.org.\/wiki\/Slash_(musician)\n2390. Rodrigo Duterte  \u2014  http:\/\/en.wikipedia.org.\/wiki\/Rodrigo_Duterte\n2391. William III of England  \u2014  http:\/\/en.wikipedia.org.\/wiki\/William_III_of_England\n2392. State of Palestine  \u2014  http:\/\/en.wikipedia.org.\/wiki\/State_of_Palestine\n2393. The Good Fight  \u2014  http:\/\/en.wikipedia.org.\/wiki\/The_Good_Fight\n2394. Ashley Judd  \u2014  http:\/\/en.wikipedia.org.\/wiki\/Ashley_Judd\n2395. Tutankhamun  \u2014  http:\/\/en.wikipedia.org.\/wiki\/Tutankhamun\n2396. Euro  \u2014  http:\/\/en.wikipedia.org.\/wiki\/Euro\n2397. Laos  \u2014  http:\/\/en.wikipedia.org.\/wiki\/Laos\n2398. Fastlane (2017)  \u2014  http:\/\/en.wikipedia.org.\/wiki\/Fastlane_(2017)\n2399. Alexa Internet  \u2014  http:\/\/en.wikipedia.org.\/wiki\/Alexa_Internet\n","miniList":"2300. Bird\n2301. Paige (wrestler)\n2302. Liam Gallagher\n2303. United Airlines\n2304. Tomi Lahren\n2305. Scorpion (TV series)\n2306. Washington (state)\n2307. Guyana\n2308. John Krasinski\n2309. Provinces and territories of Canada\n2310. Billie Lourd\n2311. Neil Armstrong\n2312. Rwandan genocide\n2313. Detroit (film)\n2314. Big Brother 19 (U.S.)\n2315. The Foreigner (2017 film)\n2316. Sydney\n2317. Venus Williams\n2318. Microsoft Excel\n2319. Diban\n2320. List of Silicon Valley episodes\n2321. DisplayPort\n2322. Amanda Seyfried\n2323. Oracle Corporation\n2324. Ubuntu (operating system)\n2325. Allison Williams (actress)\n2326. Yugoslavia\n2327. African Americans\n2328. Veep\n2329. Deontay Wilder\n2330. Prague\n2331. Vienna\n2332. Dean Martin\n2333. Rupert Murdoch\n2334. Protestantism\n2335. Charlie Murphy\n2336. Cillian Murphy\n2337. Cassini\u2013Huygens\n2338. IEEE 802.11\n2339. Tim Eriksen\n2340. Object-oriented programming\n2341. Mercury (element)\n2342. Hyperloop\n2343. Luis Fonsi\n2344. Faroe Islands\n2345. How to Get Away with Murder (season 3)\n2346. Spanish Civil War\n2347. Liam Payne\n2348. Dylan O'Brien\n2349. Falklands War\n2350. Anne Boleyn\n2351. 4chan\n2352. Call Me by Your Name (film)\n2353. Linear regression\n2354. Happy Death Day\n2355. Schengen Area\n2356. List of One Piece episodes (seasons 15\u2013current)\n2357. Brown v. Board of Education\n2358. Jude Law\n2359. Credit history\n2360. German Empire\n2361. Immanuel Kant\n2362. Mel B\n2363. Law of the Jungle (TV series)\n2364. Legend of the Blue Sea\n2365. Echo Fox\n2366. The Revenant (2015 film)\n2367. Bali\n2368. Coefficient of determination\n2369. Adam Levine\n2370. Agatha Christie\n2371. File Transfer Protocol\n2372. List of Twin Peaks episodes\n2373. It Comes at Night\n2374. Boris Yeltsin\n2375. Body mass index\n2376. Giannis Antetokounmpo\n2377. Toyota\n2378. Rosario Dawson\n2379. Wallis Simpson\n2380. Ramadan\n2381. Tessa Thompson\n2382. Caffeine\n2383. England national football team\n2384. Natalia Dyer\n2385. Russell Westbrook\n2386. Frank Ocean\n2387. Planck constant\n2388. Battle of Okinawa\n2389. Slash (musician)\n2390. Rodrigo Duterte\n2391. William III of England\n2392. State of Palestine\n2393. The Good Fight\n2394. Ashley Judd\n2395. Tutankhamun\n2396. Euro\n2397. Laos\n2398. Fastlane (2017)\n2399. Alexa Internet\n"}
