{"start":2401,"end":2500,"count":5616717,"type":"pageviews","pageSize":100,"page":24,"pages":56168,"columns":[{"label":"","property":"pageviews","sortable":false}],"items":[{"pageviews":"2400. <a target=\"_blank\" href=\"http://en.wikipedia.org./wiki/P-value\">P-value</a>"},{"pageviews":"2401. <a target=\"_blank\" href=\"http://en.wikipedia.org./wiki/Drew_Barrymore\">Drew Barrymore</a>"},{"pageviews":"2402. <a target=\"_blank\" href=\"http://en.wikipedia.org./wiki/Nikita_Khrushchev\">Nikita Khrushchev</a>"},{"pageviews":"2403. <a target=\"_blank\" href=\"http://en.wikipedia.org./wiki/2017_FIFA_U-17_World_Cup\">2017 FIFA U-17 World Cup</a>"},{"pageviews":"2404. <a target=\"_blank\" href=\"http://en.wikipedia.org./wiki/Crohn's_disease\">Crohn's disease</a>"},{"pageviews":"2405. <a target=\"_blank\" href=\"http://en.wikipedia.org./wiki/House_(TV_series)\">House (TV series)</a>"},{"pageviews":"2406. <a target=\"_blank\" href=\"http://en.wikipedia.org./wiki/Wright_brothers\">Wright brothers</a>"},{"pageviews":"2407. <a target=\"_blank\" href=\"http://en.wikipedia.org./wiki/Javier_Bardem\">Javier Bardem</a>"},{"pageviews":"2408. <a target=\"_blank\" href=\"http://en.wikipedia.org./wiki/Jennifer_Garner\">Jennifer Garner</a>"},{"pageviews":"2409. <a target=\"_blank\" href=\"http://en.wikipedia.org./wiki/Antony_Armstrong-Jones%2C_1st_Earl_of_Snowdon\">Antony Armstrong-Jones, 1st Earl of Snowdon</a>"},{"pageviews":"2410. <a target=\"_blank\" href=\"http://en.wikipedia.org./wiki/Jennifer_Connelly\">Jennifer Connelly</a>"},{"pageviews":"2411. <a target=\"_blank\" href=\"http://en.wikipedia.org./wiki/Microsoft_Visual_Studio\">Microsoft Visual Studio</a>"},{"pageviews":"2412. <a target=\"_blank\" href=\"http://en.wikipedia.org./wiki/Pocahontas\">Pocahontas</a>"},{"pageviews":"2413. <a target=\"_blank\" href=\"http://en.wikipedia.org./wiki/Stephen_Miller_(political_advisor)\">Stephen Miller (political advisor)</a>"},{"pageviews":"2414. <a target=\"_blank\" href=\"http://en.wikipedia.org./wiki/Gone_Girl_(film)\">Gone Girl (film)</a>"},{"pageviews":"2415. <a target=\"_blank\" href=\"http://en.wikipedia.org./wiki/Bangalore\">Bangalore</a>"},{"pageviews":"2416. <a target=\"_blank\" href=\"http://en.wikipedia.org./wiki/Georgina_Chapman\">Georgina Chapman</a>"},{"pageviews":"2417. <a target=\"_blank\" href=\"http://en.wikipedia.org./wiki/Saffir%E2%80%93Simpson_scale\">Saffir–Simpson scale</a>"},{"pageviews":"2418. <a target=\"_blank\" href=\"http://en.wikipedia.org./wiki/Nitrogen\">Nitrogen</a>"},{"pageviews":"2419. <a target=\"_blank\" href=\"http://en.wikipedia.org./wiki/2013_NBA_draft\">2013 NBA draft</a>"},{"pageviews":"2420. <a target=\"_blank\" href=\"http://en.wikipedia.org./wiki/Hirohito\">Hirohito</a>"},{"pageviews":"2421. <a target=\"_blank\" href=\"http://en.wikipedia.org./wiki/Babylon\">Babylon</a>"},{"pageviews":"2422. <a target=\"_blank\" href=\"http://en.wikipedia.org./wiki/List_of_European_Cup_and_UEFA_Champions_League_finals\">List of European Cup and UEFA Champions League finals</a>"},{"pageviews":"2423. <a target=\"_blank\" href=\"http://en.wikipedia.org./wiki/Virginia\">Virginia</a>"},{"pageviews":"2424. <a target=\"_blank\" href=\"http://en.wikipedia.org./wiki/Viggo_Mortensen\">Viggo Mortensen</a>"},{"pageviews":"2425. <a target=\"_blank\" href=\"http://en.wikipedia.org./wiki/Janelle_Mon%C3%A1e\">Janelle Monáe</a>"},{"pageviews":"2426. <a target=\"_blank\" href=\"http://en.wikipedia.org./wiki/Spokane%2C_Washington\">Spokane, Washington</a>"},{"pageviews":"2427. <a target=\"_blank\" href=\"http://en.wikipedia.org./wiki/Oliver_Cromwell\">Oliver Cromwell</a>"},{"pageviews":"2428. <a target=\"_blank\" href=\"http://en.wikipedia.org./wiki/Triple_H\">Triple H</a>"},{"pageviews":"2429. <a target=\"_blank\" href=\"http://en.wikipedia.org./wiki/Sacha_Baron_Cohen\">Sacha Baron Cohen</a>"},{"pageviews":"2430. <a target=\"_blank\" href=\"http://en.wikipedia.org./wiki/Ralph_Fiennes\">Ralph Fiennes</a>"},{"pageviews":"2431. <a target=\"_blank\" href=\"http://en.wikipedia.org./wiki/Jaguar\">Jaguar</a>"},{"pageviews":"2432. <a target=\"_blank\" href=\"http://en.wikipedia.org./wiki/Volcano\">Volcano</a>"},{"pageviews":"2433. <a target=\"_blank\" href=\"http://en.wikipedia.org./wiki/Marion_Cotillard\">Marion Cotillard</a>"},{"pageviews":"2434. <a target=\"_blank\" href=\"http://en.wikipedia.org./wiki/Whiplash_(2014_film)\">Whiplash (2014 film)</a>"},{"pageviews":"2435. <a target=\"_blank\" href=\"http://en.wikipedia.org./wiki/True_Detective\">True Detective</a>"},{"pageviews":"2436. <a target=\"_blank\" href=\"http://en.wikipedia.org./wiki/List_of_films_based_on_DC_Comics\">List of films based on DC Comics</a>"},{"pageviews":"2437. <a target=\"_blank\" href=\"http://en.wikipedia.org./wiki/Istanbul\">Istanbul</a>"},{"pageviews":"2438. <a target=\"_blank\" href=\"http://en.wikipedia.org./wiki/Sicario_(2015_film)\">Sicario (2015 film)</a>"},{"pageviews":"2439. <a target=\"_blank\" href=\"http://en.wikipedia.org./wiki/Daenerys_Targaryen\">Daenerys Targaryen</a>"},{"pageviews":"2440. <a target=\"_blank\" href=\"http://en.wikipedia.org./wiki/Jane_Austen\">Jane Austen</a>"},{"pageviews":"2441. <a target=\"_blank\" href=\"http://en.wikipedia.org./wiki/Russian_Revolution\">Russian Revolution</a>"},{"pageviews":"2442. <a target=\"_blank\" href=\"http://en.wikipedia.org./wiki/Pascal_(unit)\">Pascal (unit)</a>"},{"pageviews":"2443. <a target=\"_blank\" href=\"http://en.wikipedia.org./wiki/Transgender\">Transgender</a>"},{"pageviews":"2444. <a target=\"_blank\" href=\"http://en.wikipedia.org./wiki/Sing_(2016_American_film)\">Sing (2016 American film)</a>"},{"pageviews":"2445. <a target=\"_blank\" href=\"http://en.wikipedia.org./wiki/Kate_Hudson\">Kate Hudson</a>"},{"pageviews":"2446. <a target=\"_blank\" href=\"http://en.wikipedia.org./wiki/Jean-Claude_Van_Damme\">Jean-Claude Van Damme</a>"},{"pageviews":"2447. <a target=\"_blank\" href=\"http://en.wikipedia.org./wiki/The_Last_of_Us\">The Last of Us</a>"},{"pageviews":"2448. <a target=\"_blank\" href=\"http://en.wikipedia.org./wiki/Mayim_Bialik\">Mayim Bialik</a>"},{"pageviews":"2449. <a target=\"_blank\" href=\"http://en.wikipedia.org./wiki/Exponential_distribution\">Exponential distribution</a>"},{"pageviews":"2450. <a target=\"_blank\" href=\"http://en.wikipedia.org./wiki/Emily_Ratajkowski\">Emily Ratajkowski</a>"},{"pageviews":"2451. <a target=\"_blank\" href=\"http://en.wikipedia.org./wiki/Shape_of_You\">Shape of You</a>"},{"pageviews":"2452. <a target=\"_blank\" href=\"http://en.wikipedia.org./wiki/Last_Man_Standing_(U.S._TV_series)\">Last Man Standing (U.S. TV series)</a>"},{"pageviews":"2453. <a target=\"_blank\" href=\"http://en.wikipedia.org./wiki/Affiliate_marketing\">Affiliate marketing</a>"},{"pageviews":"2454. <a target=\"_blank\" href=\"http://en.wikipedia.org./wiki/Vulva\">Vulva</a>"},{"pageviews":"2455. <a target=\"_blank\" href=\"http://en.wikipedia.org./wiki/Diana_Ross\">Diana Ross</a>"},{"pageviews":"2456. <a target=\"_blank\" href=\"http://en.wikipedia.org./wiki/To_Kill_a_Mockingbird\">To Kill a Mockingbird</a>"},{"pageviews":"2457. <a target=\"_blank\" href=\"http://en.wikipedia.org./wiki/Dissociative_identity_disorder\">Dissociative identity disorder</a>"},{"pageviews":"2458. <a target=\"_blank\" href=\"http://en.wikipedia.org./wiki/IPad\">IPad</a>"},{"pageviews":"2459. <a target=\"_blank\" href=\"http://en.wikipedia.org./wiki/Pel%C3%A9\">Pelé</a>"},{"pageviews":"2460. <a target=\"_blank\" href=\"http://en.wikipedia.org./wiki/John_Paul_Getty_III\">John Paul Getty III</a>"},{"pageviews":"2461. <a target=\"_blank\" href=\"http://en.wikipedia.org./wiki/Deep_Purple\">Deep Purple</a>"},{"pageviews":"2462. <a target=\"_blank\" href=\"http://en.wikipedia.org./wiki/Nicole_Brown_Simpson\">Nicole Brown Simpson</a>"},{"pageviews":"2463. <a target=\"_blank\" href=\"http://en.wikipedia.org./wiki/Nero\">Nero</a>"},{"pageviews":"2464. <a target=\"_blank\" href=\"http://en.wikipedia.org./wiki/2017_in_South_Korean_music\">2017 in South Korean music</a>"},{"pageviews":"2465. <a target=\"_blank\" href=\"http://en.wikipedia.org./wiki/Prime_number\">Prime number</a>"},{"pageviews":"2466. <a target=\"_blank\" href=\"http://en.wikipedia.org./wiki/Ronaldinho\">Ronaldinho</a>"},{"pageviews":"2467. <a target=\"_blank\" href=\"http://en.wikipedia.org./wiki/Wars_of_the_Roses\">Wars of the Roses</a>"},{"pageviews":"2468. <a target=\"_blank\" href=\"http://en.wikipedia.org./wiki/Nintendo\">Nintendo</a>"},{"pageviews":"2469. <a target=\"_blank\" href=\"http://en.wikipedia.org./wiki/Emmy_Rossum\">Emmy Rossum</a>"},{"pageviews":"2470. <a target=\"_blank\" href=\"http://en.wikipedia.org./wiki/Myocardial_infarction\">Myocardial infarction</a>"},{"pageviews":"2471. <a target=\"_blank\" href=\"http://en.wikipedia.org./wiki/Scott_Eastwood\">Scott Eastwood</a>"},{"pageviews":"2472. <a target=\"_blank\" href=\"http://en.wikipedia.org./wiki/Erin_Moran\">Erin Moran</a>"},{"pageviews":"2473. <a target=\"_blank\" href=\"http://en.wikipedia.org./wiki/Chhatrapati_Shivaji_International_Airport\">Chhatrapati Shivaji International Airport</a>"},{"pageviews":"2474. <a target=\"_blank\" href=\"http://en.wikipedia.org./wiki/Taika_Waititi\">Taika Waititi</a>"},{"pageviews":"2475. <a target=\"_blank\" href=\"http://en.wikipedia.org./wiki/MacBook_Pro\">MacBook Pro</a>"},{"pageviews":"2476. <a target=\"_blank\" href=\"http://en.wikipedia.org./wiki/Munich\">Munich</a>"},{"pageviews":"2477. <a target=\"_blank\" href=\"http://en.wikipedia.org./wiki/United_States_Air_Force\">United States Air Force</a>"},{"pageviews":"2478. <a target=\"_blank\" href=\"http://en.wikipedia.org./wiki/Algorithm\">Algorithm</a>"},{"pageviews":"2479. <a target=\"_blank\" href=\"http://en.wikipedia.org./wiki/Liberia\">Liberia</a>"},{"pageviews":"2480. <a target=\"_blank\" href=\"http://en.wikipedia.org./wiki/List_of_Pirates_of_the_Caribbean_characters\">List of Pirates of the Caribbean characters</a>"},{"pageviews":"2481. <a target=\"_blank\" href=\"http://en.wikipedia.org./wiki/Brave_New_World\">Brave New World</a>"},{"pageviews":"2482. <a target=\"_blank\" href=\"http://en.wikipedia.org./wiki/List_of_Top_Gear_episodes\">List of Top Gear episodes</a>"},{"pageviews":"2483. <a target=\"_blank\" href=\"http://en.wikipedia.org./wiki/Airbnb\">Airbnb</a>"},{"pageviews":"2484. <a target=\"_blank\" href=\"http://en.wikipedia.org./wiki/Megyn_Kelly\">Megyn Kelly</a>"},{"pageviews":"2485. <a target=\"_blank\" href=\"http://en.wikipedia.org./wiki/Smartphone\">Smartphone</a>"},{"pageviews":"2486. <a target=\"_blank\" href=\"http://en.wikipedia.org./wiki/Central_processing_unit\">Central processing unit</a>"},{"pageviews":"2487. <a target=\"_blank\" href=\"http://en.wikipedia.org./wiki/Young's_modulus\">Young's modulus</a>"},{"pageviews":"2488. <a target=\"_blank\" href=\"http://en.wikipedia.org./wiki/Indira_Gandhi\">Indira Gandhi</a>"},{"pageviews":"2489. <a target=\"_blank\" href=\"http://en.wikipedia.org./wiki/Vanessa_Hudgens\">Vanessa Hudgens</a>"},{"pageviews":"2490. <a target=\"_blank\" href=\"http://en.wikipedia.org./wiki/Bill_Cosby\">Bill Cosby</a>"},{"pageviews":"2491. <a target=\"_blank\" href=\"http://en.wikipedia.org./wiki/Weightlifting_Fairy_Kim_Bok-joo\">Weightlifting Fairy Kim Bok-joo</a>"},{"pageviews":"2492. <a target=\"_blank\" href=\"http://en.wikipedia.org./wiki/UFC_212\">UFC 212</a>"},{"pageviews":"2493. <a target=\"_blank\" href=\"http://en.wikipedia.org./wiki/Airbus_A320_family\">Airbus A320 family</a>"},{"pageviews":"2494. <a target=\"_blank\" href=\"http://en.wikipedia.org./wiki/Mobile_phone\">Mobile phone</a>"},{"pageviews":"2495. <a target=\"_blank\" href=\"http://en.wikipedia.org./wiki/System_of_a_Down\">System of a Down</a>"},{"pageviews":"2496. <a target=\"_blank\" href=\"http://en.wikipedia.org./wiki/Time_zone\">Time zone</a>"},{"pageviews":"2497. <a target=\"_blank\" href=\"http://en.wikipedia.org./wiki/IP_Code\">IP Code</a>"},{"pageviews":"2498. <a target=\"_blank\" href=\"http://en.wikipedia.org./wiki/Venice\">Venice</a>"},{"pageviews":"2499. <a target=\"_blank\" href=\"http://en.wikipedia.org./wiki/Neil_Patrick_Harris\">Neil Patrick Harris</a>"}],"list":"2400. P-value  \u2014  http:\/\/en.wikipedia.org.\/wiki\/P-value\n2401. Drew Barrymore  \u2014  http:\/\/en.wikipedia.org.\/wiki\/Drew_Barrymore\n2402. Nikita Khrushchev  \u2014  http:\/\/en.wikipedia.org.\/wiki\/Nikita_Khrushchev\n2403. 2017 FIFA U-17 World Cup  \u2014  http:\/\/en.wikipedia.org.\/wiki\/2017_FIFA_U-17_World_Cup\n2404. Crohn's disease  \u2014  http:\/\/en.wikipedia.org.\/wiki\/Crohn's_disease\n2405. House (TV series)  \u2014  http:\/\/en.wikipedia.org.\/wiki\/House_(TV_series)\n2406. Wright brothers  \u2014  http:\/\/en.wikipedia.org.\/wiki\/Wright_brothers\n2407. Javier Bardem  \u2014  http:\/\/en.wikipedia.org.\/wiki\/Javier_Bardem\n2408. Jennifer Garner  \u2014  http:\/\/en.wikipedia.org.\/wiki\/Jennifer_Garner\n2409. Antony Armstrong-Jones, 1st Earl of Snowdon  \u2014  http:\/\/en.wikipedia.org.\/wiki\/Antony_Armstrong-Jones%2C_1st_Earl_of_Snowdon\n2410. Jennifer Connelly  \u2014  http:\/\/en.wikipedia.org.\/wiki\/Jennifer_Connelly\n2411. Microsoft Visual Studio  \u2014  http:\/\/en.wikipedia.org.\/wiki\/Microsoft_Visual_Studio\n2412. Pocahontas  \u2014  http:\/\/en.wikipedia.org.\/wiki\/Pocahontas\n2413. Stephen Miller (political advisor)  \u2014  http:\/\/en.wikipedia.org.\/wiki\/Stephen_Miller_(political_advisor)\n2414. Gone Girl (film)  \u2014  http:\/\/en.wikipedia.org.\/wiki\/Gone_Girl_(film)\n2415. Bangalore  \u2014  http:\/\/en.wikipedia.org.\/wiki\/Bangalore\n2416. Georgina Chapman  \u2014  http:\/\/en.wikipedia.org.\/wiki\/Georgina_Chapman\n2417. Saffir\u2013Simpson scale  \u2014  http:\/\/en.wikipedia.org.\/wiki\/Saffir%E2%80%93Simpson_scale\n2418. Nitrogen  \u2014  http:\/\/en.wikipedia.org.\/wiki\/Nitrogen\n2419. 2013 NBA draft  \u2014  http:\/\/en.wikipedia.org.\/wiki\/2013_NBA_draft\n2420. Hirohito  \u2014  http:\/\/en.wikipedia.org.\/wiki\/Hirohito\n2421. Babylon  \u2014  http:\/\/en.wikipedia.org.\/wiki\/Babylon\n2422. List of European Cup and UEFA Champions League finals  \u2014  http:\/\/en.wikipedia.org.\/wiki\/List_of_European_Cup_and_UEFA_Champions_League_finals\n2423. Virginia  \u2014  http:\/\/en.wikipedia.org.\/wiki\/Virginia\n2424. Viggo Mortensen  \u2014  http:\/\/en.wikipedia.org.\/wiki\/Viggo_Mortensen\n2425. Janelle Mon\u00E1e  \u2014  http:\/\/en.wikipedia.org.\/wiki\/Janelle_Mon%C3%A1e\n2426. Spokane, Washington  \u2014  http:\/\/en.wikipedia.org.\/wiki\/Spokane%2C_Washington\n2427. Oliver Cromwell  \u2014  http:\/\/en.wikipedia.org.\/wiki\/Oliver_Cromwell\n2428. Triple H  \u2014  http:\/\/en.wikipedia.org.\/wiki\/Triple_H\n2429. Sacha Baron Cohen  \u2014  http:\/\/en.wikipedia.org.\/wiki\/Sacha_Baron_Cohen\n2430. Ralph Fiennes  \u2014  http:\/\/en.wikipedia.org.\/wiki\/Ralph_Fiennes\n2431. Jaguar  \u2014  http:\/\/en.wikipedia.org.\/wiki\/Jaguar\n2432. Volcano  \u2014  http:\/\/en.wikipedia.org.\/wiki\/Volcano\n2433. Marion Cotillard  \u2014  http:\/\/en.wikipedia.org.\/wiki\/Marion_Cotillard\n2434. Whiplash (2014 film)  \u2014  http:\/\/en.wikipedia.org.\/wiki\/Whiplash_(2014_film)\n2435. True Detective  \u2014  http:\/\/en.wikipedia.org.\/wiki\/True_Detective\n2436. List of films based on DC Comics  \u2014  http:\/\/en.wikipedia.org.\/wiki\/List_of_films_based_on_DC_Comics\n2437. Istanbul  \u2014  http:\/\/en.wikipedia.org.\/wiki\/Istanbul\n2438. Sicario (2015 film)  \u2014  http:\/\/en.wikipedia.org.\/wiki\/Sicario_(2015_film)\n2439. Daenerys Targaryen  \u2014  http:\/\/en.wikipedia.org.\/wiki\/Daenerys_Targaryen\n2440. Jane Austen  \u2014  http:\/\/en.wikipedia.org.\/wiki\/Jane_Austen\n2441. Russian Revolution  \u2014  http:\/\/en.wikipedia.org.\/wiki\/Russian_Revolution\n2442. Pascal (unit)  \u2014  http:\/\/en.wikipedia.org.\/wiki\/Pascal_(unit)\n2443. Transgender  \u2014  http:\/\/en.wikipedia.org.\/wiki\/Transgender\n2444. Sing (2016 American film)  \u2014  http:\/\/en.wikipedia.org.\/wiki\/Sing_(2016_American_film)\n2445. Kate Hudson  \u2014  http:\/\/en.wikipedia.org.\/wiki\/Kate_Hudson\n2446. Jean-Claude Van Damme  \u2014  http:\/\/en.wikipedia.org.\/wiki\/Jean-Claude_Van_Damme\n2447. The Last of Us  \u2014  http:\/\/en.wikipedia.org.\/wiki\/The_Last_of_Us\n2448. Mayim Bialik  \u2014  http:\/\/en.wikipedia.org.\/wiki\/Mayim_Bialik\n2449. Exponential distribution  \u2014  http:\/\/en.wikipedia.org.\/wiki\/Exponential_distribution\n2450. Emily Ratajkowski  \u2014  http:\/\/en.wikipedia.org.\/wiki\/Emily_Ratajkowski\n2451. Shape of You  \u2014  http:\/\/en.wikipedia.org.\/wiki\/Shape_of_You\n2452. Last Man Standing (U.S. TV series)  \u2014  http:\/\/en.wikipedia.org.\/wiki\/Last_Man_Standing_(U.S._TV_series)\n2453. Affiliate marketing  \u2014  http:\/\/en.wikipedia.org.\/wiki\/Affiliate_marketing\n2454. Vulva  \u2014  http:\/\/en.wikipedia.org.\/wiki\/Vulva\n2455. Diana Ross  \u2014  http:\/\/en.wikipedia.org.\/wiki\/Diana_Ross\n2456. To Kill a Mockingbird  \u2014  http:\/\/en.wikipedia.org.\/wiki\/To_Kill_a_Mockingbird\n2457. Dissociative identity disorder  \u2014  http:\/\/en.wikipedia.org.\/wiki\/Dissociative_identity_disorder\n2458. IPad  \u2014  http:\/\/en.wikipedia.org.\/wiki\/IPad\n2459. Pel\u00E9  \u2014  http:\/\/en.wikipedia.org.\/wiki\/Pel%C3%A9\n2460. John Paul Getty III  \u2014  http:\/\/en.wikipedia.org.\/wiki\/John_Paul_Getty_III\n2461. Deep Purple  \u2014  http:\/\/en.wikipedia.org.\/wiki\/Deep_Purple\n2462. Nicole Brown Simpson  \u2014  http:\/\/en.wikipedia.org.\/wiki\/Nicole_Brown_Simpson\n2463. Nero  \u2014  http:\/\/en.wikipedia.org.\/wiki\/Nero\n2464. 2017 in South Korean music  \u2014  http:\/\/en.wikipedia.org.\/wiki\/2017_in_South_Korean_music\n2465. Prime number  \u2014  http:\/\/en.wikipedia.org.\/wiki\/Prime_number\n2466. Ronaldinho  \u2014  http:\/\/en.wikipedia.org.\/wiki\/Ronaldinho\n2467. Wars of the Roses  \u2014  http:\/\/en.wikipedia.org.\/wiki\/Wars_of_the_Roses\n2468. Nintendo  \u2014  http:\/\/en.wikipedia.org.\/wiki\/Nintendo\n2469. Emmy Rossum  \u2014  http:\/\/en.wikipedia.org.\/wiki\/Emmy_Rossum\n2470. Myocardial infarction  \u2014  http:\/\/en.wikipedia.org.\/wiki\/Myocardial_infarction\n2471. Scott Eastwood  \u2014  http:\/\/en.wikipedia.org.\/wiki\/Scott_Eastwood\n2472. Erin Moran  \u2014  http:\/\/en.wikipedia.org.\/wiki\/Erin_Moran\n2473. Chhatrapati Shivaji International Airport  \u2014  http:\/\/en.wikipedia.org.\/wiki\/Chhatrapati_Shivaji_International_Airport\n2474. Taika Waititi  \u2014  http:\/\/en.wikipedia.org.\/wiki\/Taika_Waititi\n2475. MacBook Pro  \u2014  http:\/\/en.wikipedia.org.\/wiki\/MacBook_Pro\n2476. Munich  \u2014  http:\/\/en.wikipedia.org.\/wiki\/Munich\n2477. United States Air Force  \u2014  http:\/\/en.wikipedia.org.\/wiki\/United_States_Air_Force\n2478. Algorithm  \u2014  http:\/\/en.wikipedia.org.\/wiki\/Algorithm\n2479. Liberia  \u2014  http:\/\/en.wikipedia.org.\/wiki\/Liberia\n2480. List of Pirates of the Caribbean characters  \u2014  http:\/\/en.wikipedia.org.\/wiki\/List_of_Pirates_of_the_Caribbean_characters\n2481. Brave New World  \u2014  http:\/\/en.wikipedia.org.\/wiki\/Brave_New_World\n2482. List of Top Gear episodes  \u2014  http:\/\/en.wikipedia.org.\/wiki\/List_of_Top_Gear_episodes\n2483. Airbnb  \u2014  http:\/\/en.wikipedia.org.\/wiki\/Airbnb\n2484. Megyn Kelly  \u2014  http:\/\/en.wikipedia.org.\/wiki\/Megyn_Kelly\n2485. Smartphone  \u2014  http:\/\/en.wikipedia.org.\/wiki\/Smartphone\n2486. Central processing unit  \u2014  http:\/\/en.wikipedia.org.\/wiki\/Central_processing_unit\n2487. Young's modulus  \u2014  http:\/\/en.wikipedia.org.\/wiki\/Young's_modulus\n2488. Indira Gandhi  \u2014  http:\/\/en.wikipedia.org.\/wiki\/Indira_Gandhi\n2489. Vanessa Hudgens  \u2014  http:\/\/en.wikipedia.org.\/wiki\/Vanessa_Hudgens\n2490. Bill Cosby  \u2014  http:\/\/en.wikipedia.org.\/wiki\/Bill_Cosby\n2491. Weightlifting Fairy Kim Bok-joo  \u2014  http:\/\/en.wikipedia.org.\/wiki\/Weightlifting_Fairy_Kim_Bok-joo\n2492. UFC 212  \u2014  http:\/\/en.wikipedia.org.\/wiki\/UFC_212\n2493. Airbus A320 family  \u2014  http:\/\/en.wikipedia.org.\/wiki\/Airbus_A320_family\n2494. Mobile phone  \u2014  http:\/\/en.wikipedia.org.\/wiki\/Mobile_phone\n2495. System of a Down  \u2014  http:\/\/en.wikipedia.org.\/wiki\/System_of_a_Down\n2496. Time zone  \u2014  http:\/\/en.wikipedia.org.\/wiki\/Time_zone\n2497. IP Code  \u2014  http:\/\/en.wikipedia.org.\/wiki\/IP_Code\n2498. Venice  \u2014  http:\/\/en.wikipedia.org.\/wiki\/Venice\n2499. Neil Patrick Harris  \u2014  http:\/\/en.wikipedia.org.\/wiki\/Neil_Patrick_Harris\n","miniList":"2400. P-value\n2401. Drew Barrymore\n2402. Nikita Khrushchev\n2403. 2017 FIFA U-17 World Cup\n2404. Crohn's disease\n2405. House (TV series)\n2406. Wright brothers\n2407. Javier Bardem\n2408. Jennifer Garner\n2409. Antony Armstrong-Jones, 1st Earl of Snowdon\n2410. Jennifer Connelly\n2411. Microsoft Visual Studio\n2412. Pocahontas\n2413. Stephen Miller (political advisor)\n2414. Gone Girl (film)\n2415. Bangalore\n2416. Georgina Chapman\n2417. Saffir\u2013Simpson scale\n2418. Nitrogen\n2419. 2013 NBA draft\n2420. Hirohito\n2421. Babylon\n2422. List of European Cup and UEFA Champions League finals\n2423. Virginia\n2424. Viggo Mortensen\n2425. Janelle Mon\u00E1e\n2426. Spokane, Washington\n2427. Oliver Cromwell\n2428. Triple H\n2429. Sacha Baron Cohen\n2430. Ralph Fiennes\n2431. Jaguar\n2432. Volcano\n2433. Marion Cotillard\n2434. Whiplash (2014 film)\n2435. True Detective\n2436. List of films based on DC Comics\n2437. Istanbul\n2438. Sicario (2015 film)\n2439. Daenerys Targaryen\n2440. Jane Austen\n2441. Russian Revolution\n2442. Pascal (unit)\n2443. Transgender\n2444. Sing (2016 American film)\n2445. Kate Hudson\n2446. Jean-Claude Van Damme\n2447. The Last of Us\n2448. Mayim Bialik\n2449. Exponential distribution\n2450. Emily Ratajkowski\n2451. Shape of You\n2452. Last Man Standing (U.S. TV series)\n2453. Affiliate marketing\n2454. Vulva\n2455. Diana Ross\n2456. To Kill a Mockingbird\n2457. Dissociative identity disorder\n2458. IPad\n2459. Pel\u00E9\n2460. John Paul Getty III\n2461. Deep Purple\n2462. Nicole Brown Simpson\n2463. Nero\n2464. 2017 in South Korean music\n2465. Prime number\n2466. Ronaldinho\n2467. Wars of the Roses\n2468. Nintendo\n2469. Emmy Rossum\n2470. Myocardial infarction\n2471. Scott Eastwood\n2472. Erin Moran\n2473. Chhatrapati Shivaji International Airport\n2474. Taika Waititi\n2475. MacBook Pro\n2476. Munich\n2477. United States Air Force\n2478. Algorithm\n2479. Liberia\n2480. List of Pirates of the Caribbean characters\n2481. Brave New World\n2482. List of Top Gear episodes\n2483. Airbnb\n2484. Megyn Kelly\n2485. Smartphone\n2486. Central processing unit\n2487. Young's modulus\n2488. Indira Gandhi\n2489. Vanessa Hudgens\n2490. Bill Cosby\n2491. Weightlifting Fairy Kim Bok-joo\n2492. UFC 212\n2493. Airbus A320 family\n2494. Mobile phone\n2495. System of a Down\n2496. Time zone\n2497. IP Code\n2498. Venice\n2499. Neil Patrick Harris\n"}
