{"start":2501,"end":2600,"count":5616717,"type":"pageviews","pageSize":100,"page":25,"pages":56168,"columns":[{"label":"","property":"pageviews","sortable":false}],"items":[{"pageviews":"2500. <a target=\"_blank\" href=\"http://en.wikipedia.org./wiki/Frank_Zappa\">Frank Zappa</a>"},{"pageviews":"2501. <a target=\"_blank\" href=\"http://en.wikipedia.org./wiki/Physics\">Physics</a>"},{"pageviews":"2502. <a target=\"_blank\" href=\"http://en.wikipedia.org./wiki/Wing_Chun\">Wing Chun</a>"},{"pageviews":"2503. <a target=\"_blank\" href=\"http://en.wikipedia.org./wiki/Bowling_Green_massacre\">Bowling Green massacre</a>"},{"pageviews":"2504. <a target=\"_blank\" href=\"http://en.wikipedia.org./wiki/Copyright\">Copyright</a>"},{"pageviews":"2505. <a target=\"_blank\" href=\"http://en.wikipedia.org./wiki/Air_pollution\">Air pollution</a>"},{"pageviews":"2506. <a target=\"_blank\" href=\"http://en.wikipedia.org./wiki/Janet_Jackson\">Janet Jackson</a>"},{"pageviews":"2507. <a target=\"_blank\" href=\"http://en.wikipedia.org./wiki/Patrick_Swayze\">Patrick Swayze</a>"},{"pageviews":"2508. <a target=\"_blank\" href=\"http://en.wikipedia.org./wiki/General_Electric\">General Electric</a>"},{"pageviews":"2509. <a target=\"_blank\" href=\"http://en.wikipedia.org./wiki/Aliens_(film)\">Aliens (film)</a>"},{"pageviews":"2510. <a target=\"_blank\" href=\"http://en.wikipedia.org./wiki/Oath_Inc.\">Oath Inc.</a>"},{"pageviews":"2511. <a target=\"_blank\" href=\"http://en.wikipedia.org./wiki/List_of_Once_Upon_a_Time_episodes\">List of Once Upon a Time episodes</a>"},{"pageviews":"2512. <a target=\"_blank\" href=\"http://en.wikipedia.org./wiki/H._R._McMaster\">H. R. McMaster</a>"},{"pageviews":"2513. <a target=\"_blank\" href=\"http://en.wikipedia.org./wiki/Eddie_Redmayne\">Eddie Redmayne</a>"},{"pageviews":"2514. <a target=\"_blank\" href=\"http://en.wikipedia.org./wiki/Scooby-Doo\">Scooby-Doo</a>"},{"pageviews":"2515. <a target=\"_blank\" href=\"http://en.wikipedia.org./wiki/Melbourne\">Melbourne</a>"},{"pageviews":"2516. <a target=\"_blank\" href=\"http://en.wikipedia.org./wiki/Travelers_(TV_series)\">Travelers (TV series)</a>"},{"pageviews":"2517. <a target=\"_blank\" href=\"http://en.wikipedia.org./wiki/United_States_Armed_Forces\">United States Armed Forces</a>"},{"pageviews":"2518. <a target=\"_blank\" href=\"http://en.wikipedia.org./wiki/Inglourious_Basterds\">Inglourious Basterds</a>"},{"pageviews":"2519. <a target=\"_blank\" href=\"http://en.wikipedia.org./wiki/Formula_One\">Formula One</a>"},{"pageviews":"2520. <a target=\"_blank\" href=\"http://en.wikipedia.org./wiki/Cross_product\">Cross product</a>"},{"pageviews":"2521. <a target=\"_blank\" href=\"http://en.wikipedia.org./wiki/Lil_Pump\">Lil Pump</a>"},{"pageviews":"2522. <a target=\"_blank\" href=\"http://en.wikipedia.org./wiki/The_Twilight_Saga_(film_series)\">The Twilight Saga (film series)</a>"},{"pageviews":"2523. <a target=\"_blank\" href=\"http://en.wikipedia.org./wiki/Same-sex_marriage\">Same-sex marriage</a>"},{"pageviews":"2524. <a target=\"_blank\" href=\"http://en.wikipedia.org./wiki/The_Silence_of_the_Lambs_(film)\">The Silence of the Lambs (film)</a>"},{"pageviews":"2525. <a target=\"_blank\" href=\"http://en.wikipedia.org./wiki/Animal_Farm\">Animal Farm</a>"},{"pageviews":"2526. <a target=\"_blank\" href=\"http://en.wikipedia.org./wiki/Mar-a-Lago\">Mar-a-Lago</a>"},{"pageviews":"2527. <a target=\"_blank\" href=\"http://en.wikipedia.org./wiki/Captain_Comet\">Captain Comet</a>"},{"pageviews":"2528. <a target=\"_blank\" href=\"http://en.wikipedia.org./wiki/Abu_Bakr_al-Baghdadi\">Abu Bakr al-Baghdadi</a>"},{"pageviews":"2529. <a target=\"_blank\" href=\"http://en.wikipedia.org./wiki/Open-source_software\">Open-source software</a>"},{"pageviews":"2530. <a target=\"_blank\" href=\"http://en.wikipedia.org./wiki/Steve_Wozniak\">Steve Wozniak</a>"},{"pageviews":"2531. <a target=\"_blank\" href=\"http://en.wikipedia.org./wiki/Jos%C3%A9_Mourinho\">José Mourinho</a>"},{"pageviews":"2532. <a target=\"_blank\" href=\"http://en.wikipedia.org./wiki/Paper_size\">Paper size</a>"},{"pageviews":"2533. <a target=\"_blank\" href=\"http://en.wikipedia.org./wiki/Scientific_method\">Scientific method</a>"},{"pageviews":"2534. <a target=\"_blank\" href=\"http://en.wikipedia.org./wiki/Freddie_Highmore\">Freddie Highmore</a>"},{"pageviews":"2535. <a target=\"_blank\" href=\"http://en.wikipedia.org./wiki/One_More_Light\">One More Light</a>"},{"pageviews":"2536. <a target=\"_blank\" href=\"http://en.wikipedia.org./wiki/Budapest\">Budapest</a>"},{"pageviews":"2537. <a target=\"_blank\" href=\"http://en.wikipedia.org./wiki/Tilda_Swinton\">Tilda Swinton</a>"},{"pageviews":"2538. <a target=\"_blank\" href=\"http://en.wikipedia.org./wiki/2015_NBA_draft\">2015 NBA draft</a>"},{"pageviews":"2539. <a target=\"_blank\" href=\"http://en.wikipedia.org./wiki/Doctor_Strange\">Doctor Strange</a>"},{"pageviews":"2540. <a target=\"_blank\" href=\"http://en.wikipedia.org./wiki/Major_League_Soccer\">Major League Soccer</a>"},{"pageviews":"2541. <a target=\"_blank\" href=\"http://en.wikipedia.org./wiki/Cuphead\">Cuphead</a>"},{"pageviews":"2542. <a target=\"_blank\" href=\"http://en.wikipedia.org./wiki/George_Lucas\">George Lucas</a>"},{"pageviews":"2543. <a target=\"_blank\" href=\"http://en.wikipedia.org./wiki/Morse_code\">Morse code</a>"},{"pageviews":"2544. <a target=\"_blank\" href=\"http://en.wikipedia.org./wiki/Tomahawk_(missile)\">Tomahawk (missile)</a>"},{"pageviews":"2545. <a target=\"_blank\" href=\"http://en.wikipedia.org./wiki/The_Dark_Knight_Rises\">The Dark Knight Rises</a>"},{"pageviews":"2546. <a target=\"_blank\" href=\"http://en.wikipedia.org./wiki/Geostorm\">Geostorm</a>"},{"pageviews":"2547. <a target=\"_blank\" href=\"http://en.wikipedia.org./wiki/Gifted_(film)\">Gifted (film)</a>"},{"pageviews":"2548. <a target=\"_blank\" href=\"http://en.wikipedia.org./wiki/Elimination_Chamber_(2017)\">Elimination Chamber (2017)</a>"},{"pageviews":"2549. <a target=\"_blank\" href=\"http://en.wikipedia.org./wiki/Megan_Fox\">Megan Fox</a>"},{"pageviews":"2550. <a target=\"_blank\" href=\"http://en.wikipedia.org./wiki/Aishwarya_Rai\">Aishwarya Rai</a>"},{"pageviews":"2551. <a target=\"_blank\" href=\"http://en.wikipedia.org./wiki/University_of_Oxford\">University of Oxford</a>"},{"pageviews":"2552. <a target=\"_blank\" href=\"http://en.wikipedia.org./wiki/BBC\">BBC</a>"},{"pageviews":"2553. <a target=\"_blank\" href=\"http://en.wikipedia.org./wiki/RuPaul's_Drag_Race_(season_9)\">RuPaul's Drag Race (season 9)</a>"},{"pageviews":"2554. <a target=\"_blank\" href=\"http://en.wikipedia.org./wiki/Dan_Bilzerian\">Dan Bilzerian</a>"},{"pageviews":"2555. <a target=\"_blank\" href=\"http://en.wikipedia.org./wiki/2016%E2%80%9317_La_Liga\">2016–17 La Liga</a>"},{"pageviews":"2556. <a target=\"_blank\" href=\"http://en.wikipedia.org./wiki/2016%E2%80%9317_UEFA_Europa_League\">2016–17 UEFA Europa League</a>"},{"pageviews":"2557. <a target=\"_blank\" href=\"http://en.wikipedia.org./wiki/Jehovah's_Witnesses\">Jehovah's Witnesses</a>"},{"pageviews":"2558. <a target=\"_blank\" href=\"http://en.wikipedia.org./wiki/Michael_J._Fox\">Michael J. Fox</a>"},{"pageviews":"2559. <a target=\"_blank\" href=\"http://en.wikipedia.org./wiki/Guy_Fawkes\">Guy Fawkes</a>"},{"pageviews":"2560. <a target=\"_blank\" href=\"http://en.wikipedia.org./wiki/Ric_Flair\">Ric Flair</a>"},{"pageviews":"2561. <a target=\"_blank\" href=\"http://en.wikipedia.org./wiki/Andy_Serkis\">Andy Serkis</a>"},{"pageviews":"2562. <a target=\"_blank\" href=\"http://en.wikipedia.org./wiki/Eritrea\">Eritrea</a>"},{"pageviews":"2563. <a target=\"_blank\" href=\"http://en.wikipedia.org./wiki/WordPress\">WordPress</a>"},{"pageviews":"2564. <a target=\"_blank\" href=\"http://en.wikipedia.org./wiki/The_Blacklist_(season_4)\">The Blacklist (season 4)</a>"},{"pageviews":"2565. <a target=\"_blank\" href=\"http://en.wikipedia.org./wiki/Intelligence_quotient\">Intelligence quotient</a>"},{"pageviews":"2566. <a target=\"_blank\" href=\"http://en.wikipedia.org./wiki/Hamlet\">Hamlet</a>"},{"pageviews":"2567. <a target=\"_blank\" href=\"http://en.wikipedia.org./wiki/Henry_Kissinger\">Henry Kissinger</a>"},{"pageviews":"2568. <a target=\"_blank\" href=\"http://en.wikipedia.org./wiki/Victor_Hugo\">Victor Hugo</a>"},{"pageviews":"2569. <a target=\"_blank\" href=\"http://en.wikipedia.org./wiki/Avenged_Sevenfold\">Avenged Sevenfold</a>"},{"pageviews":"2570. <a target=\"_blank\" href=\"http://en.wikipedia.org./wiki/Evan_Spiegel\">Evan Spiegel</a>"},{"pageviews":"2571. <a target=\"_blank\" href=\"http://en.wikipedia.org./wiki/Tool_(band)\">Tool (band)</a>"},{"pageviews":"2572. <a target=\"_blank\" href=\"http://en.wikipedia.org./wiki/Blink-182\">Blink-182</a>"},{"pageviews":"2573. <a target=\"_blank\" href=\"http://en.wikipedia.org./wiki/List_of_serial_killers_by_number_of_victims\">List of serial killers by number of victims</a>"},{"pageviews":"2574. <a target=\"_blank\" href=\"http://en.wikipedia.org./wiki/Gilmore_Girls\">Gilmore Girls</a>"},{"pageviews":"2575. <a target=\"_blank\" href=\"http://en.wikipedia.org./wiki/Roald_Dahl\">Roald Dahl</a>"},{"pageviews":"2576. <a target=\"_blank\" href=\"http://en.wikipedia.org./wiki/Liberalism\">Liberalism</a>"},{"pageviews":"2577. <a target=\"_blank\" href=\"http://en.wikipedia.org./wiki/The_X-Files\">The X-Files</a>"},{"pageviews":"2578. <a target=\"_blank\" href=\"http://en.wikipedia.org./wiki/Hela_(comics)\">Hela (comics)</a>"},{"pageviews":"2579. <a target=\"_blank\" href=\"http://en.wikipedia.org./wiki/Deep_web\">Deep web</a>"},{"pageviews":"2580. <a target=\"_blank\" href=\"http://en.wikipedia.org./wiki/Halle_Berry\">Halle Berry</a>"},{"pageviews":"2581. <a target=\"_blank\" href=\"http://en.wikipedia.org./wiki/Family_of_Barack_Obama\">Family of Barack Obama</a>"},{"pageviews":"2582. <a target=\"_blank\" href=\"http://en.wikipedia.org./wiki/Courteney_Cox\">Courteney Cox</a>"},{"pageviews":"2583. <a target=\"_blank\" href=\"http://en.wikipedia.org./wiki/Atmosphere_of_Earth\">Atmosphere of Earth</a>"},{"pageviews":"2584. <a target=\"_blank\" href=\"http://en.wikipedia.org./wiki/Pansexuality\">Pansexuality</a>"},{"pageviews":"2585. <a target=\"_blank\" href=\"http://en.wikipedia.org./wiki/Standard_error\">Standard error</a>"},{"pageviews":"2586. <a target=\"_blank\" href=\"http://en.wikipedia.org./wiki/M1_Abrams\">M1 Abrams</a>"},{"pageviews":"2587. <a target=\"_blank\" href=\"http://en.wikipedia.org./wiki/RuPaul's_Drag_Race\">RuPaul's Drag Race</a>"},{"pageviews":"2588. <a target=\"_blank\" href=\"http://en.wikipedia.org./wiki/Manchester\">Manchester</a>"},{"pageviews":"2589. <a target=\"_blank\" href=\"http://en.wikipedia.org./wiki/Names_of_large_numbers\">Names of large numbers</a>"},{"pageviews":"2590. <a target=\"_blank\" href=\"http://en.wikipedia.org./wiki/Nihilism\">Nihilism</a>"},{"pageviews":"2591. <a target=\"_blank\" href=\"http://en.wikipedia.org./wiki/Treaty_of_Versailles\">Treaty of Versailles</a>"},{"pageviews":"2592. <a target=\"_blank\" href=\"http://en.wikipedia.org./wiki/Advanced_Encryption_Standard\">Advanced Encryption Standard</a>"},{"pageviews":"2593. <a target=\"_blank\" href=\"http://en.wikipedia.org./wiki/Eazy-E\">Eazy-E</a>"},{"pageviews":"2594. <a target=\"_blank\" href=\"http://en.wikipedia.org./wiki/Pixar\">Pixar</a>"},{"pageviews":"2595. <a target=\"_blank\" href=\"http://en.wikipedia.org./wiki/British_undergraduate_degree_classification\">British undergraduate degree classification</a>"},{"pageviews":"2596. <a target=\"_blank\" href=\"http://en.wikipedia.org./wiki/List_of_countries_by_intentional_homicide_rate\">List of countries by intentional homicide rate</a>"},{"pageviews":"2597. <a target=\"_blank\" href=\"http://en.wikipedia.org./wiki/Survivor_(U.S._TV_series)\">Survivor (U.S. TV series)</a>"},{"pageviews":"2598. <a target=\"_blank\" href=\"http://en.wikipedia.org./wiki/Asd_RNA_motif\">Asd RNA motif</a>"},{"pageviews":"2599. <a target=\"_blank\" href=\"http://en.wikipedia.org./wiki/Nazi_Party\">Nazi Party</a>"}],"list":"2500. Frank Zappa  \u2014  http:\/\/en.wikipedia.org.\/wiki\/Frank_Zappa\n2501. Physics  \u2014  http:\/\/en.wikipedia.org.\/wiki\/Physics\n2502. Wing Chun  \u2014  http:\/\/en.wikipedia.org.\/wiki\/Wing_Chun\n2503. Bowling Green massacre  \u2014  http:\/\/en.wikipedia.org.\/wiki\/Bowling_Green_massacre\n2504. Copyright  \u2014  http:\/\/en.wikipedia.org.\/wiki\/Copyright\n2505. Air pollution  \u2014  http:\/\/en.wikipedia.org.\/wiki\/Air_pollution\n2506. Janet Jackson  \u2014  http:\/\/en.wikipedia.org.\/wiki\/Janet_Jackson\n2507. Patrick Swayze  \u2014  http:\/\/en.wikipedia.org.\/wiki\/Patrick_Swayze\n2508. General Electric  \u2014  http:\/\/en.wikipedia.org.\/wiki\/General_Electric\n2509. Aliens (film)  \u2014  http:\/\/en.wikipedia.org.\/wiki\/Aliens_(film)\n2510. Oath Inc.  \u2014  http:\/\/en.wikipedia.org.\/wiki\/Oath_Inc.\n2511. List of Once Upon a Time episodes  \u2014  http:\/\/en.wikipedia.org.\/wiki\/List_of_Once_Upon_a_Time_episodes\n2512. H. R. McMaster  \u2014  http:\/\/en.wikipedia.org.\/wiki\/H._R._McMaster\n2513. Eddie Redmayne  \u2014  http:\/\/en.wikipedia.org.\/wiki\/Eddie_Redmayne\n2514. Scooby-Doo  \u2014  http:\/\/en.wikipedia.org.\/wiki\/Scooby-Doo\n2515. Melbourne  \u2014  http:\/\/en.wikipedia.org.\/wiki\/Melbourne\n2516. Travelers (TV series)  \u2014  http:\/\/en.wikipedia.org.\/wiki\/Travelers_(TV_series)\n2517. United States Armed Forces  \u2014  http:\/\/en.wikipedia.org.\/wiki\/United_States_Armed_Forces\n2518. Inglourious Basterds  \u2014  http:\/\/en.wikipedia.org.\/wiki\/Inglourious_Basterds\n2519. Formula One  \u2014  http:\/\/en.wikipedia.org.\/wiki\/Formula_One\n2520. Cross product  \u2014  http:\/\/en.wikipedia.org.\/wiki\/Cross_product\n2521. Lil Pump  \u2014  http:\/\/en.wikipedia.org.\/wiki\/Lil_Pump\n2522. The Twilight Saga (film series)  \u2014  http:\/\/en.wikipedia.org.\/wiki\/The_Twilight_Saga_(film_series)\n2523. Same-sex marriage  \u2014  http:\/\/en.wikipedia.org.\/wiki\/Same-sex_marriage\n2524. The Silence of the Lambs (film)  \u2014  http:\/\/en.wikipedia.org.\/wiki\/The_Silence_of_the_Lambs_(film)\n2525. Animal Farm  \u2014  http:\/\/en.wikipedia.org.\/wiki\/Animal_Farm\n2526. Mar-a-Lago  \u2014  http:\/\/en.wikipedia.org.\/wiki\/Mar-a-Lago\n2527. Captain Comet  \u2014  http:\/\/en.wikipedia.org.\/wiki\/Captain_Comet\n2528. Abu Bakr al-Baghdadi  \u2014  http:\/\/en.wikipedia.org.\/wiki\/Abu_Bakr_al-Baghdadi\n2529. Open-source software  \u2014  http:\/\/en.wikipedia.org.\/wiki\/Open-source_software\n2530. Steve Wozniak  \u2014  http:\/\/en.wikipedia.org.\/wiki\/Steve_Wozniak\n2531. Jos\u00E9 Mourinho  \u2014  http:\/\/en.wikipedia.org.\/wiki\/Jos%C3%A9_Mourinho\n2532. Paper size  \u2014  http:\/\/en.wikipedia.org.\/wiki\/Paper_size\n2533. Scientific method  \u2014  http:\/\/en.wikipedia.org.\/wiki\/Scientific_method\n2534. Freddie Highmore  \u2014  http:\/\/en.wikipedia.org.\/wiki\/Freddie_Highmore\n2535. One More Light  \u2014  http:\/\/en.wikipedia.org.\/wiki\/One_More_Light\n2536. Budapest  \u2014  http:\/\/en.wikipedia.org.\/wiki\/Budapest\n2537. Tilda Swinton  \u2014  http:\/\/en.wikipedia.org.\/wiki\/Tilda_Swinton\n2538. 2015 NBA draft  \u2014  http:\/\/en.wikipedia.org.\/wiki\/2015_NBA_draft\n2539. Doctor Strange  \u2014  http:\/\/en.wikipedia.org.\/wiki\/Doctor_Strange\n2540. Major League Soccer  \u2014  http:\/\/en.wikipedia.org.\/wiki\/Major_League_Soccer\n2541. Cuphead  \u2014  http:\/\/en.wikipedia.org.\/wiki\/Cuphead\n2542. George Lucas  \u2014  http:\/\/en.wikipedia.org.\/wiki\/George_Lucas\n2543. Morse code  \u2014  http:\/\/en.wikipedia.org.\/wiki\/Morse_code\n2544. Tomahawk (missile)  \u2014  http:\/\/en.wikipedia.org.\/wiki\/Tomahawk_(missile)\n2545. The Dark Knight Rises  \u2014  http:\/\/en.wikipedia.org.\/wiki\/The_Dark_Knight_Rises\n2546. Geostorm  \u2014  http:\/\/en.wikipedia.org.\/wiki\/Geostorm\n2547. Gifted (film)  \u2014  http:\/\/en.wikipedia.org.\/wiki\/Gifted_(film)\n2548. Elimination Chamber (2017)  \u2014  http:\/\/en.wikipedia.org.\/wiki\/Elimination_Chamber_(2017)\n2549. Megan Fox  \u2014  http:\/\/en.wikipedia.org.\/wiki\/Megan_Fox\n2550. Aishwarya Rai  \u2014  http:\/\/en.wikipedia.org.\/wiki\/Aishwarya_Rai\n2551. University of Oxford  \u2014  http:\/\/en.wikipedia.org.\/wiki\/University_of_Oxford\n2552. BBC  \u2014  http:\/\/en.wikipedia.org.\/wiki\/BBC\n2553. RuPaul's Drag Race (season 9)  \u2014  http:\/\/en.wikipedia.org.\/wiki\/RuPaul's_Drag_Race_(season_9)\n2554. Dan Bilzerian  \u2014  http:\/\/en.wikipedia.org.\/wiki\/Dan_Bilzerian\n2555. 2016\u201317 La Liga  \u2014  http:\/\/en.wikipedia.org.\/wiki\/2016%E2%80%9317_La_Liga\n2556. 2016\u201317 UEFA Europa League  \u2014  http:\/\/en.wikipedia.org.\/wiki\/2016%E2%80%9317_UEFA_Europa_League\n2557. Jehovah's Witnesses  \u2014  http:\/\/en.wikipedia.org.\/wiki\/Jehovah's_Witnesses\n2558. Michael J. Fox  \u2014  http:\/\/en.wikipedia.org.\/wiki\/Michael_J._Fox\n2559. Guy Fawkes  \u2014  http:\/\/en.wikipedia.org.\/wiki\/Guy_Fawkes\n2560. Ric Flair  \u2014  http:\/\/en.wikipedia.org.\/wiki\/Ric_Flair\n2561. Andy Serkis  \u2014  http:\/\/en.wikipedia.org.\/wiki\/Andy_Serkis\n2562. Eritrea  \u2014  http:\/\/en.wikipedia.org.\/wiki\/Eritrea\n2563. WordPress  \u2014  http:\/\/en.wikipedia.org.\/wiki\/WordPress\n2564. The Blacklist (season 4)  \u2014  http:\/\/en.wikipedia.org.\/wiki\/The_Blacklist_(season_4)\n2565. Intelligence quotient  \u2014  http:\/\/en.wikipedia.org.\/wiki\/Intelligence_quotient\n2566. Hamlet  \u2014  http:\/\/en.wikipedia.org.\/wiki\/Hamlet\n2567. Henry Kissinger  \u2014  http:\/\/en.wikipedia.org.\/wiki\/Henry_Kissinger\n2568. Victor Hugo  \u2014  http:\/\/en.wikipedia.org.\/wiki\/Victor_Hugo\n2569. Avenged Sevenfold  \u2014  http:\/\/en.wikipedia.org.\/wiki\/Avenged_Sevenfold\n2570. Evan Spiegel  \u2014  http:\/\/en.wikipedia.org.\/wiki\/Evan_Spiegel\n2571. Tool (band)  \u2014  http:\/\/en.wikipedia.org.\/wiki\/Tool_(band)\n2572. Blink-182  \u2014  http:\/\/en.wikipedia.org.\/wiki\/Blink-182\n2573. List of serial killers by number of victims  \u2014  http:\/\/en.wikipedia.org.\/wiki\/List_of_serial_killers_by_number_of_victims\n2574. Gilmore Girls  \u2014  http:\/\/en.wikipedia.org.\/wiki\/Gilmore_Girls\n2575. Roald Dahl  \u2014  http:\/\/en.wikipedia.org.\/wiki\/Roald_Dahl\n2576. Liberalism  \u2014  http:\/\/en.wikipedia.org.\/wiki\/Liberalism\n2577. The X-Files  \u2014  http:\/\/en.wikipedia.org.\/wiki\/The_X-Files\n2578. Hela (comics)  \u2014  http:\/\/en.wikipedia.org.\/wiki\/Hela_(comics)\n2579. Deep web  \u2014  http:\/\/en.wikipedia.org.\/wiki\/Deep_web\n2580. Halle Berry  \u2014  http:\/\/en.wikipedia.org.\/wiki\/Halle_Berry\n2581. Family of Barack Obama  \u2014  http:\/\/en.wikipedia.org.\/wiki\/Family_of_Barack_Obama\n2582. Courteney Cox  \u2014  http:\/\/en.wikipedia.org.\/wiki\/Courteney_Cox\n2583. Atmosphere of Earth  \u2014  http:\/\/en.wikipedia.org.\/wiki\/Atmosphere_of_Earth\n2584. Pansexuality  \u2014  http:\/\/en.wikipedia.org.\/wiki\/Pansexuality\n2585. Standard error  \u2014  http:\/\/en.wikipedia.org.\/wiki\/Standard_error\n2586. M1 Abrams  \u2014  http:\/\/en.wikipedia.org.\/wiki\/M1_Abrams\n2587. RuPaul's Drag Race  \u2014  http:\/\/en.wikipedia.org.\/wiki\/RuPaul's_Drag_Race\n2588. Manchester  \u2014  http:\/\/en.wikipedia.org.\/wiki\/Manchester\n2589. Names of large numbers  \u2014  http:\/\/en.wikipedia.org.\/wiki\/Names_of_large_numbers\n2590. Nihilism  \u2014  http:\/\/en.wikipedia.org.\/wiki\/Nihilism\n2591. Treaty of Versailles  \u2014  http:\/\/en.wikipedia.org.\/wiki\/Treaty_of_Versailles\n2592. Advanced Encryption Standard  \u2014  http:\/\/en.wikipedia.org.\/wiki\/Advanced_Encryption_Standard\n2593. Eazy-E  \u2014  http:\/\/en.wikipedia.org.\/wiki\/Eazy-E\n2594. Pixar  \u2014  http:\/\/en.wikipedia.org.\/wiki\/Pixar\n2595. British undergraduate degree classification  \u2014  http:\/\/en.wikipedia.org.\/wiki\/British_undergraduate_degree_classification\n2596. List of countries by intentional homicide rate  \u2014  http:\/\/en.wikipedia.org.\/wiki\/List_of_countries_by_intentional_homicide_rate\n2597. Survivor (U.S. TV series)  \u2014  http:\/\/en.wikipedia.org.\/wiki\/Survivor_(U.S._TV_series)\n2598. Asd RNA motif  \u2014  http:\/\/en.wikipedia.org.\/wiki\/Asd_RNA_motif\n2599. Nazi Party  \u2014  http:\/\/en.wikipedia.org.\/wiki\/Nazi_Party\n","miniList":"2500. Frank Zappa\n2501. Physics\n2502. Wing Chun\n2503. Bowling Green massacre\n2504. Copyright\n2505. Air pollution\n2506. Janet Jackson\n2507. Patrick Swayze\n2508. General Electric\n2509. Aliens (film)\n2510. Oath Inc.\n2511. List of Once Upon a Time episodes\n2512. H. R. McMaster\n2513. Eddie Redmayne\n2514. Scooby-Doo\n2515. Melbourne\n2516. Travelers (TV series)\n2517. United States Armed Forces\n2518. Inglourious Basterds\n2519. Formula One\n2520. Cross product\n2521. Lil Pump\n2522. The Twilight Saga (film series)\n2523. Same-sex marriage\n2524. The Silence of the Lambs (film)\n2525. Animal Farm\n2526. Mar-a-Lago\n2527. Captain Comet\n2528. Abu Bakr al-Baghdadi\n2529. Open-source software\n2530. Steve Wozniak\n2531. Jos\u00E9 Mourinho\n2532. Paper size\n2533. Scientific method\n2534. Freddie Highmore\n2535. One More Light\n2536. Budapest\n2537. Tilda Swinton\n2538. 2015 NBA draft\n2539. Doctor Strange\n2540. Major League Soccer\n2541. Cuphead\n2542. George Lucas\n2543. Morse code\n2544. Tomahawk (missile)\n2545. The Dark Knight Rises\n2546. Geostorm\n2547. Gifted (film)\n2548. Elimination Chamber (2017)\n2549. Megan Fox\n2550. Aishwarya Rai\n2551. University of Oxford\n2552. BBC\n2553. RuPaul's Drag Race (season 9)\n2554. Dan Bilzerian\n2555. 2016\u201317 La Liga\n2556. 2016\u201317 UEFA Europa League\n2557. Jehovah's Witnesses\n2558. Michael J. Fox\n2559. Guy Fawkes\n2560. Ric Flair\n2561. Andy Serkis\n2562. Eritrea\n2563. WordPress\n2564. The Blacklist (season 4)\n2565. Intelligence quotient\n2566. Hamlet\n2567. Henry Kissinger\n2568. Victor Hugo\n2569. Avenged Sevenfold\n2570. Evan Spiegel\n2571. Tool (band)\n2572. Blink-182\n2573. List of serial killers by number of victims\n2574. Gilmore Girls\n2575. Roald Dahl\n2576. Liberalism\n2577. The X-Files\n2578. Hela (comics)\n2579. Deep web\n2580. Halle Berry\n2581. Family of Barack Obama\n2582. Courteney Cox\n2583. Atmosphere of Earth\n2584. Pansexuality\n2585. Standard error\n2586. M1 Abrams\n2587. RuPaul's Drag Race\n2588. Manchester\n2589. Names of large numbers\n2590. Nihilism\n2591. Treaty of Versailles\n2592. Advanced Encryption Standard\n2593. Eazy-E\n2594. Pixar\n2595. British undergraduate degree classification\n2596. List of countries by intentional homicide rate\n2597. Survivor (U.S. TV series)\n2598. Asd RNA motif\n2599. Nazi Party\n"}
