{"start":2601,"end":2700,"count":5616717,"type":"pageviews","pageSize":100,"page":26,"pages":56168,"columns":[{"label":"","property":"pageviews","sortable":false}],"items":[{"pageviews":"2600. <a target=\"_blank\" href=\"http://en.wikipedia.org./wiki/Alabama\">Alabama</a>"},{"pageviews":"2601. <a target=\"_blank\" href=\"http://en.wikipedia.org./wiki/Potato\">Potato</a>"},{"pageviews":"2602. <a target=\"_blank\" href=\"http://en.wikipedia.org./wiki/Terminal_High_Altitude_Area_Defense\">Terminal High Altitude Area Defense</a>"},{"pageviews":"2603. <a target=\"_blank\" href=\"http://en.wikipedia.org./wiki/Global_Positioning_System\">Global Positioning System</a>"},{"pageviews":"2604. <a target=\"_blank\" href=\"http://en.wikipedia.org./wiki/Software_release_life_cycle\">Software release life cycle</a>"},{"pageviews":"2605. <a target=\"_blank\" href=\"http://en.wikipedia.org./wiki/2014_NBA_draft\">2014 NBA draft</a>"},{"pageviews":"2606. <a target=\"_blank\" href=\"http://en.wikipedia.org./wiki/Destiny_2\">Destiny 2</a>"},{"pageviews":"2607. <a target=\"_blank\" href=\"http://en.wikipedia.org./wiki/Windows_7\">Windows 7</a>"},{"pageviews":"2608. <a target=\"_blank\" href=\"http://en.wikipedia.org./wiki/Richard_and_Maurice_McDonald\">Richard and Maurice McDonald</a>"},{"pageviews":"2609. <a target=\"_blank\" href=\"http://en.wikipedia.org./wiki/UFC_208\">UFC 208</a>"},{"pageviews":"2610. <a target=\"_blank\" href=\"http://en.wikipedia.org./wiki/List_of_Nvidia_graphics_processing_units\">List of Nvidia graphics processing units</a>"},{"pageviews":"2611. <a target=\"_blank\" href=\"http://en.wikipedia.org./wiki/Leicester_City_F.C.\">Leicester City F.C.</a>"},{"pageviews":"2612. <a target=\"_blank\" href=\"http://en.wikipedia.org./wiki/Fourteenth_Amendment_to_the_United_States_Constitution\">Fourteenth Amendment to the United States Constitution</a>"},{"pageviews":"2613. <a target=\"_blank\" href=\"http://en.wikipedia.org./wiki/The_Guardian\">The Guardian</a>"},{"pageviews":"2614. <a target=\"_blank\" href=\"http://en.wikipedia.org./wiki/Ronaldo_(Brazilian_footballer)\">Ronaldo (Brazilian footballer)</a>"},{"pageviews":"2615. <a target=\"_blank\" href=\"http://en.wikipedia.org./wiki/George_IV_of_the_United_Kingdom\">George IV of the United Kingdom</a>"},{"pageviews":"2616. <a target=\"_blank\" href=\"http://en.wikipedia.org./wiki/Longest_word_in_English\">Longest word in English</a>"},{"pageviews":"2617. <a target=\"_blank\" href=\"http://en.wikipedia.org./wiki/Mount_Rushmore\">Mount Rushmore</a>"},{"pageviews":"2618. <a target=\"_blank\" href=\"http://en.wikipedia.org./wiki/Al-Qaeda\">Al-Qaeda</a>"},{"pageviews":"2619. <a target=\"_blank\" href=\"http://en.wikipedia.org./wiki/27_Club\">27 Club</a>"},{"pageviews":"2620. <a target=\"_blank\" href=\"http://en.wikipedia.org./wiki/Elephant\">Elephant</a>"},{"pageviews":"2621. <a target=\"_blank\" href=\"http://en.wikipedia.org./wiki/Lisa_Marie_Presley\">Lisa Marie Presley</a>"},{"pageviews":"2622. <a target=\"_blank\" href=\"http://en.wikipedia.org./wiki/Teresa_Palmer\">Teresa Palmer</a>"},{"pageviews":"2623. <a target=\"_blank\" href=\"http://en.wikipedia.org./wiki/Economics\">Economics</a>"},{"pageviews":"2624. <a target=\"_blank\" href=\"http://en.wikipedia.org./wiki/Tsunami\">Tsunami</a>"},{"pageviews":"2625. <a target=\"_blank\" href=\"http://en.wikipedia.org./wiki/Second_Amendment_to_the_United_States_Constitution\">Second Amendment to the United States Constitution</a>"},{"pageviews":"2626. <a target=\"_blank\" href=\"http://en.wikipedia.org./wiki/The_Hobbit_(film_series)\">The Hobbit (film series)</a>"},{"pageviews":"2627. <a target=\"_blank\" href=\"http://en.wikipedia.org./wiki/Wonder_(film)\">Wonder (film)</a>"},{"pageviews":"2628. <a target=\"_blank\" href=\"http://en.wikipedia.org./wiki/James_Dean\">James Dean</a>"},{"pageviews":"2629. <a target=\"_blank\" href=\"http://en.wikipedia.org./wiki/Blackbeard\">Blackbeard</a>"},{"pageviews":"2630. <a target=\"_blank\" href=\"http://en.wikipedia.org./wiki/Elizabeth_Banks\">Elizabeth Banks</a>"},{"pageviews":"2631. <a target=\"_blank\" href=\"http://en.wikipedia.org./wiki/Journey_(band)\">Journey (band)</a>"},{"pageviews":"2632. <a target=\"_blank\" href=\"http://en.wikipedia.org./wiki/One_World_Trade_Center\">One World Trade Center</a>"},{"pageviews":"2633. <a target=\"_blank\" href=\"http://en.wikipedia.org./wiki/Katherine_Waterston\">Katherine Waterston</a>"},{"pageviews":"2634. <a target=\"_blank\" href=\"http://en.wikipedia.org./wiki/Assassin's_Creed_Origins\">Assassin's Creed Origins</a>"},{"pageviews":"2635. <a target=\"_blank\" href=\"http://en.wikipedia.org./wiki/Nanking_Massacre\">Nanking Massacre</a>"},{"pageviews":"2636. <a target=\"_blank\" href=\"http://en.wikipedia.org./wiki/Denis_Villeneuve\">Denis Villeneuve</a>"},{"pageviews":"2637. <a target=\"_blank\" href=\"http://en.wikipedia.org./wiki/New_Jersey\">New Jersey</a>"},{"pageviews":"2638. <a target=\"_blank\" href=\"http://en.wikipedia.org./wiki/Lithium\">Lithium</a>"},{"pageviews":"2639. <a target=\"_blank\" href=\"http://en.wikipedia.org./wiki/Quran\">Quran</a>"},{"pageviews":"2640. <a target=\"_blank\" href=\"http://en.wikipedia.org./wiki/SAP_SE\">SAP SE</a>"},{"pageviews":"2641. <a target=\"_blank\" href=\"http://en.wikipedia.org./wiki/Caligula\">Caligula</a>"},{"pageviews":"2642. <a target=\"_blank\" href=\"http://en.wikipedia.org./wiki/Capitalism\">Capitalism</a>"},{"pageviews":"2643. <a target=\"_blank\" href=\"http://en.wikipedia.org./wiki/German_language\">German language</a>"},{"pageviews":"2644. <a target=\"_blank\" href=\"http://en.wikipedia.org./wiki/Sword_Art_Online\">Sword Art Online</a>"},{"pageviews":"2645. <a target=\"_blank\" href=\"http://en.wikipedia.org./wiki/Git\">Git</a>"},{"pageviews":"2646. <a target=\"_blank\" href=\"http://en.wikipedia.org./wiki/Gerald_R._Ford-class_aircraft_carrier\">Gerald R. Ford-class aircraft carrier</a>"},{"pageviews":"2647. <a target=\"_blank\" href=\"http://en.wikipedia.org./wiki/12-hour_clock\">12-hour clock</a>"},{"pageviews":"2648. <a target=\"_blank\" href=\"http://en.wikipedia.org./wiki/IOS_version_history\">IOS version history</a>"},{"pageviews":"2649. <a target=\"_blank\" href=\"http://en.wikipedia.org./wiki/Laura_Prepon\">Laura Prepon</a>"},{"pageviews":"2650. <a target=\"_blank\" href=\"http://en.wikipedia.org./wiki/River_Phoenix\">River Phoenix</a>"},{"pageviews":"2651. <a target=\"_blank\" href=\"http://en.wikipedia.org./wiki/Deepwater_Horizon\">Deepwater Horizon</a>"},{"pageviews":"2652. <a target=\"_blank\" href=\"http://en.wikipedia.org./wiki/List_of_fallacies\">List of fallacies</a>"},{"pageviews":"2653. <a target=\"_blank\" href=\"http://en.wikipedia.org./wiki/Tramadol\">Tramadol</a>"},{"pageviews":"2654. <a target=\"_blank\" href=\"http://en.wikipedia.org./wiki/Matthew_Perry\">Matthew Perry</a>"},{"pageviews":"2655. <a target=\"_blank\" href=\"http://en.wikipedia.org./wiki/Clean_Bandit\">Clean Bandit</a>"},{"pageviews":"2656. <a target=\"_blank\" href=\"http://en.wikipedia.org./wiki/Macbeth\">Macbeth</a>"},{"pageviews":"2657. <a target=\"_blank\" href=\"http://en.wikipedia.org./wiki/Ronnie_O'Sullivan\">Ronnie O'Sullivan</a>"},{"pageviews":"2658. <a target=\"_blank\" href=\"http://en.wikipedia.org./wiki/American_Crime_Story\">American Crime Story</a>"},{"pageviews":"2659. <a target=\"_blank\" href=\"http://en.wikipedia.org./wiki/Alan_Rickman\">Alan Rickman</a>"},{"pageviews":"2660. <a target=\"_blank\" href=\"http://en.wikipedia.org./wiki/Carbon_dioxide\">Carbon dioxide</a>"},{"pageviews":"2661. <a target=\"_blank\" href=\"http://en.wikipedia.org./wiki/Panama\">Panama</a>"},{"pageviews":"2662. <a target=\"_blank\" href=\"http://en.wikipedia.org./wiki/XML\">XML</a>"},{"pageviews":"2663. <a target=\"_blank\" href=\"http://en.wikipedia.org./wiki/Christina_Aguilera\">Christina Aguilera</a>"},{"pageviews":"2664. <a target=\"_blank\" href=\"http://en.wikipedia.org./wiki/American_wire_gauge\">American wire gauge</a>"},{"pageviews":"2665. <a target=\"_blank\" href=\"http://en.wikipedia.org./wiki/Harley_Quinn\">Harley Quinn</a>"},{"pageviews":"2666. <a target=\"_blank\" href=\"http://en.wikipedia.org./wiki/Deadpool\">Deadpool</a>"},{"pageviews":"2667. <a target=\"_blank\" href=\"http://en.wikipedia.org./wiki/Sudan\">Sudan</a>"},{"pageviews":"2668. <a target=\"_blank\" href=\"http://en.wikipedia.org./wiki/Spirited_Away\">Spirited Away</a>"},{"pageviews":"2669. <a target=\"_blank\" href=\"http://en.wikipedia.org./wiki/Namibia\">Namibia</a>"},{"pageviews":"2670. <a target=\"_blank\" href=\"http://en.wikipedia.org./wiki/Linguistics\">Linguistics</a>"},{"pageviews":"2671. <a target=\"_blank\" href=\"http://en.wikipedia.org./wiki/List_of_Tor_hidden_services\">List of Tor hidden services</a>"},{"pageviews":"2672. <a target=\"_blank\" href=\"http://en.wikipedia.org./wiki/List_of_Mayday_episodes\">List of Mayday episodes</a>"},{"pageviews":"2673. <a target=\"_blank\" href=\"http://en.wikipedia.org./wiki/Libya\">Libya</a>"},{"pageviews":"2674. <a target=\"_blank\" href=\"http://en.wikipedia.org./wiki/East_Germany\">East Germany</a>"},{"pageviews":"2675. <a target=\"_blank\" href=\"http://en.wikipedia.org./wiki/Coffee_Lake\">Coffee Lake</a>"},{"pageviews":"2676. <a target=\"_blank\" href=\"http://en.wikipedia.org./wiki/Richard_III_of_England\">Richard III of England</a>"},{"pageviews":"2677. <a target=\"_blank\" href=\"http://en.wikipedia.org./wiki/VX_(nerve_agent)\">VX (nerve agent)</a>"},{"pageviews":"2678. <a target=\"_blank\" href=\"http://en.wikipedia.org./wiki/Britt_Robertson\">Britt Robertson</a>"},{"pageviews":"2679. <a target=\"_blank\" href=\"http://en.wikipedia.org./wiki/Dennis_Rodman\">Dennis Rodman</a>"},{"pageviews":"2680. <a target=\"_blank\" href=\"http://en.wikipedia.org./wiki/Emma_Thompson\">Emma Thompson</a>"},{"pageviews":"2681. <a target=\"_blank\" href=\"http://en.wikipedia.org./wiki/Zooey_Deschanel\">Zooey Deschanel</a>"},{"pageviews":"2682. <a target=\"_blank\" href=\"http://en.wikipedia.org./wiki/List_of_Fear_the_Walking_Dead_episodes\">List of Fear the Walking Dead episodes</a>"},{"pageviews":"2683. <a target=\"_blank\" href=\"http://en.wikipedia.org./wiki/Labour_Party_(UK)\">Labour Party (UK)</a>"},{"pageviews":"2684. <a target=\"_blank\" href=\"http://en.wikipedia.org./wiki/2017_ICC_Champions_Trophy\">2017 ICC Champions Trophy</a>"},{"pageviews":"2685. <a target=\"_blank\" href=\"http://en.wikipedia.org./wiki/Produce_101_Season_2\">Produce 101 Season 2</a>"},{"pageviews":"2686. <a target=\"_blank\" href=\"http://en.wikipedia.org./wiki/Skype\">Skype</a>"},{"pageviews":"2687. <a target=\"_blank\" href=\"http://en.wikipedia.org./wiki/Paul_Pogba\">Paul Pogba</a>"},{"pageviews":"2688. <a target=\"_blank\" href=\"http://en.wikipedia.org./wiki/Captain_America\">Captain America</a>"},{"pageviews":"2689. <a target=\"_blank\" href=\"http://en.wikipedia.org./wiki/Jackie_Robinson\">Jackie Robinson</a>"},{"pageviews":"2690. <a target=\"_blank\" href=\"http://en.wikipedia.org./wiki/Libertarianism\">Libertarianism</a>"},{"pageviews":"2691. <a target=\"_blank\" href=\"http://en.wikipedia.org./wiki/Inauguration_of_Donald_Trump\">Inauguration of Donald Trump</a>"},{"pageviews":"2692. <a target=\"_blank\" href=\"http://en.wikipedia.org./wiki/ISO_3166-1\">ISO 3166-1</a>"},{"pageviews":"2693. <a target=\"_blank\" href=\"http://en.wikipedia.org./wiki/Television\">Television</a>"},{"pageviews":"2694. <a target=\"_blank\" href=\"http://en.wikipedia.org./wiki/Sally_Field\">Sally Field</a>"},{"pageviews":"2695. <a target=\"_blank\" href=\"http://en.wikipedia.org./wiki/Watt\">Watt</a>"},{"pageviews":"2696. <a target=\"_blank\" href=\"http://en.wikipedia.org./wiki/Marco_Polo\">Marco Polo</a>"},{"pageviews":"2697. <a target=\"_blank\" href=\"http://en.wikipedia.org./wiki/The_Hitman's_Bodyguard\">The Hitman's Bodyguard</a>"},{"pageviews":"2698. <a target=\"_blank\" href=\"http://en.wikipedia.org./wiki/Mammal\">Mammal</a>"},{"pageviews":"2699. <a target=\"_blank\" href=\"http://en.wikipedia.org./wiki/Yoko_Ono\">Yoko Ono</a>"}],"list":"2600. Alabama  \u2014  http:\/\/en.wikipedia.org.\/wiki\/Alabama\n2601. Potato  \u2014  http:\/\/en.wikipedia.org.\/wiki\/Potato\n2602. Terminal High Altitude Area Defense  \u2014  http:\/\/en.wikipedia.org.\/wiki\/Terminal_High_Altitude_Area_Defense\n2603. Global Positioning System  \u2014  http:\/\/en.wikipedia.org.\/wiki\/Global_Positioning_System\n2604. Software release life cycle  \u2014  http:\/\/en.wikipedia.org.\/wiki\/Software_release_life_cycle\n2605. 2014 NBA draft  \u2014  http:\/\/en.wikipedia.org.\/wiki\/2014_NBA_draft\n2606. Destiny 2  \u2014  http:\/\/en.wikipedia.org.\/wiki\/Destiny_2\n2607. Windows 7  \u2014  http:\/\/en.wikipedia.org.\/wiki\/Windows_7\n2608. Richard and Maurice McDonald  \u2014  http:\/\/en.wikipedia.org.\/wiki\/Richard_and_Maurice_McDonald\n2609. UFC 208  \u2014  http:\/\/en.wikipedia.org.\/wiki\/UFC_208\n2610. List of Nvidia graphics processing units  \u2014  http:\/\/en.wikipedia.org.\/wiki\/List_of_Nvidia_graphics_processing_units\n2611. Leicester City F.C.  \u2014  http:\/\/en.wikipedia.org.\/wiki\/Leicester_City_F.C.\n2612. Fourteenth Amendment to the United States Constitution  \u2014  http:\/\/en.wikipedia.org.\/wiki\/Fourteenth_Amendment_to_the_United_States_Constitution\n2613. The Guardian  \u2014  http:\/\/en.wikipedia.org.\/wiki\/The_Guardian\n2614. Ronaldo (Brazilian footballer)  \u2014  http:\/\/en.wikipedia.org.\/wiki\/Ronaldo_(Brazilian_footballer)\n2615. George IV of the United Kingdom  \u2014  http:\/\/en.wikipedia.org.\/wiki\/George_IV_of_the_United_Kingdom\n2616. Longest word in English  \u2014  http:\/\/en.wikipedia.org.\/wiki\/Longest_word_in_English\n2617. Mount Rushmore  \u2014  http:\/\/en.wikipedia.org.\/wiki\/Mount_Rushmore\n2618. Al-Qaeda  \u2014  http:\/\/en.wikipedia.org.\/wiki\/Al-Qaeda\n2619. 27 Club  \u2014  http:\/\/en.wikipedia.org.\/wiki\/27_Club\n2620. Elephant  \u2014  http:\/\/en.wikipedia.org.\/wiki\/Elephant\n2621. Lisa Marie Presley  \u2014  http:\/\/en.wikipedia.org.\/wiki\/Lisa_Marie_Presley\n2622. Teresa Palmer  \u2014  http:\/\/en.wikipedia.org.\/wiki\/Teresa_Palmer\n2623. Economics  \u2014  http:\/\/en.wikipedia.org.\/wiki\/Economics\n2624. Tsunami  \u2014  http:\/\/en.wikipedia.org.\/wiki\/Tsunami\n2625. Second Amendment to the United States Constitution  \u2014  http:\/\/en.wikipedia.org.\/wiki\/Second_Amendment_to_the_United_States_Constitution\n2626. The Hobbit (film series)  \u2014  http:\/\/en.wikipedia.org.\/wiki\/The_Hobbit_(film_series)\n2627. Wonder (film)  \u2014  http:\/\/en.wikipedia.org.\/wiki\/Wonder_(film)\n2628. James Dean  \u2014  http:\/\/en.wikipedia.org.\/wiki\/James_Dean\n2629. Blackbeard  \u2014  http:\/\/en.wikipedia.org.\/wiki\/Blackbeard\n2630. Elizabeth Banks  \u2014  http:\/\/en.wikipedia.org.\/wiki\/Elizabeth_Banks\n2631. Journey (band)  \u2014  http:\/\/en.wikipedia.org.\/wiki\/Journey_(band)\n2632. One World Trade Center  \u2014  http:\/\/en.wikipedia.org.\/wiki\/One_World_Trade_Center\n2633. Katherine Waterston  \u2014  http:\/\/en.wikipedia.org.\/wiki\/Katherine_Waterston\n2634. Assassin's Creed Origins  \u2014  http:\/\/en.wikipedia.org.\/wiki\/Assassin's_Creed_Origins\n2635. Nanking Massacre  \u2014  http:\/\/en.wikipedia.org.\/wiki\/Nanking_Massacre\n2636. Denis Villeneuve  \u2014  http:\/\/en.wikipedia.org.\/wiki\/Denis_Villeneuve\n2637. New Jersey  \u2014  http:\/\/en.wikipedia.org.\/wiki\/New_Jersey\n2638. Lithium  \u2014  http:\/\/en.wikipedia.org.\/wiki\/Lithium\n2639. Quran  \u2014  http:\/\/en.wikipedia.org.\/wiki\/Quran\n2640. SAP SE  \u2014  http:\/\/en.wikipedia.org.\/wiki\/SAP_SE\n2641. Caligula  \u2014  http:\/\/en.wikipedia.org.\/wiki\/Caligula\n2642. Capitalism  \u2014  http:\/\/en.wikipedia.org.\/wiki\/Capitalism\n2643. German language  \u2014  http:\/\/en.wikipedia.org.\/wiki\/German_language\n2644. Sword Art Online  \u2014  http:\/\/en.wikipedia.org.\/wiki\/Sword_Art_Online\n2645. Git  \u2014  http:\/\/en.wikipedia.org.\/wiki\/Git\n2646. Gerald R. Ford-class aircraft carrier  \u2014  http:\/\/en.wikipedia.org.\/wiki\/Gerald_R._Ford-class_aircraft_carrier\n2647. 12-hour clock  \u2014  http:\/\/en.wikipedia.org.\/wiki\/12-hour_clock\n2648. IOS version history  \u2014  http:\/\/en.wikipedia.org.\/wiki\/IOS_version_history\n2649. Laura Prepon  \u2014  http:\/\/en.wikipedia.org.\/wiki\/Laura_Prepon\n2650. River Phoenix  \u2014  http:\/\/en.wikipedia.org.\/wiki\/River_Phoenix\n2651. Deepwater Horizon  \u2014  http:\/\/en.wikipedia.org.\/wiki\/Deepwater_Horizon\n2652. List of fallacies  \u2014  http:\/\/en.wikipedia.org.\/wiki\/List_of_fallacies\n2653. Tramadol  \u2014  http:\/\/en.wikipedia.org.\/wiki\/Tramadol\n2654. Matthew Perry  \u2014  http:\/\/en.wikipedia.org.\/wiki\/Matthew_Perry\n2655. Clean Bandit  \u2014  http:\/\/en.wikipedia.org.\/wiki\/Clean_Bandit\n2656. Macbeth  \u2014  http:\/\/en.wikipedia.org.\/wiki\/Macbeth\n2657. Ronnie O'Sullivan  \u2014  http:\/\/en.wikipedia.org.\/wiki\/Ronnie_O'Sullivan\n2658. American Crime Story  \u2014  http:\/\/en.wikipedia.org.\/wiki\/American_Crime_Story\n2659. Alan Rickman  \u2014  http:\/\/en.wikipedia.org.\/wiki\/Alan_Rickman\n2660. Carbon dioxide  \u2014  http:\/\/en.wikipedia.org.\/wiki\/Carbon_dioxide\n2661. Panama  \u2014  http:\/\/en.wikipedia.org.\/wiki\/Panama\n2662. XML  \u2014  http:\/\/en.wikipedia.org.\/wiki\/XML\n2663. Christina Aguilera  \u2014  http:\/\/en.wikipedia.org.\/wiki\/Christina_Aguilera\n2664. American wire gauge  \u2014  http:\/\/en.wikipedia.org.\/wiki\/American_wire_gauge\n2665. Harley Quinn  \u2014  http:\/\/en.wikipedia.org.\/wiki\/Harley_Quinn\n2666. Deadpool  \u2014  http:\/\/en.wikipedia.org.\/wiki\/Deadpool\n2667. Sudan  \u2014  http:\/\/en.wikipedia.org.\/wiki\/Sudan\n2668. Spirited Away  \u2014  http:\/\/en.wikipedia.org.\/wiki\/Spirited_Away\n2669. Namibia  \u2014  http:\/\/en.wikipedia.org.\/wiki\/Namibia\n2670. Linguistics  \u2014  http:\/\/en.wikipedia.org.\/wiki\/Linguistics\n2671. List of Tor hidden services  \u2014  http:\/\/en.wikipedia.org.\/wiki\/List_of_Tor_hidden_services\n2672. List of Mayday episodes  \u2014  http:\/\/en.wikipedia.org.\/wiki\/List_of_Mayday_episodes\n2673. Libya  \u2014  http:\/\/en.wikipedia.org.\/wiki\/Libya\n2674. East Germany  \u2014  http:\/\/en.wikipedia.org.\/wiki\/East_Germany\n2675. Coffee Lake  \u2014  http:\/\/en.wikipedia.org.\/wiki\/Coffee_Lake\n2676. Richard III of England  \u2014  http:\/\/en.wikipedia.org.\/wiki\/Richard_III_of_England\n2677. VX (nerve agent)  \u2014  http:\/\/en.wikipedia.org.\/wiki\/VX_(nerve_agent)\n2678. Britt Robertson  \u2014  http:\/\/en.wikipedia.org.\/wiki\/Britt_Robertson\n2679. Dennis Rodman  \u2014  http:\/\/en.wikipedia.org.\/wiki\/Dennis_Rodman\n2680. Emma Thompson  \u2014  http:\/\/en.wikipedia.org.\/wiki\/Emma_Thompson\n2681. Zooey Deschanel  \u2014  http:\/\/en.wikipedia.org.\/wiki\/Zooey_Deschanel\n2682. List of Fear the Walking Dead episodes  \u2014  http:\/\/en.wikipedia.org.\/wiki\/List_of_Fear_the_Walking_Dead_episodes\n2683. Labour Party (UK)  \u2014  http:\/\/en.wikipedia.org.\/wiki\/Labour_Party_(UK)\n2684. 2017 ICC Champions Trophy  \u2014  http:\/\/en.wikipedia.org.\/wiki\/2017_ICC_Champions_Trophy\n2685. Produce 101 Season 2  \u2014  http:\/\/en.wikipedia.org.\/wiki\/Produce_101_Season_2\n2686. Skype  \u2014  http:\/\/en.wikipedia.org.\/wiki\/Skype\n2687. Paul Pogba  \u2014  http:\/\/en.wikipedia.org.\/wiki\/Paul_Pogba\n2688. Captain America  \u2014  http:\/\/en.wikipedia.org.\/wiki\/Captain_America\n2689. Jackie Robinson  \u2014  http:\/\/en.wikipedia.org.\/wiki\/Jackie_Robinson\n2690. Libertarianism  \u2014  http:\/\/en.wikipedia.org.\/wiki\/Libertarianism\n2691. Inauguration of Donald Trump  \u2014  http:\/\/en.wikipedia.org.\/wiki\/Inauguration_of_Donald_Trump\n2692. ISO 3166-1  \u2014  http:\/\/en.wikipedia.org.\/wiki\/ISO_3166-1\n2693. Television  \u2014  http:\/\/en.wikipedia.org.\/wiki\/Television\n2694. Sally Field  \u2014  http:\/\/en.wikipedia.org.\/wiki\/Sally_Field\n2695. Watt  \u2014  http:\/\/en.wikipedia.org.\/wiki\/Watt\n2696. Marco Polo  \u2014  http:\/\/en.wikipedia.org.\/wiki\/Marco_Polo\n2697. The Hitman's Bodyguard  \u2014  http:\/\/en.wikipedia.org.\/wiki\/The_Hitman's_Bodyguard\n2698. Mammal  \u2014  http:\/\/en.wikipedia.org.\/wiki\/Mammal\n2699. Yoko Ono  \u2014  http:\/\/en.wikipedia.org.\/wiki\/Yoko_Ono\n","miniList":"2600. Alabama\n2601. Potato\n2602. Terminal High Altitude Area Defense\n2603. Global Positioning System\n2604. Software release life cycle\n2605. 2014 NBA draft\n2606. Destiny 2\n2607. Windows 7\n2608. Richard and Maurice McDonald\n2609. UFC 208\n2610. List of Nvidia graphics processing units\n2611. Leicester City F.C.\n2612. Fourteenth Amendment to the United States Constitution\n2613. The Guardian\n2614. Ronaldo (Brazilian footballer)\n2615. George IV of the United Kingdom\n2616. Longest word in English\n2617. Mount Rushmore\n2618. Al-Qaeda\n2619. 27 Club\n2620. Elephant\n2621. Lisa Marie Presley\n2622. Teresa Palmer\n2623. Economics\n2624. Tsunami\n2625. Second Amendment to the United States Constitution\n2626. The Hobbit (film series)\n2627. Wonder (film)\n2628. James Dean\n2629. Blackbeard\n2630. Elizabeth Banks\n2631. Journey (band)\n2632. One World Trade Center\n2633. Katherine Waterston\n2634. Assassin's Creed Origins\n2635. Nanking Massacre\n2636. Denis Villeneuve\n2637. New Jersey\n2638. Lithium\n2639. Quran\n2640. SAP SE\n2641. Caligula\n2642. Capitalism\n2643. German language\n2644. Sword Art Online\n2645. Git\n2646. Gerald R. Ford-class aircraft carrier\n2647. 12-hour clock\n2648. IOS version history\n2649. Laura Prepon\n2650. River Phoenix\n2651. Deepwater Horizon\n2652. List of fallacies\n2653. Tramadol\n2654. Matthew Perry\n2655. Clean Bandit\n2656. Macbeth\n2657. Ronnie O'Sullivan\n2658. American Crime Story\n2659. Alan Rickman\n2660. Carbon dioxide\n2661. Panama\n2662. XML\n2663. Christina Aguilera\n2664. American wire gauge\n2665. Harley Quinn\n2666. Deadpool\n2667. Sudan\n2668. Spirited Away\n2669. Namibia\n2670. Linguistics\n2671. List of Tor hidden services\n2672. List of Mayday episodes\n2673. Libya\n2674. East Germany\n2675. Coffee Lake\n2676. Richard III of England\n2677. VX (nerve agent)\n2678. Britt Robertson\n2679. Dennis Rodman\n2680. Emma Thompson\n2681. Zooey Deschanel\n2682. List of Fear the Walking Dead episodes\n2683. Labour Party (UK)\n2684. 2017 ICC Champions Trophy\n2685. Produce 101 Season 2\n2686. Skype\n2687. Paul Pogba\n2688. Captain America\n2689. Jackie Robinson\n2690. Libertarianism\n2691. Inauguration of Donald Trump\n2692. ISO 3166-1\n2693. Television\n2694. Sally Field\n2695. Watt\n2696. Marco Polo\n2697. The Hitman's Bodyguard\n2698. Mammal\n2699. Yoko Ono\n"}
