{"start":2701,"end":2800,"count":5616717,"type":"pageviews","pageSize":100,"page":27,"pages":56168,"columns":[{"label":"","property":"pageviews","sortable":false}],"items":[{"pageviews":"2700. <a target=\"_blank\" href=\"http://en.wikipedia.org./wiki/HTTP_301\">HTTP 301</a>"},{"pageviews":"2701. <a target=\"_blank\" href=\"http://en.wikipedia.org./wiki/Michael_Douglas\">Michael Douglas</a>"},{"pageviews":"2702. <a target=\"_blank\" href=\"http://en.wikipedia.org./wiki/SOLID_(object-oriented_design)\">SOLID (object-oriented design)</a>"},{"pageviews":"2703. <a target=\"_blank\" href=\"http://en.wikipedia.org./wiki/The_Troubles\">The Troubles</a>"},{"pageviews":"2704. <a target=\"_blank\" href=\"http://en.wikipedia.org./wiki/Grimm_(TV_series)\">Grimm (TV series)</a>"},{"pageviews":"2705. <a target=\"_blank\" href=\"http://en.wikipedia.org./wiki/Pom_Klementieff\">Pom Klementieff</a>"},{"pageviews":"2706. <a target=\"_blank\" href=\"http://en.wikipedia.org./wiki/Race_and_ethnicity_in_the_United_States\">Race and ethnicity in the United States</a>"},{"pageviews":"2707. <a target=\"_blank\" href=\"http://en.wikipedia.org./wiki/Corey_Feldman\">Corey Feldman</a>"},{"pageviews":"2708. <a target=\"_blank\" href=\"http://en.wikipedia.org./wiki/Mitch_McConnell\">Mitch McConnell</a>"},{"pageviews":"2709. <a target=\"_blank\" href=\"http://en.wikipedia.org./wiki/Apple\">Apple</a>"},{"pageviews":"2710. <a target=\"_blank\" href=\"http://en.wikipedia.org./wiki/Homo_sapiens\">Homo sapiens</a>"},{"pageviews":"2711. <a target=\"_blank\" href=\"http://en.wikipedia.org./wiki/UEFA_Europa_League\">UEFA Europa League</a>"},{"pageviews":"2712. <a target=\"_blank\" href=\"http://en.wikipedia.org./wiki/Association_of_Southeast_Asian_Nations\">Association of Southeast Asian Nations</a>"},{"pageviews":"2713. <a target=\"_blank\" href=\"http://en.wikipedia.org./wiki/Mercedes-Benz\">Mercedes-Benz</a>"},{"pageviews":"2714. <a target=\"_blank\" href=\"http://en.wikipedia.org./wiki/Suge_Knight\">Suge Knight</a>"},{"pageviews":"2715. <a target=\"_blank\" href=\"http://en.wikipedia.org./wiki/UFC_216\">UFC 216</a>"},{"pageviews":"2716. <a target=\"_blank\" href=\"http://en.wikipedia.org./wiki/Agnosticism\">Agnosticism</a>"},{"pageviews":"2717. <a target=\"_blank\" href=\"http://en.wikipedia.org./wiki/C_Sharp_(programming_language)\">C Sharp (programming language)</a>"},{"pageviews":"2718. <a target=\"_blank\" href=\"http://en.wikipedia.org./wiki/Quantum_computing\">Quantum computing</a>"},{"pageviews":"2719. <a target=\"_blank\" href=\"http://en.wikipedia.org./wiki/Janis_Joplin\">Janis Joplin</a>"},{"pageviews":"2720. <a target=\"_blank\" href=\"http://en.wikipedia.org./wiki/Marshmello\">Marshmello</a>"},{"pageviews":"2721. <a target=\"_blank\" href=\"http://en.wikipedia.org./wiki/Nokia\">Nokia</a>"},{"pageviews":"2722. <a target=\"_blank\" href=\"http://en.wikipedia.org./wiki/N.W.A\">N.W.A</a>"},{"pageviews":"2723. <a target=\"_blank\" href=\"http://en.wikipedia.org./wiki/%C3%81lvaro_Morata\">Álvaro Morata</a>"},{"pageviews":"2724. <a target=\"_blank\" href=\"http://en.wikipedia.org./wiki/Gaten_Matarazzo\">Gaten Matarazzo</a>"},{"pageviews":"2725. <a target=\"_blank\" href=\"http://en.wikipedia.org./wiki/List_of_The_Vampire_Diaries_episodes\">List of The Vampire Diaries episodes</a>"},{"pageviews":"2726. <a target=\"_blank\" href=\"http://en.wikipedia.org./wiki/List_of_solar_eclipses_visible_from_the_United_States\">List of solar eclipses visible from the United States</a>"},{"pageviews":"2727. <a target=\"_blank\" href=\"http://en.wikipedia.org./wiki/David_Letterman\">David Letterman</a>"},{"pageviews":"2728. <a target=\"_blank\" href=\"http://en.wikipedia.org./wiki/Trigonometric_functions\">Trigonometric functions</a>"},{"pageviews":"2729. <a target=\"_blank\" href=\"http://en.wikipedia.org./wiki/Axl_Rose\">Axl Rose</a>"},{"pageviews":"2730. <a target=\"_blank\" href=\"http://en.wikipedia.org./wiki/Aung_San_Suu_Kyi\">Aung San Suu Kyi</a>"},{"pageviews":"2731. <a target=\"_blank\" href=\"http://en.wikipedia.org./wiki/Daniel_Kaluuya\">Daniel Kaluuya</a>"},{"pageviews":"2732. <a target=\"_blank\" href=\"http://en.wikipedia.org./wiki/Sodium_bicarbonate\">Sodium bicarbonate</a>"},{"pageviews":"2733. <a target=\"_blank\" href=\"http://en.wikipedia.org./wiki/PDF\">PDF</a>"},{"pageviews":"2734. <a target=\"_blank\" href=\"http://en.wikipedia.org./wiki/Flatliners_(2017_film)\">Flatliners (2017 film)</a>"},{"pageviews":"2735. <a target=\"_blank\" href=\"http://en.wikipedia.org./wiki/Punisher\">Punisher</a>"},{"pageviews":"2736. <a target=\"_blank\" href=\"http://en.wikipedia.org./wiki/Taoism\">Taoism</a>"},{"pageviews":"2737. <a target=\"_blank\" href=\"http://en.wikipedia.org./wiki/Tim_Berners-Lee\">Tim Berners-Lee</a>"},{"pageviews":"2738. <a target=\"_blank\" href=\"http://en.wikipedia.org./wiki/Sensitivity_and_specificity\">Sensitivity and specificity</a>"},{"pageviews":"2739. <a target=\"_blank\" href=\"http://en.wikipedia.org./wiki/John_F._Kennedy_Jr.\">John F. Kennedy Jr.</a>"},{"pageviews":"2740. <a target=\"_blank\" href=\"http://en.wikipedia.org./wiki/Language\">Language</a>"},{"pageviews":"2741. <a target=\"_blank\" href=\"http://en.wikipedia.org./wiki/List_of_Marvel_Cinematic_Universe_television_series\">List of Marvel Cinematic Universe television series</a>"},{"pageviews":"2742. <a target=\"_blank\" href=\"http://en.wikipedia.org./wiki/Banana\">Banana</a>"},{"pageviews":"2743. <a target=\"_blank\" href=\"http://en.wikipedia.org./wiki/Chuck_Norris\">Chuck Norris</a>"},{"pageviews":"2744. <a target=\"_blank\" href=\"http://en.wikipedia.org./wiki/Leonard_Cohen\">Leonard Cohen</a>"},{"pageviews":"2745. <a target=\"_blank\" href=\"http://en.wikipedia.org./wiki/Helena_Bonham_Carter\">Helena Bonham Carter</a>"},{"pageviews":"2746. <a target=\"_blank\" href=\"http://en.wikipedia.org./wiki/Gucci_Mane\">Gucci Mane</a>"},{"pageviews":"2747. <a target=\"_blank\" href=\"http://en.wikipedia.org./wiki/The_Conjuring\">The Conjuring</a>"},{"pageviews":"2748. <a target=\"_blank\" href=\"http://en.wikipedia.org./wiki/Angola\">Angola</a>"},{"pageviews":"2749. <a target=\"_blank\" href=\"http://en.wikipedia.org./wiki/World_Heritage_Site\">World Heritage Site</a>"},{"pageviews":"2750. <a target=\"_blank\" href=\"http://en.wikipedia.org./wiki/David_Tennant\">David Tennant</a>"},{"pageviews":"2751. <a target=\"_blank\" href=\"http://en.wikipedia.org./wiki/Geographic_coordinate_system\">Geographic coordinate system</a>"},{"pageviews":"2752. <a target=\"_blank\" href=\"http://en.wikipedia.org./wiki/Ancient_Greece\">Ancient Greece</a>"},{"pageviews":"2753. <a target=\"_blank\" href=\"http://en.wikipedia.org./wiki/The_Magnificent_Seven_(2016_film)\">The Magnificent Seven (2016 film)</a>"},{"pageviews":"2754. <a target=\"_blank\" href=\"http://en.wikipedia.org./wiki/Web_browser\">Web browser</a>"},{"pageviews":"2755. <a target=\"_blank\" href=\"http://en.wikipedia.org./wiki/USB_3.0\">USB 3.0</a>"},{"pageviews":"2756. <a target=\"_blank\" href=\"http://en.wikipedia.org./wiki/Will_Ferrell\">Will Ferrell</a>"},{"pageviews":"2757. <a target=\"_blank\" href=\"http://en.wikipedia.org./wiki/Nikki_Bella\">Nikki Bella</a>"},{"pageviews":"2758. <a target=\"_blank\" href=\"http://en.wikipedia.org./wiki/Barbados\">Barbados</a>"},{"pageviews":"2759. <a target=\"_blank\" href=\"http://en.wikipedia.org./wiki/Young_Sheldon\">Young Sheldon</a>"},{"pageviews":"2760. <a target=\"_blank\" href=\"http://en.wikipedia.org./wiki/3D_printing\">3D printing</a>"},{"pageviews":"2761. <a target=\"_blank\" href=\"http://en.wikipedia.org./wiki/Game_of_Thrones_(season_5)\">Game of Thrones (season 5)</a>"},{"pageviews":"2762. <a target=\"_blank\" href=\"http://en.wikipedia.org./wiki/Dating\">Dating</a>"},{"pageviews":"2763. <a target=\"_blank\" href=\"http://en.wikipedia.org./wiki/List_of_Outlander_episodes\">List of Outlander episodes</a>"},{"pageviews":"2764. <a target=\"_blank\" href=\"http://en.wikipedia.org./wiki/Moors_murders\">Moors murders</a>"},{"pageviews":"2765. <a target=\"_blank\" href=\"http://en.wikipedia.org./wiki/Aspirin\">Aspirin</a>"},{"pageviews":"2766. <a target=\"_blank\" href=\"http://en.wikipedia.org./wiki/Dr._Seuss\">Dr. Seuss</a>"},{"pageviews":"2767. <a target=\"_blank\" href=\"http://en.wikipedia.org./wiki/Obsessive%E2%80%93compulsive_disorder\">Obsessive–compulsive disorder</a>"},{"pageviews":"2768. <a target=\"_blank\" href=\"http://en.wikipedia.org./wiki/Major_League_Baseball\">Major League Baseball</a>"},{"pageviews":"2769. <a target=\"_blank\" href=\"http://en.wikipedia.org./wiki/PricewaterhouseCoopers\">PricewaterhouseCoopers</a>"},{"pageviews":"2770. <a target=\"_blank\" href=\"http://en.wikipedia.org./wiki/Conservative_Party_(UK)\">Conservative Party (UK)</a>"},{"pageviews":"2771. <a target=\"_blank\" href=\"http://en.wikipedia.org./wiki/David_Rockefeller\">David Rockefeller</a>"},{"pageviews":"2772. <a target=\"_blank\" href=\"http://en.wikipedia.org./wiki/Pornographic_film_actor\">Pornographic film actor</a>"},{"pageviews":"2773. <a target=\"_blank\" href=\"http://en.wikipedia.org./wiki/Manhattan_Project\">Manhattan Project</a>"},{"pageviews":"2774. <a target=\"_blank\" href=\"http://en.wikipedia.org./wiki/Ballon_d'Or\">Ballon d'Or</a>"},{"pageviews":"2775. <a target=\"_blank\" href=\"http://en.wikipedia.org./wiki/Liv_Tyler\">Liv Tyler</a>"},{"pageviews":"2776. <a target=\"_blank\" href=\"http://en.wikipedia.org./wiki/Willem_Dafoe\">Willem Dafoe</a>"},{"pageviews":"2777. <a target=\"_blank\" href=\"http://en.wikipedia.org./wiki/Jodie_Whittaker\">Jodie Whittaker</a>"},{"pageviews":"2778. <a target=\"_blank\" href=\"http://en.wikipedia.org./wiki/The_Great_British_Bake_Off\">The Great British Bake Off</a>"},{"pageviews":"2779. <a target=\"_blank\" href=\"http://en.wikipedia.org./wiki/William_Shatner\">William Shatner</a>"},{"pageviews":"2780. <a target=\"_blank\" href=\"http://en.wikipedia.org./wiki/JoJo's_Bizarre_Adventure\">JoJo's Bizarre Adventure</a>"},{"pageviews":"2781. <a target=\"_blank\" href=\"http://en.wikipedia.org./wiki/Luke_Cage_(TV_series)\">Luke Cage (TV series)</a>"},{"pageviews":"2782. <a target=\"_blank\" href=\"http://en.wikipedia.org./wiki/Ren%C3%A9_Descartes\">René Descartes</a>"},{"pageviews":"2783. <a target=\"_blank\" href=\"http://en.wikipedia.org./wiki/Video_game\">Video game</a>"},{"pageviews":"2784. <a target=\"_blank\" href=\"http://en.wikipedia.org./wiki/Music\">Music</a>"},{"pageviews":"2785. <a target=\"_blank\" href=\"http://en.wikipedia.org./wiki/Dakota_Fanning\">Dakota Fanning</a>"},{"pageviews":"2786. <a target=\"_blank\" href=\"http://en.wikipedia.org./wiki/Salem_witch_trials\">Salem witch trials</a>"},{"pageviews":"2787. <a target=\"_blank\" href=\"http://en.wikipedia.org./wiki/Eric_Trump\">Eric Trump</a>"},{"pageviews":"2788. <a target=\"_blank\" href=\"http://en.wikipedia.org./wiki/Catherine_the_Great\">Catherine the Great</a>"},{"pageviews":"2789. <a target=\"_blank\" href=\"http://en.wikipedia.org./wiki/Kurt_Angle\">Kurt Angle</a>"},{"pageviews":"2790. <a target=\"_blank\" href=\"http://en.wikipedia.org./wiki/Rise_of_the_Planet_of_the_Apes\">Rise of the Planet of the Apes</a>"},{"pageviews":"2791. <a target=\"_blank\" href=\"http://en.wikipedia.org./wiki/Incredibles_2\">Incredibles 2</a>"},{"pageviews":"2792. <a target=\"_blank\" href=\"http://en.wikipedia.org./wiki/2020_Summer_Olympics\">2020 Summer Olympics</a>"},{"pageviews":"2793. <a target=\"_blank\" href=\"http://en.wikipedia.org./wiki/Sodium_chloride\">Sodium chloride</a>"},{"pageviews":"2794. <a target=\"_blank\" href=\"http://en.wikipedia.org./wiki/Clitoris\">Clitoris</a>"},{"pageviews":"2795. <a target=\"_blank\" href=\"http://en.wikipedia.org./wiki/Tokyo_Ghoul\">Tokyo Ghoul</a>"},{"pageviews":"2796. <a target=\"_blank\" href=\"http://en.wikipedia.org./wiki/Four_Horsemen_of_the_Apocalypse\">Four Horsemen of the Apocalypse</a>"},{"pageviews":"2797. <a target=\"_blank\" href=\"http://en.wikipedia.org./wiki/Anushka_Sharma\">Anushka Sharma</a>"},{"pageviews":"2798. <a target=\"_blank\" href=\"http://en.wikipedia.org./wiki/Windows_10_editions\">Windows 10 editions</a>"},{"pageviews":"2799. <a target=\"_blank\" href=\"http://en.wikipedia.org./wiki/List_of_hobbies\">List of hobbies</a>"}],"list":"2700. HTTP 301  \u2014  http:\/\/en.wikipedia.org.\/wiki\/HTTP_301\n2701. Michael Douglas  \u2014  http:\/\/en.wikipedia.org.\/wiki\/Michael_Douglas\n2702. SOLID (object-oriented design)  \u2014  http:\/\/en.wikipedia.org.\/wiki\/SOLID_(object-oriented_design)\n2703. The Troubles  \u2014  http:\/\/en.wikipedia.org.\/wiki\/The_Troubles\n2704. Grimm (TV series)  \u2014  http:\/\/en.wikipedia.org.\/wiki\/Grimm_(TV_series)\n2705. Pom Klementieff  \u2014  http:\/\/en.wikipedia.org.\/wiki\/Pom_Klementieff\n2706. Race and ethnicity in the United States  \u2014  http:\/\/en.wikipedia.org.\/wiki\/Race_and_ethnicity_in_the_United_States\n2707. Corey Feldman  \u2014  http:\/\/en.wikipedia.org.\/wiki\/Corey_Feldman\n2708. Mitch McConnell  \u2014  http:\/\/en.wikipedia.org.\/wiki\/Mitch_McConnell\n2709. Apple  \u2014  http:\/\/en.wikipedia.org.\/wiki\/Apple\n2710. Homo sapiens  \u2014  http:\/\/en.wikipedia.org.\/wiki\/Homo_sapiens\n2711. UEFA Europa League  \u2014  http:\/\/en.wikipedia.org.\/wiki\/UEFA_Europa_League\n2712. Association of Southeast Asian Nations  \u2014  http:\/\/en.wikipedia.org.\/wiki\/Association_of_Southeast_Asian_Nations\n2713. Mercedes-Benz  \u2014  http:\/\/en.wikipedia.org.\/wiki\/Mercedes-Benz\n2714. Suge Knight  \u2014  http:\/\/en.wikipedia.org.\/wiki\/Suge_Knight\n2715. UFC 216  \u2014  http:\/\/en.wikipedia.org.\/wiki\/UFC_216\n2716. Agnosticism  \u2014  http:\/\/en.wikipedia.org.\/wiki\/Agnosticism\n2717. C Sharp (programming language)  \u2014  http:\/\/en.wikipedia.org.\/wiki\/C_Sharp_(programming_language)\n2718. Quantum computing  \u2014  http:\/\/en.wikipedia.org.\/wiki\/Quantum_computing\n2719. Janis Joplin  \u2014  http:\/\/en.wikipedia.org.\/wiki\/Janis_Joplin\n2720. Marshmello  \u2014  http:\/\/en.wikipedia.org.\/wiki\/Marshmello\n2721. Nokia  \u2014  http:\/\/en.wikipedia.org.\/wiki\/Nokia\n2722. N.W.A  \u2014  http:\/\/en.wikipedia.org.\/wiki\/N.W.A\n2723. \u00C1lvaro Morata  \u2014  http:\/\/en.wikipedia.org.\/wiki\/%C3%81lvaro_Morata\n2724. Gaten Matarazzo  \u2014  http:\/\/en.wikipedia.org.\/wiki\/Gaten_Matarazzo\n2725. List of The Vampire Diaries episodes  \u2014  http:\/\/en.wikipedia.org.\/wiki\/List_of_The_Vampire_Diaries_episodes\n2726. List of solar eclipses visible from the United States  \u2014  http:\/\/en.wikipedia.org.\/wiki\/List_of_solar_eclipses_visible_from_the_United_States\n2727. David Letterman  \u2014  http:\/\/en.wikipedia.org.\/wiki\/David_Letterman\n2728. Trigonometric functions  \u2014  http:\/\/en.wikipedia.org.\/wiki\/Trigonometric_functions\n2729. Axl Rose  \u2014  http:\/\/en.wikipedia.org.\/wiki\/Axl_Rose\n2730. Aung San Suu Kyi  \u2014  http:\/\/en.wikipedia.org.\/wiki\/Aung_San_Suu_Kyi\n2731. Daniel Kaluuya  \u2014  http:\/\/en.wikipedia.org.\/wiki\/Daniel_Kaluuya\n2732. Sodium bicarbonate  \u2014  http:\/\/en.wikipedia.org.\/wiki\/Sodium_bicarbonate\n2733. PDF  \u2014  http:\/\/en.wikipedia.org.\/wiki\/PDF\n2734. Flatliners (2017 film)  \u2014  http:\/\/en.wikipedia.org.\/wiki\/Flatliners_(2017_film)\n2735. Punisher  \u2014  http:\/\/en.wikipedia.org.\/wiki\/Punisher\n2736. Taoism  \u2014  http:\/\/en.wikipedia.org.\/wiki\/Taoism\n2737. Tim Berners-Lee  \u2014  http:\/\/en.wikipedia.org.\/wiki\/Tim_Berners-Lee\n2738. Sensitivity and specificity  \u2014  http:\/\/en.wikipedia.org.\/wiki\/Sensitivity_and_specificity\n2739. John F. Kennedy Jr.  \u2014  http:\/\/en.wikipedia.org.\/wiki\/John_F._Kennedy_Jr.\n2740. Language  \u2014  http:\/\/en.wikipedia.org.\/wiki\/Language\n2741. List of Marvel Cinematic Universe television series  \u2014  http:\/\/en.wikipedia.org.\/wiki\/List_of_Marvel_Cinematic_Universe_television_series\n2742. Banana  \u2014  http:\/\/en.wikipedia.org.\/wiki\/Banana\n2743. Chuck Norris  \u2014  http:\/\/en.wikipedia.org.\/wiki\/Chuck_Norris\n2744. Leonard Cohen  \u2014  http:\/\/en.wikipedia.org.\/wiki\/Leonard_Cohen\n2745. Helena Bonham Carter  \u2014  http:\/\/en.wikipedia.org.\/wiki\/Helena_Bonham_Carter\n2746. Gucci Mane  \u2014  http:\/\/en.wikipedia.org.\/wiki\/Gucci_Mane\n2747. The Conjuring  \u2014  http:\/\/en.wikipedia.org.\/wiki\/The_Conjuring\n2748. Angola  \u2014  http:\/\/en.wikipedia.org.\/wiki\/Angola\n2749. World Heritage Site  \u2014  http:\/\/en.wikipedia.org.\/wiki\/World_Heritage_Site\n2750. David Tennant  \u2014  http:\/\/en.wikipedia.org.\/wiki\/David_Tennant\n2751. Geographic coordinate system  \u2014  http:\/\/en.wikipedia.org.\/wiki\/Geographic_coordinate_system\n2752. Ancient Greece  \u2014  http:\/\/en.wikipedia.org.\/wiki\/Ancient_Greece\n2753. The Magnificent Seven (2016 film)  \u2014  http:\/\/en.wikipedia.org.\/wiki\/The_Magnificent_Seven_(2016_film)\n2754. Web browser  \u2014  http:\/\/en.wikipedia.org.\/wiki\/Web_browser\n2755. USB 3.0  \u2014  http:\/\/en.wikipedia.org.\/wiki\/USB_3.0\n2756. Will Ferrell  \u2014  http:\/\/en.wikipedia.org.\/wiki\/Will_Ferrell\n2757. Nikki Bella  \u2014  http:\/\/en.wikipedia.org.\/wiki\/Nikki_Bella\n2758. Barbados  \u2014  http:\/\/en.wikipedia.org.\/wiki\/Barbados\n2759. Young Sheldon  \u2014  http:\/\/en.wikipedia.org.\/wiki\/Young_Sheldon\n2760. 3D printing  \u2014  http:\/\/en.wikipedia.org.\/wiki\/3D_printing\n2761. Game of Thrones (season 5)  \u2014  http:\/\/en.wikipedia.org.\/wiki\/Game_of_Thrones_(season_5)\n2762. Dating  \u2014  http:\/\/en.wikipedia.org.\/wiki\/Dating\n2763. List of Outlander episodes  \u2014  http:\/\/en.wikipedia.org.\/wiki\/List_of_Outlander_episodes\n2764. Moors murders  \u2014  http:\/\/en.wikipedia.org.\/wiki\/Moors_murders\n2765. Aspirin  \u2014  http:\/\/en.wikipedia.org.\/wiki\/Aspirin\n2766. Dr. Seuss  \u2014  http:\/\/en.wikipedia.org.\/wiki\/Dr._Seuss\n2767. Obsessive\u2013compulsive disorder  \u2014  http:\/\/en.wikipedia.org.\/wiki\/Obsessive%E2%80%93compulsive_disorder\n2768. Major League Baseball  \u2014  http:\/\/en.wikipedia.org.\/wiki\/Major_League_Baseball\n2769. PricewaterhouseCoopers  \u2014  http:\/\/en.wikipedia.org.\/wiki\/PricewaterhouseCoopers\n2770. Conservative Party (UK)  \u2014  http:\/\/en.wikipedia.org.\/wiki\/Conservative_Party_(UK)\n2771. David Rockefeller  \u2014  http:\/\/en.wikipedia.org.\/wiki\/David_Rockefeller\n2772. Pornographic film actor  \u2014  http:\/\/en.wikipedia.org.\/wiki\/Pornographic_film_actor\n2773. Manhattan Project  \u2014  http:\/\/en.wikipedia.org.\/wiki\/Manhattan_Project\n2774. Ballon d'Or  \u2014  http:\/\/en.wikipedia.org.\/wiki\/Ballon_d'Or\n2775. Liv Tyler  \u2014  http:\/\/en.wikipedia.org.\/wiki\/Liv_Tyler\n2776. Willem Dafoe  \u2014  http:\/\/en.wikipedia.org.\/wiki\/Willem_Dafoe\n2777. Jodie Whittaker  \u2014  http:\/\/en.wikipedia.org.\/wiki\/Jodie_Whittaker\n2778. The Great British Bake Off  \u2014  http:\/\/en.wikipedia.org.\/wiki\/The_Great_British_Bake_Off\n2779. William Shatner  \u2014  http:\/\/en.wikipedia.org.\/wiki\/William_Shatner\n2780. JoJo's Bizarre Adventure  \u2014  http:\/\/en.wikipedia.org.\/wiki\/JoJo's_Bizarre_Adventure\n2781. Luke Cage (TV series)  \u2014  http:\/\/en.wikipedia.org.\/wiki\/Luke_Cage_(TV_series)\n2782. Ren\u00E9 Descartes  \u2014  http:\/\/en.wikipedia.org.\/wiki\/Ren%C3%A9_Descartes\n2783. Video game  \u2014  http:\/\/en.wikipedia.org.\/wiki\/Video_game\n2784. Music  \u2014  http:\/\/en.wikipedia.org.\/wiki\/Music\n2785. Dakota Fanning  \u2014  http:\/\/en.wikipedia.org.\/wiki\/Dakota_Fanning\n2786. Salem witch trials  \u2014  http:\/\/en.wikipedia.org.\/wiki\/Salem_witch_trials\n2787. Eric Trump  \u2014  http:\/\/en.wikipedia.org.\/wiki\/Eric_Trump\n2788. Catherine the Great  \u2014  http:\/\/en.wikipedia.org.\/wiki\/Catherine_the_Great\n2789. Kurt Angle  \u2014  http:\/\/en.wikipedia.org.\/wiki\/Kurt_Angle\n2790. Rise of the Planet of the Apes  \u2014  http:\/\/en.wikipedia.org.\/wiki\/Rise_of_the_Planet_of_the_Apes\n2791. Incredibles 2  \u2014  http:\/\/en.wikipedia.org.\/wiki\/Incredibles_2\n2792. 2020 Summer Olympics  \u2014  http:\/\/en.wikipedia.org.\/wiki\/2020_Summer_Olympics\n2793. Sodium chloride  \u2014  http:\/\/en.wikipedia.org.\/wiki\/Sodium_chloride\n2794. Clitoris  \u2014  http:\/\/en.wikipedia.org.\/wiki\/Clitoris\n2795. Tokyo Ghoul  \u2014  http:\/\/en.wikipedia.org.\/wiki\/Tokyo_Ghoul\n2796. Four Horsemen of the Apocalypse  \u2014  http:\/\/en.wikipedia.org.\/wiki\/Four_Horsemen_of_the_Apocalypse\n2797. Anushka Sharma  \u2014  http:\/\/en.wikipedia.org.\/wiki\/Anushka_Sharma\n2798. Windows 10 editions  \u2014  http:\/\/en.wikipedia.org.\/wiki\/Windows_10_editions\n2799. List of hobbies  \u2014  http:\/\/en.wikipedia.org.\/wiki\/List_of_hobbies\n","miniList":"2700. HTTP 301\n2701. Michael Douglas\n2702. SOLID (object-oriented design)\n2703. The Troubles\n2704. Grimm (TV series)\n2705. Pom Klementieff\n2706. Race and ethnicity in the United States\n2707. Corey Feldman\n2708. Mitch McConnell\n2709. Apple\n2710. Homo sapiens\n2711. UEFA Europa League\n2712. Association of Southeast Asian Nations\n2713. Mercedes-Benz\n2714. Suge Knight\n2715. UFC 216\n2716. Agnosticism\n2717. C Sharp (programming language)\n2718. Quantum computing\n2719. Janis Joplin\n2720. Marshmello\n2721. Nokia\n2722. N.W.A\n2723. \u00C1lvaro Morata\n2724. Gaten Matarazzo\n2725. List of The Vampire Diaries episodes\n2726. List of solar eclipses visible from the United States\n2727. David Letterman\n2728. Trigonometric functions\n2729. Axl Rose\n2730. Aung San Suu Kyi\n2731. Daniel Kaluuya\n2732. Sodium bicarbonate\n2733. PDF\n2734. Flatliners (2017 film)\n2735. Punisher\n2736. Taoism\n2737. Tim Berners-Lee\n2738. Sensitivity and specificity\n2739. John F. Kennedy Jr.\n2740. Language\n2741. List of Marvel Cinematic Universe television series\n2742. Banana\n2743. Chuck Norris\n2744. Leonard Cohen\n2745. Helena Bonham Carter\n2746. Gucci Mane\n2747. The Conjuring\n2748. Angola\n2749. World Heritage Site\n2750. David Tennant\n2751. Geographic coordinate system\n2752. Ancient Greece\n2753. The Magnificent Seven (2016 film)\n2754. Web browser\n2755. USB 3.0\n2756. Will Ferrell\n2757. Nikki Bella\n2758. Barbados\n2759. Young Sheldon\n2760. 3D printing\n2761. Game of Thrones (season 5)\n2762. Dating\n2763. List of Outlander episodes\n2764. Moors murders\n2765. Aspirin\n2766. Dr. Seuss\n2767. Obsessive\u2013compulsive disorder\n2768. Major League Baseball\n2769. PricewaterhouseCoopers\n2770. Conservative Party (UK)\n2771. David Rockefeller\n2772. Pornographic film actor\n2773. Manhattan Project\n2774. Ballon d'Or\n2775. Liv Tyler\n2776. Willem Dafoe\n2777. Jodie Whittaker\n2778. The Great British Bake Off\n2779. William Shatner\n2780. JoJo's Bizarre Adventure\n2781. Luke Cage (TV series)\n2782. Ren\u00E9 Descartes\n2783. Video game\n2784. Music\n2785. Dakota Fanning\n2786. Salem witch trials\n2787. Eric Trump\n2788. Catherine the Great\n2789. Kurt Angle\n2790. Rise of the Planet of the Apes\n2791. Incredibles 2\n2792. 2020 Summer Olympics\n2793. Sodium chloride\n2794. Clitoris\n2795. Tokyo Ghoul\n2796. Four Horsemen of the Apocalypse\n2797. Anushka Sharma\n2798. Windows 10 editions\n2799. List of hobbies\n"}
