{"start":2801,"end":2900,"count":5616717,"type":"pageviews","pageSize":100,"page":28,"pages":56168,"columns":[{"label":"","property":"pageviews","sortable":false}],"items":[{"pageviews":"2800. <a target=\"_blank\" href=\"http://en.wikipedia.org./wiki/MacGyver_(2016_TV_series)\">MacGyver (2016 TV series)</a>"},{"pageviews":"2801. <a target=\"_blank\" href=\"http://en.wikipedia.org./wiki/Alprazolam\">Alprazolam</a>"},{"pageviews":"2802. <a target=\"_blank\" href=\"http://en.wikipedia.org./wiki/Bill_Hader\">Bill Hader</a>"},{"pageviews":"2803. <a target=\"_blank\" href=\"http://en.wikipedia.org./wiki/74th_Golden_Globe_Awards\">74th Golden Globe Awards</a>"},{"pageviews":"2804. <a target=\"_blank\" href=\"http://en.wikipedia.org./wiki/Big_Four_accounting_firms\">Big Four accounting firms</a>"},{"pageviews":"2805. <a target=\"_blank\" href=\"http://en.wikipedia.org./wiki/Nas\">Nas</a>"},{"pageviews":"2806. <a target=\"_blank\" href=\"http://en.wikipedia.org./wiki/59th_Annual_Grammy_Awards\">59th Annual Grammy Awards</a>"},{"pageviews":"2807. <a target=\"_blank\" href=\"http://en.wikipedia.org./wiki/James_II_of_England\">James II of England</a>"},{"pageviews":"2808. <a target=\"_blank\" href=\"http://en.wikipedia.org./wiki/Queens_of_the_Stone_Age\">Queens of the Stone Age</a>"},{"pageviews":"2809. <a target=\"_blank\" href=\"http://en.wikipedia.org./wiki/One_Belt_One_Road_Initiative\">One Belt One Road Initiative</a>"},{"pageviews":"2810. <a target=\"_blank\" href=\"http://en.wikipedia.org./wiki/Leprosy\">Leprosy</a>"},{"pageviews":"2811. <a target=\"_blank\" href=\"http://en.wikipedia.org./wiki/Gold_(2016_film)\">Gold (2016 film)</a>"},{"pageviews":"2812. <a target=\"_blank\" href=\"http://en.wikipedia.org./wiki/The_Wizard_of_Oz_(1939_film)\">The Wizard of Oz (1939 film)</a>"},{"pageviews":"2813. <a target=\"_blank\" href=\"http://en.wikipedia.org./wiki/Slipknot_(band)\">Slipknot (band)</a>"},{"pageviews":"2814. <a target=\"_blank\" href=\"http://en.wikipedia.org./wiki/Monica_Lewinsky\">Monica Lewinsky</a>"},{"pageviews":"2815. <a target=\"_blank\" href=\"http://en.wikipedia.org./wiki/Christopher_Hitchens\">Christopher Hitchens</a>"},{"pageviews":"2816. <a target=\"_blank\" href=\"http://en.wikipedia.org./wiki/Zoey_Deutch\">Zoey Deutch</a>"},{"pageviews":"2817. <a target=\"_blank\" href=\"http://en.wikipedia.org./wiki/Arrested_Development_(TV_series)\">Arrested Development (TV series)</a>"},{"pageviews":"2818. <a target=\"_blank\" href=\"http://en.wikipedia.org./wiki/Intersex\">Intersex</a>"},{"pageviews":"2819. <a target=\"_blank\" href=\"http://en.wikipedia.org./wiki/Death_of_Caylee_Anthony\">Death of Caylee Anthony</a>"},{"pageviews":"2820. <a target=\"_blank\" href=\"http://en.wikipedia.org./wiki/ARM_architecture\">ARM architecture</a>"},{"pageviews":"2821. <a target=\"_blank\" href=\"http://en.wikipedia.org./wiki/Cystic_fibrosis\">Cystic fibrosis</a>"},{"pageviews":"2822. <a target=\"_blank\" href=\"http://en.wikipedia.org./wiki/Feud_(TV_series)\">Feud (TV series)</a>"},{"pageviews":"2823. <a target=\"_blank\" href=\"http://en.wikipedia.org./wiki/Terry_Crews\">Terry Crews</a>"},{"pageviews":"2824. <a target=\"_blank\" href=\"http://en.wikipedia.org./wiki/Jim_Morrison\">Jim Morrison</a>"},{"pageviews":"2825. <a target=\"_blank\" href=\"http://en.wikipedia.org./wiki/LinkedIn\">LinkedIn</a>"},{"pageviews":"2826. <a target=\"_blank\" href=\"http://en.wikipedia.org./wiki/Sean_Penn\">Sean Penn</a>"},{"pageviews":"2827. <a target=\"_blank\" href=\"http://en.wikipedia.org./wiki/Malaysia_Airlines_Flight_370\">Malaysia Airlines Flight 370</a>"},{"pageviews":"2828. <a target=\"_blank\" href=\"http://en.wikipedia.org./wiki/Stanford_prison_experiment\">Stanford prison experiment</a>"},{"pageviews":"2829. <a target=\"_blank\" href=\"http://en.wikipedia.org./wiki/Super_Mario_Odyssey\">Super Mario Odyssey</a>"},{"pageviews":"2830. <a target=\"_blank\" href=\"http://en.wikipedia.org./wiki/Sergey_Brin\">Sergey Brin</a>"},{"pageviews":"2831. <a target=\"_blank\" href=\"http://en.wikipedia.org./wiki/Jeff_Bridges\">Jeff Bridges</a>"},{"pageviews":"2832. <a target=\"_blank\" href=\"http://en.wikipedia.org./wiki/Carl_Sagan\">Carl Sagan</a>"},{"pageviews":"2833. <a target=\"_blank\" href=\"http://en.wikipedia.org./wiki/Chief_executive_officer\">Chief executive officer</a>"},{"pageviews":"2834. <a target=\"_blank\" href=\"http://en.wikipedia.org./wiki/Carl_Jung\">Carl Jung</a>"},{"pageviews":"2835. <a target=\"_blank\" href=\"http://en.wikipedia.org./wiki/Don_Quixote\">Don Quixote</a>"},{"pageviews":"2836. <a target=\"_blank\" href=\"http://en.wikipedia.org./wiki/LP_(singer)\">LP (singer)</a>"},{"pageviews":"2837. <a target=\"_blank\" href=\"http://en.wikipedia.org./wiki/Recep_Tayyip_Erdo%C4%9Fan\">Recep Tayyip Erdoğan</a>"},{"pageviews":"2838. <a target=\"_blank\" href=\"http://en.wikipedia.org./wiki/List_of_Teen_Wolf_episodes\">List of Teen Wolf episodes</a>"},{"pageviews":"2839. <a target=\"_blank\" href=\"http://en.wikipedia.org./wiki/Kristen_Wiig\">Kristen Wiig</a>"},{"pageviews":"2840. <a target=\"_blank\" href=\"http://en.wikipedia.org./wiki/Barbra_Streisand\">Barbra Streisand</a>"},{"pageviews":"2841. <a target=\"_blank\" href=\"http://en.wikipedia.org./wiki/Katharine_Hepburn\">Katharine Hepburn</a>"},{"pageviews":"2842. <a target=\"_blank\" href=\"http://en.wikipedia.org./wiki/George_S._Patton\">George S. Patton</a>"},{"pageviews":"2843. <a target=\"_blank\" href=\"http://en.wikipedia.org./wiki/Jordan_Belfort\">Jordan Belfort</a>"},{"pageviews":"2844. <a target=\"_blank\" href=\"http://en.wikipedia.org./wiki/United_States_Bill_of_Rights\">United States Bill of Rights</a>"},{"pageviews":"2845. <a target=\"_blank\" href=\"http://en.wikipedia.org./wiki/Tyson_Fury\">Tyson Fury</a>"},{"pageviews":"2846. <a target=\"_blank\" href=\"http://en.wikipedia.org./wiki/National_Hockey_League\">National Hockey League</a>"},{"pageviews":"2847. <a target=\"_blank\" href=\"http://en.wikipedia.org./wiki/Atlanta_(TV_series)\">Atlanta (TV series)</a>"},{"pageviews":"2848. <a target=\"_blank\" href=\"http://en.wikipedia.org./wiki/Aaron_Judge\">Aaron Judge</a>"},{"pageviews":"2849. <a target=\"_blank\" href=\"http://en.wikipedia.org./wiki/Tate_murders\">Tate murders</a>"},{"pageviews":"2850. <a target=\"_blank\" href=\"http://en.wikipedia.org./wiki/List_of_Prime_Ministers_of_the_United_Kingdom\">List of Prime Ministers of the United Kingdom</a>"},{"pageviews":"2851. <a target=\"_blank\" href=\"http://en.wikipedia.org./wiki/San_Junipero\">San Junipero</a>"},{"pageviews":"2852. <a target=\"_blank\" href=\"http://en.wikipedia.org./wiki/Alexis_Bledel\">Alexis Bledel</a>"},{"pageviews":"2853. <a target=\"_blank\" href=\"http://en.wikipedia.org./wiki/Tardigrade\">Tardigrade</a>"},{"pageviews":"2854. <a target=\"_blank\" href=\"http://en.wikipedia.org./wiki/UTF-8\">UTF-8</a>"},{"pageviews":"2855. <a target=\"_blank\" href=\"http://en.wikipedia.org./wiki/Kyoto\">Kyoto</a>"},{"pageviews":"2856. <a target=\"_blank\" href=\"http://en.wikipedia.org./wiki/A_Dog's_Purpose_(film)\">A Dog's Purpose (film)</a>"},{"pageviews":"2857. <a target=\"_blank\" href=\"http://en.wikipedia.org./wiki/SEAL_Team_Six\">SEAL Team Six</a>"},{"pageviews":"2858. <a target=\"_blank\" href=\"http://en.wikipedia.org./wiki/List_of_Disney_theatrical_animated_features\">List of Disney theatrical animated features</a>"},{"pageviews":"2859. <a target=\"_blank\" href=\"http://en.wikipedia.org./wiki/M4_carbine\">M4 carbine</a>"},{"pageviews":"2860. <a target=\"_blank\" href=\"http://en.wikipedia.org./wiki/Al_Gore\">Al Gore</a>"},{"pageviews":"2861. <a target=\"_blank\" href=\"http://en.wikipedia.org./wiki/Billie_Jean_King\">Billie Jean King</a>"},{"pageviews":"2862. <a target=\"_blank\" href=\"http://en.wikipedia.org./wiki/Ecuador\">Ecuador</a>"},{"pageviews":"2863. <a target=\"_blank\" href=\"http://en.wikipedia.org./wiki/The_Martian_(film)\">The Martian (film)</a>"},{"pageviews":"2864. <a target=\"_blank\" href=\"http://en.wikipedia.org./wiki/Final_Fantasy_XV\">Final Fantasy XV</a>"},{"pageviews":"2865. <a target=\"_blank\" href=\"http://en.wikipedia.org./wiki/Niccol%C3%B2_Machiavelli\">Niccolò Machiavelli</a>"},{"pageviews":"2866. <a target=\"_blank\" href=\"http://en.wikipedia.org./wiki/Doctor_of_Philosophy\">Doctor of Philosophy</a>"},{"pageviews":"2867. <a target=\"_blank\" href=\"http://en.wikipedia.org./wiki/Dancing_with_the_Stars_(U.S._season_25)\">Dancing with the Stars (U.S. season 25)</a>"},{"pageviews":"2868. <a target=\"_blank\" href=\"http://en.wikipedia.org./wiki/Emerald_City_(TV_series)\">Emerald City (TV series)</a>"},{"pageviews":"2869. <a target=\"_blank\" href=\"http://en.wikipedia.org./wiki/Shaivism\">Shaivism</a>"},{"pageviews":"2870. <a target=\"_blank\" href=\"http://en.wikipedia.org./wiki/Boeing_737\">Boeing 737</a>"},{"pageviews":"2871. <a target=\"_blank\" href=\"http://en.wikipedia.org./wiki/Samantha_Akkineni\">Samantha Akkineni</a>"},{"pageviews":"2872. <a target=\"_blank\" href=\"http://en.wikipedia.org./wiki/Mexican%E2%80%93American_War\">Mexican–American War</a>"},{"pageviews":"2873. <a target=\"_blank\" href=\"http://en.wikipedia.org./wiki/Economy_of_India\">Economy of India</a>"},{"pageviews":"2874. <a target=\"_blank\" href=\"http://en.wikipedia.org./wiki/Andy_Milonakis\">Andy Milonakis</a>"},{"pageviews":"2875. <a target=\"_blank\" href=\"http://en.wikipedia.org./wiki/John_Lithgow\">John Lithgow</a>"},{"pageviews":"2876. <a target=\"_blank\" href=\"http://en.wikipedia.org./wiki/Dick_Van_Dyke\">Dick Van Dyke</a>"},{"pageviews":"2877. <a target=\"_blank\" href=\"http://en.wikipedia.org./wiki/General_Motors\">General Motors</a>"},{"pageviews":"2878. <a target=\"_blank\" href=\"http://en.wikipedia.org./wiki/List_of_cognitive_biases\">List of cognitive biases</a>"},{"pageviews":"2879. <a target=\"_blank\" href=\"http://en.wikipedia.org./wiki/Alexander_Graham_Bell\">Alexander Graham Bell</a>"},{"pageviews":"2880. <a target=\"_blank\" href=\"http://en.wikipedia.org./wiki/Pope_John_Paul_II\">Pope John Paul II</a>"},{"pageviews":"2881. <a target=\"_blank\" href=\"http://en.wikipedia.org./wiki/Colin_Firth\">Colin Firth</a>"},{"pageviews":"2882. <a target=\"_blank\" href=\"http://en.wikipedia.org./wiki/Golden_Gate_Bridge\">Golden Gate Bridge</a>"},{"pageviews":"2883. <a target=\"_blank\" href=\"http://en.wikipedia.org./wiki/Entrepreneurship\">Entrepreneurship</a>"},{"pageviews":"2884. <a target=\"_blank\" href=\"http://en.wikipedia.org./wiki/Kiefer_Sutherland\">Kiefer Sutherland</a>"},{"pageviews":"2885. <a target=\"_blank\" href=\"http://en.wikipedia.org./wiki/Vijay_(actor)\">Vijay (actor)</a>"},{"pageviews":"2886. <a target=\"_blank\" href=\"http://en.wikipedia.org./wiki/History_of_the_Internet\">History of the Internet</a>"},{"pageviews":"2887. <a target=\"_blank\" href=\"http://en.wikipedia.org./wiki/Naturism\">Naturism</a>"},{"pageviews":"2888. <a target=\"_blank\" href=\"http://en.wikipedia.org./wiki/Quicksort\">Quicksort</a>"},{"pageviews":"2889. <a target=\"_blank\" href=\"http://en.wikipedia.org./wiki/Lemonade_(Beyonc%C3%A9_album)\">Lemonade (Beyoncé album)</a>"},{"pageviews":"2890. <a target=\"_blank\" href=\"http://en.wikipedia.org./wiki/Allied_(film)\">Allied (film)</a>"},{"pageviews":"2891. <a target=\"_blank\" href=\"http://en.wikipedia.org./wiki/Psychopathy\">Psychopathy</a>"},{"pageviews":"2892. <a target=\"_blank\" href=\"http://en.wikipedia.org./wiki/Jessica_Henwick\">Jessica Henwick</a>"},{"pageviews":"2893. <a target=\"_blank\" href=\"http://en.wikipedia.org./wiki/Portland%2C_Oregon\">Portland, Oregon</a>"},{"pageviews":"2894. <a target=\"_blank\" href=\"http://en.wikipedia.org./wiki/The_Hunger_Games\">The Hunger Games</a>"},{"pageviews":"2895. <a target=\"_blank\" href=\"http://en.wikipedia.org./wiki/Alfred_Hitchcock\">Alfred Hitchcock</a>"},{"pageviews":"2896. <a target=\"_blank\" href=\"http://en.wikipedia.org./wiki/Blake_Shelton\">Blake Shelton</a>"},{"pageviews":"2897. <a target=\"_blank\" href=\"http://en.wikipedia.org./wiki/Payback_(2017)\">Payback (2017)</a>"},{"pageviews":"2898. <a target=\"_blank\" href=\"http://en.wikipedia.org./wiki/Corey_Haim\">Corey Haim</a>"},{"pageviews":"2899. <a target=\"_blank\" href=\"http://en.wikipedia.org./wiki/Dash\">Dash</a>"}],"list":"2800. MacGyver (2016 TV series)  \u2014  http:\/\/en.wikipedia.org.\/wiki\/MacGyver_(2016_TV_series)\n2801. Alprazolam  \u2014  http:\/\/en.wikipedia.org.\/wiki\/Alprazolam\n2802. Bill Hader  \u2014  http:\/\/en.wikipedia.org.\/wiki\/Bill_Hader\n2803. 74th Golden Globe Awards  \u2014  http:\/\/en.wikipedia.org.\/wiki\/74th_Golden_Globe_Awards\n2804. Big Four accounting firms  \u2014  http:\/\/en.wikipedia.org.\/wiki\/Big_Four_accounting_firms\n2805. Nas  \u2014  http:\/\/en.wikipedia.org.\/wiki\/Nas\n2806. 59th Annual Grammy Awards  \u2014  http:\/\/en.wikipedia.org.\/wiki\/59th_Annual_Grammy_Awards\n2807. James II of England  \u2014  http:\/\/en.wikipedia.org.\/wiki\/James_II_of_England\n2808. Queens of the Stone Age  \u2014  http:\/\/en.wikipedia.org.\/wiki\/Queens_of_the_Stone_Age\n2809. One Belt One Road Initiative  \u2014  http:\/\/en.wikipedia.org.\/wiki\/One_Belt_One_Road_Initiative\n2810. Leprosy  \u2014  http:\/\/en.wikipedia.org.\/wiki\/Leprosy\n2811. Gold (2016 film)  \u2014  http:\/\/en.wikipedia.org.\/wiki\/Gold_(2016_film)\n2812. The Wizard of Oz (1939 film)  \u2014  http:\/\/en.wikipedia.org.\/wiki\/The_Wizard_of_Oz_(1939_film)\n2813. Slipknot (band)  \u2014  http:\/\/en.wikipedia.org.\/wiki\/Slipknot_(band)\n2814. Monica Lewinsky  \u2014  http:\/\/en.wikipedia.org.\/wiki\/Monica_Lewinsky\n2815. Christopher Hitchens  \u2014  http:\/\/en.wikipedia.org.\/wiki\/Christopher_Hitchens\n2816. Zoey Deutch  \u2014  http:\/\/en.wikipedia.org.\/wiki\/Zoey_Deutch\n2817. Arrested Development (TV series)  \u2014  http:\/\/en.wikipedia.org.\/wiki\/Arrested_Development_(TV_series)\n2818. Intersex  \u2014  http:\/\/en.wikipedia.org.\/wiki\/Intersex\n2819. Death of Caylee Anthony  \u2014  http:\/\/en.wikipedia.org.\/wiki\/Death_of_Caylee_Anthony\n2820. ARM architecture  \u2014  http:\/\/en.wikipedia.org.\/wiki\/ARM_architecture\n2821. Cystic fibrosis  \u2014  http:\/\/en.wikipedia.org.\/wiki\/Cystic_fibrosis\n2822. Feud (TV series)  \u2014  http:\/\/en.wikipedia.org.\/wiki\/Feud_(TV_series)\n2823. Terry Crews  \u2014  http:\/\/en.wikipedia.org.\/wiki\/Terry_Crews\n2824. Jim Morrison  \u2014  http:\/\/en.wikipedia.org.\/wiki\/Jim_Morrison\n2825. LinkedIn  \u2014  http:\/\/en.wikipedia.org.\/wiki\/LinkedIn\n2826. Sean Penn  \u2014  http:\/\/en.wikipedia.org.\/wiki\/Sean_Penn\n2827. Malaysia Airlines Flight 370  \u2014  http:\/\/en.wikipedia.org.\/wiki\/Malaysia_Airlines_Flight_370\n2828. Stanford prison experiment  \u2014  http:\/\/en.wikipedia.org.\/wiki\/Stanford_prison_experiment\n2829. Super Mario Odyssey  \u2014  http:\/\/en.wikipedia.org.\/wiki\/Super_Mario_Odyssey\n2830. Sergey Brin  \u2014  http:\/\/en.wikipedia.org.\/wiki\/Sergey_Brin\n2831. Jeff Bridges  \u2014  http:\/\/en.wikipedia.org.\/wiki\/Jeff_Bridges\n2832. Carl Sagan  \u2014  http:\/\/en.wikipedia.org.\/wiki\/Carl_Sagan\n2833. Chief executive officer  \u2014  http:\/\/en.wikipedia.org.\/wiki\/Chief_executive_officer\n2834. Carl Jung  \u2014  http:\/\/en.wikipedia.org.\/wiki\/Carl_Jung\n2835. Don Quixote  \u2014  http:\/\/en.wikipedia.org.\/wiki\/Don_Quixote\n2836. LP (singer)  \u2014  http:\/\/en.wikipedia.org.\/wiki\/LP_(singer)\n2837. Recep Tayyip Erdo\u011Fan  \u2014  http:\/\/en.wikipedia.org.\/wiki\/Recep_Tayyip_Erdo%C4%9Fan\n2838. List of Teen Wolf episodes  \u2014  http:\/\/en.wikipedia.org.\/wiki\/List_of_Teen_Wolf_episodes\n2839. Kristen Wiig  \u2014  http:\/\/en.wikipedia.org.\/wiki\/Kristen_Wiig\n2840. Barbra Streisand  \u2014  http:\/\/en.wikipedia.org.\/wiki\/Barbra_Streisand\n2841. Katharine Hepburn  \u2014  http:\/\/en.wikipedia.org.\/wiki\/Katharine_Hepburn\n2842. George S. Patton  \u2014  http:\/\/en.wikipedia.org.\/wiki\/George_S._Patton\n2843. Jordan Belfort  \u2014  http:\/\/en.wikipedia.org.\/wiki\/Jordan_Belfort\n2844. United States Bill of Rights  \u2014  http:\/\/en.wikipedia.org.\/wiki\/United_States_Bill_of_Rights\n2845. Tyson Fury  \u2014  http:\/\/en.wikipedia.org.\/wiki\/Tyson_Fury\n2846. National Hockey League  \u2014  http:\/\/en.wikipedia.org.\/wiki\/National_Hockey_League\n2847. Atlanta (TV series)  \u2014  http:\/\/en.wikipedia.org.\/wiki\/Atlanta_(TV_series)\n2848. Aaron Judge  \u2014  http:\/\/en.wikipedia.org.\/wiki\/Aaron_Judge\n2849. Tate murders  \u2014  http:\/\/en.wikipedia.org.\/wiki\/Tate_murders\n2850. List of Prime Ministers of the United Kingdom  \u2014  http:\/\/en.wikipedia.org.\/wiki\/List_of_Prime_Ministers_of_the_United_Kingdom\n2851. San Junipero  \u2014  http:\/\/en.wikipedia.org.\/wiki\/San_Junipero\n2852. Alexis Bledel  \u2014  http:\/\/en.wikipedia.org.\/wiki\/Alexis_Bledel\n2853. Tardigrade  \u2014  http:\/\/en.wikipedia.org.\/wiki\/Tardigrade\n2854. UTF-8  \u2014  http:\/\/en.wikipedia.org.\/wiki\/UTF-8\n2855. Kyoto  \u2014  http:\/\/en.wikipedia.org.\/wiki\/Kyoto\n2856. A Dog's Purpose (film)  \u2014  http:\/\/en.wikipedia.org.\/wiki\/A_Dog's_Purpose_(film)\n2857. SEAL Team Six  \u2014  http:\/\/en.wikipedia.org.\/wiki\/SEAL_Team_Six\n2858. List of Disney theatrical animated features  \u2014  http:\/\/en.wikipedia.org.\/wiki\/List_of_Disney_theatrical_animated_features\n2859. M4 carbine  \u2014  http:\/\/en.wikipedia.org.\/wiki\/M4_carbine\n2860. Al Gore  \u2014  http:\/\/en.wikipedia.org.\/wiki\/Al_Gore\n2861. Billie Jean King  \u2014  http:\/\/en.wikipedia.org.\/wiki\/Billie_Jean_King\n2862. Ecuador  \u2014  http:\/\/en.wikipedia.org.\/wiki\/Ecuador\n2863. The Martian (film)  \u2014  http:\/\/en.wikipedia.org.\/wiki\/The_Martian_(film)\n2864. Final Fantasy XV  \u2014  http:\/\/en.wikipedia.org.\/wiki\/Final_Fantasy_XV\n2865. Niccol\u00F2 Machiavelli  \u2014  http:\/\/en.wikipedia.org.\/wiki\/Niccol%C3%B2_Machiavelli\n2866. Doctor of Philosophy  \u2014  http:\/\/en.wikipedia.org.\/wiki\/Doctor_of_Philosophy\n2867. Dancing with the Stars (U.S. season 25)  \u2014  http:\/\/en.wikipedia.org.\/wiki\/Dancing_with_the_Stars_(U.S._season_25)\n2868. Emerald City (TV series)  \u2014  http:\/\/en.wikipedia.org.\/wiki\/Emerald_City_(TV_series)\n2869. Shaivism  \u2014  http:\/\/en.wikipedia.org.\/wiki\/Shaivism\n2870. Boeing 737  \u2014  http:\/\/en.wikipedia.org.\/wiki\/Boeing_737\n2871. Samantha Akkineni  \u2014  http:\/\/en.wikipedia.org.\/wiki\/Samantha_Akkineni\n2872. Mexican\u2013American War  \u2014  http:\/\/en.wikipedia.org.\/wiki\/Mexican%E2%80%93American_War\n2873. Economy of India  \u2014  http:\/\/en.wikipedia.org.\/wiki\/Economy_of_India\n2874. Andy Milonakis  \u2014  http:\/\/en.wikipedia.org.\/wiki\/Andy_Milonakis\n2875. John Lithgow  \u2014  http:\/\/en.wikipedia.org.\/wiki\/John_Lithgow\n2876. Dick Van Dyke  \u2014  http:\/\/en.wikipedia.org.\/wiki\/Dick_Van_Dyke\n2877. General Motors  \u2014  http:\/\/en.wikipedia.org.\/wiki\/General_Motors\n2878. List of cognitive biases  \u2014  http:\/\/en.wikipedia.org.\/wiki\/List_of_cognitive_biases\n2879. Alexander Graham Bell  \u2014  http:\/\/en.wikipedia.org.\/wiki\/Alexander_Graham_Bell\n2880. Pope John Paul II  \u2014  http:\/\/en.wikipedia.org.\/wiki\/Pope_John_Paul_II\n2881. Colin Firth  \u2014  http:\/\/en.wikipedia.org.\/wiki\/Colin_Firth\n2882. Golden Gate Bridge  \u2014  http:\/\/en.wikipedia.org.\/wiki\/Golden_Gate_Bridge\n2883. Entrepreneurship  \u2014  http:\/\/en.wikipedia.org.\/wiki\/Entrepreneurship\n2884. Kiefer Sutherland  \u2014  http:\/\/en.wikipedia.org.\/wiki\/Kiefer_Sutherland\n2885. Vijay (actor)  \u2014  http:\/\/en.wikipedia.org.\/wiki\/Vijay_(actor)\n2886. History of the Internet  \u2014  http:\/\/en.wikipedia.org.\/wiki\/History_of_the_Internet\n2887. Naturism  \u2014  http:\/\/en.wikipedia.org.\/wiki\/Naturism\n2888. Quicksort  \u2014  http:\/\/en.wikipedia.org.\/wiki\/Quicksort\n2889. Lemonade (Beyonc\u00E9 album)  \u2014  http:\/\/en.wikipedia.org.\/wiki\/Lemonade_(Beyonc%C3%A9_album)\n2890. Allied (film)  \u2014  http:\/\/en.wikipedia.org.\/wiki\/Allied_(film)\n2891. Psychopathy  \u2014  http:\/\/en.wikipedia.org.\/wiki\/Psychopathy\n2892. Jessica Henwick  \u2014  http:\/\/en.wikipedia.org.\/wiki\/Jessica_Henwick\n2893. Portland, Oregon  \u2014  http:\/\/en.wikipedia.org.\/wiki\/Portland%2C_Oregon\n2894. The Hunger Games  \u2014  http:\/\/en.wikipedia.org.\/wiki\/The_Hunger_Games\n2895. Alfred Hitchcock  \u2014  http:\/\/en.wikipedia.org.\/wiki\/Alfred_Hitchcock\n2896. Blake Shelton  \u2014  http:\/\/en.wikipedia.org.\/wiki\/Blake_Shelton\n2897. Payback (2017)  \u2014  http:\/\/en.wikipedia.org.\/wiki\/Payback_(2017)\n2898. Corey Haim  \u2014  http:\/\/en.wikipedia.org.\/wiki\/Corey_Haim\n2899. Dash  \u2014  http:\/\/en.wikipedia.org.\/wiki\/Dash\n","miniList":"2800. MacGyver (2016 TV series)\n2801. Alprazolam\n2802. Bill Hader\n2803. 74th Golden Globe Awards\n2804. Big Four accounting firms\n2805. Nas\n2806. 59th Annual Grammy Awards\n2807. James II of England\n2808. Queens of the Stone Age\n2809. One Belt One Road Initiative\n2810. Leprosy\n2811. Gold (2016 film)\n2812. The Wizard of Oz (1939 film)\n2813. Slipknot (band)\n2814. Monica Lewinsky\n2815. Christopher Hitchens\n2816. Zoey Deutch\n2817. Arrested Development (TV series)\n2818. Intersex\n2819. Death of Caylee Anthony\n2820. ARM architecture\n2821. Cystic fibrosis\n2822. Feud (TV series)\n2823. Terry Crews\n2824. Jim Morrison\n2825. LinkedIn\n2826. Sean Penn\n2827. Malaysia Airlines Flight 370\n2828. Stanford prison experiment\n2829. Super Mario Odyssey\n2830. Sergey Brin\n2831. Jeff Bridges\n2832. Carl Sagan\n2833. Chief executive officer\n2834. Carl Jung\n2835. Don Quixote\n2836. LP (singer)\n2837. Recep Tayyip Erdo\u011Fan\n2838. List of Teen Wolf episodes\n2839. Kristen Wiig\n2840. Barbra Streisand\n2841. Katharine Hepburn\n2842. George S. Patton\n2843. Jordan Belfort\n2844. United States Bill of Rights\n2845. Tyson Fury\n2846. National Hockey League\n2847. Atlanta (TV series)\n2848. Aaron Judge\n2849. Tate murders\n2850. List of Prime Ministers of the United Kingdom\n2851. San Junipero\n2852. Alexis Bledel\n2853. Tardigrade\n2854. UTF-8\n2855. Kyoto\n2856. A Dog's Purpose (film)\n2857. SEAL Team Six\n2858. List of Disney theatrical animated features\n2859. M4 carbine\n2860. Al Gore\n2861. Billie Jean King\n2862. Ecuador\n2863. The Martian (film)\n2864. Final Fantasy XV\n2865. Niccol\u00F2 Machiavelli\n2866. Doctor of Philosophy\n2867. Dancing with the Stars (U.S. season 25)\n2868. Emerald City (TV series)\n2869. Shaivism\n2870. Boeing 737\n2871. Samantha Akkineni\n2872. Mexican\u2013American War\n2873. Economy of India\n2874. Andy Milonakis\n2875. John Lithgow\n2876. Dick Van Dyke\n2877. General Motors\n2878. List of cognitive biases\n2879. Alexander Graham Bell\n2880. Pope John Paul II\n2881. Colin Firth\n2882. Golden Gate Bridge\n2883. Entrepreneurship\n2884. Kiefer Sutherland\n2885. Vijay (actor)\n2886. History of the Internet\n2887. Naturism\n2888. Quicksort\n2889. Lemonade (Beyonc\u00E9 album)\n2890. Allied (film)\n2891. Psychopathy\n2892. Jessica Henwick\n2893. Portland, Oregon\n2894. The Hunger Games\n2895. Alfred Hitchcock\n2896. Blake Shelton\n2897. Payback (2017)\n2898. Corey Haim\n2899. Dash\n"}
