{"start":2901,"end":3000,"count":5616717,"type":"pageviews","pageSize":100,"page":29,"pages":56168,"columns":[{"label":"","property":"pageviews","sortable":false}],"items":[{"pageviews":"2900. <a target=\"_blank\" href=\"http://en.wikipedia.org./wiki/Ultimate_Fighting_Championship\">Ultimate Fighting Championship</a>"},{"pageviews":"2901. <a target=\"_blank\" href=\"http://en.wikipedia.org./wiki/HIV\">HIV</a>"},{"pageviews":"2902. <a target=\"_blank\" href=\"http://en.wikipedia.org./wiki/Orson_Welles\">Orson Welles</a>"},{"pageviews":"2903. <a target=\"_blank\" href=\"http://en.wikipedia.org./wiki/Tibet\">Tibet</a>"},{"pageviews":"2904. <a target=\"_blank\" href=\"http://en.wikipedia.org./wiki/Axis_powers\">Axis powers</a>"},{"pageviews":"2905. <a target=\"_blank\" href=\"http://en.wikipedia.org./wiki/Nier_(video_game)\">Nier (video game)</a>"},{"pageviews":"2906. <a target=\"_blank\" href=\"http://en.wikipedia.org./wiki/Jon_Hamm\">Jon Hamm</a>"},{"pageviews":"2907. <a target=\"_blank\" href=\"http://en.wikipedia.org./wiki/Systemic_lupus_erythematosus\">Systemic lupus erythematosus</a>"},{"pageviews":"2908. <a target=\"_blank\" href=\"http://en.wikipedia.org./wiki/Rabindranath_Tagore\">Rabindranath Tagore</a>"},{"pageviews":"2909. <a target=\"_blank\" href=\"http://en.wikipedia.org./wiki/Pompeii\">Pompeii</a>"},{"pageviews":"2910. <a target=\"_blank\" href=\"http://en.wikipedia.org./wiki/Vasyl_Lomachenko\">Vasyl Lomachenko</a>"},{"pageviews":"2911. <a target=\"_blank\" href=\"http://en.wikipedia.org./wiki/Concorde\">Concorde</a>"},{"pageviews":"2912. <a target=\"_blank\" href=\"http://en.wikipedia.org./wiki/Jessica_Lange\">Jessica Lange</a>"},{"pageviews":"2913. <a target=\"_blank\" href=\"http://en.wikipedia.org./wiki/Tiger_Zinda_Hai\">Tiger Zinda Hai</a>"},{"pageviews":"2914. <a target=\"_blank\" href=\"http://en.wikipedia.org./wiki/Support_vector_machine\">Support vector machine</a>"},{"pageviews":"2915. <a target=\"_blank\" href=\"http://en.wikipedia.org./wiki/Susan_Sarandon\">Susan Sarandon</a>"},{"pageviews":"2916. <a target=\"_blank\" href=\"http://en.wikipedia.org./wiki/2017_FIFA_U-20_World_Cup\">2017 FIFA U-20 World Cup</a>"},{"pageviews":"2917. <a target=\"_blank\" href=\"http://en.wikipedia.org./wiki/Trolls_(film)\">Trolls (film)</a>"},{"pageviews":"2918. <a target=\"_blank\" href=\"http://en.wikipedia.org./wiki/Apocalypse_Now\">Apocalypse Now</a>"},{"pageviews":"2919. <a target=\"_blank\" href=\"http://en.wikipedia.org./wiki/Petroleum\">Petroleum</a>"},{"pageviews":"2920. <a target=\"_blank\" href=\"http://en.wikipedia.org./wiki/Julia_Stiles\">Julia Stiles</a>"},{"pageviews":"2921. <a target=\"_blank\" href=\"http://en.wikipedia.org./wiki/List_of_Breaking_Bad_and_Better_Call_Saul_characters\">List of Breaking Bad and Better Call Saul characters</a>"},{"pageviews":"2922. <a target=\"_blank\" href=\"http://en.wikipedia.org./wiki/Hunter_S._Thompson\">Hunter S. Thompson</a>"},{"pageviews":"2923. <a target=\"_blank\" href=\"http://en.wikipedia.org./wiki/Jason_Bateman\">Jason Bateman</a>"},{"pageviews":"2924. <a target=\"_blank\" href=\"http://en.wikipedia.org./wiki/Amitabh_Bachchan\">Amitabh Bachchan</a>"},{"pageviews":"2925. <a target=\"_blank\" href=\"http://en.wikipedia.org./wiki/Uma_Thurman\">Uma Thurman</a>"},{"pageviews":"2926. <a target=\"_blank\" href=\"http://en.wikipedia.org./wiki/Bible\">Bible</a>"},{"pageviews":"2927. <a target=\"_blank\" href=\"http://en.wikipedia.org./wiki/Shia_Islam\">Shia Islam</a>"},{"pageviews":"2928. <a target=\"_blank\" href=\"http://en.wikipedia.org./wiki/Software_as_a_service\">Software as a service</a>"},{"pageviews":"2929. <a target=\"_blank\" href=\"http://en.wikipedia.org./wiki/Victorian_era\">Victorian era</a>"},{"pageviews":"2930. <a target=\"_blank\" href=\"http://en.wikipedia.org./wiki/Julianne_Moore\">Julianne Moore</a>"},{"pageviews":"2931. <a target=\"_blank\" href=\"http://en.wikipedia.org./wiki/Pearl_Jam\">Pearl Jam</a>"},{"pageviews":"2932. <a target=\"_blank\" href=\"http://en.wikipedia.org./wiki/Lily_Collins\">Lily Collins</a>"},{"pageviews":"2933. <a target=\"_blank\" href=\"http://en.wikipedia.org./wiki/World_Trade_Center_(1973%E2%80%932001)\">World Trade Center (1973–2001)</a>"},{"pageviews":"2934. <a target=\"_blank\" href=\"http://en.wikipedia.org./wiki/Fred_Rogers\">Fred Rogers</a>"},{"pageviews":"2935. <a target=\"_blank\" href=\"http://en.wikipedia.org./wiki/Greek_language\">Greek language</a>"},{"pageviews":"2936. <a target=\"_blank\" href=\"http://en.wikipedia.org./wiki/The_Dark_Side_of_the_Moon\">The Dark Side of the Moon</a>"},{"pageviews":"2937. <a target=\"_blank\" href=\"http://en.wikipedia.org./wiki/Friday_the_13th_(franchise)\">Friday the 13th (franchise)</a>"},{"pageviews":"2938. <a target=\"_blank\" href=\"http://en.wikipedia.org./wiki/United_States_presidential_election%2C_2000\">United States presidential election, 2000</a>"},{"pageviews":"2939. <a target=\"_blank\" href=\"http://en.wikipedia.org./wiki/Colin_Farrell\">Colin Farrell</a>"},{"pageviews":"2940. <a target=\"_blank\" href=\"http://en.wikipedia.org./wiki/Mother's_Day\">Mother's Day</a>"},{"pageviews":"2941. <a target=\"_blank\" href=\"http://en.wikipedia.org./wiki/List_of_oldest_living_people\">List of oldest living people</a>"},{"pageviews":"2942. <a target=\"_blank\" href=\"http://en.wikipedia.org./wiki/Herbert_Hoover\">Herbert Hoover</a>"},{"pageviews":"2943. <a target=\"_blank\" href=\"http://en.wikipedia.org./wiki/Bachelor's_degree\">Bachelor's degree</a>"},{"pageviews":"2944. <a target=\"_blank\" href=\"http://en.wikipedia.org./wiki/Stanford_University\">Stanford University</a>"},{"pageviews":"2945. <a target=\"_blank\" href=\"http://en.wikipedia.org./wiki/Katie_Holmes\">Katie Holmes</a>"},{"pageviews":"2946. <a target=\"_blank\" href=\"http://en.wikipedia.org./wiki/Go_(programming_language)\">Go (programming language)</a>"},{"pageviews":"2947. <a target=\"_blank\" href=\"http://en.wikipedia.org./wiki/Yoga\">Yoga</a>"},{"pageviews":"2948. <a target=\"_blank\" href=\"http://en.wikipedia.org./wiki/Botulism\">Botulism</a>"},{"pageviews":"2949. <a target=\"_blank\" href=\"http://en.wikipedia.org./wiki/Sulfur\">Sulfur</a>"},{"pageviews":"2950. <a target=\"_blank\" href=\"http://en.wikipedia.org./wiki/Athena\">Athena</a>"},{"pageviews":"2951. <a target=\"_blank\" href=\"http://en.wikipedia.org./wiki/Digital_object_identifier\">Digital object identifier</a>"},{"pageviews":"2952. <a target=\"_blank\" href=\"http://en.wikipedia.org./wiki/UNESCO\">UNESCO</a>"},{"pageviews":"2953. <a target=\"_blank\" href=\"http://en.wikipedia.org./wiki/Ammonia\">Ammonia</a>"},{"pageviews":"2954. <a target=\"_blank\" href=\"http://en.wikipedia.org./wiki/Lucifer\">Lucifer</a>"},{"pageviews":"2955. <a target=\"_blank\" href=\"http://en.wikipedia.org./wiki/Peter_Thiel\">Peter Thiel</a>"},{"pageviews":"2956. <a target=\"_blank\" href=\"http://en.wikipedia.org./wiki/Binary_option\">Binary option</a>"},{"pageviews":"2957. <a target=\"_blank\" href=\"http://en.wikipedia.org./wiki/Independence_Day_(United_States)\">Independence Day (United States)</a>"},{"pageviews":"2958. <a target=\"_blank\" href=\"http://en.wikipedia.org./wiki/Zee_News\">Zee News</a>"},{"pageviews":"2959. <a target=\"_blank\" href=\"http://en.wikipedia.org./wiki/Jinder_Mahal\">Jinder Mahal</a>"},{"pageviews":"2960. <a target=\"_blank\" href=\"http://en.wikipedia.org./wiki/UFC_218\">UFC 218</a>"},{"pageviews":"2961. <a target=\"_blank\" href=\"http://en.wikipedia.org./wiki/Vera_Farmiga\">Vera Farmiga</a>"},{"pageviews":"2962. <a target=\"_blank\" href=\"http://en.wikipedia.org./wiki/Jim_Parsons\">Jim Parsons</a>"},{"pageviews":"2963. <a target=\"_blank\" href=\"http://en.wikipedia.org./wiki/Morena_Baccarin\">Morena Baccarin</a>"},{"pageviews":"2964. <a target=\"_blank\" href=\"http://en.wikipedia.org./wiki/Guillermo_del_Toro\">Guillermo del Toro</a>"},{"pageviews":"2965. <a target=\"_blank\" href=\"http://en.wikipedia.org./wiki/Voltaire\">Voltaire</a>"},{"pageviews":"2966. <a target=\"_blank\" href=\"http://en.wikipedia.org./wiki/Bulletin_board_system\">Bulletin board system</a>"},{"pageviews":"2967. <a target=\"_blank\" href=\"http://en.wikipedia.org./wiki/Alice's_Adventures_in_Wonderland\">Alice's Adventures in Wonderland</a>"},{"pageviews":"2968. <a target=\"_blank\" href=\"http://en.wikipedia.org./wiki/Secure_Shell\">Secure Shell</a>"},{"pageviews":"2969. <a target=\"_blank\" href=\"http://en.wikipedia.org./wiki/Thirty_Years'_War\">Thirty Years' War</a>"},{"pageviews":"2970. <a target=\"_blank\" href=\"http://en.wikipedia.org./wiki/Massachusetts_Institute_of_Technology\">Massachusetts Institute of Technology</a>"},{"pageviews":"2971. <a target=\"_blank\" href=\"http://en.wikipedia.org./wiki/Isla_Fisher\">Isla Fisher</a>"},{"pageviews":"2972. <a target=\"_blank\" href=\"http://en.wikipedia.org./wiki/Trinidad_and_Tobago\">Trinidad and Tobago</a>"},{"pageviews":"2973. <a target=\"_blank\" href=\"http://en.wikipedia.org./wiki/Charles_Bronson\">Charles Bronson</a>"},{"pageviews":"2974. <a target=\"_blank\" href=\"http://en.wikipedia.org./wiki/Sting_(musician)\">Sting (musician)</a>"},{"pageviews":"2975. <a target=\"_blank\" href=\"http://en.wikipedia.org./wiki/Epistemology\">Epistemology</a>"},{"pageviews":"2976. <a target=\"_blank\" href=\"http://en.wikipedia.org./wiki/Untitled_Avengers_film\">Untitled Avengers film</a>"},{"pageviews":"2977. <a target=\"_blank\" href=\"http://en.wikipedia.org./wiki/Sheriff_of_Cambridgeshire_and_Huntingdonshire\">Sheriff of Cambridgeshire and Huntingdonshire</a>"},{"pageviews":"2978. <a target=\"_blank\" href=\"http://en.wikipedia.org./wiki/CAN_bus\">CAN bus</a>"},{"pageviews":"2979. <a target=\"_blank\" href=\"http://en.wikipedia.org./wiki/Georgia_(U.S._state)\">Georgia (U.S. state)</a>"},{"pageviews":"2980. <a target=\"_blank\" href=\"http://en.wikipedia.org./wiki/Dirk_Gently's_Holistic_Detective_Agency_(TV_series)\">Dirk Gently's Holistic Detective Agency (TV series)</a>"},{"pageviews":"2981. <a target=\"_blank\" href=\"http://en.wikipedia.org./wiki/James_Madison\">James Madison</a>"},{"pageviews":"2982. <a target=\"_blank\" href=\"http://en.wikipedia.org./wiki/John_Williams\">John Williams</a>"},{"pageviews":"2983. <a target=\"_blank\" href=\"http://en.wikipedia.org./wiki/Empire_(2015_TV_series)\">Empire (2015 TV series)</a>"},{"pageviews":"2984. <a target=\"_blank\" href=\"http://en.wikipedia.org./wiki/Riley_Keough\">Riley Keough</a>"},{"pageviews":"2985. <a target=\"_blank\" href=\"http://en.wikipedia.org./wiki/Helium\">Helium</a>"},{"pageviews":"2986. <a target=\"_blank\" href=\"http://en.wikipedia.org./wiki/Operation_Barbarossa\">Operation Barbarossa</a>"},{"pageviews":"2987. <a target=\"_blank\" href=\"http://en.wikipedia.org./wiki/South_America\">South America</a>"},{"pageviews":"2988. <a target=\"_blank\" href=\"http://en.wikipedia.org./wiki/The_Space_Between_Us_(film)\">The Space Between Us (film)</a>"},{"pageviews":"2989. <a target=\"_blank\" href=\"http://en.wikipedia.org./wiki/Powerless_(TV_series)\">Powerless (TV series)</a>"},{"pageviews":"2990. <a target=\"_blank\" href=\"http://en.wikipedia.org./wiki/Federal_government_of_the_United_States\">Federal government of the United States</a>"},{"pageviews":"2991. <a target=\"_blank\" href=\"http://en.wikipedia.org./wiki/Jeff_Goldblum\">Jeff Goldblum</a>"},{"pageviews":"2992. <a target=\"_blank\" href=\"http://en.wikipedia.org./wiki/Greenhouse_gas\">Greenhouse gas</a>"},{"pageviews":"2993. <a target=\"_blank\" href=\"http://en.wikipedia.org./wiki/Big_Ben\">Big Ben</a>"},{"pageviews":"2994. <a target=\"_blank\" href=\"http://en.wikipedia.org./wiki/Domhnall_Gleeson\">Domhnall Gleeson</a>"},{"pageviews":"2995. <a target=\"_blank\" href=\"http://en.wikipedia.org./wiki/Torque\">Torque</a>"},{"pageviews":"2996. <a target=\"_blank\" href=\"http://en.wikipedia.org./wiki/Mercury_(planet)\">Mercury (planet)</a>"},{"pageviews":"2997. <a target=\"_blank\" href=\"http://en.wikipedia.org./wiki/Spanish%E2%80%93American_War\">Spanish–American War</a>"},{"pageviews":"2998. <a target=\"_blank\" href=\"http://en.wikipedia.org./wiki/Lil_Yachty\">Lil Yachty</a>"},{"pageviews":"2999. <a target=\"_blank\" href=\"http://en.wikipedia.org./wiki/Michelle_Rodriguez\">Michelle Rodriguez</a>"}],"list":"2900. Ultimate Fighting Championship  \u2014  http:\/\/en.wikipedia.org.\/wiki\/Ultimate_Fighting_Championship\n2901. HIV  \u2014  http:\/\/en.wikipedia.org.\/wiki\/HIV\n2902. Orson Welles  \u2014  http:\/\/en.wikipedia.org.\/wiki\/Orson_Welles\n2903. Tibet  \u2014  http:\/\/en.wikipedia.org.\/wiki\/Tibet\n2904. Axis powers  \u2014  http:\/\/en.wikipedia.org.\/wiki\/Axis_powers\n2905. Nier (video game)  \u2014  http:\/\/en.wikipedia.org.\/wiki\/Nier_(video_game)\n2906. Jon Hamm  \u2014  http:\/\/en.wikipedia.org.\/wiki\/Jon_Hamm\n2907. Systemic lupus erythematosus  \u2014  http:\/\/en.wikipedia.org.\/wiki\/Systemic_lupus_erythematosus\n2908. Rabindranath Tagore  \u2014  http:\/\/en.wikipedia.org.\/wiki\/Rabindranath_Tagore\n2909. Pompeii  \u2014  http:\/\/en.wikipedia.org.\/wiki\/Pompeii\n2910. Vasyl Lomachenko  \u2014  http:\/\/en.wikipedia.org.\/wiki\/Vasyl_Lomachenko\n2911. Concorde  \u2014  http:\/\/en.wikipedia.org.\/wiki\/Concorde\n2912. Jessica Lange  \u2014  http:\/\/en.wikipedia.org.\/wiki\/Jessica_Lange\n2913. Tiger Zinda Hai  \u2014  http:\/\/en.wikipedia.org.\/wiki\/Tiger_Zinda_Hai\n2914. Support vector machine  \u2014  http:\/\/en.wikipedia.org.\/wiki\/Support_vector_machine\n2915. Susan Sarandon  \u2014  http:\/\/en.wikipedia.org.\/wiki\/Susan_Sarandon\n2916. 2017 FIFA U-20 World Cup  \u2014  http:\/\/en.wikipedia.org.\/wiki\/2017_FIFA_U-20_World_Cup\n2917. Trolls (film)  \u2014  http:\/\/en.wikipedia.org.\/wiki\/Trolls_(film)\n2918. Apocalypse Now  \u2014  http:\/\/en.wikipedia.org.\/wiki\/Apocalypse_Now\n2919. Petroleum  \u2014  http:\/\/en.wikipedia.org.\/wiki\/Petroleum\n2920. Julia Stiles  \u2014  http:\/\/en.wikipedia.org.\/wiki\/Julia_Stiles\n2921. List of Breaking Bad and Better Call Saul characters  \u2014  http:\/\/en.wikipedia.org.\/wiki\/List_of_Breaking_Bad_and_Better_Call_Saul_characters\n2922. Hunter S. Thompson  \u2014  http:\/\/en.wikipedia.org.\/wiki\/Hunter_S._Thompson\n2923. Jason Bateman  \u2014  http:\/\/en.wikipedia.org.\/wiki\/Jason_Bateman\n2924. Amitabh Bachchan  \u2014  http:\/\/en.wikipedia.org.\/wiki\/Amitabh_Bachchan\n2925. Uma Thurman  \u2014  http:\/\/en.wikipedia.org.\/wiki\/Uma_Thurman\n2926. Bible  \u2014  http:\/\/en.wikipedia.org.\/wiki\/Bible\n2927. Shia Islam  \u2014  http:\/\/en.wikipedia.org.\/wiki\/Shia_Islam\n2928. Software as a service  \u2014  http:\/\/en.wikipedia.org.\/wiki\/Software_as_a_service\n2929. Victorian era  \u2014  http:\/\/en.wikipedia.org.\/wiki\/Victorian_era\n2930. Julianne Moore  \u2014  http:\/\/en.wikipedia.org.\/wiki\/Julianne_Moore\n2931. Pearl Jam  \u2014  http:\/\/en.wikipedia.org.\/wiki\/Pearl_Jam\n2932. Lily Collins  \u2014  http:\/\/en.wikipedia.org.\/wiki\/Lily_Collins\n2933. World Trade Center (1973\u20132001)  \u2014  http:\/\/en.wikipedia.org.\/wiki\/World_Trade_Center_(1973%E2%80%932001)\n2934. Fred Rogers  \u2014  http:\/\/en.wikipedia.org.\/wiki\/Fred_Rogers\n2935. Greek language  \u2014  http:\/\/en.wikipedia.org.\/wiki\/Greek_language\n2936. The Dark Side of the Moon  \u2014  http:\/\/en.wikipedia.org.\/wiki\/The_Dark_Side_of_the_Moon\n2937. Friday the 13th (franchise)  \u2014  http:\/\/en.wikipedia.org.\/wiki\/Friday_the_13th_(franchise)\n2938. United States presidential election, 2000  \u2014  http:\/\/en.wikipedia.org.\/wiki\/United_States_presidential_election%2C_2000\n2939. Colin Farrell  \u2014  http:\/\/en.wikipedia.org.\/wiki\/Colin_Farrell\n2940. Mother's Day  \u2014  http:\/\/en.wikipedia.org.\/wiki\/Mother's_Day\n2941. List of oldest living people  \u2014  http:\/\/en.wikipedia.org.\/wiki\/List_of_oldest_living_people\n2942. Herbert Hoover  \u2014  http:\/\/en.wikipedia.org.\/wiki\/Herbert_Hoover\n2943. Bachelor's degree  \u2014  http:\/\/en.wikipedia.org.\/wiki\/Bachelor's_degree\n2944. Stanford University  \u2014  http:\/\/en.wikipedia.org.\/wiki\/Stanford_University\n2945. Katie Holmes  \u2014  http:\/\/en.wikipedia.org.\/wiki\/Katie_Holmes\n2946. Go (programming language)  \u2014  http:\/\/en.wikipedia.org.\/wiki\/Go_(programming_language)\n2947. Yoga  \u2014  http:\/\/en.wikipedia.org.\/wiki\/Yoga\n2948. Botulism  \u2014  http:\/\/en.wikipedia.org.\/wiki\/Botulism\n2949. Sulfur  \u2014  http:\/\/en.wikipedia.org.\/wiki\/Sulfur\n2950. Athena  \u2014  http:\/\/en.wikipedia.org.\/wiki\/Athena\n2951. Digital object identifier  \u2014  http:\/\/en.wikipedia.org.\/wiki\/Digital_object_identifier\n2952. UNESCO  \u2014  http:\/\/en.wikipedia.org.\/wiki\/UNESCO\n2953. Ammonia  \u2014  http:\/\/en.wikipedia.org.\/wiki\/Ammonia\n2954. Lucifer  \u2014  http:\/\/en.wikipedia.org.\/wiki\/Lucifer\n2955. Peter Thiel  \u2014  http:\/\/en.wikipedia.org.\/wiki\/Peter_Thiel\n2956. Binary option  \u2014  http:\/\/en.wikipedia.org.\/wiki\/Binary_option\n2957. Independence Day (United States)  \u2014  http:\/\/en.wikipedia.org.\/wiki\/Independence_Day_(United_States)\n2958. Zee News  \u2014  http:\/\/en.wikipedia.org.\/wiki\/Zee_News\n2959. Jinder Mahal  \u2014  http:\/\/en.wikipedia.org.\/wiki\/Jinder_Mahal\n2960. UFC 218  \u2014  http:\/\/en.wikipedia.org.\/wiki\/UFC_218\n2961. Vera Farmiga  \u2014  http:\/\/en.wikipedia.org.\/wiki\/Vera_Farmiga\n2962. Jim Parsons  \u2014  http:\/\/en.wikipedia.org.\/wiki\/Jim_Parsons\n2963. Morena Baccarin  \u2014  http:\/\/en.wikipedia.org.\/wiki\/Morena_Baccarin\n2964. Guillermo del Toro  \u2014  http:\/\/en.wikipedia.org.\/wiki\/Guillermo_del_Toro\n2965. Voltaire  \u2014  http:\/\/en.wikipedia.org.\/wiki\/Voltaire\n2966. Bulletin board system  \u2014  http:\/\/en.wikipedia.org.\/wiki\/Bulletin_board_system\n2967. Alice's Adventures in Wonderland  \u2014  http:\/\/en.wikipedia.org.\/wiki\/Alice's_Adventures_in_Wonderland\n2968. Secure Shell  \u2014  http:\/\/en.wikipedia.org.\/wiki\/Secure_Shell\n2969. Thirty Years' War  \u2014  http:\/\/en.wikipedia.org.\/wiki\/Thirty_Years'_War\n2970. Massachusetts Institute of Technology  \u2014  http:\/\/en.wikipedia.org.\/wiki\/Massachusetts_Institute_of_Technology\n2971. Isla Fisher  \u2014  http:\/\/en.wikipedia.org.\/wiki\/Isla_Fisher\n2972. Trinidad and Tobago  \u2014  http:\/\/en.wikipedia.org.\/wiki\/Trinidad_and_Tobago\n2973. Charles Bronson  \u2014  http:\/\/en.wikipedia.org.\/wiki\/Charles_Bronson\n2974. Sting (musician)  \u2014  http:\/\/en.wikipedia.org.\/wiki\/Sting_(musician)\n2975. Epistemology  \u2014  http:\/\/en.wikipedia.org.\/wiki\/Epistemology\n2976. Untitled Avengers film  \u2014  http:\/\/en.wikipedia.org.\/wiki\/Untitled_Avengers_film\n2977. Sheriff of Cambridgeshire and Huntingdonshire  \u2014  http:\/\/en.wikipedia.org.\/wiki\/Sheriff_of_Cambridgeshire_and_Huntingdonshire\n2978. CAN bus  \u2014  http:\/\/en.wikipedia.org.\/wiki\/CAN_bus\n2979. Georgia (U.S. state)  \u2014  http:\/\/en.wikipedia.org.\/wiki\/Georgia_(U.S._state)\n2980. Dirk Gently's Holistic Detective Agency (TV series)  \u2014  http:\/\/en.wikipedia.org.\/wiki\/Dirk_Gently's_Holistic_Detective_Agency_(TV_series)\n2981. James Madison  \u2014  http:\/\/en.wikipedia.org.\/wiki\/James_Madison\n2982. John Williams  \u2014  http:\/\/en.wikipedia.org.\/wiki\/John_Williams\n2983. Empire (2015 TV series)  \u2014  http:\/\/en.wikipedia.org.\/wiki\/Empire_(2015_TV_series)\n2984. Riley Keough  \u2014  http:\/\/en.wikipedia.org.\/wiki\/Riley_Keough\n2985. Helium  \u2014  http:\/\/en.wikipedia.org.\/wiki\/Helium\n2986. Operation Barbarossa  \u2014  http:\/\/en.wikipedia.org.\/wiki\/Operation_Barbarossa\n2987. South America  \u2014  http:\/\/en.wikipedia.org.\/wiki\/South_America\n2988. The Space Between Us (film)  \u2014  http:\/\/en.wikipedia.org.\/wiki\/The_Space_Between_Us_(film)\n2989. Powerless (TV series)  \u2014  http:\/\/en.wikipedia.org.\/wiki\/Powerless_(TV_series)\n2990. Federal government of the United States  \u2014  http:\/\/en.wikipedia.org.\/wiki\/Federal_government_of_the_United_States\n2991. Jeff Goldblum  \u2014  http:\/\/en.wikipedia.org.\/wiki\/Jeff_Goldblum\n2992. Greenhouse gas  \u2014  http:\/\/en.wikipedia.org.\/wiki\/Greenhouse_gas\n2993. Big Ben  \u2014  http:\/\/en.wikipedia.org.\/wiki\/Big_Ben\n2994. Domhnall Gleeson  \u2014  http:\/\/en.wikipedia.org.\/wiki\/Domhnall_Gleeson\n2995. Torque  \u2014  http:\/\/en.wikipedia.org.\/wiki\/Torque\n2996. Mercury (planet)  \u2014  http:\/\/en.wikipedia.org.\/wiki\/Mercury_(planet)\n2997. Spanish\u2013American War  \u2014  http:\/\/en.wikipedia.org.\/wiki\/Spanish%E2%80%93American_War\n2998. Lil Yachty  \u2014  http:\/\/en.wikipedia.org.\/wiki\/Lil_Yachty\n2999. Michelle Rodriguez  \u2014  http:\/\/en.wikipedia.org.\/wiki\/Michelle_Rodriguez\n","miniList":"2900. Ultimate Fighting Championship\n2901. HIV\n2902. Orson Welles\n2903. Tibet\n2904. Axis powers\n2905. Nier (video game)\n2906. Jon Hamm\n2907. Systemic lupus erythematosus\n2908. Rabindranath Tagore\n2909. Pompeii\n2910. Vasyl Lomachenko\n2911. Concorde\n2912. Jessica Lange\n2913. Tiger Zinda Hai\n2914. Support vector machine\n2915. Susan Sarandon\n2916. 2017 FIFA U-20 World Cup\n2917. Trolls (film)\n2918. Apocalypse Now\n2919. Petroleum\n2920. Julia Stiles\n2921. List of Breaking Bad and Better Call Saul characters\n2922. Hunter S. Thompson\n2923. Jason Bateman\n2924. Amitabh Bachchan\n2925. Uma Thurman\n2926. Bible\n2927. Shia Islam\n2928. Software as a service\n2929. Victorian era\n2930. Julianne Moore\n2931. Pearl Jam\n2932. Lily Collins\n2933. World Trade Center (1973\u20132001)\n2934. Fred Rogers\n2935. Greek language\n2936. The Dark Side of the Moon\n2937. Friday the 13th (franchise)\n2938. United States presidential election, 2000\n2939. Colin Farrell\n2940. Mother's Day\n2941. List of oldest living people\n2942. Herbert Hoover\n2943. Bachelor's degree\n2944. Stanford University\n2945. Katie Holmes\n2946. Go (programming language)\n2947. Yoga\n2948. Botulism\n2949. Sulfur\n2950. Athena\n2951. Digital object identifier\n2952. UNESCO\n2953. Ammonia\n2954. Lucifer\n2955. Peter Thiel\n2956. Binary option\n2957. Independence Day (United States)\n2958. Zee News\n2959. Jinder Mahal\n2960. UFC 218\n2961. Vera Farmiga\n2962. Jim Parsons\n2963. Morena Baccarin\n2964. Guillermo del Toro\n2965. Voltaire\n2966. Bulletin board system\n2967. Alice's Adventures in Wonderland\n2968. Secure Shell\n2969. Thirty Years' War\n2970. Massachusetts Institute of Technology\n2971. Isla Fisher\n2972. Trinidad and Tobago\n2973. Charles Bronson\n2974. Sting (musician)\n2975. Epistemology\n2976. Untitled Avengers film\n2977. Sheriff of Cambridgeshire and Huntingdonshire\n2978. CAN bus\n2979. Georgia (U.S. state)\n2980. Dirk Gently's Holistic Detective Agency (TV series)\n2981. James Madison\n2982. John Williams\n2983. Empire (2015 TV series)\n2984. Riley Keough\n2985. Helium\n2986. Operation Barbarossa\n2987. South America\n2988. The Space Between Us (film)\n2989. Powerless (TV series)\n2990. Federal government of the United States\n2991. Jeff Goldblum\n2992. Greenhouse gas\n2993. Big Ben\n2994. Domhnall Gleeson\n2995. Torque\n2996. Mercury (planet)\n2997. Spanish\u2013American War\n2998. Lil Yachty\n2999. Michelle Rodriguez\n"}
