{"start":301,"end":400,"count":5616717,"type":"pageviews","pageSize":100,"page":3,"pages":56168,"columns":[{"label":"","property":"pageviews","sortable":false}],"items":[{"pageviews":"300. <a target=\"_blank\" href=\"http://en.wikipedia.org./wiki/A_Song_of_Ice_and_Fire\">A Song of Ice and Fire</a>"},{"pageviews":"301. <a target=\"_blank\" href=\"http://en.wikipedia.org./wiki/Baby_Driver\">Baby Driver</a>"},{"pageviews":"302. <a target=\"_blank\" href=\"http://en.wikipedia.org./wiki/Korea\">Korea</a>"},{"pageviews":"303. <a target=\"_blank\" href=\"http://en.wikipedia.org./wiki/The_Holocaust\">The Holocaust</a>"},{"pageviews":"304. <a target=\"_blank\" href=\"http://en.wikipedia.org./wiki/Switzerland\">Switzerland</a>"},{"pageviews":"305. <a target=\"_blank\" href=\"http://en.wikipedia.org./wiki/Kanye_West\">Kanye West</a>"},{"pageviews":"306. <a target=\"_blank\" href=\"http://en.wikipedia.org./wiki/Russian_Empire\">Russian Empire</a>"},{"pageviews":"307. <a target=\"_blank\" href=\"http://en.wikipedia.org./wiki/Jennifer_Lawrence\">Jennifer Lawrence</a>"},{"pageviews":"308. <a target=\"_blank\" href=\"http://en.wikipedia.org./wiki/Fantastic_Beasts_and_Where_to_Find_Them_(film)\">Fantastic Beasts and Where to Find Them (film)</a>"},{"pageviews":"309. <a target=\"_blank\" href=\"http://en.wikipedia.org./wiki/David_Bowie\">David Bowie</a>"},{"pageviews":"310. <a target=\"_blank\" href=\"http://en.wikipedia.org./wiki/United_Arab_Emirates\">United Arab Emirates</a>"},{"pageviews":"311. <a target=\"_blank\" href=\"http://en.wikipedia.org./wiki/Scarlett_Johansson\">Scarlett Johansson</a>"},{"pageviews":"312. <a target=\"_blank\" href=\"http://en.wikipedia.org./wiki/2017_Formula_One_World_Championship\">2017 Formula One World Championship</a>"},{"pageviews":"313. <a target=\"_blank\" href=\"http://en.wikipedia.org./wiki/Tom_Cruise\">Tom Cruise</a>"},{"pageviews":"314. <a target=\"_blank\" href=\"http://en.wikipedia.org./wiki/Alexander_Hamilton\">Alexander Hamilton</a>"},{"pageviews":"315. <a target=\"_blank\" href=\"http://en.wikipedia.org./wiki/Lucifer_(TV_series)\">Lucifer (TV series)</a>"},{"pageviews":"316. <a target=\"_blank\" href=\"http://en.wikipedia.org./wiki/Edward_Snowden\">Edward Snowden</a>"},{"pageviews":"317. <a target=\"_blank\" href=\"http://en.wikipedia.org./wiki/Christopher_Columbus\">Christopher Columbus</a>"},{"pageviews":"318. <a target=\"_blank\" href=\"http://en.wikipedia.org./wiki/The_Crown_(TV_series)\">The Crown (TV series)</a>"},{"pageviews":"319. <a target=\"_blank\" href=\"http://en.wikipedia.org./wiki/List_of_Walt_Disney_Pictures_films\">List of Walt Disney Pictures films</a>"},{"pageviews":"320. <a target=\"_blank\" href=\"http://en.wikipedia.org./wiki/List_of_countries_by_life_expectancy\">List of countries by life expectancy</a>"},{"pageviews":"321. <a target=\"_blank\" href=\"http://en.wikipedia.org./wiki/Manchester_by_the_Sea_(film)\">Manchester by the Sea (film)</a>"},{"pageviews":"322. <a target=\"_blank\" href=\"http://en.wikipedia.org./wiki/Dua_Lipa\">Dua Lipa</a>"},{"pageviews":"323. <a target=\"_blank\" href=\"http://en.wikipedia.org./wiki/Hugh_Hefner\">Hugh Hefner</a>"},{"pageviews":"324. <a target=\"_blank\" href=\"http://en.wikipedia.org./wiki/China_Netcom\">China Netcom</a>"},{"pageviews":"325. <a target=\"_blank\" href=\"http://en.wikipedia.org./wiki/United_Kingdom_general_election%2C_2017\">United Kingdom general election, 2017</a>"},{"pageviews":"326. <a target=\"_blank\" href=\"http://en.wikipedia.org./wiki/Carrie_Fisher\">Carrie Fisher</a>"},{"pageviews":"327. <a target=\"_blank\" href=\"http://en.wikipedia.org./wiki/Tom_Hardy\">Tom Hardy</a>"},{"pageviews":"328. <a target=\"_blank\" href=\"http://en.wikipedia.org./wiki/Henry_VIII_of_England\">Henry VIII of England</a>"},{"pageviews":"329. <a target=\"_blank\" href=\"http://en.wikipedia.org./wiki/Indonesia\">Indonesia</a>"},{"pageviews":"330. <a target=\"_blank\" href=\"http://en.wikipedia.org./wiki/Neil_Gorsuch\">Neil Gorsuch</a>"},{"pageviews":"331. <a target=\"_blank\" href=\"http://en.wikipedia.org./wiki/Saudi_Arabia\">Saudi Arabia</a>"},{"pageviews":"332. <a target=\"_blank\" href=\"http://en.wikipedia.org./wiki/John_Cena\">John Cena</a>"},{"pageviews":"333. <a target=\"_blank\" href=\"http://en.wikipedia.org./wiki/Katy_Perry\">Katy Perry</a>"},{"pageviews":"334. <a target=\"_blank\" href=\"http://en.wikipedia.org./wiki/UEFA_Champions_League\">UEFA Champions League</a>"},{"pageviews":"335. <a target=\"_blank\" href=\"http://en.wikipedia.org./wiki/Generation_Z\">Generation Z</a>"},{"pageviews":"336. <a target=\"_blank\" href=\"http://en.wikipedia.org./wiki/Edward_VIII\">Edward VIII</a>"},{"pageviews":"337. <a target=\"_blank\" href=\"http://en.wikipedia.org./wiki/Italy\">Italy</a>"},{"pageviews":"338. <a target=\"_blank\" href=\"http://en.wikipedia.org./wiki/Prison_Break_(season_5)\">Prison Break (season 5)</a>"},{"pageviews":"339. <a target=\"_blank\" href=\"http://en.wikipedia.org./wiki/Turkey\">Turkey</a>"},{"pageviews":"340. <a target=\"_blank\" href=\"http://en.wikipedia.org./wiki/List_of_macOS_components\">List of macOS components</a>"},{"pageviews":"341. <a target=\"_blank\" href=\"http://en.wikipedia.org./wiki/Interstellar_(film)\">Interstellar (film)</a>"},{"pageviews":"342. <a target=\"_blank\" href=\"http://en.wikipedia.org./wiki/Mexico\">Mexico</a>"},{"pageviews":"343. <a target=\"_blank\" href=\"http://en.wikipedia.org./wiki/Education_in_the_United_States\">Education in the United States</a>"},{"pageviews":"344. <a target=\"_blank\" href=\"http://en.wikipedia.org./wiki/California\">California</a>"},{"pageviews":"345. <a target=\"_blank\" href=\"http://en.wikipedia.org./wiki/Rihanna\">Rihanna</a>"},{"pageviews":"346. <a target=\"_blank\" href=\"http://en.wikipedia.org./wiki/Grey's_Anatomy\">Grey's Anatomy</a>"},{"pageviews":"347. <a target=\"_blank\" href=\"http://en.wikipedia.org./wiki/Order_of_the_British_Empire\">Order of the British Empire</a>"},{"pageviews":"348. <a target=\"_blank\" href=\"http://en.wikipedia.org./wiki/Fidget_spinner\">Fidget spinner</a>"},{"pageviews":"349. <a target=\"_blank\" href=\"http://en.wikipedia.org./wiki/List_of_Gotham_episodes\">List of Gotham episodes</a>"},{"pageviews":"350. <a target=\"_blank\" href=\"http://en.wikipedia.org./wiki/List_of_The_Walking_Dead_episodes\">List of The Walking Dead episodes</a>"},{"pageviews":"351. <a target=\"_blank\" href=\"http://en.wikipedia.org./wiki/Android_(operating_system)\">Android (operating system)</a>"},{"pageviews":"352. <a target=\"_blank\" href=\"http://en.wikipedia.org./wiki/List_of_Running_Man_episodes\">List of Running Man episodes</a>"},{"pageviews":"353. <a target=\"_blank\" href=\"http://en.wikipedia.org./wiki/Hamilton_(musical)\">Hamilton (musical)</a>"},{"pageviews":"354. <a target=\"_blank\" href=\"http://en.wikipedia.org./wiki/Nikola_Tesla\">Nikola Tesla</a>"},{"pageviews":"355. <a target=\"_blank\" href=\"http://en.wikipedia.org./wiki/Iran\">Iran</a>"},{"pageviews":"356. <a target=\"_blank\" href=\"http://en.wikipedia.org./wiki/Ghost_in_the_Shell_(2017_film)\">Ghost in the Shell (2017 film)</a>"},{"pageviews":"357. <a target=\"_blank\" href=\"http://en.wikipedia.org./wiki/Jason_Momoa\">Jason Momoa</a>"},{"pageviews":"358. <a target=\"_blank\" href=\"http://en.wikipedia.org./wiki/Ottoman_Empire\">Ottoman Empire</a>"},{"pageviews":"359. <a target=\"_blank\" href=\"http://en.wikipedia.org./wiki/Johnny_Depp\">Johnny Depp</a>"},{"pageviews":"360. <a target=\"_blank\" href=\"http://en.wikipedia.org./wiki/Cloud_computing\">Cloud computing</a>"},{"pageviews":"361. <a target=\"_blank\" href=\"http://en.wikipedia.org./wiki/Tommy_Wiseau\">Tommy Wiseau</a>"},{"pageviews":"362. <a target=\"_blank\" href=\"http://en.wikipedia.org./wiki/Shameless_(U.S._TV_series)\">Shameless (U.S. TV series)</a>"},{"pageviews":"363. <a target=\"_blank\" href=\"http://en.wikipedia.org./wiki/Ku_Klux_Klan\">Ku Klux Klan</a>"},{"pageviews":"364. <a target=\"_blank\" href=\"http://en.wikipedia.org./wiki/Brazil\">Brazil</a>"},{"pageviews":"365. <a target=\"_blank\" href=\"http://en.wikipedia.org./wiki/Stephen_King\">Stephen King</a>"},{"pageviews":"366. <a target=\"_blank\" href=\"http://en.wikipedia.org./wiki/Sean_Spicer\">Sean Spicer</a>"},{"pageviews":"367. <a target=\"_blank\" href=\"http://en.wikipedia.org./wiki/Jared_Kushner\">Jared Kushner</a>"},{"pageviews":"368. <a target=\"_blank\" href=\"http://en.wikipedia.org./wiki/Fascism\">Fascism</a>"},{"pageviews":"369. <a target=\"_blank\" href=\"http://en.wikipedia.org./wiki/Battle_of_Mosul_(2016%E2%80%932017)\">Battle of Mosul (2016–2017)</a>"},{"pageviews":"370. <a target=\"_blank\" href=\"http://en.wikipedia.org./wiki/The_Disaster_Artist_(film)\">The Disaster Artist (film)</a>"},{"pageviews":"371. <a target=\"_blank\" href=\"http://en.wikipedia.org./wiki/Ancient_Rome\">Ancient Rome</a>"},{"pageviews":"372. <a target=\"_blank\" href=\"http://en.wikipedia.org./wiki/Google_Maps\">Google Maps</a>"},{"pageviews":"373. <a target=\"_blank\" href=\"http://en.wikipedia.org./wiki/Robots_exclusion_standard\">Robots exclusion standard</a>"},{"pageviews":"374. <a target=\"_blank\" href=\"http://en.wikipedia.org./wiki/Thirteen_Reasons_Why\">Thirteen Reasons Why</a>"},{"pageviews":"375. <a target=\"_blank\" href=\"http://en.wikipedia.org./wiki/Leonardo_DiCaprio\">Leonardo DiCaprio</a>"},{"pageviews":"376. <a target=\"_blank\" href=\"http://en.wikipedia.org./wiki/MacOS\">MacOS</a>"},{"pageviews":"377. <a target=\"_blank\" href=\"http://en.wikipedia.org./wiki/Rafael_Nadal\">Rafael Nadal</a>"},{"pageviews":"378. <a target=\"_blank\" href=\"http://en.wikipedia.org./wiki/Real_Madrid_C.F.\">Real Madrid C.F.</a>"},{"pageviews":"379. <a target=\"_blank\" href=\"http://en.wikipedia.org./wiki/Insurance\">Insurance</a>"},{"pageviews":"380. <a target=\"_blank\" href=\"http://en.wikipedia.org./wiki/Gotham_(TV_series)\">Gotham (TV series)</a>"},{"pageviews":"381. <a target=\"_blank\" href=\"http://en.wikipedia.org./wiki/Warren_Buffett\">Warren Buffett</a>"},{"pageviews":"382. <a target=\"_blank\" href=\"http://en.wikipedia.org./wiki/The_Weeknd\">The Weeknd</a>"},{"pageviews":"383. <a target=\"_blank\" href=\"http://en.wikipedia.org./wiki/Prince_Harry\">Prince Harry</a>"},{"pageviews":"384. <a target=\"_blank\" href=\"http://en.wikipedia.org./wiki/The_Room_(film)\">The Room (film)</a>"},{"pageviews":"385. <a target=\"_blank\" href=\"http://en.wikipedia.org./wiki/DC_Universe_Animated_Original_Movies\">DC Universe Animated Original Movies</a>"},{"pageviews":"386. <a target=\"_blank\" href=\"http://en.wikipedia.org./wiki/Internet\">Internet</a>"},{"pageviews":"387. <a target=\"_blank\" href=\"http://en.wikipedia.org./wiki/The_Fast_and_the_Furious\">The Fast and the Furious</a>"},{"pageviews":"388. <a target=\"_blank\" href=\"http://en.wikipedia.org./wiki/Suicide_Squad_(film)\">Suicide Squad (film)</a>"},{"pageviews":"389. <a target=\"_blank\" href=\"http://en.wikipedia.org./wiki/Harry_Potter_(film_series)\">Harry Potter (film series)</a>"},{"pageviews":"390. <a target=\"_blank\" href=\"http://en.wikipedia.org./wiki/Neymar\">Neymar</a>"},{"pageviews":"391. <a target=\"_blank\" href=\"http://en.wikipedia.org./wiki/Muhammad_Ali\">Muhammad Ali</a>"},{"pageviews":"392. <a target=\"_blank\" href=\"http://en.wikipedia.org./wiki/Premier_League\">Premier League</a>"},{"pageviews":"393. <a target=\"_blank\" href=\"http://en.wikipedia.org./wiki/The_Punisher_(TV_series)\">The Punisher (TV series)</a>"},{"pageviews":"394. <a target=\"_blank\" href=\"http://en.wikipedia.org./wiki/Qatar\">Qatar</a>"},{"pageviews":"395. <a target=\"_blank\" href=\"http://en.wikipedia.org./wiki/Friends\">Friends</a>"},{"pageviews":"396. <a target=\"_blank\" href=\"http://en.wikipedia.org./wiki/Opinion_polling_for_the_French_presidential_election%2C_2017\">Opinion polling for the French presidential election, 2017</a>"},{"pageviews":"397. <a target=\"_blank\" href=\"http://en.wikipedia.org./wiki/RMS_Titanic\">RMS Titanic</a>"},{"pageviews":"398. <a target=\"_blank\" href=\"http://en.wikipedia.org./wiki/Chelsea_F.C.\">Chelsea F.C.</a>"},{"pageviews":"399. <a target=\"_blank\" href=\"http://en.wikipedia.org./wiki/Washington%2C_D.C.\">Washington, D.C.</a>"}],"list":"300. A Song of Ice and Fire  \u2014  http:\/\/en.wikipedia.org.\/wiki\/A_Song_of_Ice_and_Fire\n301. Baby Driver  \u2014  http:\/\/en.wikipedia.org.\/wiki\/Baby_Driver\n302. Korea  \u2014  http:\/\/en.wikipedia.org.\/wiki\/Korea\n303. The Holocaust  \u2014  http:\/\/en.wikipedia.org.\/wiki\/The_Holocaust\n304. Switzerland  \u2014  http:\/\/en.wikipedia.org.\/wiki\/Switzerland\n305. Kanye West  \u2014  http:\/\/en.wikipedia.org.\/wiki\/Kanye_West\n306. Russian Empire  \u2014  http:\/\/en.wikipedia.org.\/wiki\/Russian_Empire\n307. Jennifer Lawrence  \u2014  http:\/\/en.wikipedia.org.\/wiki\/Jennifer_Lawrence\n308. Fantastic Beasts and Where to Find Them (film)  \u2014  http:\/\/en.wikipedia.org.\/wiki\/Fantastic_Beasts_and_Where_to_Find_Them_(film)\n309. David Bowie  \u2014  http:\/\/en.wikipedia.org.\/wiki\/David_Bowie\n310. United Arab Emirates  \u2014  http:\/\/en.wikipedia.org.\/wiki\/United_Arab_Emirates\n311. Scarlett Johansson  \u2014  http:\/\/en.wikipedia.org.\/wiki\/Scarlett_Johansson\n312. 2017 Formula One World Championship  \u2014  http:\/\/en.wikipedia.org.\/wiki\/2017_Formula_One_World_Championship\n313. Tom Cruise  \u2014  http:\/\/en.wikipedia.org.\/wiki\/Tom_Cruise\n314. Alexander Hamilton  \u2014  http:\/\/en.wikipedia.org.\/wiki\/Alexander_Hamilton\n315. Lucifer (TV series)  \u2014  http:\/\/en.wikipedia.org.\/wiki\/Lucifer_(TV_series)\n316. Edward Snowden  \u2014  http:\/\/en.wikipedia.org.\/wiki\/Edward_Snowden\n317. Christopher Columbus  \u2014  http:\/\/en.wikipedia.org.\/wiki\/Christopher_Columbus\n318. The Crown (TV series)  \u2014  http:\/\/en.wikipedia.org.\/wiki\/The_Crown_(TV_series)\n319. List of Walt Disney Pictures films  \u2014  http:\/\/en.wikipedia.org.\/wiki\/List_of_Walt_Disney_Pictures_films\n320. List of countries by life expectancy  \u2014  http:\/\/en.wikipedia.org.\/wiki\/List_of_countries_by_life_expectancy\n321. Manchester by the Sea (film)  \u2014  http:\/\/en.wikipedia.org.\/wiki\/Manchester_by_the_Sea_(film)\n322. Dua Lipa  \u2014  http:\/\/en.wikipedia.org.\/wiki\/Dua_Lipa\n323. Hugh Hefner  \u2014  http:\/\/en.wikipedia.org.\/wiki\/Hugh_Hefner\n324. China Netcom  \u2014  http:\/\/en.wikipedia.org.\/wiki\/China_Netcom\n325. United Kingdom general election, 2017  \u2014  http:\/\/en.wikipedia.org.\/wiki\/United_Kingdom_general_election%2C_2017\n326. Carrie Fisher  \u2014  http:\/\/en.wikipedia.org.\/wiki\/Carrie_Fisher\n327. Tom Hardy  \u2014  http:\/\/en.wikipedia.org.\/wiki\/Tom_Hardy\n328. Henry VIII of England  \u2014  http:\/\/en.wikipedia.org.\/wiki\/Henry_VIII_of_England\n329. Indonesia  \u2014  http:\/\/en.wikipedia.org.\/wiki\/Indonesia\n330. Neil Gorsuch  \u2014  http:\/\/en.wikipedia.org.\/wiki\/Neil_Gorsuch\n331. Saudi Arabia  \u2014  http:\/\/en.wikipedia.org.\/wiki\/Saudi_Arabia\n332. John Cena  \u2014  http:\/\/en.wikipedia.org.\/wiki\/John_Cena\n333. Katy Perry  \u2014  http:\/\/en.wikipedia.org.\/wiki\/Katy_Perry\n334. UEFA Champions League  \u2014  http:\/\/en.wikipedia.org.\/wiki\/UEFA_Champions_League\n335. Generation Z  \u2014  http:\/\/en.wikipedia.org.\/wiki\/Generation_Z\n336. Edward VIII  \u2014  http:\/\/en.wikipedia.org.\/wiki\/Edward_VIII\n337. Italy  \u2014  http:\/\/en.wikipedia.org.\/wiki\/Italy\n338. Prison Break (season 5)  \u2014  http:\/\/en.wikipedia.org.\/wiki\/Prison_Break_(season_5)\n339. Turkey  \u2014  http:\/\/en.wikipedia.org.\/wiki\/Turkey\n340. List of macOS components  \u2014  http:\/\/en.wikipedia.org.\/wiki\/List_of_macOS_components\n341. Interstellar (film)  \u2014  http:\/\/en.wikipedia.org.\/wiki\/Interstellar_(film)\n342. Mexico  \u2014  http:\/\/en.wikipedia.org.\/wiki\/Mexico\n343. Education in the United States  \u2014  http:\/\/en.wikipedia.org.\/wiki\/Education_in_the_United_States\n344. California  \u2014  http:\/\/en.wikipedia.org.\/wiki\/California\n345. Rihanna  \u2014  http:\/\/en.wikipedia.org.\/wiki\/Rihanna\n346. Grey's Anatomy  \u2014  http:\/\/en.wikipedia.org.\/wiki\/Grey's_Anatomy\n347. Order of the British Empire  \u2014  http:\/\/en.wikipedia.org.\/wiki\/Order_of_the_British_Empire\n348. Fidget spinner  \u2014  http:\/\/en.wikipedia.org.\/wiki\/Fidget_spinner\n349. List of Gotham episodes  \u2014  http:\/\/en.wikipedia.org.\/wiki\/List_of_Gotham_episodes\n350. List of The Walking Dead episodes  \u2014  http:\/\/en.wikipedia.org.\/wiki\/List_of_The_Walking_Dead_episodes\n351. Android (operating system)  \u2014  http:\/\/en.wikipedia.org.\/wiki\/Android_(operating_system)\n352. List of Running Man episodes  \u2014  http:\/\/en.wikipedia.org.\/wiki\/List_of_Running_Man_episodes\n353. Hamilton (musical)  \u2014  http:\/\/en.wikipedia.org.\/wiki\/Hamilton_(musical)\n354. Nikola Tesla  \u2014  http:\/\/en.wikipedia.org.\/wiki\/Nikola_Tesla\n355. Iran  \u2014  http:\/\/en.wikipedia.org.\/wiki\/Iran\n356. Ghost in the Shell (2017 film)  \u2014  http:\/\/en.wikipedia.org.\/wiki\/Ghost_in_the_Shell_(2017_film)\n357. Jason Momoa  \u2014  http:\/\/en.wikipedia.org.\/wiki\/Jason_Momoa\n358. Ottoman Empire  \u2014  http:\/\/en.wikipedia.org.\/wiki\/Ottoman_Empire\n359. Johnny Depp  \u2014  http:\/\/en.wikipedia.org.\/wiki\/Johnny_Depp\n360. Cloud computing  \u2014  http:\/\/en.wikipedia.org.\/wiki\/Cloud_computing\n361. Tommy Wiseau  \u2014  http:\/\/en.wikipedia.org.\/wiki\/Tommy_Wiseau\n362. Shameless (U.S. TV series)  \u2014  http:\/\/en.wikipedia.org.\/wiki\/Shameless_(U.S._TV_series)\n363. Ku Klux Klan  \u2014  http:\/\/en.wikipedia.org.\/wiki\/Ku_Klux_Klan\n364. Brazil  \u2014  http:\/\/en.wikipedia.org.\/wiki\/Brazil\n365. Stephen King  \u2014  http:\/\/en.wikipedia.org.\/wiki\/Stephen_King\n366. Sean Spicer  \u2014  http:\/\/en.wikipedia.org.\/wiki\/Sean_Spicer\n367. Jared Kushner  \u2014  http:\/\/en.wikipedia.org.\/wiki\/Jared_Kushner\n368. Fascism  \u2014  http:\/\/en.wikipedia.org.\/wiki\/Fascism\n369. Battle of Mosul (2016\u20132017)  \u2014  http:\/\/en.wikipedia.org.\/wiki\/Battle_of_Mosul_(2016%E2%80%932017)\n370. The Disaster Artist (film)  \u2014  http:\/\/en.wikipedia.org.\/wiki\/The_Disaster_Artist_(film)\n371. Ancient Rome  \u2014  http:\/\/en.wikipedia.org.\/wiki\/Ancient_Rome\n372. Google Maps  \u2014  http:\/\/en.wikipedia.org.\/wiki\/Google_Maps\n373. Robots exclusion standard  \u2014  http:\/\/en.wikipedia.org.\/wiki\/Robots_exclusion_standard\n374. Thirteen Reasons Why  \u2014  http:\/\/en.wikipedia.org.\/wiki\/Thirteen_Reasons_Why\n375. Leonardo DiCaprio  \u2014  http:\/\/en.wikipedia.org.\/wiki\/Leonardo_DiCaprio\n376. MacOS  \u2014  http:\/\/en.wikipedia.org.\/wiki\/MacOS\n377. Rafael Nadal  \u2014  http:\/\/en.wikipedia.org.\/wiki\/Rafael_Nadal\n378. Real Madrid C.F.  \u2014  http:\/\/en.wikipedia.org.\/wiki\/Real_Madrid_C.F.\n379. Insurance  \u2014  http:\/\/en.wikipedia.org.\/wiki\/Insurance\n380. Gotham (TV series)  \u2014  http:\/\/en.wikipedia.org.\/wiki\/Gotham_(TV_series)\n381. Warren Buffett  \u2014  http:\/\/en.wikipedia.org.\/wiki\/Warren_Buffett\n382. The Weeknd  \u2014  http:\/\/en.wikipedia.org.\/wiki\/The_Weeknd\n383. Prince Harry  \u2014  http:\/\/en.wikipedia.org.\/wiki\/Prince_Harry\n384. The Room (film)  \u2014  http:\/\/en.wikipedia.org.\/wiki\/The_Room_(film)\n385. DC Universe Animated Original Movies  \u2014  http:\/\/en.wikipedia.org.\/wiki\/DC_Universe_Animated_Original_Movies\n386. Internet  \u2014  http:\/\/en.wikipedia.org.\/wiki\/Internet\n387. The Fast and the Furious  \u2014  http:\/\/en.wikipedia.org.\/wiki\/The_Fast_and_the_Furious\n388. Suicide Squad (film)  \u2014  http:\/\/en.wikipedia.org.\/wiki\/Suicide_Squad_(film)\n389. Harry Potter (film series)  \u2014  http:\/\/en.wikipedia.org.\/wiki\/Harry_Potter_(film_series)\n390. Neymar  \u2014  http:\/\/en.wikipedia.org.\/wiki\/Neymar\n391. Muhammad Ali  \u2014  http:\/\/en.wikipedia.org.\/wiki\/Muhammad_Ali\n392. Premier League  \u2014  http:\/\/en.wikipedia.org.\/wiki\/Premier_League\n393. The Punisher (TV series)  \u2014  http:\/\/en.wikipedia.org.\/wiki\/The_Punisher_(TV_series)\n394. Qatar  \u2014  http:\/\/en.wikipedia.org.\/wiki\/Qatar\n395. Friends  \u2014  http:\/\/en.wikipedia.org.\/wiki\/Friends\n396. Opinion polling for the French presidential election, 2017  \u2014  http:\/\/en.wikipedia.org.\/wiki\/Opinion_polling_for_the_French_presidential_election%2C_2017\n397. RMS Titanic  \u2014  http:\/\/en.wikipedia.org.\/wiki\/RMS_Titanic\n398. Chelsea F.C.  \u2014  http:\/\/en.wikipedia.org.\/wiki\/Chelsea_F.C.\n399. Washington, D.C.  \u2014  http:\/\/en.wikipedia.org.\/wiki\/Washington%2C_D.C.\n","miniList":"300. A Song of Ice and Fire\n301. Baby Driver\n302. Korea\n303. The Holocaust\n304. Switzerland\n305. Kanye West\n306. Russian Empire\n307. Jennifer Lawrence\n308. Fantastic Beasts and Where to Find Them (film)\n309. David Bowie\n310. United Arab Emirates\n311. Scarlett Johansson\n312. 2017 Formula One World Championship\n313. Tom Cruise\n314. Alexander Hamilton\n315. Lucifer (TV series)\n316. Edward Snowden\n317. Christopher Columbus\n318. The Crown (TV series)\n319. List of Walt Disney Pictures films\n320. List of countries by life expectancy\n321. Manchester by the Sea (film)\n322. Dua Lipa\n323. Hugh Hefner\n324. China Netcom\n325. United Kingdom general election, 2017\n326. Carrie Fisher\n327. Tom Hardy\n328. Henry VIII of England\n329. Indonesia\n330. Neil Gorsuch\n331. Saudi Arabia\n332. John Cena\n333. Katy Perry\n334. UEFA Champions League\n335. Generation Z\n336. Edward VIII\n337. Italy\n338. Prison Break (season 5)\n339. Turkey\n340. List of macOS components\n341. Interstellar (film)\n342. Mexico\n343. Education in the United States\n344. California\n345. Rihanna\n346. Grey's Anatomy\n347. Order of the British Empire\n348. Fidget spinner\n349. List of Gotham episodes\n350. List of The Walking Dead episodes\n351. Android (operating system)\n352. List of Running Man episodes\n353. Hamilton (musical)\n354. Nikola Tesla\n355. Iran\n356. Ghost in the Shell (2017 film)\n357. Jason Momoa\n358. Ottoman Empire\n359. Johnny Depp\n360. Cloud computing\n361. Tommy Wiseau\n362. Shameless (U.S. TV series)\n363. Ku Klux Klan\n364. Brazil\n365. Stephen King\n366. Sean Spicer\n367. Jared Kushner\n368. Fascism\n369. Battle of Mosul (2016\u20132017)\n370. The Disaster Artist (film)\n371. Ancient Rome\n372. Google Maps\n373. Robots exclusion standard\n374. Thirteen Reasons Why\n375. Leonardo DiCaprio\n376. MacOS\n377. Rafael Nadal\n378. Real Madrid C.F.\n379. Insurance\n380. Gotham (TV series)\n381. Warren Buffett\n382. The Weeknd\n383. Prince Harry\n384. The Room (film)\n385. DC Universe Animated Original Movies\n386. Internet\n387. The Fast and the Furious\n388. Suicide Squad (film)\n389. Harry Potter (film series)\n390. Neymar\n391. Muhammad Ali\n392. Premier League\n393. The Punisher (TV series)\n394. Qatar\n395. Friends\n396. Opinion polling for the French presidential election, 2017\n397. RMS Titanic\n398. Chelsea F.C.\n399. Washington, D.C.\n"}
