{"start":3001,"end":3100,"count":5616717,"type":"pageviews","pageSize":100,"page":30,"pages":56168,"columns":[{"label":"","property":"pageviews","sortable":false}],"items":[{"pageviews":"3000. <a target=\"_blank\" href=\"http://en.wikipedia.org./wiki/Maya_civilization\">Maya civilization</a>"},{"pageviews":"3001. <a target=\"_blank\" href=\"http://en.wikipedia.org./wiki/Node.js\">Node.js</a>"},{"pageviews":"3002. <a target=\"_blank\" href=\"http://en.wikipedia.org./wiki/Spamming\">Spamming</a>"},{"pageviews":"3003. <a target=\"_blank\" href=\"http://en.wikipedia.org./wiki/Tunisia\">Tunisia</a>"},{"pageviews":"3004. <a target=\"_blank\" href=\"http://en.wikipedia.org./wiki/Andy_Kaufman\">Andy Kaufman</a>"},{"pageviews":"3005. <a target=\"_blank\" href=\"http://en.wikipedia.org./wiki/Sebastian_Gorka\">Sebastian Gorka</a>"},{"pageviews":"3006. <a target=\"_blank\" href=\"http://en.wikipedia.org./wiki/Anno_Domini\">Anno Domini</a>"},{"pageviews":"3007. <a target=\"_blank\" href=\"http://en.wikipedia.org./wiki/Orlando_Bloom\">Orlando Bloom</a>"},{"pageviews":"3008. <a target=\"_blank\" href=\"http://en.wikipedia.org./wiki/The_Jungle_Book_(2016_film)\">The Jungle Book (2016 film)</a>"},{"pageviews":"3009. <a target=\"_blank\" href=\"http://en.wikipedia.org./wiki/List_of_sovereign_states\">List of sovereign states</a>"},{"pageviews":"3010. <a target=\"_blank\" href=\"http://en.wikipedia.org./wiki/Omarosa_Manigault\">Omarosa Manigault</a>"},{"pageviews":"3011. <a target=\"_blank\" href=\"http://en.wikipedia.org./wiki/Rosamund_Pike\">Rosamund Pike</a>"},{"pageviews":"3012. <a target=\"_blank\" href=\"http://en.wikipedia.org./wiki/Marketing\">Marketing</a>"},{"pageviews":"3013. <a target=\"_blank\" href=\"http://en.wikipedia.org./wiki/Nioh\">Nioh</a>"},{"pageviews":"3014. <a target=\"_blank\" href=\"http://en.wikipedia.org./wiki/Killing_of_Harambe\">Killing of Harambe</a>"},{"pageviews":"3015. <a target=\"_blank\" href=\"http://en.wikipedia.org./wiki/Benicio_del_Toro\">Benicio del Toro</a>"},{"pageviews":"3016. <a target=\"_blank\" href=\"http://en.wikipedia.org./wiki/J._Cole\">J. Cole</a>"},{"pageviews":"3017. <a target=\"_blank\" href=\"http://en.wikipedia.org./wiki/List_of_best-selling_video_games\">List of best-selling video games</a>"},{"pageviews":"3018. <a target=\"_blank\" href=\"http://en.wikipedia.org./wiki/Football\">Football</a>"},{"pageviews":"3019. <a target=\"_blank\" href=\"http://en.wikipedia.org./wiki/Electrical_resistivity_and_conductivity\">Electrical resistivity and conductivity</a>"},{"pageviews":"3020. <a target=\"_blank\" href=\"http://en.wikipedia.org./wiki/Deepwater_Horizon_oil_spill\">Deepwater Horizon oil spill</a>"},{"pageviews":"3021. <a target=\"_blank\" href=\"http://en.wikipedia.org./wiki/Marvel_Comics\">Marvel Comics</a>"},{"pageviews":"3022. <a target=\"_blank\" href=\"http://en.wikipedia.org./wiki/Community_(TV_series)\">Community (TV series)</a>"},{"pageviews":"3023. <a target=\"_blank\" href=\"http://en.wikipedia.org./wiki/Louis_Mountbatten%2C_1st_Earl_Mountbatten_of_Burma\">Louis Mountbatten, 1st Earl Mountbatten of Burma</a>"},{"pageviews":"3024. <a target=\"_blank\" href=\"http://en.wikipedia.org./wiki/Nancy_Pelosi\">Nancy Pelosi</a>"},{"pageviews":"3025. <a target=\"_blank\" href=\"http://en.wikipedia.org./wiki/Computer_network\">Computer network</a>"},{"pageviews":"3026. <a target=\"_blank\" href=\"http://en.wikipedia.org./wiki/British_Raj\">British Raj</a>"},{"pageviews":"3027. <a target=\"_blank\" href=\"http://en.wikipedia.org./wiki/Sof%C3%ADa_Vergara\">Sofía Vergara</a>"},{"pageviews":"3028. <a target=\"_blank\" href=\"http://en.wikipedia.org./wiki/List_of_A_Series_of_Unfortunate_Events_characters\">List of A Series of Unfortunate Events characters</a>"},{"pageviews":"3029. <a target=\"_blank\" href=\"http://en.wikipedia.org./wiki/Gladiator_(2000_film)\">Gladiator (2000 film)</a>"},{"pageviews":"3030. <a target=\"_blank\" href=\"http://en.wikipedia.org./wiki/Collateral_Beauty\">Collateral Beauty</a>"},{"pageviews":"3031. <a target=\"_blank\" href=\"http://en.wikipedia.org./wiki/Gone_with_the_Wind_(film)\">Gone with the Wind (film)</a>"},{"pageviews":"3032. <a target=\"_blank\" href=\"http://en.wikipedia.org./wiki/Taraji_P._Henson\">Taraji P. Henson</a>"},{"pageviews":"3033. <a target=\"_blank\" href=\"http://en.wikipedia.org./wiki/Heart\">Heart</a>"},{"pageviews":"3034. <a target=\"_blank\" href=\"http://en.wikipedia.org./wiki/Khalid_(singer)\">Khalid (singer)</a>"},{"pageviews":"3035. <a target=\"_blank\" href=\"http://en.wikipedia.org./wiki/Water_pollution\">Water pollution</a>"},{"pageviews":"3036. <a target=\"_blank\" href=\"http://en.wikipedia.org./wiki/Citizen_Kane\">Citizen Kane</a>"},{"pageviews":"3037. <a target=\"_blank\" href=\"http://en.wikipedia.org./wiki/Dexter_(TV_series)\">Dexter (TV series)</a>"},{"pageviews":"3038. <a target=\"_blank\" href=\"http://en.wikipedia.org./wiki/5S_(methodology)\">5S (methodology)</a>"},{"pageviews":"3039. <a target=\"_blank\" href=\"http://en.wikipedia.org./wiki/E_(mathematical_constant)\">E (mathematical constant)</a>"},{"pageviews":"3040. <a target=\"_blank\" href=\"http://en.wikipedia.org./wiki/Indus_Valley_Civilisation\">Indus Valley Civilisation</a>"},{"pageviews":"3041. <a target=\"_blank\" href=\"http://en.wikipedia.org./wiki/Battle_of_the_Bulge\">Battle of the Bulge</a>"},{"pageviews":"3042. <a target=\"_blank\" href=\"http://en.wikipedia.org./wiki/Dolly_Parton\">Dolly Parton</a>"},{"pageviews":"3043. <a target=\"_blank\" href=\"http://en.wikipedia.org./wiki/Prometheus\">Prometheus</a>"},{"pageviews":"3044. <a target=\"_blank\" href=\"http://en.wikipedia.org./wiki/The_Beatles_discography\">The Beatles discography</a>"},{"pageviews":"3045. <a target=\"_blank\" href=\"http://en.wikipedia.org./wiki/Pedro_Pascal\">Pedro Pascal</a>"},{"pageviews":"3046. <a target=\"_blank\" href=\"http://en.wikipedia.org./wiki/Uranus\">Uranus</a>"},{"pageviews":"3047. <a target=\"_blank\" href=\"http://en.wikipedia.org./wiki/ASAP_Rocky\">ASAP Rocky</a>"},{"pageviews":"3048. <a target=\"_blank\" href=\"http://en.wikipedia.org./wiki/Mohamed_Salah\">Mohamed Salah</a>"},{"pageviews":"3049. <a target=\"_blank\" href=\"http://en.wikipedia.org./wiki/Catherine_Zeta-Jones\">Catherine Zeta-Jones</a>"},{"pageviews":"3050. <a target=\"_blank\" href=\"http://en.wikipedia.org./wiki/Biology\">Biology</a>"},{"pageviews":"3051. <a target=\"_blank\" href=\"http://en.wikipedia.org./wiki/Black_Friday_(shopping)\">Black Friday (shopping)</a>"},{"pageviews":"3052. <a target=\"_blank\" href=\"http://en.wikipedia.org./wiki/Arab_Spring\">Arab Spring</a>"},{"pageviews":"3053. <a target=\"_blank\" href=\"http://en.wikipedia.org./wiki/Paul_the_Apostle\">Paul the Apostle</a>"},{"pageviews":"3054. <a target=\"_blank\" href=\"http://en.wikipedia.org./wiki/Badrinath_Ki_Dulhania\">Badrinath Ki Dulhania</a>"},{"pageviews":"3055. <a target=\"_blank\" href=\"http://en.wikipedia.org./wiki/Rage_Against_the_Machine\">Rage Against the Machine</a>"},{"pageviews":"3056. <a target=\"_blank\" href=\"http://en.wikipedia.org./wiki/Climate_change\">Climate change</a>"},{"pageviews":"3057. <a target=\"_blank\" href=\"http://en.wikipedia.org./wiki/Mike_Shinoda\">Mike Shinoda</a>"},{"pageviews":"3058. <a target=\"_blank\" href=\"http://en.wikipedia.org./wiki/Steve_Irwin\">Steve Irwin</a>"},{"pageviews":"3059. <a target=\"_blank\" href=\"http://en.wikipedia.org./wiki/Chess\">Chess</a>"},{"pageviews":"3060. <a target=\"_blank\" href=\"http://en.wikipedia.org./wiki/Greek_mythology\">Greek mythology</a>"},{"pageviews":"3061. <a target=\"_blank\" href=\"http://en.wikipedia.org./wiki/Slavery_in_the_United_States\">Slavery in the United States</a>"},{"pageviews":"3062. <a target=\"_blank\" href=\"http://en.wikipedia.org./wiki/Killer_whale\">Killer whale</a>"},{"pageviews":"3063. <a target=\"_blank\" href=\"http://en.wikipedia.org./wiki/Seven_Years'_War\">Seven Years' War</a>"},{"pageviews":"3064. <a target=\"_blank\" href=\"http://en.wikipedia.org./wiki/Bolivia\">Bolivia</a>"},{"pageviews":"3065. <a target=\"_blank\" href=\"http://en.wikipedia.org./wiki/Owen_Wilson\">Owen Wilson</a>"},{"pageviews":"3066. <a target=\"_blank\" href=\"http://en.wikipedia.org./wiki/Uganda\">Uganda</a>"},{"pageviews":"3067. <a target=\"_blank\" href=\"http://en.wikipedia.org./wiki/Oroville_Dam\">Oroville Dam</a>"},{"pageviews":"3068. <a target=\"_blank\" href=\"http://en.wikipedia.org./wiki/Warren_G._Harding\">Warren G. Harding</a>"},{"pageviews":"3069. <a target=\"_blank\" href=\"http://en.wikipedia.org./wiki/The_Killers\">The Killers</a>"},{"pageviews":"3070. <a target=\"_blank\" href=\"http://en.wikipedia.org./wiki/Gianni_Versace\">Gianni Versace</a>"},{"pageviews":"3071. <a target=\"_blank\" href=\"http://en.wikipedia.org./wiki/Bella_Hadid\">Bella Hadid</a>"},{"pageviews":"3072. <a target=\"_blank\" href=\"http://en.wikipedia.org./wiki/Wolfenstein\">Wolfenstein</a>"},{"pageviews":"3073. <a target=\"_blank\" href=\"http://en.wikipedia.org./wiki/Naomi_Scott\">Naomi Scott</a>"},{"pageviews":"3074. <a target=\"_blank\" href=\"http://en.wikipedia.org./wiki/Web_search_engine\">Web search engine</a>"},{"pageviews":"3075. <a target=\"_blank\" href=\"http://en.wikipedia.org./wiki/Modern_Family_(season_8)\">Modern Family (season 8)</a>"},{"pageviews":"3076. <a target=\"_blank\" href=\"http://en.wikipedia.org./wiki/Noomi_Rapace\">Noomi Rapace</a>"},{"pageviews":"3077. <a target=\"_blank\" href=\"http://en.wikipedia.org./wiki/Capacitor\">Capacitor</a>"},{"pageviews":"3078. <a target=\"_blank\" href=\"http://en.wikipedia.org./wiki/S._S._Rajamouli\">S. S. Rajamouli</a>"},{"pageviews":"3079. <a target=\"_blank\" href=\"http://en.wikipedia.org./wiki/Canary_Islands\">Canary Islands</a>"},{"pageviews":"3080. <a target=\"_blank\" href=\"http://en.wikipedia.org./wiki/Machine_Gun_Kelly_(rapper)\">Machine Gun Kelly (rapper)</a>"},{"pageviews":"3081. <a target=\"_blank\" href=\"http://en.wikipedia.org./wiki/Volleyball\">Volleyball</a>"},{"pageviews":"3082. <a target=\"_blank\" href=\"http://en.wikipedia.org./wiki/Descendants_2\">Descendants 2</a>"},{"pageviews":"3083. <a target=\"_blank\" href=\"http://en.wikipedia.org./wiki/American_Assassin\">American Assassin</a>"},{"pageviews":"3084. <a target=\"_blank\" href=\"http://en.wikipedia.org./wiki/United_States_Virgin_Islands\">United States Virgin Islands</a>"},{"pageviews":"3085. <a target=\"_blank\" href=\"http://en.wikipedia.org./wiki/Roger_Waters\">Roger Waters</a>"},{"pageviews":"3086. <a target=\"_blank\" href=\"http://en.wikipedia.org./wiki/Lithium-ion_battery\">Lithium-ion battery</a>"},{"pageviews":"3087. <a target=\"_blank\" href=\"http://en.wikipedia.org./wiki/Spotlight_(film)\">Spotlight (film)</a>"},{"pageviews":"3088. <a target=\"_blank\" href=\"http://en.wikipedia.org./wiki/Michelin_Guide\">Michelin Guide</a>"},{"pageviews":"3089. <a target=\"_blank\" href=\"http://en.wikipedia.org./wiki/Netfilter\">Netfilter</a>"},{"pageviews":"3090. <a target=\"_blank\" href=\"http://en.wikipedia.org./wiki/Ira_von_F%C3%BCrstenberg\">Ira von Fürstenberg</a>"},{"pageviews":"3091. <a target=\"_blank\" href=\"http://en.wikipedia.org./wiki/Presidential_Medal_of_Freedom\">Presidential Medal of Freedom</a>"},{"pageviews":"3092. <a target=\"_blank\" href=\"http://en.wikipedia.org./wiki/Speed_of_light\">Speed of light</a>"},{"pageviews":"3093. <a target=\"_blank\" href=\"http://en.wikipedia.org./wiki/Aziz_Ansari\">Aziz Ansari</a>"},{"pageviews":"3094. <a target=\"_blank\" href=\"http://en.wikipedia.org./wiki/The_Last_Supper_(Leonardo_da_Vinci)\">The Last Supper (Leonardo da Vinci)</a>"},{"pageviews":"3095. <a target=\"_blank\" href=\"http://en.wikipedia.org./wiki/Internet_protocol_suite\">Internet protocol suite</a>"},{"pageviews":"3096. <a target=\"_blank\" href=\"http://en.wikipedia.org./wiki/Skylake_(microarchitecture)\">Skylake (microarchitecture)</a>"},{"pageviews":"3097. <a target=\"_blank\" href=\"http://en.wikipedia.org./wiki/Vinod_Khanna\">Vinod Khanna</a>"},{"pageviews":"3098. <a target=\"_blank\" href=\"http://en.wikipedia.org./wiki/Go_(game)\">Go (game)</a>"},{"pageviews":"3099. <a target=\"_blank\" href=\"http://en.wikipedia.org./wiki/Luis_Su%C3%A1rez\">Luis Suárez</a>"}],"list":"3000. Maya civilization  \u2014  http:\/\/en.wikipedia.org.\/wiki\/Maya_civilization\n3001. Node.js  \u2014  http:\/\/en.wikipedia.org.\/wiki\/Node.js\n3002. Spamming  \u2014  http:\/\/en.wikipedia.org.\/wiki\/Spamming\n3003. Tunisia  \u2014  http:\/\/en.wikipedia.org.\/wiki\/Tunisia\n3004. Andy Kaufman  \u2014  http:\/\/en.wikipedia.org.\/wiki\/Andy_Kaufman\n3005. Sebastian Gorka  \u2014  http:\/\/en.wikipedia.org.\/wiki\/Sebastian_Gorka\n3006. Anno Domini  \u2014  http:\/\/en.wikipedia.org.\/wiki\/Anno_Domini\n3007. Orlando Bloom  \u2014  http:\/\/en.wikipedia.org.\/wiki\/Orlando_Bloom\n3008. The Jungle Book (2016 film)  \u2014  http:\/\/en.wikipedia.org.\/wiki\/The_Jungle_Book_(2016_film)\n3009. List of sovereign states  \u2014  http:\/\/en.wikipedia.org.\/wiki\/List_of_sovereign_states\n3010. Omarosa Manigault  \u2014  http:\/\/en.wikipedia.org.\/wiki\/Omarosa_Manigault\n3011. Rosamund Pike  \u2014  http:\/\/en.wikipedia.org.\/wiki\/Rosamund_Pike\n3012. Marketing  \u2014  http:\/\/en.wikipedia.org.\/wiki\/Marketing\n3013. Nioh  \u2014  http:\/\/en.wikipedia.org.\/wiki\/Nioh\n3014. Killing of Harambe  \u2014  http:\/\/en.wikipedia.org.\/wiki\/Killing_of_Harambe\n3015. Benicio del Toro  \u2014  http:\/\/en.wikipedia.org.\/wiki\/Benicio_del_Toro\n3016. J. Cole  \u2014  http:\/\/en.wikipedia.org.\/wiki\/J._Cole\n3017. List of best-selling video games  \u2014  http:\/\/en.wikipedia.org.\/wiki\/List_of_best-selling_video_games\n3018. Football  \u2014  http:\/\/en.wikipedia.org.\/wiki\/Football\n3019. Electrical resistivity and conductivity  \u2014  http:\/\/en.wikipedia.org.\/wiki\/Electrical_resistivity_and_conductivity\n3020. Deepwater Horizon oil spill  \u2014  http:\/\/en.wikipedia.org.\/wiki\/Deepwater_Horizon_oil_spill\n3021. Marvel Comics  \u2014  http:\/\/en.wikipedia.org.\/wiki\/Marvel_Comics\n3022. Community (TV series)  \u2014  http:\/\/en.wikipedia.org.\/wiki\/Community_(TV_series)\n3023. Louis Mountbatten, 1st Earl Mountbatten of Burma  \u2014  http:\/\/en.wikipedia.org.\/wiki\/Louis_Mountbatten%2C_1st_Earl_Mountbatten_of_Burma\n3024. Nancy Pelosi  \u2014  http:\/\/en.wikipedia.org.\/wiki\/Nancy_Pelosi\n3025. Computer network  \u2014  http:\/\/en.wikipedia.org.\/wiki\/Computer_network\n3026. British Raj  \u2014  http:\/\/en.wikipedia.org.\/wiki\/British_Raj\n3027. Sof\u00EDa Vergara  \u2014  http:\/\/en.wikipedia.org.\/wiki\/Sof%C3%ADa_Vergara\n3028. List of A Series of Unfortunate Events characters  \u2014  http:\/\/en.wikipedia.org.\/wiki\/List_of_A_Series_of_Unfortunate_Events_characters\n3029. Gladiator (2000 film)  \u2014  http:\/\/en.wikipedia.org.\/wiki\/Gladiator_(2000_film)\n3030. Collateral Beauty  \u2014  http:\/\/en.wikipedia.org.\/wiki\/Collateral_Beauty\n3031. Gone with the Wind (film)  \u2014  http:\/\/en.wikipedia.org.\/wiki\/Gone_with_the_Wind_(film)\n3032. Taraji P. Henson  \u2014  http:\/\/en.wikipedia.org.\/wiki\/Taraji_P._Henson\n3033. Heart  \u2014  http:\/\/en.wikipedia.org.\/wiki\/Heart\n3034. Khalid (singer)  \u2014  http:\/\/en.wikipedia.org.\/wiki\/Khalid_(singer)\n3035. Water pollution  \u2014  http:\/\/en.wikipedia.org.\/wiki\/Water_pollution\n3036. Citizen Kane  \u2014  http:\/\/en.wikipedia.org.\/wiki\/Citizen_Kane\n3037. Dexter (TV series)  \u2014  http:\/\/en.wikipedia.org.\/wiki\/Dexter_(TV_series)\n3038. 5S (methodology)  \u2014  http:\/\/en.wikipedia.org.\/wiki\/5S_(methodology)\n3039. E (mathematical constant)  \u2014  http:\/\/en.wikipedia.org.\/wiki\/E_(mathematical_constant)\n3040. Indus Valley Civilisation  \u2014  http:\/\/en.wikipedia.org.\/wiki\/Indus_Valley_Civilisation\n3041. Battle of the Bulge  \u2014  http:\/\/en.wikipedia.org.\/wiki\/Battle_of_the_Bulge\n3042. Dolly Parton  \u2014  http:\/\/en.wikipedia.org.\/wiki\/Dolly_Parton\n3043. Prometheus  \u2014  http:\/\/en.wikipedia.org.\/wiki\/Prometheus\n3044. The Beatles discography  \u2014  http:\/\/en.wikipedia.org.\/wiki\/The_Beatles_discography\n3045. Pedro Pascal  \u2014  http:\/\/en.wikipedia.org.\/wiki\/Pedro_Pascal\n3046. Uranus  \u2014  http:\/\/en.wikipedia.org.\/wiki\/Uranus\n3047. ASAP Rocky  \u2014  http:\/\/en.wikipedia.org.\/wiki\/ASAP_Rocky\n3048. Mohamed Salah  \u2014  http:\/\/en.wikipedia.org.\/wiki\/Mohamed_Salah\n3049. Catherine Zeta-Jones  \u2014  http:\/\/en.wikipedia.org.\/wiki\/Catherine_Zeta-Jones\n3050. Biology  \u2014  http:\/\/en.wikipedia.org.\/wiki\/Biology\n3051. Black Friday (shopping)  \u2014  http:\/\/en.wikipedia.org.\/wiki\/Black_Friday_(shopping)\n3052. Arab Spring  \u2014  http:\/\/en.wikipedia.org.\/wiki\/Arab_Spring\n3053. Paul the Apostle  \u2014  http:\/\/en.wikipedia.org.\/wiki\/Paul_the_Apostle\n3054. Badrinath Ki Dulhania  \u2014  http:\/\/en.wikipedia.org.\/wiki\/Badrinath_Ki_Dulhania\n3055. Rage Against the Machine  \u2014  http:\/\/en.wikipedia.org.\/wiki\/Rage_Against_the_Machine\n3056. Climate change  \u2014  http:\/\/en.wikipedia.org.\/wiki\/Climate_change\n3057. Mike Shinoda  \u2014  http:\/\/en.wikipedia.org.\/wiki\/Mike_Shinoda\n3058. Steve Irwin  \u2014  http:\/\/en.wikipedia.org.\/wiki\/Steve_Irwin\n3059. Chess  \u2014  http:\/\/en.wikipedia.org.\/wiki\/Chess\n3060. Greek mythology  \u2014  http:\/\/en.wikipedia.org.\/wiki\/Greek_mythology\n3061. Slavery in the United States  \u2014  http:\/\/en.wikipedia.org.\/wiki\/Slavery_in_the_United_States\n3062. Killer whale  \u2014  http:\/\/en.wikipedia.org.\/wiki\/Killer_whale\n3063. Seven Years' War  \u2014  http:\/\/en.wikipedia.org.\/wiki\/Seven_Years'_War\n3064. Bolivia  \u2014  http:\/\/en.wikipedia.org.\/wiki\/Bolivia\n3065. Owen Wilson  \u2014  http:\/\/en.wikipedia.org.\/wiki\/Owen_Wilson\n3066. Uganda  \u2014  http:\/\/en.wikipedia.org.\/wiki\/Uganda\n3067. Oroville Dam  \u2014  http:\/\/en.wikipedia.org.\/wiki\/Oroville_Dam\n3068. Warren G. Harding  \u2014  http:\/\/en.wikipedia.org.\/wiki\/Warren_G._Harding\n3069. The Killers  \u2014  http:\/\/en.wikipedia.org.\/wiki\/The_Killers\n3070. Gianni Versace  \u2014  http:\/\/en.wikipedia.org.\/wiki\/Gianni_Versace\n3071. Bella Hadid  \u2014  http:\/\/en.wikipedia.org.\/wiki\/Bella_Hadid\n3072. Wolfenstein  \u2014  http:\/\/en.wikipedia.org.\/wiki\/Wolfenstein\n3073. Naomi Scott  \u2014  http:\/\/en.wikipedia.org.\/wiki\/Naomi_Scott\n3074. Web search engine  \u2014  http:\/\/en.wikipedia.org.\/wiki\/Web_search_engine\n3075. Modern Family (season 8)  \u2014  http:\/\/en.wikipedia.org.\/wiki\/Modern_Family_(season_8)\n3076. Noomi Rapace  \u2014  http:\/\/en.wikipedia.org.\/wiki\/Noomi_Rapace\n3077. Capacitor  \u2014  http:\/\/en.wikipedia.org.\/wiki\/Capacitor\n3078. S. S. Rajamouli  \u2014  http:\/\/en.wikipedia.org.\/wiki\/S._S._Rajamouli\n3079. Canary Islands  \u2014  http:\/\/en.wikipedia.org.\/wiki\/Canary_Islands\n3080. Machine Gun Kelly (rapper)  \u2014  http:\/\/en.wikipedia.org.\/wiki\/Machine_Gun_Kelly_(rapper)\n3081. Volleyball  \u2014  http:\/\/en.wikipedia.org.\/wiki\/Volleyball\n3082. Descendants 2  \u2014  http:\/\/en.wikipedia.org.\/wiki\/Descendants_2\n3083. American Assassin  \u2014  http:\/\/en.wikipedia.org.\/wiki\/American_Assassin\n3084. United States Virgin Islands  \u2014  http:\/\/en.wikipedia.org.\/wiki\/United_States_Virgin_Islands\n3085. Roger Waters  \u2014  http:\/\/en.wikipedia.org.\/wiki\/Roger_Waters\n3086. Lithium-ion battery  \u2014  http:\/\/en.wikipedia.org.\/wiki\/Lithium-ion_battery\n3087. Spotlight (film)  \u2014  http:\/\/en.wikipedia.org.\/wiki\/Spotlight_(film)\n3088. Michelin Guide  \u2014  http:\/\/en.wikipedia.org.\/wiki\/Michelin_Guide\n3089. Netfilter  \u2014  http:\/\/en.wikipedia.org.\/wiki\/Netfilter\n3090. Ira von F\u00FCrstenberg  \u2014  http:\/\/en.wikipedia.org.\/wiki\/Ira_von_F%C3%BCrstenberg\n3091. Presidential Medal of Freedom  \u2014  http:\/\/en.wikipedia.org.\/wiki\/Presidential_Medal_of_Freedom\n3092. Speed of light  \u2014  http:\/\/en.wikipedia.org.\/wiki\/Speed_of_light\n3093. Aziz Ansari  \u2014  http:\/\/en.wikipedia.org.\/wiki\/Aziz_Ansari\n3094. The Last Supper (Leonardo da Vinci)  \u2014  http:\/\/en.wikipedia.org.\/wiki\/The_Last_Supper_(Leonardo_da_Vinci)\n3095. Internet protocol suite  \u2014  http:\/\/en.wikipedia.org.\/wiki\/Internet_protocol_suite\n3096. Skylake (microarchitecture)  \u2014  http:\/\/en.wikipedia.org.\/wiki\/Skylake_(microarchitecture)\n3097. Vinod Khanna  \u2014  http:\/\/en.wikipedia.org.\/wiki\/Vinod_Khanna\n3098. Go (game)  \u2014  http:\/\/en.wikipedia.org.\/wiki\/Go_(game)\n3099. Luis Su\u00E1rez  \u2014  http:\/\/en.wikipedia.org.\/wiki\/Luis_Su%C3%A1rez\n","miniList":"3000. Maya civilization\n3001. Node.js\n3002. Spamming\n3003. Tunisia\n3004. Andy Kaufman\n3005. Sebastian Gorka\n3006. Anno Domini\n3007. Orlando Bloom\n3008. The Jungle Book (2016 film)\n3009. List of sovereign states\n3010. Omarosa Manigault\n3011. Rosamund Pike\n3012. Marketing\n3013. Nioh\n3014. Killing of Harambe\n3015. Benicio del Toro\n3016. J. Cole\n3017. List of best-selling video games\n3018. Football\n3019. Electrical resistivity and conductivity\n3020. Deepwater Horizon oil spill\n3021. Marvel Comics\n3022. Community (TV series)\n3023. Louis Mountbatten, 1st Earl Mountbatten of Burma\n3024. Nancy Pelosi\n3025. Computer network\n3026. British Raj\n3027. Sof\u00EDa Vergara\n3028. List of A Series of Unfortunate Events characters\n3029. Gladiator (2000 film)\n3030. Collateral Beauty\n3031. Gone with the Wind (film)\n3032. Taraji P. Henson\n3033. Heart\n3034. Khalid (singer)\n3035. Water pollution\n3036. Citizen Kane\n3037. Dexter (TV series)\n3038. 5S (methodology)\n3039. E (mathematical constant)\n3040. Indus Valley Civilisation\n3041. Battle of the Bulge\n3042. Dolly Parton\n3043. Prometheus\n3044. The Beatles discography\n3045. Pedro Pascal\n3046. Uranus\n3047. ASAP Rocky\n3048. Mohamed Salah\n3049. Catherine Zeta-Jones\n3050. Biology\n3051. Black Friday (shopping)\n3052. Arab Spring\n3053. Paul the Apostle\n3054. Badrinath Ki Dulhania\n3055. Rage Against the Machine\n3056. Climate change\n3057. Mike Shinoda\n3058. Steve Irwin\n3059. Chess\n3060. Greek mythology\n3061. Slavery in the United States\n3062. Killer whale\n3063. Seven Years' War\n3064. Bolivia\n3065. Owen Wilson\n3066. Uganda\n3067. Oroville Dam\n3068. Warren G. Harding\n3069. The Killers\n3070. Gianni Versace\n3071. Bella Hadid\n3072. Wolfenstein\n3073. Naomi Scott\n3074. Web search engine\n3075. Modern Family (season 8)\n3076. Noomi Rapace\n3077. Capacitor\n3078. S. S. Rajamouli\n3079. Canary Islands\n3080. Machine Gun Kelly (rapper)\n3081. Volleyball\n3082. Descendants 2\n3083. American Assassin\n3084. United States Virgin Islands\n3085. Roger Waters\n3086. Lithium-ion battery\n3087. Spotlight (film)\n3088. Michelin Guide\n3089. Netfilter\n3090. Ira von F\u00FCrstenberg\n3091. Presidential Medal of Freedom\n3092. Speed of light\n3093. Aziz Ansari\n3094. The Last Supper (Leonardo da Vinci)\n3095. Internet protocol suite\n3096. Skylake (microarchitecture)\n3097. Vinod Khanna\n3098. Go (game)\n3099. Luis Su\u00E1rez\n"}
