{"start":3101,"end":3200,"count":5616717,"type":"pageviews","pageSize":100,"page":31,"pages":56168,"columns":[{"label":"","property":"pageviews","sortable":false}],"items":[{"pageviews":"3100. <a target=\"_blank\" href=\"http://en.wikipedia.org./wiki/Ray_Donovan\">Ray Donovan</a>"},{"pageviews":"3101. <a target=\"_blank\" href=\"http://en.wikipedia.org./wiki/Caucasian_race\">Caucasian race</a>"},{"pageviews":"3102. <a target=\"_blank\" href=\"http://en.wikipedia.org./wiki/Benzodiazepine\">Benzodiazepine</a>"},{"pageviews":"3103. <a target=\"_blank\" href=\"http://en.wikipedia.org./wiki/Fairchild_Republic_A-10_Thunderbolt_II\">Fairchild Republic A-10 Thunderbolt II</a>"},{"pageviews":"3104. <a target=\"_blank\" href=\"http://en.wikipedia.org./wiki/Universally_unique_identifier\">Universally unique identifier</a>"},{"pageviews":"3105. <a target=\"_blank\" href=\"http://en.wikipedia.org./wiki/Coen_brothers\">Coen brothers</a>"},{"pageviews":"3106. <a target=\"_blank\" href=\"http://en.wikipedia.org./wiki/FIFA_World_Rankings\">FIFA World Rankings</a>"},{"pageviews":"3107. <a target=\"_blank\" href=\"http://en.wikipedia.org./wiki/Bacteria\">Bacteria</a>"},{"pageviews":"3108. <a target=\"_blank\" href=\"http://en.wikipedia.org./wiki/Danny_DeVito\">Danny DeVito</a>"},{"pageviews":"3109. <a target=\"_blank\" href=\"http://en.wikipedia.org./wiki/Edmonia_Lewis\">Edmonia Lewis</a>"},{"pageviews":"3110. <a target=\"_blank\" href=\"http://en.wikipedia.org./wiki/EBay\">EBay</a>"},{"pageviews":"3111. <a target=\"_blank\" href=\"http://en.wikipedia.org./wiki/Wilt_Chamberlain\">Wilt Chamberlain</a>"},{"pageviews":"3112. <a target=\"_blank\" href=\"http://en.wikipedia.org./wiki/Douglas_MacArthur\">Douglas MacArthur</a>"},{"pageviews":"3113. <a target=\"_blank\" href=\"http://en.wikipedia.org./wiki/Stanley_Tucci\">Stanley Tucci</a>"},{"pageviews":"3114. <a target=\"_blank\" href=\"http://en.wikipedia.org./wiki/Ghostbusters_(2016_film)\">Ghostbusters (2016 film)</a>"},{"pageviews":"3115. <a target=\"_blank\" href=\"http://en.wikipedia.org./wiki/Warren_Beatty\">Warren Beatty</a>"},{"pageviews":"3116. <a target=\"_blank\" href=\"http://en.wikipedia.org./wiki/Inferno_(2016_film)\">Inferno (2016 film)</a>"},{"pageviews":"3117. <a target=\"_blank\" href=\"http://en.wikipedia.org./wiki/New_York_(state)\">New York (state)</a>"},{"pageviews":"3118. <a target=\"_blank\" href=\"http://en.wikipedia.org./wiki/Syphilis\">Syphilis</a>"},{"pageviews":"3119. <a target=\"_blank\" href=\"http://en.wikipedia.org./wiki/SMART_criteria\">SMART criteria</a>"},{"pageviews":"3120. <a target=\"_blank\" href=\"http://en.wikipedia.org./wiki/Sam_Elliott\">Sam Elliott</a>"},{"pageviews":"3121. <a target=\"_blank\" href=\"http://en.wikipedia.org./wiki/Emmett_Till\">Emmett Till</a>"},{"pageviews":"3122. <a target=\"_blank\" href=\"http://en.wikipedia.org./wiki/Death_of_JonBen%C3%A9t_Ramsey\">Death of JonBenét Ramsey</a>"},{"pageviews":"3123. <a target=\"_blank\" href=\"http://en.wikipedia.org./wiki/Moses\">Moses</a>"},{"pageviews":"3124. <a target=\"_blank\" href=\"http://en.wikipedia.org./wiki/Jurassic_Park_(film)\">Jurassic Park (film)</a>"},{"pageviews":"3125. <a target=\"_blank\" href=\"http://en.wikipedia.org./wiki/Conan_O'Brien\">Conan O'Brien</a>"},{"pageviews":"3126. <a target=\"_blank\" href=\"http://en.wikipedia.org./wiki/Fazlur_Rahman_Khan\">Fazlur Rahman Khan</a>"},{"pageviews":"3127. <a target=\"_blank\" href=\"http://en.wikipedia.org./wiki/Me_Before_You_(film)\">Me Before You (film)</a>"},{"pageviews":"3128. <a target=\"_blank\" href=\"http://en.wikipedia.org./wiki/Allies_of_World_War_II\">Allies of World War II</a>"},{"pageviews":"3129. <a target=\"_blank\" href=\"http://en.wikipedia.org./wiki/Mika_Brzezinski\">Mika Brzezinski</a>"},{"pageviews":"3130. <a target=\"_blank\" href=\"http://en.wikipedia.org./wiki/Julie_Andrews\">Julie Andrews</a>"},{"pageviews":"3131. <a target=\"_blank\" href=\"http://en.wikipedia.org./wiki/New_York\">New York</a>"},{"pageviews":"3132. <a target=\"_blank\" href=\"http://en.wikipedia.org./wiki/Tony_Blair\">Tony Blair</a>"},{"pageviews":"3133. <a target=\"_blank\" href=\"http://en.wikipedia.org./wiki/David_Thewlis\">David Thewlis</a>"},{"pageviews":"3134. <a target=\"_blank\" href=\"http://en.wikipedia.org./wiki/David_Cameron\">David Cameron</a>"},{"pageviews":"3135. <a target=\"_blank\" href=\"http://en.wikipedia.org./wiki/RSA_(cryptosystem)\">RSA (cryptosystem)</a>"},{"pageviews":"3136. <a target=\"_blank\" href=\"http://en.wikipedia.org./wiki/Mighty_Morphin_Power_Rangers\">Mighty Morphin Power Rangers</a>"},{"pageviews":"3137. <a target=\"_blank\" href=\"http://en.wikipedia.org./wiki/List_of_largest_cities\">List of largest cities</a>"},{"pageviews":"3138. <a target=\"_blank\" href=\"http://en.wikipedia.org./wiki/Saving_Private_Ryan\">Saving Private Ryan</a>"},{"pageviews":"3139. <a target=\"_blank\" href=\"http://en.wikipedia.org./wiki/Francisco_Franco\">Francisco Franco</a>"},{"pageviews":"3140. <a target=\"_blank\" href=\"http://en.wikipedia.org./wiki/AngularJS\">AngularJS</a>"},{"pageviews":"3141. <a target=\"_blank\" href=\"http://en.wikipedia.org./wiki/The_Good_Wife\">The Good Wife</a>"},{"pageviews":"3142. <a target=\"_blank\" href=\"http://en.wikipedia.org./wiki/Iraqi_Civil_War_(2014%E2%80%93present)\">Iraqi Civil War (2014–present)</a>"},{"pageviews":"3143. <a target=\"_blank\" href=\"http://en.wikipedia.org./wiki/Haf%C3%BE%C3%B3r_J%C3%BAl%C3%ADus_Bj%C3%B6rnsson\">Hafþór Júlíus Björnsson</a>"},{"pageviews":"3144. <a target=\"_blank\" href=\"http://en.wikipedia.org./wiki/Hindi\">Hindi</a>"},{"pageviews":"3145. <a target=\"_blank\" href=\"http://en.wikipedia.org./wiki/Energy\">Energy</a>"},{"pageviews":"3146. <a target=\"_blank\" href=\"http://en.wikipedia.org./wiki/R.S.C._Anderlecht\">R.S.C. Anderlecht</a>"},{"pageviews":"3147. <a target=\"_blank\" href=\"http://en.wikipedia.org./wiki/Orlando_nightclub_shooting\">Orlando nightclub shooting</a>"},{"pageviews":"3148. <a target=\"_blank\" href=\"http://en.wikipedia.org./wiki/Newcastle_United_F.C.\">Newcastle United F.C.</a>"},{"pageviews":"3149. <a target=\"_blank\" href=\"http://en.wikipedia.org./wiki/Hulk_Hogan\">Hulk Hogan</a>"},{"pageviews":"3150. <a target=\"_blank\" href=\"http://en.wikipedia.org./wiki/Timothy_McVeigh\">Timothy McVeigh</a>"},{"pageviews":"3151. <a target=\"_blank\" href=\"http://en.wikipedia.org./wiki/Space_Shuttle_Challenger_disaster\">Space Shuttle Challenger disaster</a>"},{"pageviews":"3152. <a target=\"_blank\" href=\"http://en.wikipedia.org./wiki/Suriname\">Suriname</a>"},{"pageviews":"3153. <a target=\"_blank\" href=\"http://en.wikipedia.org./wiki/Louis_Armstrong\">Louis Armstrong</a>"},{"pageviews":"3154. <a target=\"_blank\" href=\"http://en.wikipedia.org./wiki/Glucose\">Glucose</a>"},{"pageviews":"3155. <a target=\"_blank\" href=\"http://en.wikipedia.org./wiki/Protein\">Protein</a>"},{"pageviews":"3156. <a target=\"_blank\" href=\"http://en.wikipedia.org./wiki/John_Oliver\">John Oliver</a>"},{"pageviews":"3157. <a target=\"_blank\" href=\"http://en.wikipedia.org./wiki/Indo-European_languages\">Indo-European languages</a>"},{"pageviews":"3158. <a target=\"_blank\" href=\"http://en.wikipedia.org./wiki/List_of_Last_Week_Tonight_with_John_Oliver_episodes\">List of Last Week Tonight with John Oliver episodes</a>"},{"pageviews":"3159. <a target=\"_blank\" href=\"http://en.wikipedia.org./wiki/Precision_and_recall\">Precision and recall</a>"},{"pageviews":"3160. <a target=\"_blank\" href=\"http://en.wikipedia.org./wiki/List_of_Justices_of_the_Supreme_Court_of_the_United_States\">List of Justices of the Supreme Court of the United States</a>"},{"pageviews":"3161. <a target=\"_blank\" href=\"http://en.wikipedia.org./wiki/Reinhard_Heydrich\">Reinhard Heydrich</a>"},{"pageviews":"3162. <a target=\"_blank\" href=\"http://en.wikipedia.org./wiki/List_of_Fairy_Tail_episodes\">List of Fairy Tail episodes</a>"},{"pageviews":"3163. <a target=\"_blank\" href=\"http://en.wikipedia.org./wiki/Ketamine\">Ketamine</a>"},{"pageviews":"3164. <a target=\"_blank\" href=\"http://en.wikipedia.org./wiki/Seth_Rogen\">Seth Rogen</a>"},{"pageviews":"3165. <a target=\"_blank\" href=\"http://en.wikipedia.org./wiki/Gianluigi_Buffon\">Gianluigi Buffon</a>"},{"pageviews":"3166. <a target=\"_blank\" href=\"http://en.wikipedia.org./wiki/2017_Women's_March\">2017 Women's March</a>"},{"pageviews":"3167. <a target=\"_blank\" href=\"http://en.wikipedia.org./wiki/Are_You_the_One%3F\">Are You the One?</a>"},{"pageviews":"3168. <a target=\"_blank\" href=\"http://en.wikipedia.org./wiki/Rami_Malek\">Rami Malek</a>"},{"pageviews":"3169. <a target=\"_blank\" href=\"http://en.wikipedia.org./wiki/Kate_Upton\">Kate Upton</a>"},{"pageviews":"3170. <a target=\"_blank\" href=\"http://en.wikipedia.org./wiki/Criminal_Minds_(season_12)\">Criminal Minds (season 12)</a>"},{"pageviews":"3171. <a target=\"_blank\" href=\"http://en.wikipedia.org./wiki/Caroline_Kennedy\">Caroline Kennedy</a>"},{"pageviews":"3172. <a target=\"_blank\" href=\"http://en.wikipedia.org./wiki/2017_Westminster_attack\">2017 Westminster attack</a>"},{"pageviews":"3173. <a target=\"_blank\" href=\"http://en.wikipedia.org./wiki/Franz_Kafka\">Franz Kafka</a>"},{"pageviews":"3174. <a target=\"_blank\" href=\"http://en.wikipedia.org./wiki/Aurora\">Aurora</a>"},{"pageviews":"3175. <a target=\"_blank\" href=\"http://en.wikipedia.org./wiki/Logarithm\">Logarithm</a>"},{"pageviews":"3176. <a target=\"_blank\" href=\"http://en.wikipedia.org./wiki/IOS\">IOS</a>"},{"pageviews":"3177. <a target=\"_blank\" href=\"http://en.wikipedia.org./wiki/Satya_Nadella\">Satya Nadella</a>"},{"pageviews":"3178. <a target=\"_blank\" href=\"http://en.wikipedia.org./wiki/Major_depressive_disorder\">Major depressive disorder</a>"},{"pageviews":"3179. <a target=\"_blank\" href=\"http://en.wikipedia.org./wiki/Neptune\">Neptune</a>"},{"pageviews":"3180. <a target=\"_blank\" href=\"http://en.wikipedia.org./wiki/Minnesota\">Minnesota</a>"},{"pageviews":"3181. <a target=\"_blank\" href=\"http://en.wikipedia.org./wiki/Fellatio\">Fellatio</a>"},{"pageviews":"3182. <a target=\"_blank\" href=\"http://en.wikipedia.org./wiki/Edward_VI_of_England\">Edward VI of England</a>"},{"pageviews":"3183. <a target=\"_blank\" href=\"http://en.wikipedia.org./wiki/Website\">Website</a>"},{"pageviews":"3184. <a target=\"_blank\" href=\"http://en.wikipedia.org./wiki/Jazz\">Jazz</a>"},{"pageviews":"3185. <a target=\"_blank\" href=\"http://en.wikipedia.org./wiki/The_Catcher_in_the_Rye\">The Catcher in the Rye</a>"},{"pageviews":"3186. <a target=\"_blank\" href=\"http://en.wikipedia.org./wiki/Web_colors\">Web colors</a>"},{"pageviews":"3187. <a target=\"_blank\" href=\"http://en.wikipedia.org./wiki/Monte_Carlo_method\">Monte Carlo method</a>"},{"pageviews":"3188. <a target=\"_blank\" href=\"http://en.wikipedia.org./wiki/Atl%C3%A9tico_Madrid\">Atlético Madrid</a>"},{"pageviews":"3189. <a target=\"_blank\" href=\"http://en.wikipedia.org./wiki/Pronoun\">Pronoun</a>"},{"pageviews":"3190. <a target=\"_blank\" href=\"http://en.wikipedia.org./wiki/Kourtney_Kardashian\">Kourtney Kardashian</a>"},{"pageviews":"3191. <a target=\"_blank\" href=\"http://en.wikipedia.org./wiki/Fr%C3%A9d%C3%A9ric_Chopin\">Frédéric Chopin</a>"},{"pageviews":"3192. <a target=\"_blank\" href=\"http://en.wikipedia.org./wiki/Hermann_G%C3%B6ring\">Hermann Göring</a>"},{"pageviews":"3193. <a target=\"_blank\" href=\"http://en.wikipedia.org./wiki/Joker_(character)\">Joker (character)</a>"},{"pageviews":"3194. <a target=\"_blank\" href=\"http://en.wikipedia.org./wiki/Daniel_Cormier\">Daniel Cormier</a>"},{"pageviews":"3195. <a target=\"_blank\" href=\"http://en.wikipedia.org./wiki/Hip_hop_music\">Hip hop music</a>"},{"pageviews":"3196. <a target=\"_blank\" href=\"http://en.wikipedia.org./wiki/Common_European_Framework_of_Reference_for_Languages\">Common European Framework of Reference for Languages</a>"},{"pageviews":"3197. <a target=\"_blank\" href=\"http://en.wikipedia.org./wiki/Classless_Inter-Domain_Routing\">Classless Inter-Domain Routing</a>"},{"pageviews":"3198. <a target=\"_blank\" href=\"http://en.wikipedia.org./wiki/Olivia_Wilde\">Olivia Wilde</a>"},{"pageviews":"3199. <a target=\"_blank\" href=\"http://en.wikipedia.org./wiki/The_Wolverine_(film)\">The Wolverine (film)</a>"}],"list":"3100. Ray Donovan  \u2014  http:\/\/en.wikipedia.org.\/wiki\/Ray_Donovan\n3101. Caucasian race  \u2014  http:\/\/en.wikipedia.org.\/wiki\/Caucasian_race\n3102. Benzodiazepine  \u2014  http:\/\/en.wikipedia.org.\/wiki\/Benzodiazepine\n3103. Fairchild Republic A-10 Thunderbolt II  \u2014  http:\/\/en.wikipedia.org.\/wiki\/Fairchild_Republic_A-10_Thunderbolt_II\n3104. Universally unique identifier  \u2014  http:\/\/en.wikipedia.org.\/wiki\/Universally_unique_identifier\n3105. Coen brothers  \u2014  http:\/\/en.wikipedia.org.\/wiki\/Coen_brothers\n3106. FIFA World Rankings  \u2014  http:\/\/en.wikipedia.org.\/wiki\/FIFA_World_Rankings\n3107. Bacteria  \u2014  http:\/\/en.wikipedia.org.\/wiki\/Bacteria\n3108. Danny DeVito  \u2014  http:\/\/en.wikipedia.org.\/wiki\/Danny_DeVito\n3109. Edmonia Lewis  \u2014  http:\/\/en.wikipedia.org.\/wiki\/Edmonia_Lewis\n3110. EBay  \u2014  http:\/\/en.wikipedia.org.\/wiki\/EBay\n3111. Wilt Chamberlain  \u2014  http:\/\/en.wikipedia.org.\/wiki\/Wilt_Chamberlain\n3112. Douglas MacArthur  \u2014  http:\/\/en.wikipedia.org.\/wiki\/Douglas_MacArthur\n3113. Stanley Tucci  \u2014  http:\/\/en.wikipedia.org.\/wiki\/Stanley_Tucci\n3114. Ghostbusters (2016 film)  \u2014  http:\/\/en.wikipedia.org.\/wiki\/Ghostbusters_(2016_film)\n3115. Warren Beatty  \u2014  http:\/\/en.wikipedia.org.\/wiki\/Warren_Beatty\n3116. Inferno (2016 film)  \u2014  http:\/\/en.wikipedia.org.\/wiki\/Inferno_(2016_film)\n3117. New York (state)  \u2014  http:\/\/en.wikipedia.org.\/wiki\/New_York_(state)\n3118. Syphilis  \u2014  http:\/\/en.wikipedia.org.\/wiki\/Syphilis\n3119. SMART criteria  \u2014  http:\/\/en.wikipedia.org.\/wiki\/SMART_criteria\n3120. Sam Elliott  \u2014  http:\/\/en.wikipedia.org.\/wiki\/Sam_Elliott\n3121. Emmett Till  \u2014  http:\/\/en.wikipedia.org.\/wiki\/Emmett_Till\n3122. Death of JonBen\u00E9t Ramsey  \u2014  http:\/\/en.wikipedia.org.\/wiki\/Death_of_JonBen%C3%A9t_Ramsey\n3123. Moses  \u2014  http:\/\/en.wikipedia.org.\/wiki\/Moses\n3124. Jurassic Park (film)  \u2014  http:\/\/en.wikipedia.org.\/wiki\/Jurassic_Park_(film)\n3125. Conan O'Brien  \u2014  http:\/\/en.wikipedia.org.\/wiki\/Conan_O'Brien\n3126. Fazlur Rahman Khan  \u2014  http:\/\/en.wikipedia.org.\/wiki\/Fazlur_Rahman_Khan\n3127. Me Before You (film)  \u2014  http:\/\/en.wikipedia.org.\/wiki\/Me_Before_You_(film)\n3128. Allies of World War II  \u2014  http:\/\/en.wikipedia.org.\/wiki\/Allies_of_World_War_II\n3129. Mika Brzezinski  \u2014  http:\/\/en.wikipedia.org.\/wiki\/Mika_Brzezinski\n3130. Julie Andrews  \u2014  http:\/\/en.wikipedia.org.\/wiki\/Julie_Andrews\n3131. New York  \u2014  http:\/\/en.wikipedia.org.\/wiki\/New_York\n3132. Tony Blair  \u2014  http:\/\/en.wikipedia.org.\/wiki\/Tony_Blair\n3133. David Thewlis  \u2014  http:\/\/en.wikipedia.org.\/wiki\/David_Thewlis\n3134. David Cameron  \u2014  http:\/\/en.wikipedia.org.\/wiki\/David_Cameron\n3135. RSA (cryptosystem)  \u2014  http:\/\/en.wikipedia.org.\/wiki\/RSA_(cryptosystem)\n3136. Mighty Morphin Power Rangers  \u2014  http:\/\/en.wikipedia.org.\/wiki\/Mighty_Morphin_Power_Rangers\n3137. List of largest cities  \u2014  http:\/\/en.wikipedia.org.\/wiki\/List_of_largest_cities\n3138. Saving Private Ryan  \u2014  http:\/\/en.wikipedia.org.\/wiki\/Saving_Private_Ryan\n3139. Francisco Franco  \u2014  http:\/\/en.wikipedia.org.\/wiki\/Francisco_Franco\n3140. AngularJS  \u2014  http:\/\/en.wikipedia.org.\/wiki\/AngularJS\n3141. The Good Wife  \u2014  http:\/\/en.wikipedia.org.\/wiki\/The_Good_Wife\n3142. Iraqi Civil War (2014\u2013present)  \u2014  http:\/\/en.wikipedia.org.\/wiki\/Iraqi_Civil_War_(2014%E2%80%93present)\n3143. Haf\u00FE\u00F3r J\u00FAl\u00EDus Bj\u00F6rnsson  \u2014  http:\/\/en.wikipedia.org.\/wiki\/Haf%C3%BE%C3%B3r_J%C3%BAl%C3%ADus_Bj%C3%B6rnsson\n3144. Hindi  \u2014  http:\/\/en.wikipedia.org.\/wiki\/Hindi\n3145. Energy  \u2014  http:\/\/en.wikipedia.org.\/wiki\/Energy\n3146. R.S.C. Anderlecht  \u2014  http:\/\/en.wikipedia.org.\/wiki\/R.S.C._Anderlecht\n3147. Orlando nightclub shooting  \u2014  http:\/\/en.wikipedia.org.\/wiki\/Orlando_nightclub_shooting\n3148. Newcastle United F.C.  \u2014  http:\/\/en.wikipedia.org.\/wiki\/Newcastle_United_F.C.\n3149. Hulk Hogan  \u2014  http:\/\/en.wikipedia.org.\/wiki\/Hulk_Hogan\n3150. Timothy McVeigh  \u2014  http:\/\/en.wikipedia.org.\/wiki\/Timothy_McVeigh\n3151. Space Shuttle Challenger disaster  \u2014  http:\/\/en.wikipedia.org.\/wiki\/Space_Shuttle_Challenger_disaster\n3152. Suriname  \u2014  http:\/\/en.wikipedia.org.\/wiki\/Suriname\n3153. Louis Armstrong  \u2014  http:\/\/en.wikipedia.org.\/wiki\/Louis_Armstrong\n3154. Glucose  \u2014  http:\/\/en.wikipedia.org.\/wiki\/Glucose\n3155. Protein  \u2014  http:\/\/en.wikipedia.org.\/wiki\/Protein\n3156. John Oliver  \u2014  http:\/\/en.wikipedia.org.\/wiki\/John_Oliver\n3157. Indo-European languages  \u2014  http:\/\/en.wikipedia.org.\/wiki\/Indo-European_languages\n3158. List of Last Week Tonight with John Oliver episodes  \u2014  http:\/\/en.wikipedia.org.\/wiki\/List_of_Last_Week_Tonight_with_John_Oliver_episodes\n3159. Precision and recall  \u2014  http:\/\/en.wikipedia.org.\/wiki\/Precision_and_recall\n3160. List of Justices of the Supreme Court of the United States  \u2014  http:\/\/en.wikipedia.org.\/wiki\/List_of_Justices_of_the_Supreme_Court_of_the_United_States\n3161. Reinhard Heydrich  \u2014  http:\/\/en.wikipedia.org.\/wiki\/Reinhard_Heydrich\n3162. List of Fairy Tail episodes  \u2014  http:\/\/en.wikipedia.org.\/wiki\/List_of_Fairy_Tail_episodes\n3163. Ketamine  \u2014  http:\/\/en.wikipedia.org.\/wiki\/Ketamine\n3164. Seth Rogen  \u2014  http:\/\/en.wikipedia.org.\/wiki\/Seth_Rogen\n3165. Gianluigi Buffon  \u2014  http:\/\/en.wikipedia.org.\/wiki\/Gianluigi_Buffon\n3166. 2017 Women's March  \u2014  http:\/\/en.wikipedia.org.\/wiki\/2017_Women's_March\n3167. Are You the One?  \u2014  http:\/\/en.wikipedia.org.\/wiki\/Are_You_the_One%3F\n3168. Rami Malek  \u2014  http:\/\/en.wikipedia.org.\/wiki\/Rami_Malek\n3169. Kate Upton  \u2014  http:\/\/en.wikipedia.org.\/wiki\/Kate_Upton\n3170. Criminal Minds (season 12)  \u2014  http:\/\/en.wikipedia.org.\/wiki\/Criminal_Minds_(season_12)\n3171. Caroline Kennedy  \u2014  http:\/\/en.wikipedia.org.\/wiki\/Caroline_Kennedy\n3172. 2017 Westminster attack  \u2014  http:\/\/en.wikipedia.org.\/wiki\/2017_Westminster_attack\n3173. Franz Kafka  \u2014  http:\/\/en.wikipedia.org.\/wiki\/Franz_Kafka\n3174. Aurora  \u2014  http:\/\/en.wikipedia.org.\/wiki\/Aurora\n3175. Logarithm  \u2014  http:\/\/en.wikipedia.org.\/wiki\/Logarithm\n3176. IOS  \u2014  http:\/\/en.wikipedia.org.\/wiki\/IOS\n3177. Satya Nadella  \u2014  http:\/\/en.wikipedia.org.\/wiki\/Satya_Nadella\n3178. Major depressive disorder  \u2014  http:\/\/en.wikipedia.org.\/wiki\/Major_depressive_disorder\n3179. Neptune  \u2014  http:\/\/en.wikipedia.org.\/wiki\/Neptune\n3180. Minnesota  \u2014  http:\/\/en.wikipedia.org.\/wiki\/Minnesota\n3181. Fellatio  \u2014  http:\/\/en.wikipedia.org.\/wiki\/Fellatio\n3182. Edward VI of England  \u2014  http:\/\/en.wikipedia.org.\/wiki\/Edward_VI_of_England\n3183. Website  \u2014  http:\/\/en.wikipedia.org.\/wiki\/Website\n3184. Jazz  \u2014  http:\/\/en.wikipedia.org.\/wiki\/Jazz\n3185. The Catcher in the Rye  \u2014  http:\/\/en.wikipedia.org.\/wiki\/The_Catcher_in_the_Rye\n3186. Web colors  \u2014  http:\/\/en.wikipedia.org.\/wiki\/Web_colors\n3187. Monte Carlo method  \u2014  http:\/\/en.wikipedia.org.\/wiki\/Monte_Carlo_method\n3188. Atl\u00E9tico Madrid  \u2014  http:\/\/en.wikipedia.org.\/wiki\/Atl%C3%A9tico_Madrid\n3189. Pronoun  \u2014  http:\/\/en.wikipedia.org.\/wiki\/Pronoun\n3190. Kourtney Kardashian  \u2014  http:\/\/en.wikipedia.org.\/wiki\/Kourtney_Kardashian\n3191. Fr\u00E9d\u00E9ric Chopin  \u2014  http:\/\/en.wikipedia.org.\/wiki\/Fr%C3%A9d%C3%A9ric_Chopin\n3192. Hermann G\u00F6ring  \u2014  http:\/\/en.wikipedia.org.\/wiki\/Hermann_G%C3%B6ring\n3193. Joker (character)  \u2014  http:\/\/en.wikipedia.org.\/wiki\/Joker_(character)\n3194. Daniel Cormier  \u2014  http:\/\/en.wikipedia.org.\/wiki\/Daniel_Cormier\n3195. Hip hop music  \u2014  http:\/\/en.wikipedia.org.\/wiki\/Hip_hop_music\n3196. Common European Framework of Reference for Languages  \u2014  http:\/\/en.wikipedia.org.\/wiki\/Common_European_Framework_of_Reference_for_Languages\n3197. Classless Inter-Domain Routing  \u2014  http:\/\/en.wikipedia.org.\/wiki\/Classless_Inter-Domain_Routing\n3198. Olivia Wilde  \u2014  http:\/\/en.wikipedia.org.\/wiki\/Olivia_Wilde\n3199. The Wolverine (film)  \u2014  http:\/\/en.wikipedia.org.\/wiki\/The_Wolverine_(film)\n","miniList":"3100. Ray Donovan\n3101. Caucasian race\n3102. Benzodiazepine\n3103. Fairchild Republic A-10 Thunderbolt II\n3104. Universally unique identifier\n3105. Coen brothers\n3106. FIFA World Rankings\n3107. Bacteria\n3108. Danny DeVito\n3109. Edmonia Lewis\n3110. EBay\n3111. Wilt Chamberlain\n3112. Douglas MacArthur\n3113. Stanley Tucci\n3114. Ghostbusters (2016 film)\n3115. Warren Beatty\n3116. Inferno (2016 film)\n3117. New York (state)\n3118. Syphilis\n3119. SMART criteria\n3120. Sam Elliott\n3121. Emmett Till\n3122. Death of JonBen\u00E9t Ramsey\n3123. Moses\n3124. Jurassic Park (film)\n3125. Conan O'Brien\n3126. Fazlur Rahman Khan\n3127. Me Before You (film)\n3128. Allies of World War II\n3129. Mika Brzezinski\n3130. Julie Andrews\n3131. New York\n3132. Tony Blair\n3133. David Thewlis\n3134. David Cameron\n3135. RSA (cryptosystem)\n3136. Mighty Morphin Power Rangers\n3137. List of largest cities\n3138. Saving Private Ryan\n3139. Francisco Franco\n3140. AngularJS\n3141. The Good Wife\n3142. Iraqi Civil War (2014\u2013present)\n3143. Haf\u00FE\u00F3r J\u00FAl\u00EDus Bj\u00F6rnsson\n3144. Hindi\n3145. Energy\n3146. R.S.C. Anderlecht\n3147. Orlando nightclub shooting\n3148. Newcastle United F.C.\n3149. Hulk Hogan\n3150. Timothy McVeigh\n3151. Space Shuttle Challenger disaster\n3152. Suriname\n3153. Louis Armstrong\n3154. Glucose\n3155. Protein\n3156. John Oliver\n3157. Indo-European languages\n3158. List of Last Week Tonight with John Oliver episodes\n3159. Precision and recall\n3160. List of Justices of the Supreme Court of the United States\n3161. Reinhard Heydrich\n3162. List of Fairy Tail episodes\n3163. Ketamine\n3164. Seth Rogen\n3165. Gianluigi Buffon\n3166. 2017 Women's March\n3167. Are You the One?\n3168. Rami Malek\n3169. Kate Upton\n3170. Criminal Minds (season 12)\n3171. Caroline Kennedy\n3172. 2017 Westminster attack\n3173. Franz Kafka\n3174. Aurora\n3175. Logarithm\n3176. IOS\n3177. Satya Nadella\n3178. Major depressive disorder\n3179. Neptune\n3180. Minnesota\n3181. Fellatio\n3182. Edward VI of England\n3183. Website\n3184. Jazz\n3185. The Catcher in the Rye\n3186. Web colors\n3187. Monte Carlo method\n3188. Atl\u00E9tico Madrid\n3189. Pronoun\n3190. Kourtney Kardashian\n3191. Fr\u00E9d\u00E9ric Chopin\n3192. Hermann G\u00F6ring\n3193. Joker (character)\n3194. Daniel Cormier\n3195. Hip hop music\n3196. Common European Framework of Reference for Languages\n3197. Classless Inter-Domain Routing\n3198. Olivia Wilde\n3199. The Wolverine (film)\n"}
