{"start":3201,"end":3300,"count":5616717,"type":"pageviews","pageSize":100,"page":32,"pages":56168,"columns":[{"label":"","property":"pageviews","sortable":false}],"items":[{"pageviews":"3200. <a target=\"_blank\" href=\"http://en.wikipedia.org./wiki/Dolphin\">Dolphin</a>"},{"pageviews":"3201. <a target=\"_blank\" href=\"http://en.wikipedia.org./wiki/Argentina_national_football_team\">Argentina national football team</a>"},{"pageviews":"3202. <a target=\"_blank\" href=\"http://en.wikipedia.org./wiki/2016_Indian_banknote_demonetisation\">2016 Indian banknote demonetisation</a>"},{"pageviews":"3203. <a target=\"_blank\" href=\"http://en.wikipedia.org./wiki/Member_state_of_the_European_Union\">Member state of the European Union</a>"},{"pageviews":"3204. <a target=\"_blank\" href=\"http://en.wikipedia.org./wiki/William_IV_of_the_United_Kingdom\">William IV of the United Kingdom</a>"},{"pageviews":"3205. <a target=\"_blank\" href=\"http://en.wikipedia.org./wiki/Oklahoma_City_bombing\">Oklahoma City bombing</a>"},{"pageviews":"3206. <a target=\"_blank\" href=\"http://en.wikipedia.org./wiki/Graphics_display_resolution\">Graphics display resolution</a>"},{"pageviews":"3207. <a target=\"_blank\" href=\"http://en.wikipedia.org./wiki/Pornographic_film\">Pornographic film</a>"},{"pageviews":"3208. <a target=\"_blank\" href=\"http://en.wikipedia.org./wiki/Heat_capacity\">Heat capacity</a>"},{"pageviews":"3209. <a target=\"_blank\" href=\"http://en.wikipedia.org./wiki/Liev_Schreiber\">Liev Schreiber</a>"},{"pageviews":"3210. <a target=\"_blank\" href=\"http://en.wikipedia.org./wiki/Gamma_distribution\">Gamma distribution</a>"},{"pageviews":"3211. <a target=\"_blank\" href=\"http://en.wikipedia.org./wiki/Opinion_polling_for_the_next_United_Kingdom_general_election\">Opinion polling for the next United Kingdom general election</a>"},{"pageviews":"3212. <a target=\"_blank\" href=\"http://en.wikipedia.org./wiki/Dolph_Lundgren\">Dolph Lundgren</a>"},{"pageviews":"3213. <a target=\"_blank\" href=\"http://en.wikipedia.org./wiki/T.J._Miller\">T.J. Miller</a>"},{"pageviews":"3214. <a target=\"_blank\" href=\"http://en.wikipedia.org./wiki/List_of_Microsoft_Windows_versions\">List of Microsoft Windows versions</a>"},{"pageviews":"3215. <a target=\"_blank\" href=\"http://en.wikipedia.org./wiki/Ransomware\">Ransomware</a>"},{"pageviews":"3216. <a target=\"_blank\" href=\"http://en.wikipedia.org./wiki/Miss_Kobayashi's_Dragon_Maid\">Miss Kobayashi's Dragon Maid</a>"},{"pageviews":"3217. <a target=\"_blank\" href=\"http://en.wikipedia.org./wiki/Unite_the_Right_rally\">Unite the Right rally</a>"},{"pageviews":"3218. <a target=\"_blank\" href=\"http://en.wikipedia.org./wiki/Rotation_matrix\">Rotation matrix</a>"},{"pageviews":"3219. <a target=\"_blank\" href=\"http://en.wikipedia.org./wiki/Tina_Turner\">Tina Turner</a>"},{"pageviews":"3220. <a target=\"_blank\" href=\"http://en.wikipedia.org./wiki/Leah_Remini\">Leah Remini</a>"},{"pageviews":"3221. <a target=\"_blank\" href=\"http://en.wikipedia.org./wiki/Andr%C3%A9_the_Giant\">André the Giant</a>"},{"pageviews":"3222. <a target=\"_blank\" href=\"http://en.wikipedia.org./wiki/Phishing\">Phishing</a>"},{"pageviews":"3223. <a target=\"_blank\" href=\"http://en.wikipedia.org./wiki/Richard_I_of_England\">Richard I of England</a>"},{"pageviews":"3224. <a target=\"_blank\" href=\"http://en.wikipedia.org./wiki/Annabelle_Wallis\">Annabelle Wallis</a>"},{"pageviews":"3225. <a target=\"_blank\" href=\"http://en.wikipedia.org./wiki/Death_Stranding\">Death Stranding</a>"},{"pageviews":"3226. <a target=\"_blank\" href=\"http://en.wikipedia.org./wiki/Amphetamine\">Amphetamine</a>"},{"pageviews":"3227. <a target=\"_blank\" href=\"http://en.wikipedia.org./wiki/VKontakte\">VKontakte</a>"},{"pageviews":"3228. <a target=\"_blank\" href=\"http://en.wikipedia.org./wiki/Babe_Ruth\">Babe Ruth</a>"},{"pageviews":"3229. <a target=\"_blank\" href=\"http://en.wikipedia.org./wiki/Courtney_Love\">Courtney Love</a>"},{"pageviews":"3230. <a target=\"_blank\" href=\"http://en.wikipedia.org./wiki/Amy_Schumer\">Amy Schumer</a>"},{"pageviews":"3231. <a target=\"_blank\" href=\"http://en.wikipedia.org./wiki/Clifton_Wrottesley\">Clifton Wrottesley</a>"},{"pageviews":"3232. <a target=\"_blank\" href=\"http://en.wikipedia.org./wiki/Narcissism\">Narcissism</a>"},{"pageviews":"3233. <a target=\"_blank\" href=\"http://en.wikipedia.org./wiki/NoSQL\">NoSQL</a>"},{"pageviews":"3234. <a target=\"_blank\" href=\"http://en.wikipedia.org./wiki/List_of_cryptocurrencies\">List of cryptocurrencies</a>"},{"pageviews":"3235. <a target=\"_blank\" href=\"http://en.wikipedia.org./wiki/Ivory_Coast\">Ivory Coast</a>"},{"pageviews":"3236. <a target=\"_blank\" href=\"http://en.wikipedia.org./wiki/M1911_pistol\">M1911 pistol</a>"},{"pageviews":"3237. <a target=\"_blank\" href=\"http://en.wikipedia.org./wiki/Jada_Pinkett_Smith\">Jada Pinkett Smith</a>"},{"pageviews":"3238. <a target=\"_blank\" href=\"http://en.wikipedia.org./wiki/Electronic_Arts\">Electronic Arts</a>"},{"pageviews":"3239. <a target=\"_blank\" href=\"http://en.wikipedia.org./wiki/Ontario\">Ontario</a>"},{"pageviews":"3240. <a target=\"_blank\" href=\"http://en.wikipedia.org./wiki/Los_Angeles_Lakers\">Los Angeles Lakers</a>"},{"pageviews":"3241. <a target=\"_blank\" href=\"http://en.wikipedia.org./wiki/T.I.\">T.I.</a>"},{"pageviews":"3242. <a target=\"_blank\" href=\"http://en.wikipedia.org./wiki/Ed_Gein\">Ed Gein</a>"},{"pageviews":"3243. <a target=\"_blank\" href=\"http://en.wikipedia.org./wiki/Jimmy_Fallon\">Jimmy Fallon</a>"},{"pageviews":"3244. <a target=\"_blank\" href=\"http://en.wikipedia.org./wiki/Wedding_anniversary\">Wedding anniversary</a>"},{"pageviews":"3245. <a target=\"_blank\" href=\"http://en.wikipedia.org./wiki/LaMelo_Ball\">LaMelo Ball</a>"},{"pageviews":"3246. <a target=\"_blank\" href=\"http://en.wikipedia.org./wiki/Bull_(2016_TV_series)\">Bull (2016 TV series)</a>"},{"pageviews":"3247. <a target=\"_blank\" href=\"http://en.wikipedia.org./wiki/Krysten_Ritter\">Krysten Ritter</a>"},{"pageviews":"3248. <a target=\"_blank\" href=\"http://en.wikipedia.org./wiki/Tom_Selleck\">Tom Selleck</a>"},{"pageviews":"3249. <a target=\"_blank\" href=\"http://en.wikipedia.org./wiki/Ted_Kennedy\">Ted Kennedy</a>"},{"pageviews":"3250. <a target=\"_blank\" href=\"http://en.wikipedia.org./wiki/Martin_Freeman\">Martin Freeman</a>"},{"pageviews":"3251. <a target=\"_blank\" href=\"http://en.wikipedia.org./wiki/Joel_Edgerton\">Joel Edgerton</a>"},{"pageviews":"3252. <a target=\"_blank\" href=\"http://en.wikipedia.org./wiki/Cary_Grant\">Cary Grant</a>"},{"pageviews":"3253. <a target=\"_blank\" href=\"http://en.wikipedia.org./wiki/Miami\">Miami</a>"},{"pageviews":"3254. <a target=\"_blank\" href=\"http://en.wikipedia.org./wiki/Maroon_5\">Maroon 5</a>"},{"pageviews":"3255. <a target=\"_blank\" href=\"http://en.wikipedia.org./wiki/Justice_League\">Justice League</a>"},{"pageviews":"3256. <a target=\"_blank\" href=\"http://en.wikipedia.org./wiki/Ontology\">Ontology</a>"},{"pageviews":"3257. <a target=\"_blank\" href=\"http://en.wikipedia.org./wiki/The_Gambia\">The Gambia</a>"},{"pageviews":"3258. <a target=\"_blank\" href=\"http://en.wikipedia.org./wiki/Markov_chain\">Markov chain</a>"},{"pageviews":"3259. <a target=\"_blank\" href=\"http://en.wikipedia.org./wiki/Jamie_Lee_Curtis\">Jamie Lee Curtis</a>"},{"pageviews":"3260. <a target=\"_blank\" href=\"http://en.wikipedia.org./wiki/Figures_of_Light\">Figures of Light</a>"},{"pageviews":"3261. <a target=\"_blank\" href=\"http://en.wikipedia.org./wiki/CM_Punk\">CM Punk</a>"},{"pageviews":"3262. <a target=\"_blank\" href=\"http://en.wikipedia.org./wiki/Cura%C3%A7ao\">Curaçao</a>"},{"pageviews":"3263. <a target=\"_blank\" href=\"http://en.wikipedia.org./wiki/Kevin_O'Leary\">Kevin O'Leary</a>"},{"pageviews":"3264. <a target=\"_blank\" href=\"http://en.wikipedia.org./wiki/Unbreakable_Kimmy_Schmidt\">Unbreakable Kimmy Schmidt</a>"},{"pageviews":"3265. <a target=\"_blank\" href=\"http://en.wikipedia.org./wiki/Samuel_Johnson\">Samuel Johnson</a>"},{"pageviews":"3266. <a target=\"_blank\" href=\"http://en.wikipedia.org./wiki/JPMorgan_Chase\">JPMorgan Chase</a>"},{"pageviews":"3267. <a target=\"_blank\" href=\"http://en.wikipedia.org./wiki/Max_Born\">Max Born</a>"},{"pageviews":"3268. <a target=\"_blank\" href=\"http://en.wikipedia.org./wiki/List_of_Michelin_3-star_restaurants\">List of Michelin 3-star restaurants</a>"},{"pageviews":"3269. <a target=\"_blank\" href=\"http://en.wikipedia.org./wiki/Room_(2015_film)\">Room (2015 film)</a>"},{"pageviews":"3270. <a target=\"_blank\" href=\"http://en.wikipedia.org./wiki/Project_management\">Project management</a>"},{"pageviews":"3271. <a target=\"_blank\" href=\"http://en.wikipedia.org./wiki/Horse\">Horse</a>"},{"pageviews":"3272. <a target=\"_blank\" href=\"http://en.wikipedia.org./wiki/War_Dogs_(2016_film)\">War Dogs (2016 film)</a>"},{"pageviews":"3273. <a target=\"_blank\" href=\"http://en.wikipedia.org./wiki/Colossal_(film)\">Colossal (film)</a>"},{"pageviews":"3274. <a target=\"_blank\" href=\"http://en.wikipedia.org./wiki/The_Night_Manager_(miniseries)\">The Night Manager (miniseries)</a>"},{"pageviews":"3275. <a target=\"_blank\" href=\"http://en.wikipedia.org./wiki/Malaria\">Malaria</a>"},{"pageviews":"3276. <a target=\"_blank\" href=\"http://en.wikipedia.org./wiki/Dodd%E2%80%93Frank_Wall_Street_Reform_and_Consumer_Protection_Act\">Dodd–Frank Wall Street Reform and Consumer Protection Act</a>"},{"pageviews":"3277. <a target=\"_blank\" href=\"http://en.wikipedia.org./wiki/Trevor_Noah\">Trevor Noah</a>"},{"pageviews":"3278. <a target=\"_blank\" href=\"http://en.wikipedia.org./wiki/Frankenstein\">Frankenstein</a>"},{"pageviews":"3279. <a target=\"_blank\" href=\"http://en.wikipedia.org./wiki/Cattle\">Cattle</a>"},{"pageviews":"3280. <a target=\"_blank\" href=\"http://en.wikipedia.org./wiki/2.0_(film)\">2.0 (film)</a>"},{"pageviews":"3281. <a target=\"_blank\" href=\"http://en.wikipedia.org./wiki/2016%E2%80%9317_NBA_season\">2016–17 NBA season</a>"},{"pageviews":"3282. <a target=\"_blank\" href=\"http://en.wikipedia.org./wiki/Stipe_Miocic\">Stipe Miocic</a>"},{"pageviews":"3283. <a target=\"_blank\" href=\"http://en.wikipedia.org./wiki/Polar_bear\">Polar bear</a>"},{"pageviews":"3284. <a target=\"_blank\" href=\"http://en.wikipedia.org./wiki/No_Country_for_Old_Men_(film)\">No Country for Old Men (film)</a>"},{"pageviews":"3285. <a target=\"_blank\" href=\"http://en.wikipedia.org./wiki/Jeremy_Renner\">Jeremy Renner</a>"},{"pageviews":"3286. <a target=\"_blank\" href=\"http://en.wikipedia.org./wiki/Ready_Player_One_(film)\">Ready Player One (film)</a>"},{"pageviews":"3287. <a target=\"_blank\" href=\"http://en.wikipedia.org./wiki/Sully_(film)\">Sully (film)</a>"},{"pageviews":"3288. <a target=\"_blank\" href=\"http://en.wikipedia.org./wiki/List_of_national_parks_of_the_United_States\">List of national parks of the United States</a>"},{"pageviews":"3289. <a target=\"_blank\" href=\"http://en.wikipedia.org./wiki/Neil_Gaiman\">Neil Gaiman</a>"},{"pageviews":"3290. <a target=\"_blank\" href=\"http://en.wikipedia.org./wiki/TRAPPIST-1\">TRAPPIST-1</a>"},{"pageviews":"3291. <a target=\"_blank\" href=\"http://en.wikipedia.org./wiki/Sasha_Grey\">Sasha Grey</a>"},{"pageviews":"3292. <a target=\"_blank\" href=\"http://en.wikipedia.org./wiki/System_administrator\">System administrator</a>"},{"pageviews":"3293. <a target=\"_blank\" href=\"http://en.wikipedia.org./wiki/Shark_Tank\">Shark Tank</a>"},{"pageviews":"3294. <a target=\"_blank\" href=\"http://en.wikipedia.org./wiki/Oscar_Isaac\">Oscar Isaac</a>"},{"pageviews":"3295. <a target=\"_blank\" href=\"http://en.wikipedia.org./wiki/Dane_DeHaan\">Dane DeHaan</a>"},{"pageviews":"3296. <a target=\"_blank\" href=\"http://en.wikipedia.org./wiki/Silicon\">Silicon</a>"},{"pageviews":"3297. <a target=\"_blank\" href=\"http://en.wikipedia.org./wiki/Harriet_Tubman\">Harriet Tubman</a>"},{"pageviews":"3298. <a target=\"_blank\" href=\"http://en.wikipedia.org./wiki/Pope_Benedict_XVI\">Pope Benedict XVI</a>"},{"pageviews":"3299. <a target=\"_blank\" href=\"http://en.wikipedia.org./wiki/Erwin_Rommel\">Erwin Rommel</a>"}],"list":"3200. Dolphin  \u2014  http:\/\/en.wikipedia.org.\/wiki\/Dolphin\n3201. Argentina national football team  \u2014  http:\/\/en.wikipedia.org.\/wiki\/Argentina_national_football_team\n3202. 2016 Indian banknote demonetisation  \u2014  http:\/\/en.wikipedia.org.\/wiki\/2016_Indian_banknote_demonetisation\n3203. Member state of the European Union  \u2014  http:\/\/en.wikipedia.org.\/wiki\/Member_state_of_the_European_Union\n3204. William IV of the United Kingdom  \u2014  http:\/\/en.wikipedia.org.\/wiki\/William_IV_of_the_United_Kingdom\n3205. Oklahoma City bombing  \u2014  http:\/\/en.wikipedia.org.\/wiki\/Oklahoma_City_bombing\n3206. Graphics display resolution  \u2014  http:\/\/en.wikipedia.org.\/wiki\/Graphics_display_resolution\n3207. Pornographic film  \u2014  http:\/\/en.wikipedia.org.\/wiki\/Pornographic_film\n3208. Heat capacity  \u2014  http:\/\/en.wikipedia.org.\/wiki\/Heat_capacity\n3209. Liev Schreiber  \u2014  http:\/\/en.wikipedia.org.\/wiki\/Liev_Schreiber\n3210. Gamma distribution  \u2014  http:\/\/en.wikipedia.org.\/wiki\/Gamma_distribution\n3211. Opinion polling for the next United Kingdom general election  \u2014  http:\/\/en.wikipedia.org.\/wiki\/Opinion_polling_for_the_next_United_Kingdom_general_election\n3212. Dolph Lundgren  \u2014  http:\/\/en.wikipedia.org.\/wiki\/Dolph_Lundgren\n3213. T.J. Miller  \u2014  http:\/\/en.wikipedia.org.\/wiki\/T.J._Miller\n3214. List of Microsoft Windows versions  \u2014  http:\/\/en.wikipedia.org.\/wiki\/List_of_Microsoft_Windows_versions\n3215. Ransomware  \u2014  http:\/\/en.wikipedia.org.\/wiki\/Ransomware\n3216. Miss Kobayashi's Dragon Maid  \u2014  http:\/\/en.wikipedia.org.\/wiki\/Miss_Kobayashi's_Dragon_Maid\n3217. Unite the Right rally  \u2014  http:\/\/en.wikipedia.org.\/wiki\/Unite_the_Right_rally\n3218. Rotation matrix  \u2014  http:\/\/en.wikipedia.org.\/wiki\/Rotation_matrix\n3219. Tina Turner  \u2014  http:\/\/en.wikipedia.org.\/wiki\/Tina_Turner\n3220. Leah Remini  \u2014  http:\/\/en.wikipedia.org.\/wiki\/Leah_Remini\n3221. Andr\u00E9 the Giant  \u2014  http:\/\/en.wikipedia.org.\/wiki\/Andr%C3%A9_the_Giant\n3222. Phishing  \u2014  http:\/\/en.wikipedia.org.\/wiki\/Phishing\n3223. Richard I of England  \u2014  http:\/\/en.wikipedia.org.\/wiki\/Richard_I_of_England\n3224. Annabelle Wallis  \u2014  http:\/\/en.wikipedia.org.\/wiki\/Annabelle_Wallis\n3225. Death Stranding  \u2014  http:\/\/en.wikipedia.org.\/wiki\/Death_Stranding\n3226. Amphetamine  \u2014  http:\/\/en.wikipedia.org.\/wiki\/Amphetamine\n3227. VKontakte  \u2014  http:\/\/en.wikipedia.org.\/wiki\/VKontakte\n3228. Babe Ruth  \u2014  http:\/\/en.wikipedia.org.\/wiki\/Babe_Ruth\n3229. Courtney Love  \u2014  http:\/\/en.wikipedia.org.\/wiki\/Courtney_Love\n3230. Amy Schumer  \u2014  http:\/\/en.wikipedia.org.\/wiki\/Amy_Schumer\n3231. Clifton Wrottesley  \u2014  http:\/\/en.wikipedia.org.\/wiki\/Clifton_Wrottesley\n3232. Narcissism  \u2014  http:\/\/en.wikipedia.org.\/wiki\/Narcissism\n3233. NoSQL  \u2014  http:\/\/en.wikipedia.org.\/wiki\/NoSQL\n3234. List of cryptocurrencies  \u2014  http:\/\/en.wikipedia.org.\/wiki\/List_of_cryptocurrencies\n3235. Ivory Coast  \u2014  http:\/\/en.wikipedia.org.\/wiki\/Ivory_Coast\n3236. M1911 pistol  \u2014  http:\/\/en.wikipedia.org.\/wiki\/M1911_pistol\n3237. Jada Pinkett Smith  \u2014  http:\/\/en.wikipedia.org.\/wiki\/Jada_Pinkett_Smith\n3238. Electronic Arts  \u2014  http:\/\/en.wikipedia.org.\/wiki\/Electronic_Arts\n3239. Ontario  \u2014  http:\/\/en.wikipedia.org.\/wiki\/Ontario\n3240. Los Angeles Lakers  \u2014  http:\/\/en.wikipedia.org.\/wiki\/Los_Angeles_Lakers\n3241. T.I.  \u2014  http:\/\/en.wikipedia.org.\/wiki\/T.I.\n3242. Ed Gein  \u2014  http:\/\/en.wikipedia.org.\/wiki\/Ed_Gein\n3243. Jimmy Fallon  \u2014  http:\/\/en.wikipedia.org.\/wiki\/Jimmy_Fallon\n3244. Wedding anniversary  \u2014  http:\/\/en.wikipedia.org.\/wiki\/Wedding_anniversary\n3245. LaMelo Ball  \u2014  http:\/\/en.wikipedia.org.\/wiki\/LaMelo_Ball\n3246. Bull (2016 TV series)  \u2014  http:\/\/en.wikipedia.org.\/wiki\/Bull_(2016_TV_series)\n3247. Krysten Ritter  \u2014  http:\/\/en.wikipedia.org.\/wiki\/Krysten_Ritter\n3248. Tom Selleck  \u2014  http:\/\/en.wikipedia.org.\/wiki\/Tom_Selleck\n3249. Ted Kennedy  \u2014  http:\/\/en.wikipedia.org.\/wiki\/Ted_Kennedy\n3250. Martin Freeman  \u2014  http:\/\/en.wikipedia.org.\/wiki\/Martin_Freeman\n3251. Joel Edgerton  \u2014  http:\/\/en.wikipedia.org.\/wiki\/Joel_Edgerton\n3252. Cary Grant  \u2014  http:\/\/en.wikipedia.org.\/wiki\/Cary_Grant\n3253. Miami  \u2014  http:\/\/en.wikipedia.org.\/wiki\/Miami\n3254. Maroon 5  \u2014  http:\/\/en.wikipedia.org.\/wiki\/Maroon_5\n3255. Justice League  \u2014  http:\/\/en.wikipedia.org.\/wiki\/Justice_League\n3256. Ontology  \u2014  http:\/\/en.wikipedia.org.\/wiki\/Ontology\n3257. The Gambia  \u2014  http:\/\/en.wikipedia.org.\/wiki\/The_Gambia\n3258. Markov chain  \u2014  http:\/\/en.wikipedia.org.\/wiki\/Markov_chain\n3259. Jamie Lee Curtis  \u2014  http:\/\/en.wikipedia.org.\/wiki\/Jamie_Lee_Curtis\n3260. Figures of Light  \u2014  http:\/\/en.wikipedia.org.\/wiki\/Figures_of_Light\n3261. CM Punk  \u2014  http:\/\/en.wikipedia.org.\/wiki\/CM_Punk\n3262. Cura\u00E7ao  \u2014  http:\/\/en.wikipedia.org.\/wiki\/Cura%C3%A7ao\n3263. Kevin O'Leary  \u2014  http:\/\/en.wikipedia.org.\/wiki\/Kevin_O'Leary\n3264. Unbreakable Kimmy Schmidt  \u2014  http:\/\/en.wikipedia.org.\/wiki\/Unbreakable_Kimmy_Schmidt\n3265. Samuel Johnson  \u2014  http:\/\/en.wikipedia.org.\/wiki\/Samuel_Johnson\n3266. JPMorgan Chase  \u2014  http:\/\/en.wikipedia.org.\/wiki\/JPMorgan_Chase\n3267. Max Born  \u2014  http:\/\/en.wikipedia.org.\/wiki\/Max_Born\n3268. List of Michelin 3-star restaurants  \u2014  http:\/\/en.wikipedia.org.\/wiki\/List_of_Michelin_3-star_restaurants\n3269. Room (2015 film)  \u2014  http:\/\/en.wikipedia.org.\/wiki\/Room_(2015_film)\n3270. Project management  \u2014  http:\/\/en.wikipedia.org.\/wiki\/Project_management\n3271. Horse  \u2014  http:\/\/en.wikipedia.org.\/wiki\/Horse\n3272. War Dogs (2016 film)  \u2014  http:\/\/en.wikipedia.org.\/wiki\/War_Dogs_(2016_film)\n3273. Colossal (film)  \u2014  http:\/\/en.wikipedia.org.\/wiki\/Colossal_(film)\n3274. The Night Manager (miniseries)  \u2014  http:\/\/en.wikipedia.org.\/wiki\/The_Night_Manager_(miniseries)\n3275. Malaria  \u2014  http:\/\/en.wikipedia.org.\/wiki\/Malaria\n3276. Dodd\u2013Frank Wall Street Reform and Consumer Protection Act  \u2014  http:\/\/en.wikipedia.org.\/wiki\/Dodd%E2%80%93Frank_Wall_Street_Reform_and_Consumer_Protection_Act\n3277. Trevor Noah  \u2014  http:\/\/en.wikipedia.org.\/wiki\/Trevor_Noah\n3278. Frankenstein  \u2014  http:\/\/en.wikipedia.org.\/wiki\/Frankenstein\n3279. Cattle  \u2014  http:\/\/en.wikipedia.org.\/wiki\/Cattle\n3280. 2.0 (film)  \u2014  http:\/\/en.wikipedia.org.\/wiki\/2.0_(film)\n3281. 2016\u201317 NBA season  \u2014  http:\/\/en.wikipedia.org.\/wiki\/2016%E2%80%9317_NBA_season\n3282. Stipe Miocic  \u2014  http:\/\/en.wikipedia.org.\/wiki\/Stipe_Miocic\n3283. Polar bear  \u2014  http:\/\/en.wikipedia.org.\/wiki\/Polar_bear\n3284. No Country for Old Men (film)  \u2014  http:\/\/en.wikipedia.org.\/wiki\/No_Country_for_Old_Men_(film)\n3285. Jeremy Renner  \u2014  http:\/\/en.wikipedia.org.\/wiki\/Jeremy_Renner\n3286. Ready Player One (film)  \u2014  http:\/\/en.wikipedia.org.\/wiki\/Ready_Player_One_(film)\n3287. Sully (film)  \u2014  http:\/\/en.wikipedia.org.\/wiki\/Sully_(film)\n3288. List of national parks of the United States  \u2014  http:\/\/en.wikipedia.org.\/wiki\/List_of_national_parks_of_the_United_States\n3289. Neil Gaiman  \u2014  http:\/\/en.wikipedia.org.\/wiki\/Neil_Gaiman\n3290. TRAPPIST-1  \u2014  http:\/\/en.wikipedia.org.\/wiki\/TRAPPIST-1\n3291. Sasha Grey  \u2014  http:\/\/en.wikipedia.org.\/wiki\/Sasha_Grey\n3292. System administrator  \u2014  http:\/\/en.wikipedia.org.\/wiki\/System_administrator\n3293. Shark Tank  \u2014  http:\/\/en.wikipedia.org.\/wiki\/Shark_Tank\n3294. Oscar Isaac  \u2014  http:\/\/en.wikipedia.org.\/wiki\/Oscar_Isaac\n3295. Dane DeHaan  \u2014  http:\/\/en.wikipedia.org.\/wiki\/Dane_DeHaan\n3296. Silicon  \u2014  http:\/\/en.wikipedia.org.\/wiki\/Silicon\n3297. Harriet Tubman  \u2014  http:\/\/en.wikipedia.org.\/wiki\/Harriet_Tubman\n3298. Pope Benedict XVI  \u2014  http:\/\/en.wikipedia.org.\/wiki\/Pope_Benedict_XVI\n3299. Erwin Rommel  \u2014  http:\/\/en.wikipedia.org.\/wiki\/Erwin_Rommel\n","miniList":"3200. Dolphin\n3201. Argentina national football team\n3202. 2016 Indian banknote demonetisation\n3203. Member state of the European Union\n3204. William IV of the United Kingdom\n3205. Oklahoma City bombing\n3206. Graphics display resolution\n3207. Pornographic film\n3208. Heat capacity\n3209. Liev Schreiber\n3210. Gamma distribution\n3211. Opinion polling for the next United Kingdom general election\n3212. Dolph Lundgren\n3213. T.J. Miller\n3214. List of Microsoft Windows versions\n3215. Ransomware\n3216. Miss Kobayashi's Dragon Maid\n3217. Unite the Right rally\n3218. Rotation matrix\n3219. Tina Turner\n3220. Leah Remini\n3221. Andr\u00E9 the Giant\n3222. Phishing\n3223. Richard I of England\n3224. Annabelle Wallis\n3225. Death Stranding\n3226. Amphetamine\n3227. VKontakte\n3228. Babe Ruth\n3229. Courtney Love\n3230. Amy Schumer\n3231. Clifton Wrottesley\n3232. Narcissism\n3233. NoSQL\n3234. List of cryptocurrencies\n3235. Ivory Coast\n3236. M1911 pistol\n3237. Jada Pinkett Smith\n3238. Electronic Arts\n3239. Ontario\n3240. Los Angeles Lakers\n3241. T.I.\n3242. Ed Gein\n3243. Jimmy Fallon\n3244. Wedding anniversary\n3245. LaMelo Ball\n3246. Bull (2016 TV series)\n3247. Krysten Ritter\n3248. Tom Selleck\n3249. Ted Kennedy\n3250. Martin Freeman\n3251. Joel Edgerton\n3252. Cary Grant\n3253. Miami\n3254. Maroon 5\n3255. Justice League\n3256. Ontology\n3257. The Gambia\n3258. Markov chain\n3259. Jamie Lee Curtis\n3260. Figures of Light\n3261. CM Punk\n3262. Cura\u00E7ao\n3263. Kevin O'Leary\n3264. Unbreakable Kimmy Schmidt\n3265. Samuel Johnson\n3266. JPMorgan Chase\n3267. Max Born\n3268. List of Michelin 3-star restaurants\n3269. Room (2015 film)\n3270. Project management\n3271. Horse\n3272. War Dogs (2016 film)\n3273. Colossal (film)\n3274. The Night Manager (miniseries)\n3275. Malaria\n3276. Dodd\u2013Frank Wall Street Reform and Consumer Protection Act\n3277. Trevor Noah\n3278. Frankenstein\n3279. Cattle\n3280. 2.0 (film)\n3281. 2016\u201317 NBA season\n3282. Stipe Miocic\n3283. Polar bear\n3284. No Country for Old Men (film)\n3285. Jeremy Renner\n3286. Ready Player One (film)\n3287. Sully (film)\n3288. List of national parks of the United States\n3289. Neil Gaiman\n3290. TRAPPIST-1\n3291. Sasha Grey\n3292. System administrator\n3293. Shark Tank\n3294. Oscar Isaac\n3295. Dane DeHaan\n3296. Silicon\n3297. Harriet Tubman\n3298. Pope Benedict XVI\n3299. Erwin Rommel\n"}
