{"start":3301,"end":3400,"count":5616717,"type":"pageviews","pageSize":100,"page":33,"pages":56168,"columns":[{"label":"","property":"pageviews","sortable":false}],"items":[{"pageviews":"3300. <a target=\"_blank\" href=\"http://en.wikipedia.org./wiki/Woodstock\">Woodstock</a>"},{"pageviews":"3301. <a target=\"_blank\" href=\"http://en.wikipedia.org./wiki/UFC_219\">UFC 219</a>"},{"pageviews":"3302. <a target=\"_blank\" href=\"http://en.wikipedia.org./wiki/Donnie_Yen\">Donnie Yen</a>"},{"pageviews":"3303. <a target=\"_blank\" href=\"http://en.wikipedia.org./wiki/Transistor\">Transistor</a>"},{"pageviews":"3304. <a target=\"_blank\" href=\"http://en.wikipedia.org./wiki/Big_O_notation\">Big O notation</a>"},{"pageviews":"3305. <a target=\"_blank\" href=\"http://en.wikipedia.org./wiki/Steel\">Steel</a>"},{"pageviews":"3306. <a target=\"_blank\" href=\"http://en.wikipedia.org./wiki/Abortion\">Abortion</a>"},{"pageviews":"3307. <a target=\"_blank\" href=\"http://en.wikipedia.org./wiki/Deloitte\">Deloitte</a>"},{"pageviews":"3308. <a target=\"_blank\" href=\"http://en.wikipedia.org./wiki/Dublin\">Dublin</a>"},{"pageviews":"3309. <a target=\"_blank\" href=\"http://en.wikipedia.org./wiki/Stainless_steel\">Stainless steel</a>"},{"pageviews":"3310. <a target=\"_blank\" href=\"http://en.wikipedia.org./wiki/North_American_Free_Trade_Agreement\">North American Free Trade Agreement</a>"},{"pageviews":"3311. <a target=\"_blank\" href=\"http://en.wikipedia.org./wiki/List_of_supporting_Harry_Potter_characters\">List of supporting Harry Potter characters</a>"},{"pageviews":"3312. <a target=\"_blank\" href=\"http://en.wikipedia.org./wiki/Virtual_reality\">Virtual reality</a>"},{"pageviews":"3313. <a target=\"_blank\" href=\"http://en.wikipedia.org./wiki/Rastafari\">Rastafari</a>"},{"pageviews":"3314. <a target=\"_blank\" href=\"http://en.wikipedia.org./wiki/David_Harbour\">David Harbour</a>"},{"pageviews":"3315. <a target=\"_blank\" href=\"http://en.wikipedia.org./wiki/Richard_Oakes_(activist)\">Richard Oakes (activist)</a>"},{"pageviews":"3316. <a target=\"_blank\" href=\"http://en.wikipedia.org./wiki/Jenny_Slate\">Jenny Slate</a>"},{"pageviews":"3317. <a target=\"_blank\" href=\"http://en.wikipedia.org./wiki/Odyssey\">Odyssey</a>"},{"pageviews":"3318. <a target=\"_blank\" href=\"http://en.wikipedia.org./wiki/La_R%C3%A9publique_En_Marche!\">La République En Marche!</a>"},{"pageviews":"3319. <a target=\"_blank\" href=\"http://en.wikipedia.org./wiki/Moore's_law\">Moore's law</a>"},{"pageviews":"3320. <a target=\"_blank\" href=\"http://en.wikipedia.org./wiki/115th_United_States_Congress\">115th United States Congress</a>"},{"pageviews":"3321. <a target=\"_blank\" href=\"http://en.wikipedia.org./wiki/2011_T%C5%8Dhoku_earthquake_and_tsunami\">2011 Tōhoku earthquake and tsunami</a>"},{"pageviews":"3322. <a target=\"_blank\" href=\"http://en.wikipedia.org./wiki/Caliban_(Marvel_Comics)\">Caliban (Marvel Comics)</a>"},{"pageviews":"3323. <a target=\"_blank\" href=\"http://en.wikipedia.org./wiki/Reynolds_number\">Reynolds number</a>"},{"pageviews":"3324. <a target=\"_blank\" href=\"http://en.wikipedia.org./wiki/Sigourney_Weaver\">Sigourney Weaver</a>"},{"pageviews":"3325. <a target=\"_blank\" href=\"http://en.wikipedia.org./wiki/Guangzhou\">Guangzhou</a>"},{"pageviews":"3326. <a target=\"_blank\" href=\"http://en.wikipedia.org./wiki/Roblox\">Roblox</a>"},{"pageviews":"3327. <a target=\"_blank\" href=\"http://en.wikipedia.org./wiki/Dalai_Lama\">Dalai Lama</a>"},{"pageviews":"3328. <a target=\"_blank\" href=\"http://en.wikipedia.org./wiki/Katherine_Heigl\">Katherine Heigl</a>"},{"pageviews":"3329. <a target=\"_blank\" href=\"http://en.wikipedia.org./wiki/Chronic_obstructive_pulmonary_disease\">Chronic obstructive pulmonary disease</a>"},{"pageviews":"3330. <a target=\"_blank\" href=\"http://en.wikipedia.org./wiki/EFL_Championship\">EFL Championship</a>"},{"pageviews":"3331. <a target=\"_blank\" href=\"http://en.wikipedia.org./wiki/A_Game_of_Thrones\">A Game of Thrones</a>"},{"pageviews":"3332. <a target=\"_blank\" href=\"http://en.wikipedia.org./wiki/Soviet%E2%80%93Afghan_War\">Soviet–Afghan War</a>"},{"pageviews":"3333. <a target=\"_blank\" href=\"http://en.wikipedia.org./wiki/Ethnic_group\">Ethnic group</a>"},{"pageviews":"3334. <a target=\"_blank\" href=\"http://en.wikipedia.org./wiki/Star_vs._the_Forces_of_Evil\">Star vs. the Forces of Evil</a>"},{"pageviews":"3335. <a target=\"_blank\" href=\"http://en.wikipedia.org./wiki/Unicode\">Unicode</a>"},{"pageviews":"3336. <a target=\"_blank\" href=\"http://en.wikipedia.org./wiki/Augustine_of_Hippo\">Augustine of Hippo</a>"},{"pageviews":"3337. <a target=\"_blank\" href=\"http://en.wikipedia.org./wiki/Unsimulated_sex\">Unsimulated sex</a>"},{"pageviews":"3338. <a target=\"_blank\" href=\"http://en.wikipedia.org./wiki/PH\">PH</a>"},{"pageviews":"3339. <a target=\"_blank\" href=\"http://en.wikipedia.org./wiki/Alien_(creature_in_Alien_franchise)\">Alien (creature in Alien franchise)</a>"},{"pageviews":"3340. <a target=\"_blank\" href=\"http://en.wikipedia.org./wiki/Louis_XVI_of_France\">Louis XVI of France</a>"},{"pageviews":"3341. <a target=\"_blank\" href=\"http://en.wikipedia.org./wiki/The_Conjuring_2\">The Conjuring 2</a>"},{"pageviews":"3342. <a target=\"_blank\" href=\"http://en.wikipedia.org./wiki/United_States_men's_national_soccer_team\">United States men's national soccer team</a>"},{"pageviews":"3343. <a target=\"_blank\" href=\"http://en.wikipedia.org./wiki/DC_Comics\">DC Comics</a>"},{"pageviews":"3344. <a target=\"_blank\" href=\"http://en.wikipedia.org./wiki/List_of_Initial_D_episodes\">List of Initial D episodes</a>"},{"pageviews":"3345. <a target=\"_blank\" href=\"http://en.wikipedia.org./wiki/Jagga_Jasoos\">Jagga Jasoos</a>"},{"pageviews":"3346. <a target=\"_blank\" href=\"http://en.wikipedia.org./wiki/Fairy_Tail\">Fairy Tail</a>"},{"pageviews":"3347. <a target=\"_blank\" href=\"http://en.wikipedia.org./wiki/Pride_and_Prejudice\">Pride and Prejudice</a>"},{"pageviews":"3348. <a target=\"_blank\" href=\"http://en.wikipedia.org./wiki/Mary_of_Teck\">Mary of Teck</a>"},{"pageviews":"3349. <a target=\"_blank\" href=\"http://en.wikipedia.org./wiki/Dow_Jones_Industrial_Average\">Dow Jones Industrial Average</a>"},{"pageviews":"3350. <a target=\"_blank\" href=\"http://en.wikipedia.org./wiki/Allen_Iverson\">Allen Iverson</a>"},{"pageviews":"3351. <a target=\"_blank\" href=\"http://en.wikipedia.org./wiki/Balkans\">Balkans</a>"},{"pageviews":"3352. <a target=\"_blank\" href=\"http://en.wikipedia.org./wiki/GIF\">GIF</a>"},{"pageviews":"3353. <a target=\"_blank\" href=\"http://en.wikipedia.org./wiki/Lee_Min-ho_(actor%2C_born_1987)\">Lee Min-ho (actor, born 1987)</a>"},{"pageviews":"3354. <a target=\"_blank\" href=\"http://en.wikipedia.org./wiki/Gilberto_Rodr%C3%ADguez_Orejuela\">Gilberto Rodríguez Orejuela</a>"},{"pageviews":"3355. <a target=\"_blank\" href=\"http://en.wikipedia.org./wiki/Lady_Bird_(film)\">Lady Bird (film)</a>"},{"pageviews":"3356. <a target=\"_blank\" href=\"http://en.wikipedia.org./wiki/The_Voice_(U.S._season_13)\">The Voice (U.S. season 13)</a>"},{"pageviews":"3357. <a target=\"_blank\" href=\"http://en.wikipedia.org./wiki/Ponzi_scheme\">Ponzi scheme</a>"},{"pageviews":"3358. <a target=\"_blank\" href=\"http://en.wikipedia.org./wiki/Chevy_Chase\">Chevy Chase</a>"},{"pageviews":"3359. <a target=\"_blank\" href=\"http://en.wikipedia.org./wiki/Cryptography\">Cryptography</a>"},{"pageviews":"3360. <a target=\"_blank\" href=\"http://en.wikipedia.org./wiki/Blue_Bloods_(TV_series)\">Blue Bloods (TV series)</a>"},{"pageviews":"3361. <a target=\"_blank\" href=\"http://en.wikipedia.org./wiki/Dzhokhar_Tsarnaev\">Dzhokhar Tsarnaev</a>"},{"pageviews":"3362. <a target=\"_blank\" href=\"http://en.wikipedia.org./wiki/Edinburgh\">Edinburgh</a>"},{"pageviews":"3363. <a target=\"_blank\" href=\"http://en.wikipedia.org./wiki/Airbus\">Airbus</a>"},{"pageviews":"3364. <a target=\"_blank\" href=\"http://en.wikipedia.org./wiki/Jean-Michel_Basquiat\">Jean-Michel Basquiat</a>"},{"pageviews":"3365. <a target=\"_blank\" href=\"http://en.wikipedia.org./wiki/Italy_national_football_team\">Italy national football team</a>"},{"pageviews":"3366. <a target=\"_blank\" href=\"http://en.wikipedia.org./wiki/Peyton_Manning\">Peyton Manning</a>"},{"pageviews":"3367. <a target=\"_blank\" href=\"http://en.wikipedia.org./wiki/Internet_Explorer\">Internet Explorer</a>"},{"pageviews":"3368. <a target=\"_blank\" href=\"http://en.wikipedia.org./wiki/The_Man_in_the_High_Castle\">The Man in the High Castle</a>"},{"pageviews":"3369. <a target=\"_blank\" href=\"http://en.wikipedia.org./wiki/2017_NFL_season\">2017 NFL season</a>"},{"pageviews":"3370. <a target=\"_blank\" href=\"http://en.wikipedia.org./wiki/Austin%2C_Texas\">Austin, Texas</a>"},{"pageviews":"3371. <a target=\"_blank\" href=\"http://en.wikipedia.org./wiki/Brendan_Fraser\">Brendan Fraser</a>"},{"pageviews":"3372. <a target=\"_blank\" href=\"http://en.wikipedia.org./wiki/Kim_Jong-hyun_(singer)\">Kim Jong-hyun (singer)</a>"},{"pageviews":"3373. <a target=\"_blank\" href=\"http://en.wikipedia.org./wiki/Richard_Feynman\">Richard Feynman</a>"},{"pageviews":"3374. <a target=\"_blank\" href=\"http://en.wikipedia.org./wiki/The_Originals_(season_4)\">The Originals (season 4)</a>"},{"pageviews":"3375. <a target=\"_blank\" href=\"http://en.wikipedia.org./wiki/Arizona\">Arizona</a>"},{"pageviews":"3376. <a target=\"_blank\" href=\"http://en.wikipedia.org./wiki/List_of_WLAN_channels\">List of WLAN channels</a>"},{"pageviews":"3377. <a target=\"_blank\" href=\"http://en.wikipedia.org./wiki/Aphrodite\">Aphrodite</a>"},{"pageviews":"3378. <a target=\"_blank\" href=\"http://en.wikipedia.org./wiki/Wes_Anderson\">Wes Anderson</a>"},{"pageviews":"3379. <a target=\"_blank\" href=\"http://en.wikipedia.org./wiki/Pen%C3%A9lope_Cruz\">Penélope Cruz</a>"},{"pageviews":"3380. <a target=\"_blank\" href=\"http://en.wikipedia.org./wiki/Anderson_Silva\">Anderson Silva</a>"},{"pageviews":"3381. <a target=\"_blank\" href=\"http://en.wikipedia.org./wiki/Ketogenic_diet\">Ketogenic diet</a>"},{"pageviews":"3382. <a target=\"_blank\" href=\"http://en.wikipedia.org./wiki/Tim_Burton\">Tim Burton</a>"},{"pageviews":"3383. <a target=\"_blank\" href=\"http://en.wikipedia.org./wiki/Sanskrit\">Sanskrit</a>"},{"pageviews":"3384. <a target=\"_blank\" href=\"http://en.wikipedia.org./wiki/Willie_Nelson\">Willie Nelson</a>"},{"pageviews":"3385. <a target=\"_blank\" href=\"http://en.wikipedia.org./wiki/Amy_Poehler\">Amy Poehler</a>"},{"pageviews":"3386. <a target=\"_blank\" href=\"http://en.wikipedia.org./wiki/Cleveland_Cavaliers\">Cleveland Cavaliers</a>"},{"pageviews":"3387. <a target=\"_blank\" href=\"http://en.wikipedia.org./wiki/Subrahmanyan_Chandrasekhar\">Subrahmanyan Chandrasekhar</a>"},{"pageviews":"3388. <a target=\"_blank\" href=\"http://en.wikipedia.org./wiki/New_South_Wales\">New South Wales</a>"},{"pageviews":"3389. <a target=\"_blank\" href=\"http://en.wikipedia.org./wiki/Jayne_Mansfield\">Jayne Mansfield</a>"},{"pageviews":"3390. <a target=\"_blank\" href=\"http://en.wikipedia.org./wiki/Ian_McShane\">Ian McShane</a>"},{"pageviews":"3391. <a target=\"_blank\" href=\"http://en.wikipedia.org./wiki/Bill_Murray\">Bill Murray</a>"},{"pageviews":"3392. <a target=\"_blank\" href=\"http://en.wikipedia.org./wiki/Race_(human_categorization)\">Race (human categorization)</a>"},{"pageviews":"3393. <a target=\"_blank\" href=\"http://en.wikipedia.org./wiki/John_von_Neumann\">John von Neumann</a>"},{"pageviews":"3394. <a target=\"_blank\" href=\"http://en.wikipedia.org./wiki/Aaron_Burr\">Aaron Burr</a>"},{"pageviews":"3395. <a target=\"_blank\" href=\"http://en.wikipedia.org./wiki/New7Wonders_of_the_World\">New7Wonders of the World</a>"},{"pageviews":"3396. <a target=\"_blank\" href=\"http://en.wikipedia.org./wiki/West_Ham_United_F.C.\">West Ham United F.C.</a>"},{"pageviews":"3397. <a target=\"_blank\" href=\"http://en.wikipedia.org./wiki/Tencent\">Tencent</a>"},{"pageviews":"3398. <a target=\"_blank\" href=\"http://en.wikipedia.org./wiki/Jean-Jacques_Rousseau\">Jean-Jacques Rousseau</a>"},{"pageviews":"3399. <a target=\"_blank\" href=\"http://en.wikipedia.org./wiki/International_Monetary_Fund\">International Monetary Fund</a>"}],"list":"3300. Woodstock  \u2014  http:\/\/en.wikipedia.org.\/wiki\/Woodstock\n3301. UFC 219  \u2014  http:\/\/en.wikipedia.org.\/wiki\/UFC_219\n3302. Donnie Yen  \u2014  http:\/\/en.wikipedia.org.\/wiki\/Donnie_Yen\n3303. Transistor  \u2014  http:\/\/en.wikipedia.org.\/wiki\/Transistor\n3304. Big O notation  \u2014  http:\/\/en.wikipedia.org.\/wiki\/Big_O_notation\n3305. Steel  \u2014  http:\/\/en.wikipedia.org.\/wiki\/Steel\n3306. Abortion  \u2014  http:\/\/en.wikipedia.org.\/wiki\/Abortion\n3307. Deloitte  \u2014  http:\/\/en.wikipedia.org.\/wiki\/Deloitte\n3308. Dublin  \u2014  http:\/\/en.wikipedia.org.\/wiki\/Dublin\n3309. Stainless steel  \u2014  http:\/\/en.wikipedia.org.\/wiki\/Stainless_steel\n3310. North American Free Trade Agreement  \u2014  http:\/\/en.wikipedia.org.\/wiki\/North_American_Free_Trade_Agreement\n3311. List of supporting Harry Potter characters  \u2014  http:\/\/en.wikipedia.org.\/wiki\/List_of_supporting_Harry_Potter_characters\n3312. Virtual reality  \u2014  http:\/\/en.wikipedia.org.\/wiki\/Virtual_reality\n3313. Rastafari  \u2014  http:\/\/en.wikipedia.org.\/wiki\/Rastafari\n3314. David Harbour  \u2014  http:\/\/en.wikipedia.org.\/wiki\/David_Harbour\n3315. Richard Oakes (activist)  \u2014  http:\/\/en.wikipedia.org.\/wiki\/Richard_Oakes_(activist)\n3316. Jenny Slate  \u2014  http:\/\/en.wikipedia.org.\/wiki\/Jenny_Slate\n3317. Odyssey  \u2014  http:\/\/en.wikipedia.org.\/wiki\/Odyssey\n3318. La R\u00E9publique En Marche!  \u2014  http:\/\/en.wikipedia.org.\/wiki\/La_R%C3%A9publique_En_Marche!\n3319. Moore's law  \u2014  http:\/\/en.wikipedia.org.\/wiki\/Moore's_law\n3320. 115th United States Congress  \u2014  http:\/\/en.wikipedia.org.\/wiki\/115th_United_States_Congress\n3321. 2011 T\u014Dhoku earthquake and tsunami  \u2014  http:\/\/en.wikipedia.org.\/wiki\/2011_T%C5%8Dhoku_earthquake_and_tsunami\n3322. Caliban (Marvel Comics)  \u2014  http:\/\/en.wikipedia.org.\/wiki\/Caliban_(Marvel_Comics)\n3323. Reynolds number  \u2014  http:\/\/en.wikipedia.org.\/wiki\/Reynolds_number\n3324. Sigourney Weaver  \u2014  http:\/\/en.wikipedia.org.\/wiki\/Sigourney_Weaver\n3325. Guangzhou  \u2014  http:\/\/en.wikipedia.org.\/wiki\/Guangzhou\n3326. Roblox  \u2014  http:\/\/en.wikipedia.org.\/wiki\/Roblox\n3327. Dalai Lama  \u2014  http:\/\/en.wikipedia.org.\/wiki\/Dalai_Lama\n3328. Katherine Heigl  \u2014  http:\/\/en.wikipedia.org.\/wiki\/Katherine_Heigl\n3329. Chronic obstructive pulmonary disease  \u2014  http:\/\/en.wikipedia.org.\/wiki\/Chronic_obstructive_pulmonary_disease\n3330. EFL Championship  \u2014  http:\/\/en.wikipedia.org.\/wiki\/EFL_Championship\n3331. A Game of Thrones  \u2014  http:\/\/en.wikipedia.org.\/wiki\/A_Game_of_Thrones\n3332. Soviet\u2013Afghan War  \u2014  http:\/\/en.wikipedia.org.\/wiki\/Soviet%E2%80%93Afghan_War\n3333. Ethnic group  \u2014  http:\/\/en.wikipedia.org.\/wiki\/Ethnic_group\n3334. Star vs. the Forces of Evil  \u2014  http:\/\/en.wikipedia.org.\/wiki\/Star_vs._the_Forces_of_Evil\n3335. Unicode  \u2014  http:\/\/en.wikipedia.org.\/wiki\/Unicode\n3336. Augustine of Hippo  \u2014  http:\/\/en.wikipedia.org.\/wiki\/Augustine_of_Hippo\n3337. Unsimulated sex  \u2014  http:\/\/en.wikipedia.org.\/wiki\/Unsimulated_sex\n3338. PH  \u2014  http:\/\/en.wikipedia.org.\/wiki\/PH\n3339. Alien (creature in Alien franchise)  \u2014  http:\/\/en.wikipedia.org.\/wiki\/Alien_(creature_in_Alien_franchise)\n3340. Louis XVI of France  \u2014  http:\/\/en.wikipedia.org.\/wiki\/Louis_XVI_of_France\n3341. The Conjuring 2  \u2014  http:\/\/en.wikipedia.org.\/wiki\/The_Conjuring_2\n3342. United States men's national soccer team  \u2014  http:\/\/en.wikipedia.org.\/wiki\/United_States_men's_national_soccer_team\n3343. DC Comics  \u2014  http:\/\/en.wikipedia.org.\/wiki\/DC_Comics\n3344. List of Initial D episodes  \u2014  http:\/\/en.wikipedia.org.\/wiki\/List_of_Initial_D_episodes\n3345. Jagga Jasoos  \u2014  http:\/\/en.wikipedia.org.\/wiki\/Jagga_Jasoos\n3346. Fairy Tail  \u2014  http:\/\/en.wikipedia.org.\/wiki\/Fairy_Tail\n3347. Pride and Prejudice  \u2014  http:\/\/en.wikipedia.org.\/wiki\/Pride_and_Prejudice\n3348. Mary of Teck  \u2014  http:\/\/en.wikipedia.org.\/wiki\/Mary_of_Teck\n3349. Dow Jones Industrial Average  \u2014  http:\/\/en.wikipedia.org.\/wiki\/Dow_Jones_Industrial_Average\n3350. Allen Iverson  \u2014  http:\/\/en.wikipedia.org.\/wiki\/Allen_Iverson\n3351. Balkans  \u2014  http:\/\/en.wikipedia.org.\/wiki\/Balkans\n3352. GIF  \u2014  http:\/\/en.wikipedia.org.\/wiki\/GIF\n3353. Lee Min-ho (actor, born 1987)  \u2014  http:\/\/en.wikipedia.org.\/wiki\/Lee_Min-ho_(actor%2C_born_1987)\n3354. Gilberto Rodr\u00EDguez Orejuela  \u2014  http:\/\/en.wikipedia.org.\/wiki\/Gilberto_Rodr%C3%ADguez_Orejuela\n3355. Lady Bird (film)  \u2014  http:\/\/en.wikipedia.org.\/wiki\/Lady_Bird_(film)\n3356. The Voice (U.S. season 13)  \u2014  http:\/\/en.wikipedia.org.\/wiki\/The_Voice_(U.S._season_13)\n3357. Ponzi scheme  \u2014  http:\/\/en.wikipedia.org.\/wiki\/Ponzi_scheme\n3358. Chevy Chase  \u2014  http:\/\/en.wikipedia.org.\/wiki\/Chevy_Chase\n3359. Cryptography  \u2014  http:\/\/en.wikipedia.org.\/wiki\/Cryptography\n3360. Blue Bloods (TV series)  \u2014  http:\/\/en.wikipedia.org.\/wiki\/Blue_Bloods_(TV_series)\n3361. Dzhokhar Tsarnaev  \u2014  http:\/\/en.wikipedia.org.\/wiki\/Dzhokhar_Tsarnaev\n3362. Edinburgh  \u2014  http:\/\/en.wikipedia.org.\/wiki\/Edinburgh\n3363. Airbus  \u2014  http:\/\/en.wikipedia.org.\/wiki\/Airbus\n3364. Jean-Michel Basquiat  \u2014  http:\/\/en.wikipedia.org.\/wiki\/Jean-Michel_Basquiat\n3365. Italy national football team  \u2014  http:\/\/en.wikipedia.org.\/wiki\/Italy_national_football_team\n3366. Peyton Manning  \u2014  http:\/\/en.wikipedia.org.\/wiki\/Peyton_Manning\n3367. Internet Explorer  \u2014  http:\/\/en.wikipedia.org.\/wiki\/Internet_Explorer\n3368. The Man in the High Castle  \u2014  http:\/\/en.wikipedia.org.\/wiki\/The_Man_in_the_High_Castle\n3369. 2017 NFL season  \u2014  http:\/\/en.wikipedia.org.\/wiki\/2017_NFL_season\n3370. Austin, Texas  \u2014  http:\/\/en.wikipedia.org.\/wiki\/Austin%2C_Texas\n3371. Brendan Fraser  \u2014  http:\/\/en.wikipedia.org.\/wiki\/Brendan_Fraser\n3372. Kim Jong-hyun (singer)  \u2014  http:\/\/en.wikipedia.org.\/wiki\/Kim_Jong-hyun_(singer)\n3373. Richard Feynman  \u2014  http:\/\/en.wikipedia.org.\/wiki\/Richard_Feynman\n3374. The Originals (season 4)  \u2014  http:\/\/en.wikipedia.org.\/wiki\/The_Originals_(season_4)\n3375. Arizona  \u2014  http:\/\/en.wikipedia.org.\/wiki\/Arizona\n3376. List of WLAN channels  \u2014  http:\/\/en.wikipedia.org.\/wiki\/List_of_WLAN_channels\n3377. Aphrodite  \u2014  http:\/\/en.wikipedia.org.\/wiki\/Aphrodite\n3378. Wes Anderson  \u2014  http:\/\/en.wikipedia.org.\/wiki\/Wes_Anderson\n3379. Pen\u00E9lope Cruz  \u2014  http:\/\/en.wikipedia.org.\/wiki\/Pen%C3%A9lope_Cruz\n3380. Anderson Silva  \u2014  http:\/\/en.wikipedia.org.\/wiki\/Anderson_Silva\n3381. Ketogenic diet  \u2014  http:\/\/en.wikipedia.org.\/wiki\/Ketogenic_diet\n3382. Tim Burton  \u2014  http:\/\/en.wikipedia.org.\/wiki\/Tim_Burton\n3383. Sanskrit  \u2014  http:\/\/en.wikipedia.org.\/wiki\/Sanskrit\n3384. Willie Nelson  \u2014  http:\/\/en.wikipedia.org.\/wiki\/Willie_Nelson\n3385. Amy Poehler  \u2014  http:\/\/en.wikipedia.org.\/wiki\/Amy_Poehler\n3386. Cleveland Cavaliers  \u2014  http:\/\/en.wikipedia.org.\/wiki\/Cleveland_Cavaliers\n3387. Subrahmanyan Chandrasekhar  \u2014  http:\/\/en.wikipedia.org.\/wiki\/Subrahmanyan_Chandrasekhar\n3388. New South Wales  \u2014  http:\/\/en.wikipedia.org.\/wiki\/New_South_Wales\n3389. Jayne Mansfield  \u2014  http:\/\/en.wikipedia.org.\/wiki\/Jayne_Mansfield\n3390. Ian McShane  \u2014  http:\/\/en.wikipedia.org.\/wiki\/Ian_McShane\n3391. Bill Murray  \u2014  http:\/\/en.wikipedia.org.\/wiki\/Bill_Murray\n3392. Race (human categorization)  \u2014  http:\/\/en.wikipedia.org.\/wiki\/Race_(human_categorization)\n3393. John von Neumann  \u2014  http:\/\/en.wikipedia.org.\/wiki\/John_von_Neumann\n3394. Aaron Burr  \u2014  http:\/\/en.wikipedia.org.\/wiki\/Aaron_Burr\n3395. New7Wonders of the World  \u2014  http:\/\/en.wikipedia.org.\/wiki\/New7Wonders_of_the_World\n3396. West Ham United F.C.  \u2014  http:\/\/en.wikipedia.org.\/wiki\/West_Ham_United_F.C.\n3397. Tencent  \u2014  http:\/\/en.wikipedia.org.\/wiki\/Tencent\n3398. Jean-Jacques Rousseau  \u2014  http:\/\/en.wikipedia.org.\/wiki\/Jean-Jacques_Rousseau\n3399. International Monetary Fund  \u2014  http:\/\/en.wikipedia.org.\/wiki\/International_Monetary_Fund\n","miniList":"3300. Woodstock\n3301. UFC 219\n3302. Donnie Yen\n3303. Transistor\n3304. Big O notation\n3305. Steel\n3306. Abortion\n3307. Deloitte\n3308. Dublin\n3309. Stainless steel\n3310. North American Free Trade Agreement\n3311. List of supporting Harry Potter characters\n3312. Virtual reality\n3313. Rastafari\n3314. David Harbour\n3315. Richard Oakes (activist)\n3316. Jenny Slate\n3317. Odyssey\n3318. La R\u00E9publique En Marche!\n3319. Moore's law\n3320. 115th United States Congress\n3321. 2011 T\u014Dhoku earthquake and tsunami\n3322. Caliban (Marvel Comics)\n3323. Reynolds number\n3324. Sigourney Weaver\n3325. Guangzhou\n3326. Roblox\n3327. Dalai Lama\n3328. Katherine Heigl\n3329. Chronic obstructive pulmonary disease\n3330. EFL Championship\n3331. A Game of Thrones\n3332. Soviet\u2013Afghan War\n3333. Ethnic group\n3334. Star vs. the Forces of Evil\n3335. Unicode\n3336. Augustine of Hippo\n3337. Unsimulated sex\n3338. PH\n3339. Alien (creature in Alien franchise)\n3340. Louis XVI of France\n3341. The Conjuring 2\n3342. United States men's national soccer team\n3343. DC Comics\n3344. List of Initial D episodes\n3345. Jagga Jasoos\n3346. Fairy Tail\n3347. Pride and Prejudice\n3348. Mary of Teck\n3349. Dow Jones Industrial Average\n3350. Allen Iverson\n3351. Balkans\n3352. GIF\n3353. Lee Min-ho (actor, born 1987)\n3354. Gilberto Rodr\u00EDguez Orejuela\n3355. Lady Bird (film)\n3356. The Voice (U.S. season 13)\n3357. Ponzi scheme\n3358. Chevy Chase\n3359. Cryptography\n3360. Blue Bloods (TV series)\n3361. Dzhokhar Tsarnaev\n3362. Edinburgh\n3363. Airbus\n3364. Jean-Michel Basquiat\n3365. Italy national football team\n3366. Peyton Manning\n3367. Internet Explorer\n3368. The Man in the High Castle\n3369. 2017 NFL season\n3370. Austin, Texas\n3371. Brendan Fraser\n3372. Kim Jong-hyun (singer)\n3373. Richard Feynman\n3374. The Originals (season 4)\n3375. Arizona\n3376. List of WLAN channels\n3377. Aphrodite\n3378. Wes Anderson\n3379. Pen\u00E9lope Cruz\n3380. Anderson Silva\n3381. Ketogenic diet\n3382. Tim Burton\n3383. Sanskrit\n3384. Willie Nelson\n3385. Amy Poehler\n3386. Cleveland Cavaliers\n3387. Subrahmanyan Chandrasekhar\n3388. New South Wales\n3389. Jayne Mansfield\n3390. Ian McShane\n3391. Bill Murray\n3392. Race (human categorization)\n3393. John von Neumann\n3394. Aaron Burr\n3395. New7Wonders of the World\n3396. West Ham United F.C.\n3397. Tencent\n3398. Jean-Jacques Rousseau\n3399. International Monetary Fund\n"}
