{"start":3401,"end":3500,"count":5616717,"type":"pageviews","pageSize":100,"page":34,"pages":56168,"columns":[{"label":"","property":"pageviews","sortable":false}],"items":[{"pageviews":"3400. <a target=\"_blank\" href=\"http://en.wikipedia.org./wiki/Taxonomy_(biology)\">Taxonomy (biology)</a>"},{"pageviews":"3401. <a target=\"_blank\" href=\"http://en.wikipedia.org./wiki/Travis_Kalanick\">Travis Kalanick</a>"},{"pageviews":"3402. <a target=\"_blank\" href=\"http://en.wikipedia.org./wiki/Random-access_memory\">Random-access memory</a>"},{"pageviews":"3403. <a target=\"_blank\" href=\"http://en.wikipedia.org./wiki/Delhi\">Delhi</a>"},{"pageviews":"3404. <a target=\"_blank\" href=\"http://en.wikipedia.org./wiki/Alia_Bhatt\">Alia Bhatt</a>"},{"pageviews":"3405. <a target=\"_blank\" href=\"http://en.wikipedia.org./wiki/George_Miller_(entertainer)\">George Miller (entertainer)</a>"},{"pageviews":"3406. <a target=\"_blank\" href=\"http://en.wikipedia.org./wiki/Sean_Astin\">Sean Astin</a>"},{"pageviews":"3407. <a target=\"_blank\" href=\"http://en.wikipedia.org./wiki/Zack_Snyder\">Zack Snyder</a>"},{"pageviews":"3408. <a target=\"_blank\" href=\"http://en.wikipedia.org./wiki/The_Championships%2C_Wimbledon\">The Championships, Wimbledon</a>"},{"pageviews":"3409. <a target=\"_blank\" href=\"http://en.wikipedia.org./wiki/Colorado\">Colorado</a>"},{"pageviews":"3410. <a target=\"_blank\" href=\"http://en.wikipedia.org./wiki/Saw_(franchise)\">Saw (franchise)</a>"},{"pageviews":"3411. <a target=\"_blank\" href=\"http://en.wikipedia.org./wiki/Paul_Simon\">Paul Simon</a>"},{"pageviews":"3412. <a target=\"_blank\" href=\"http://en.wikipedia.org./wiki/Empire_State_Building\">Empire State Building</a>"},{"pageviews":"3413. <a target=\"_blank\" href=\"http://en.wikipedia.org./wiki/Brittany_Murphy\">Brittany Murphy</a>"},{"pageviews":"3414. <a target=\"_blank\" href=\"http://en.wikipedia.org./wiki/Robert_Plant\">Robert Plant</a>"},{"pageviews":"3415. <a target=\"_blank\" href=\"http://en.wikipedia.org./wiki/Damon_Albarn\">Damon Albarn</a>"},{"pageviews":"3416. <a target=\"_blank\" href=\"http://en.wikipedia.org./wiki/Ellen_Page\">Ellen Page</a>"},{"pageviews":"3417. <a target=\"_blank\" href=\"http://en.wikipedia.org./wiki/IPv4\">IPv4</a>"},{"pageviews":"3418. <a target=\"_blank\" href=\"http://en.wikipedia.org./wiki/Flat_Earth\">Flat Earth</a>"},{"pageviews":"3419. <a target=\"_blank\" href=\"http://en.wikipedia.org./wiki/Battle_of_Midway\">Battle of Midway</a>"},{"pageviews":"3420. <a target=\"_blank\" href=\"http://en.wikipedia.org./wiki/Hentai\">Hentai</a>"},{"pageviews":"3421. <a target=\"_blank\" href=\"http://en.wikipedia.org./wiki/Photosynthesis\">Photosynthesis</a>"},{"pageviews":"3422. <a target=\"_blank\" href=\"http://en.wikipedia.org./wiki/2_Broke_Girls\">2 Broke Girls</a>"},{"pageviews":"3423. <a target=\"_blank\" href=\"http://en.wikipedia.org./wiki/ASP.NET\">ASP.NET</a>"},{"pageviews":"3424. <a target=\"_blank\" href=\"http://en.wikipedia.org./wiki/Kelly_Clarkson\">Kelly Clarkson</a>"},{"pageviews":"3425. <a target=\"_blank\" href=\"http://en.wikipedia.org./wiki/St._Louis\">St. Louis</a>"},{"pageviews":"3426. <a target=\"_blank\" href=\"http://en.wikipedia.org./wiki/Patriots_Day_(film)\">Patriots Day (film)</a>"},{"pageviews":"3427. <a target=\"_blank\" href=\"http://en.wikipedia.org./wiki/Black_Panther_Party\">Black Panther Party</a>"},{"pageviews":"3428. <a target=\"_blank\" href=\"http://en.wikipedia.org./wiki/Otto_von_Bismarck\">Otto von Bismarck</a>"},{"pageviews":"3429. <a target=\"_blank\" href=\"http://en.wikipedia.org./wiki/Renewable_energy\">Renewable energy</a>"},{"pageviews":"3430. <a target=\"_blank\" href=\"http://en.wikipedia.org./wiki/Bon_Jovi\">Bon Jovi</a>"},{"pageviews":"3431. <a target=\"_blank\" href=\"http://en.wikipedia.org./wiki/Natalie_Dormer\">Natalie Dormer</a>"},{"pageviews":"3432. <a target=\"_blank\" href=\"http://en.wikipedia.org./wiki/The_Who\">The Who</a>"},{"pageviews":"3433. <a target=\"_blank\" href=\"http://en.wikipedia.org./wiki/List_of_Homeland_episodes\">List of Homeland episodes</a>"},{"pageviews":"3434. <a target=\"_blank\" href=\"http://en.wikipedia.org./wiki/Chlorine\">Chlorine</a>"},{"pageviews":"3435. <a target=\"_blank\" href=\"http://en.wikipedia.org./wiki/Mongol_Empire\">Mongol Empire</a>"},{"pageviews":"3436. <a target=\"_blank\" href=\"http://en.wikipedia.org./wiki/Amber_Rose\">Amber Rose</a>"},{"pageviews":"3437. <a target=\"_blank\" href=\"http://en.wikipedia.org./wiki/Claire_Foy\">Claire Foy</a>"},{"pageviews":"3438. <a target=\"_blank\" href=\"http://en.wikipedia.org./wiki/Calvinism\">Calvinism</a>"},{"pageviews":"3439. <a target=\"_blank\" href=\"http://en.wikipedia.org./wiki/Helen_Mirren\">Helen Mirren</a>"},{"pageviews":"3440. <a target=\"_blank\" href=\"http://en.wikipedia.org./wiki/Denver\">Denver</a>"},{"pageviews":"3441. <a target=\"_blank\" href=\"http://en.wikipedia.org./wiki/Liam_Hemsworth\">Liam Hemsworth</a>"},{"pageviews":"3442. <a target=\"_blank\" href=\"http://en.wikipedia.org./wiki/Dustin_Hoffman\">Dustin Hoffman</a>"},{"pageviews":"3443. <a target=\"_blank\" href=\"http://en.wikipedia.org./wiki/Dennis_Rader\">Dennis Rader</a>"},{"pageviews":"3444. <a target=\"_blank\" href=\"http://en.wikipedia.org./wiki/Public-key_cryptography\">Public-key cryptography</a>"},{"pageviews":"3445. <a target=\"_blank\" href=\"http://en.wikipedia.org./wiki/Stoicism\">Stoicism</a>"},{"pageviews":"3446. <a target=\"_blank\" href=\"http://en.wikipedia.org./wiki/Joe_Arpaio\">Joe Arpaio</a>"},{"pageviews":"3447. <a target=\"_blank\" href=\"http://en.wikipedia.org./wiki/Software_testing\">Software testing</a>"},{"pageviews":"3448. <a target=\"_blank\" href=\"http://en.wikipedia.org./wiki/Dylan_and_Cole_Sprouse\">Dylan and Cole Sprouse</a>"},{"pageviews":"3449. <a target=\"_blank\" href=\"http://en.wikipedia.org./wiki/Narcos_(season_3)\">Narcos (season 3)</a>"},{"pageviews":"3450. <a target=\"_blank\" href=\"http://en.wikipedia.org./wiki/List_of_Google_Easter_eggs\">List of Google Easter eggs</a>"},{"pageviews":"3451. <a target=\"_blank\" href=\"http://en.wikipedia.org./wiki/A.J._Styles\">A.J. Styles</a>"},{"pageviews":"3452. <a target=\"_blank\" href=\"http://en.wikipedia.org./wiki/United_States_Navy_SEALs\">United States Navy SEALs</a>"},{"pageviews":"3453. <a target=\"_blank\" href=\"http://en.wikipedia.org./wiki/Fukushima_Daiichi_nuclear_disaster\">Fukushima Daiichi nuclear disaster</a>"},{"pageviews":"3454. <a target=\"_blank\" href=\"http://en.wikipedia.org./wiki/Web_search_query\">Web search query</a>"},{"pageviews":"3455. <a target=\"_blank\" href=\"http://en.wikipedia.org./wiki/Demography_of_Japan\">Demography of Japan</a>"},{"pageviews":"3456. <a target=\"_blank\" href=\"http://en.wikipedia.org./wiki/Ethics\">Ethics</a>"},{"pageviews":"3457. <a target=\"_blank\" href=\"http://en.wikipedia.org./wiki/J._Edgar_Hoover\">J. Edgar Hoover</a>"},{"pageviews":"3458. <a target=\"_blank\" href=\"http://en.wikipedia.org./wiki/The_Sims_4\">The Sims 4</a>"},{"pageviews":"3459. <a target=\"_blank\" href=\"http://en.wikipedia.org./wiki/Bellator_MMA_in_2017\">Bellator MMA in 2017</a>"},{"pageviews":"3460. <a target=\"_blank\" href=\"http://en.wikipedia.org./wiki/Jaden_Smith\">Jaden Smith</a>"},{"pageviews":"3461. <a target=\"_blank\" href=\"http://en.wikipedia.org./wiki/Trap_music\">Trap music</a>"},{"pageviews":"3462. <a target=\"_blank\" href=\"http://en.wikipedia.org./wiki/Waco_siege\">Waco siege</a>"},{"pageviews":"3463. <a target=\"_blank\" href=\"http://en.wikipedia.org./wiki/Chuck_Schumer\">Chuck Schumer</a>"},{"pageviews":"3464. <a target=\"_blank\" href=\"http://en.wikipedia.org./wiki/Statistics\">Statistics</a>"},{"pageviews":"3465. <a target=\"_blank\" href=\"http://en.wikipedia.org./wiki/List_of_ongoing_armed_conflicts\">List of ongoing armed conflicts</a>"},{"pageviews":"3466. <a target=\"_blank\" href=\"http://en.wikipedia.org./wiki/KickassTorrents\">KickassTorrents</a>"},{"pageviews":"3467. <a target=\"_blank\" href=\"http://en.wikipedia.org./wiki/Jennifer_Hudson\">Jennifer Hudson</a>"},{"pageviews":"3468. <a target=\"_blank\" href=\"http://en.wikipedia.org./wiki/C_data_types\">C data types</a>"},{"pageviews":"3469. <a target=\"_blank\" href=\"http://en.wikipedia.org./wiki/List_of_conspiracy_theories\">List of conspiracy theories</a>"},{"pageviews":"3470. <a target=\"_blank\" href=\"http://en.wikipedia.org./wiki/Ant-Man_(film)\">Ant-Man (film)</a>"},{"pageviews":"3471. <a target=\"_blank\" href=\"http://en.wikipedia.org./wiki/Blue_whale\">Blue whale</a>"},{"pageviews":"3472. <a target=\"_blank\" href=\"http://en.wikipedia.org./wiki/Carmelo_Anthony\">Carmelo Anthony</a>"},{"pageviews":"3473. <a target=\"_blank\" href=\"http://en.wikipedia.org./wiki/Jason_Bourne_(film)\">Jason Bourne (film)</a>"},{"pageviews":"3474. <a target=\"_blank\" href=\"http://en.wikipedia.org./wiki/Goodfellas\">Goodfellas</a>"},{"pageviews":"3475. <a target=\"_blank\" href=\"http://en.wikipedia.org./wiki/Jim_Jones\">Jim Jones</a>"},{"pageviews":"3476. <a target=\"_blank\" href=\"http://en.wikipedia.org./wiki/Lean_manufacturing\">Lean manufacturing</a>"},{"pageviews":"3477. <a target=\"_blank\" href=\"http://en.wikipedia.org./wiki/Accenture\">Accenture</a>"},{"pageviews":"3478. <a target=\"_blank\" href=\"http://en.wikipedia.org./wiki/Elizabeth_Debicki\">Elizabeth Debicki</a>"},{"pageviews":"3479. <a target=\"_blank\" href=\"http://en.wikipedia.org./wiki/Andrew_Johnson\">Andrew Johnson</a>"},{"pageviews":"3480. <a target=\"_blank\" href=\"http://en.wikipedia.org./wiki/Grammy_Award\">Grammy Award</a>"},{"pageviews":"3481. <a target=\"_blank\" href=\"http://en.wikipedia.org./wiki/Sony\">Sony</a>"},{"pageviews":"3482. <a target=\"_blank\" href=\"http://en.wikipedia.org./wiki/Pacific_Rim_(film)\">Pacific Rim (film)</a>"},{"pageviews":"3483. <a target=\"_blank\" href=\"http://en.wikipedia.org./wiki/Bridget_Moynahan\">Bridget Moynahan</a>"},{"pageviews":"3484. <a target=\"_blank\" href=\"http://en.wikipedia.org./wiki/All_Eyez_on_Me_(film)\">All Eyez on Me (film)</a>"},{"pageviews":"3485. <a target=\"_blank\" href=\"http://en.wikipedia.org./wiki/Covariance\">Covariance</a>"},{"pageviews":"3486. <a target=\"_blank\" href=\"http://en.wikipedia.org./wiki/Battle_of_the_Sexes_(tennis)\">Battle of the Sexes (tennis)</a>"},{"pageviews":"3487. <a target=\"_blank\" href=\"http://en.wikipedia.org./wiki/Ann_Coulter\">Ann Coulter</a>"},{"pageviews":"3488. <a target=\"_blank\" href=\"http://en.wikipedia.org./wiki/Dragon_Ball\">Dragon Ball</a>"},{"pageviews":"3489. <a target=\"_blank\" href=\"http://en.wikipedia.org./wiki/Chris_Martin\">Chris Martin</a>"},{"pageviews":"3490. <a target=\"_blank\" href=\"http://en.wikipedia.org./wiki/Roy_Orbison\">Roy Orbison</a>"},{"pageviews":"3491. <a target=\"_blank\" href=\"http://en.wikipedia.org./wiki/Eukaryote\">Eukaryote</a>"},{"pageviews":"3492. <a target=\"_blank\" href=\"http://en.wikipedia.org./wiki/The_Flash_(season_4)\">The Flash (season 4)</a>"},{"pageviews":"3493. <a target=\"_blank\" href=\"http://en.wikipedia.org./wiki/Richard_Gere\">Richard Gere</a>"},{"pageviews":"3494. <a target=\"_blank\" href=\"http://en.wikipedia.org./wiki/Gisele_B%C3%BCndchen\">Gisele Bündchen</a>"},{"pageviews":"3495. <a target=\"_blank\" href=\"http://en.wikipedia.org./wiki/Academy_Award_for_Best_Actor\">Academy Award for Best Actor</a>"},{"pageviews":"3496. <a target=\"_blank\" href=\"http://en.wikipedia.org./wiki/Malcolm_Young\">Malcolm Young</a>"},{"pageviews":"3497. <a target=\"_blank\" href=\"http://en.wikipedia.org./wiki/John_Forbes_Nash_Jr.\">John Forbes Nash Jr.</a>"},{"pageviews":"3498. <a target=\"_blank\" href=\"http://en.wikipedia.org./wiki/Virus\">Virus</a>"},{"pageviews":"3499. <a target=\"_blank\" href=\"http://en.wikipedia.org./wiki/GitHub\">GitHub</a>"}],"list":"3400. Taxonomy (biology)  \u2014  http:\/\/en.wikipedia.org.\/wiki\/Taxonomy_(biology)\n3401. Travis Kalanick  \u2014  http:\/\/en.wikipedia.org.\/wiki\/Travis_Kalanick\n3402. Random-access memory  \u2014  http:\/\/en.wikipedia.org.\/wiki\/Random-access_memory\n3403. Delhi  \u2014  http:\/\/en.wikipedia.org.\/wiki\/Delhi\n3404. Alia Bhatt  \u2014  http:\/\/en.wikipedia.org.\/wiki\/Alia_Bhatt\n3405. George Miller (entertainer)  \u2014  http:\/\/en.wikipedia.org.\/wiki\/George_Miller_(entertainer)\n3406. Sean Astin  \u2014  http:\/\/en.wikipedia.org.\/wiki\/Sean_Astin\n3407. Zack Snyder  \u2014  http:\/\/en.wikipedia.org.\/wiki\/Zack_Snyder\n3408. The Championships, Wimbledon  \u2014  http:\/\/en.wikipedia.org.\/wiki\/The_Championships%2C_Wimbledon\n3409. Colorado  \u2014  http:\/\/en.wikipedia.org.\/wiki\/Colorado\n3410. Saw (franchise)  \u2014  http:\/\/en.wikipedia.org.\/wiki\/Saw_(franchise)\n3411. Paul Simon  \u2014  http:\/\/en.wikipedia.org.\/wiki\/Paul_Simon\n3412. Empire State Building  \u2014  http:\/\/en.wikipedia.org.\/wiki\/Empire_State_Building\n3413. Brittany Murphy  \u2014  http:\/\/en.wikipedia.org.\/wiki\/Brittany_Murphy\n3414. Robert Plant  \u2014  http:\/\/en.wikipedia.org.\/wiki\/Robert_Plant\n3415. Damon Albarn  \u2014  http:\/\/en.wikipedia.org.\/wiki\/Damon_Albarn\n3416. Ellen Page  \u2014  http:\/\/en.wikipedia.org.\/wiki\/Ellen_Page\n3417. IPv4  \u2014  http:\/\/en.wikipedia.org.\/wiki\/IPv4\n3418. Flat Earth  \u2014  http:\/\/en.wikipedia.org.\/wiki\/Flat_Earth\n3419. Battle of Midway  \u2014  http:\/\/en.wikipedia.org.\/wiki\/Battle_of_Midway\n3420. Hentai  \u2014  http:\/\/en.wikipedia.org.\/wiki\/Hentai\n3421. Photosynthesis  \u2014  http:\/\/en.wikipedia.org.\/wiki\/Photosynthesis\n3422. 2 Broke Girls  \u2014  http:\/\/en.wikipedia.org.\/wiki\/2_Broke_Girls\n3423. ASP.NET  \u2014  http:\/\/en.wikipedia.org.\/wiki\/ASP.NET\n3424. Kelly Clarkson  \u2014  http:\/\/en.wikipedia.org.\/wiki\/Kelly_Clarkson\n3425. St. Louis  \u2014  http:\/\/en.wikipedia.org.\/wiki\/St._Louis\n3426. Patriots Day (film)  \u2014  http:\/\/en.wikipedia.org.\/wiki\/Patriots_Day_(film)\n3427. Black Panther Party  \u2014  http:\/\/en.wikipedia.org.\/wiki\/Black_Panther_Party\n3428. Otto von Bismarck  \u2014  http:\/\/en.wikipedia.org.\/wiki\/Otto_von_Bismarck\n3429. Renewable energy  \u2014  http:\/\/en.wikipedia.org.\/wiki\/Renewable_energy\n3430. Bon Jovi  \u2014  http:\/\/en.wikipedia.org.\/wiki\/Bon_Jovi\n3431. Natalie Dormer  \u2014  http:\/\/en.wikipedia.org.\/wiki\/Natalie_Dormer\n3432. The Who  \u2014  http:\/\/en.wikipedia.org.\/wiki\/The_Who\n3433. List of Homeland episodes  \u2014  http:\/\/en.wikipedia.org.\/wiki\/List_of_Homeland_episodes\n3434. Chlorine  \u2014  http:\/\/en.wikipedia.org.\/wiki\/Chlorine\n3435. Mongol Empire  \u2014  http:\/\/en.wikipedia.org.\/wiki\/Mongol_Empire\n3436. Amber Rose  \u2014  http:\/\/en.wikipedia.org.\/wiki\/Amber_Rose\n3437. Claire Foy  \u2014  http:\/\/en.wikipedia.org.\/wiki\/Claire_Foy\n3438. Calvinism  \u2014  http:\/\/en.wikipedia.org.\/wiki\/Calvinism\n3439. Helen Mirren  \u2014  http:\/\/en.wikipedia.org.\/wiki\/Helen_Mirren\n3440. Denver  \u2014  http:\/\/en.wikipedia.org.\/wiki\/Denver\n3441. Liam Hemsworth  \u2014  http:\/\/en.wikipedia.org.\/wiki\/Liam_Hemsworth\n3442. Dustin Hoffman  \u2014  http:\/\/en.wikipedia.org.\/wiki\/Dustin_Hoffman\n3443. Dennis Rader  \u2014  http:\/\/en.wikipedia.org.\/wiki\/Dennis_Rader\n3444. Public-key cryptography  \u2014  http:\/\/en.wikipedia.org.\/wiki\/Public-key_cryptography\n3445. Stoicism  \u2014  http:\/\/en.wikipedia.org.\/wiki\/Stoicism\n3446. Joe Arpaio  \u2014  http:\/\/en.wikipedia.org.\/wiki\/Joe_Arpaio\n3447. Software testing  \u2014  http:\/\/en.wikipedia.org.\/wiki\/Software_testing\n3448. Dylan and Cole Sprouse  \u2014  http:\/\/en.wikipedia.org.\/wiki\/Dylan_and_Cole_Sprouse\n3449. Narcos (season 3)  \u2014  http:\/\/en.wikipedia.org.\/wiki\/Narcos_(season_3)\n3450. List of Google Easter eggs  \u2014  http:\/\/en.wikipedia.org.\/wiki\/List_of_Google_Easter_eggs\n3451. A.J. Styles  \u2014  http:\/\/en.wikipedia.org.\/wiki\/A.J._Styles\n3452. United States Navy SEALs  \u2014  http:\/\/en.wikipedia.org.\/wiki\/United_States_Navy_SEALs\n3453. Fukushima Daiichi nuclear disaster  \u2014  http:\/\/en.wikipedia.org.\/wiki\/Fukushima_Daiichi_nuclear_disaster\n3454. Web search query  \u2014  http:\/\/en.wikipedia.org.\/wiki\/Web_search_query\n3455. Demography of Japan  \u2014  http:\/\/en.wikipedia.org.\/wiki\/Demography_of_Japan\n3456. Ethics  \u2014  http:\/\/en.wikipedia.org.\/wiki\/Ethics\n3457. J. Edgar Hoover  \u2014  http:\/\/en.wikipedia.org.\/wiki\/J._Edgar_Hoover\n3458. The Sims 4  \u2014  http:\/\/en.wikipedia.org.\/wiki\/The_Sims_4\n3459. Bellator MMA in 2017  \u2014  http:\/\/en.wikipedia.org.\/wiki\/Bellator_MMA_in_2017\n3460. Jaden Smith  \u2014  http:\/\/en.wikipedia.org.\/wiki\/Jaden_Smith\n3461. Trap music  \u2014  http:\/\/en.wikipedia.org.\/wiki\/Trap_music\n3462. Waco siege  \u2014  http:\/\/en.wikipedia.org.\/wiki\/Waco_siege\n3463. Chuck Schumer  \u2014  http:\/\/en.wikipedia.org.\/wiki\/Chuck_Schumer\n3464. Statistics  \u2014  http:\/\/en.wikipedia.org.\/wiki\/Statistics\n3465. List of ongoing armed conflicts  \u2014  http:\/\/en.wikipedia.org.\/wiki\/List_of_ongoing_armed_conflicts\n3466. KickassTorrents  \u2014  http:\/\/en.wikipedia.org.\/wiki\/KickassTorrents\n3467. Jennifer Hudson  \u2014  http:\/\/en.wikipedia.org.\/wiki\/Jennifer_Hudson\n3468. C data types  \u2014  http:\/\/en.wikipedia.org.\/wiki\/C_data_types\n3469. List of conspiracy theories  \u2014  http:\/\/en.wikipedia.org.\/wiki\/List_of_conspiracy_theories\n3470. Ant-Man (film)  \u2014  http:\/\/en.wikipedia.org.\/wiki\/Ant-Man_(film)\n3471. Blue whale  \u2014  http:\/\/en.wikipedia.org.\/wiki\/Blue_whale\n3472. Carmelo Anthony  \u2014  http:\/\/en.wikipedia.org.\/wiki\/Carmelo_Anthony\n3473. Jason Bourne (film)  \u2014  http:\/\/en.wikipedia.org.\/wiki\/Jason_Bourne_(film)\n3474. Goodfellas  \u2014  http:\/\/en.wikipedia.org.\/wiki\/Goodfellas\n3475. Jim Jones  \u2014  http:\/\/en.wikipedia.org.\/wiki\/Jim_Jones\n3476. Lean manufacturing  \u2014  http:\/\/en.wikipedia.org.\/wiki\/Lean_manufacturing\n3477. Accenture  \u2014  http:\/\/en.wikipedia.org.\/wiki\/Accenture\n3478. Elizabeth Debicki  \u2014  http:\/\/en.wikipedia.org.\/wiki\/Elizabeth_Debicki\n3479. Andrew Johnson  \u2014  http:\/\/en.wikipedia.org.\/wiki\/Andrew_Johnson\n3480. Grammy Award  \u2014  http:\/\/en.wikipedia.org.\/wiki\/Grammy_Award\n3481. Sony  \u2014  http:\/\/en.wikipedia.org.\/wiki\/Sony\n3482. Pacific Rim (film)  \u2014  http:\/\/en.wikipedia.org.\/wiki\/Pacific_Rim_(film)\n3483. Bridget Moynahan  \u2014  http:\/\/en.wikipedia.org.\/wiki\/Bridget_Moynahan\n3484. All Eyez on Me (film)  \u2014  http:\/\/en.wikipedia.org.\/wiki\/All_Eyez_on_Me_(film)\n3485. Covariance  \u2014  http:\/\/en.wikipedia.org.\/wiki\/Covariance\n3486. Battle of the Sexes (tennis)  \u2014  http:\/\/en.wikipedia.org.\/wiki\/Battle_of_the_Sexes_(tennis)\n3487. Ann Coulter  \u2014  http:\/\/en.wikipedia.org.\/wiki\/Ann_Coulter\n3488. Dragon Ball  \u2014  http:\/\/en.wikipedia.org.\/wiki\/Dragon_Ball\n3489. Chris Martin  \u2014  http:\/\/en.wikipedia.org.\/wiki\/Chris_Martin\n3490. Roy Orbison  \u2014  http:\/\/en.wikipedia.org.\/wiki\/Roy_Orbison\n3491. Eukaryote  \u2014  http:\/\/en.wikipedia.org.\/wiki\/Eukaryote\n3492. The Flash (season 4)  \u2014  http:\/\/en.wikipedia.org.\/wiki\/The_Flash_(season_4)\n3493. Richard Gere  \u2014  http:\/\/en.wikipedia.org.\/wiki\/Richard_Gere\n3494. Gisele B\u00FCndchen  \u2014  http:\/\/en.wikipedia.org.\/wiki\/Gisele_B%C3%BCndchen\n3495. Academy Award for Best Actor  \u2014  http:\/\/en.wikipedia.org.\/wiki\/Academy_Award_for_Best_Actor\n3496. Malcolm Young  \u2014  http:\/\/en.wikipedia.org.\/wiki\/Malcolm_Young\n3497. John Forbes Nash Jr.  \u2014  http:\/\/en.wikipedia.org.\/wiki\/John_Forbes_Nash_Jr.\n3498. Virus  \u2014  http:\/\/en.wikipedia.org.\/wiki\/Virus\n3499. GitHub  \u2014  http:\/\/en.wikipedia.org.\/wiki\/GitHub\n","miniList":"3400. Taxonomy (biology)\n3401. Travis Kalanick\n3402. Random-access memory\n3403. Delhi\n3404. Alia Bhatt\n3405. George Miller (entertainer)\n3406. Sean Astin\n3407. Zack Snyder\n3408. The Championships, Wimbledon\n3409. Colorado\n3410. Saw (franchise)\n3411. Paul Simon\n3412. Empire State Building\n3413. Brittany Murphy\n3414. Robert Plant\n3415. Damon Albarn\n3416. Ellen Page\n3417. IPv4\n3418. Flat Earth\n3419. Battle of Midway\n3420. Hentai\n3421. Photosynthesis\n3422. 2 Broke Girls\n3423. ASP.NET\n3424. Kelly Clarkson\n3425. St. Louis\n3426. Patriots Day (film)\n3427. Black Panther Party\n3428. Otto von Bismarck\n3429. Renewable energy\n3430. Bon Jovi\n3431. Natalie Dormer\n3432. The Who\n3433. List of Homeland episodes\n3434. Chlorine\n3435. Mongol Empire\n3436. Amber Rose\n3437. Claire Foy\n3438. Calvinism\n3439. Helen Mirren\n3440. Denver\n3441. Liam Hemsworth\n3442. Dustin Hoffman\n3443. Dennis Rader\n3444. Public-key cryptography\n3445. Stoicism\n3446. Joe Arpaio\n3447. Software testing\n3448. Dylan and Cole Sprouse\n3449. Narcos (season 3)\n3450. List of Google Easter eggs\n3451. A.J. Styles\n3452. United States Navy SEALs\n3453. Fukushima Daiichi nuclear disaster\n3454. Web search query\n3455. Demography of Japan\n3456. Ethics\n3457. J. Edgar Hoover\n3458. The Sims 4\n3459. Bellator MMA in 2017\n3460. Jaden Smith\n3461. Trap music\n3462. Waco siege\n3463. Chuck Schumer\n3464. Statistics\n3465. List of ongoing armed conflicts\n3466. KickassTorrents\n3467. Jennifer Hudson\n3468. C data types\n3469. List of conspiracy theories\n3470. Ant-Man (film)\n3471. Blue whale\n3472. Carmelo Anthony\n3473. Jason Bourne (film)\n3474. Goodfellas\n3475. Jim Jones\n3476. Lean manufacturing\n3477. Accenture\n3478. Elizabeth Debicki\n3479. Andrew Johnson\n3480. Grammy Award\n3481. Sony\n3482. Pacific Rim (film)\n3483. Bridget Moynahan\n3484. All Eyez on Me (film)\n3485. Covariance\n3486. Battle of the Sexes (tennis)\n3487. Ann Coulter\n3488. Dragon Ball\n3489. Chris Martin\n3490. Roy Orbison\n3491. Eukaryote\n3492. The Flash (season 4)\n3493. Richard Gere\n3494. Gisele B\u00FCndchen\n3495. Academy Award for Best Actor\n3496. Malcolm Young\n3497. John Forbes Nash Jr.\n3498. Virus\n3499. GitHub\n"}
