{"start":3501,"end":3600,"count":5616717,"type":"pageviews","pageSize":100,"page":35,"pages":56168,"columns":[{"label":"","property":"pageviews","sortable":false}],"items":[{"pageviews":"3500. <a target=\"_blank\" href=\"http://en.wikipedia.org./wiki/Murder_of_Seth_Rich\">Murder of Seth Rich</a>"},{"pageviews":"3501. <a target=\"_blank\" href=\"http://en.wikipedia.org./wiki/Elle_Fanning\">Elle Fanning</a>"},{"pageviews":"3502. <a target=\"_blank\" href=\"http://en.wikipedia.org./wiki/Electoral_College_(United_States)\">Electoral College (United States)</a>"},{"pageviews":"3503. <a target=\"_blank\" href=\"http://en.wikipedia.org./wiki/Mariana_Trench\">Mariana Trench</a>"},{"pageviews":"3504. <a target=\"_blank\" href=\"http://en.wikipedia.org./wiki/Stephen_Fry\">Stephen Fry</a>"},{"pageviews":"3505. <a target=\"_blank\" href=\"http://en.wikipedia.org./wiki/League_of_Legends\">League of Legends</a>"},{"pageviews":"3506. <a target=\"_blank\" href=\"http://en.wikipedia.org./wiki/Responsibility_assignment_matrix\">Responsibility assignment matrix</a>"},{"pageviews":"3507. <a target=\"_blank\" href=\"http://en.wikipedia.org./wiki/James_Baldwin\">James Baldwin</a>"},{"pageviews":"3508. <a target=\"_blank\" href=\"http://en.wikipedia.org./wiki/Lead\">Lead</a>"},{"pageviews":"3509. <a target=\"_blank\" href=\"http://en.wikipedia.org./wiki/Unmanned_aerial_vehicle\">Unmanned aerial vehicle</a>"},{"pageviews":"3510. <a target=\"_blank\" href=\"http://en.wikipedia.org./wiki/United_States_presidential_election%2C_2004\">United States presidential election, 2004</a>"},{"pageviews":"3511. <a target=\"_blank\" href=\"http://en.wikipedia.org./wiki/Robert_Redford\">Robert Redford</a>"},{"pageviews":"3512. <a target=\"_blank\" href=\"http://en.wikipedia.org./wiki/VAT_identification_number\">VAT identification number</a>"},{"pageviews":"3513. <a target=\"_blank\" href=\"http://en.wikipedia.org./wiki/Sildenafil\">Sildenafil</a>"},{"pageviews":"3514. <a target=\"_blank\" href=\"http://en.wikipedia.org./wiki/Miss_Universe_2017\">Miss Universe 2017</a>"},{"pageviews":"3515. <a target=\"_blank\" href=\"http://en.wikipedia.org./wiki/Panama_Canal\">Panama Canal</a>"},{"pageviews":"3516. <a target=\"_blank\" href=\"http://en.wikipedia.org./wiki/Kodak_Black\">Kodak Black</a>"},{"pageviews":"3517. <a target=\"_blank\" href=\"http://en.wikipedia.org./wiki/ADX_Florence\">ADX Florence</a>"},{"pageviews":"3518. <a target=\"_blank\" href=\"http://en.wikipedia.org./wiki/Sodium_hydroxide\">Sodium hydroxide</a>"},{"pageviews":"3519. <a target=\"_blank\" href=\"http://en.wikipedia.org./wiki/The_New_Mutants_(film)\">The New Mutants (film)</a>"},{"pageviews":"3520. <a target=\"_blank\" href=\"http://en.wikipedia.org./wiki/Ariel_Winter\">Ariel Winter</a>"},{"pageviews":"3521. <a target=\"_blank\" href=\"http://en.wikipedia.org./wiki/Gregg_Allman\">Gregg Allman</a>"},{"pageviews":"3522. <a target=\"_blank\" href=\"http://en.wikipedia.org./wiki/Pythagorean_theorem\">Pythagorean theorem</a>"},{"pageviews":"3523. <a target=\"_blank\" href=\"http://en.wikipedia.org./wiki/David_Attenborough\">David Attenborough</a>"},{"pageviews":"3524. <a target=\"_blank\" href=\"http://en.wikipedia.org./wiki/Arduino\">Arduino</a>"},{"pageviews":"3525. <a target=\"_blank\" href=\"http://en.wikipedia.org./wiki/Ada_Lovelace\">Ada Lovelace</a>"},{"pageviews":"3526. <a target=\"_blank\" href=\"http://en.wikipedia.org./wiki/Christina_Ricci\">Christina Ricci</a>"},{"pageviews":"3527. <a target=\"_blank\" href=\"http://en.wikipedia.org./wiki/Portia_de_Rossi\">Portia de Rossi</a>"},{"pageviews":"3528. <a target=\"_blank\" href=\"http://en.wikipedia.org./wiki/Deadpool_2\">Deadpool 2</a>"},{"pageviews":"3529. <a target=\"_blank\" href=\"http://en.wikipedia.org./wiki/Human_rights\">Human rights</a>"},{"pageviews":"3530. <a target=\"_blank\" href=\"http://en.wikipedia.org./wiki/International_Women's_Day\">International Women's Day</a>"},{"pageviews":"3531. <a target=\"_blank\" href=\"http://en.wikipedia.org./wiki/Warcraft_(film)\">Warcraft (film)</a>"},{"pageviews":"3532. <a target=\"_blank\" href=\"http://en.wikipedia.org./wiki/The_Departed\">The Departed</a>"},{"pageviews":"3533. <a target=\"_blank\" href=\"http://en.wikipedia.org./wiki/Fungus\">Fungus</a>"},{"pageviews":"3534. <a target=\"_blank\" href=\"http://en.wikipedia.org./wiki/Burt_Reynolds\">Burt Reynolds</a>"},{"pageviews":"3535. <a target=\"_blank\" href=\"http://en.wikipedia.org./wiki/San_Diego\">San Diego</a>"},{"pageviews":"3536. <a target=\"_blank\" href=\"http://en.wikipedia.org./wiki/Daddy_Yankee\">Daddy Yankee</a>"},{"pageviews":"3537. <a target=\"_blank\" href=\"http://en.wikipedia.org./wiki/Margaret_Atwood\">Margaret Atwood</a>"},{"pageviews":"3538. <a target=\"_blank\" href=\"http://en.wikipedia.org./wiki/PlayStation_2\">PlayStation 2</a>"},{"pageviews":"3539. <a target=\"_blank\" href=\"http://en.wikipedia.org./wiki/Nibiru_cataclysm\">Nibiru cataclysm</a>"},{"pageviews":"3540. <a target=\"_blank\" href=\"http://en.wikipedia.org./wiki/Elisabeth_Shue\">Elisabeth Shue</a>"},{"pageviews":"3541. <a target=\"_blank\" href=\"http://en.wikipedia.org./wiki/G-Eazy\">G-Eazy</a>"},{"pageviews":"3542. <a target=\"_blank\" href=\"http://en.wikipedia.org./wiki/Black_Lives_Matter\">Black Lives Matter</a>"},{"pageviews":"3543. <a target=\"_blank\" href=\"http://en.wikipedia.org./wiki/Chicago_P.D._(TV_series)\">Chicago P.D. (TV series)</a>"},{"pageviews":"3544. <a target=\"_blank\" href=\"http://en.wikipedia.org./wiki/Guatemala\">Guatemala</a>"},{"pageviews":"3545. <a target=\"_blank\" href=\"http://en.wikipedia.org./wiki/List_of_solar_eclipses_in_the_21st_century\">List of solar eclipses in the 21st century</a>"},{"pageviews":"3546. <a target=\"_blank\" href=\"http://en.wikipedia.org./wiki/List_of_It's_Always_Sunny_in_Philadelphia_episodes\">List of It's Always Sunny in Philadelphia episodes</a>"},{"pageviews":"3547. <a target=\"_blank\" href=\"http://en.wikipedia.org./wiki/Cortisol\">Cortisol</a>"},{"pageviews":"3548. <a target=\"_blank\" href=\"http://en.wikipedia.org./wiki/List_of_Disney_Channel_original_films\">List of Disney Channel original films</a>"},{"pageviews":"3549. <a target=\"_blank\" href=\"http://en.wikipedia.org./wiki/Laverne_Cox\">Laverne Cox</a>"},{"pageviews":"3550. <a target=\"_blank\" href=\"http://en.wikipedia.org./wiki/Customer_relationship_management\">Customer relationship management</a>"},{"pageviews":"3551. <a target=\"_blank\" href=\"http://en.wikipedia.org./wiki/Hayden_Panettiere\">Hayden Panettiere</a>"},{"pageviews":"3552. <a target=\"_blank\" href=\"http://en.wikipedia.org./wiki/Banksy\">Banksy</a>"},{"pageviews":"3553. <a target=\"_blank\" href=\"http://en.wikipedia.org./wiki/Botswana\">Botswana</a>"},{"pageviews":"3554. <a target=\"_blank\" href=\"http://en.wikipedia.org./wiki/Goldman_Sachs\">Goldman Sachs</a>"},{"pageviews":"3555. <a target=\"_blank\" href=\"http://en.wikipedia.org./wiki/North_Carolina\">North Carolina</a>"},{"pageviews":"3556. <a target=\"_blank\" href=\"http://en.wikipedia.org./wiki/Nancy_Kerrigan\">Nancy Kerrigan</a>"},{"pageviews":"3557. <a target=\"_blank\" href=\"http://en.wikipedia.org./wiki/Oldest_people\">Oldest people</a>"},{"pageviews":"3558. <a target=\"_blank\" href=\"http://en.wikipedia.org./wiki/2011_NBA_draft\">2011 NBA draft</a>"},{"pageviews":"3559. <a target=\"_blank\" href=\"http://en.wikipedia.org./wiki/Vince_McMahon\">Vince McMahon</a>"},{"pageviews":"3560. <a target=\"_blank\" href=\"http://en.wikipedia.org./wiki/Jamie_Bell\">Jamie Bell</a>"},{"pageviews":"3561. <a target=\"_blank\" href=\"http://en.wikipedia.org./wiki/Rod_Stewart\">Rod Stewart</a>"},{"pageviews":"3562. <a target=\"_blank\" href=\"http://en.wikipedia.org./wiki/The_Ranch_(TV_series)\">The Ranch (TV series)</a>"},{"pageviews":"3563. <a target=\"_blank\" href=\"http://en.wikipedia.org./wiki/Glycerol\">Glycerol</a>"},{"pageviews":"3564. <a target=\"_blank\" href=\"http://en.wikipedia.org./wiki/Maize\">Maize</a>"},{"pageviews":"3565. <a target=\"_blank\" href=\"http://en.wikipedia.org./wiki/Ex_Machina_(film)\">Ex Machina (film)</a>"},{"pageviews":"3566. <a target=\"_blank\" href=\"http://en.wikipedia.org./wiki/Kung_Fu_Yoga\">Kung Fu Yoga</a>"},{"pageviews":"3567. <a target=\"_blank\" href=\"http://en.wikipedia.org./wiki/Computer_hardware\">Computer hardware</a>"},{"pageviews":"3568. <a target=\"_blank\" href=\"http://en.wikipedia.org./wiki/Sagrada_Fam%C3%ADlia\">Sagrada Família</a>"},{"pageviews":"3569. <a target=\"_blank\" href=\"http://en.wikipedia.org./wiki/Kerala\">Kerala</a>"},{"pageviews":"3570. <a target=\"_blank\" href=\"http://en.wikipedia.org./wiki/Smallpox\">Smallpox</a>"},{"pageviews":"3571. <a target=\"_blank\" href=\"http://en.wikipedia.org./wiki/Analysis_of_variance\">Analysis of variance</a>"},{"pageviews":"3572. <a target=\"_blank\" href=\"http://en.wikipedia.org./wiki/Crimea\">Crimea</a>"},{"pageviews":"3573. <a target=\"_blank\" href=\"http://en.wikipedia.org./wiki/Matrix_multiplication\">Matrix multiplication</a>"},{"pageviews":"3574. <a target=\"_blank\" href=\"http://en.wikipedia.org./wiki/Hannibal\">Hannibal</a>"},{"pageviews":"3575. <a target=\"_blank\" href=\"http://en.wikipedia.org./wiki/Cognitive_dissonance\">Cognitive dissonance</a>"},{"pageviews":"3576. <a target=\"_blank\" href=\"http://en.wikipedia.org./wiki/Maddie_Ziegler\">Maddie Ziegler</a>"},{"pageviews":"3577. <a target=\"_blank\" href=\"http://en.wikipedia.org./wiki/Caribbean\">Caribbean</a>"},{"pageviews":"3578. <a target=\"_blank\" href=\"http://en.wikipedia.org./wiki/Memorial_Day\">Memorial Day</a>"},{"pageviews":"3579. <a target=\"_blank\" href=\"http://en.wikipedia.org./wiki/Marvin_Gaye\">Marvin Gaye</a>"},{"pageviews":"3580. <a target=\"_blank\" href=\"http://en.wikipedia.org./wiki/Coffee\">Coffee</a>"},{"pageviews":"3581. <a target=\"_blank\" href=\"http://en.wikipedia.org./wiki/Kylie_Minogue\">Kylie Minogue</a>"},{"pageviews":"3582. <a target=\"_blank\" href=\"http://en.wikipedia.org./wiki/Penicillin\">Penicillin</a>"},{"pageviews":"3583. <a target=\"_blank\" href=\"http://en.wikipedia.org./wiki/List_of_British_monarchs\">List of British monarchs</a>"},{"pageviews":"3584. <a target=\"_blank\" href=\"http://en.wikipedia.org./wiki/Louise_Linton\">Louise Linton</a>"},{"pageviews":"3585. <a target=\"_blank\" href=\"http://en.wikipedia.org./wiki/Tekken_7\">Tekken 7</a>"},{"pageviews":"3586. <a target=\"_blank\" href=\"http://en.wikipedia.org./wiki/Jon_Snow_(character)\">Jon Snow (character)</a>"},{"pageviews":"3587. <a target=\"_blank\" href=\"http://en.wikipedia.org./wiki/Becky_G\">Becky G</a>"},{"pageviews":"3588. <a target=\"_blank\" href=\"http://en.wikipedia.org./wiki/Escherichia_coli\">Escherichia coli</a>"},{"pageviews":"3589. <a target=\"_blank\" href=\"http://en.wikipedia.org./wiki/Emily_Browning\">Emily Browning</a>"},{"pageviews":"3590. <a target=\"_blank\" href=\"http://en.wikipedia.org./wiki/Disappearance_of_Natalee_Holloway\">Disappearance of Natalee Holloway</a>"},{"pageviews":"3591. <a target=\"_blank\" href=\"http://en.wikipedia.org./wiki/Skam_(TV_series)\">Skam (TV series)</a>"},{"pageviews":"3592. <a target=\"_blank\" href=\"http://en.wikipedia.org./wiki/Maria_Sharapova\">Maria Sharapova</a>"},{"pageviews":"3593. <a target=\"_blank\" href=\"http://en.wikipedia.org./wiki/Edge_of_Tomorrow\">Edge of Tomorrow</a>"},{"pageviews":"3594. <a target=\"_blank\" href=\"http://en.wikipedia.org./wiki/Aaron_Taylor-Johnson\">Aaron Taylor-Johnson</a>"},{"pageviews":"3595. <a target=\"_blank\" href=\"http://en.wikipedia.org./wiki/Marcus_Aurelius\">Marcus Aurelius</a>"},{"pageviews":"3596. <a target=\"_blank\" href=\"http://en.wikipedia.org./wiki/Ohm's_law\">Ohm's law</a>"},{"pageviews":"3597. <a target=\"_blank\" href=\"http://en.wikipedia.org./wiki/Easter_Island\">Easter Island</a>"},{"pageviews":"3598. <a target=\"_blank\" href=\"http://en.wikipedia.org./wiki/Teenage_Mutant_Ninja_Turtles\">Teenage Mutant Ninja Turtles</a>"},{"pageviews":"3599. <a target=\"_blank\" href=\"http://en.wikipedia.org./wiki/Anthony_Eden\">Anthony Eden</a>"}],"list":"3500. Murder of Seth Rich  \u2014  http:\/\/en.wikipedia.org.\/wiki\/Murder_of_Seth_Rich\n3501. Elle Fanning  \u2014  http:\/\/en.wikipedia.org.\/wiki\/Elle_Fanning\n3502. Electoral College (United States)  \u2014  http:\/\/en.wikipedia.org.\/wiki\/Electoral_College_(United_States)\n3503. Mariana Trench  \u2014  http:\/\/en.wikipedia.org.\/wiki\/Mariana_Trench\n3504. Stephen Fry  \u2014  http:\/\/en.wikipedia.org.\/wiki\/Stephen_Fry\n3505. League of Legends  \u2014  http:\/\/en.wikipedia.org.\/wiki\/League_of_Legends\n3506. Responsibility assignment matrix  \u2014  http:\/\/en.wikipedia.org.\/wiki\/Responsibility_assignment_matrix\n3507. James Baldwin  \u2014  http:\/\/en.wikipedia.org.\/wiki\/James_Baldwin\n3508. Lead  \u2014  http:\/\/en.wikipedia.org.\/wiki\/Lead\n3509. Unmanned aerial vehicle  \u2014  http:\/\/en.wikipedia.org.\/wiki\/Unmanned_aerial_vehicle\n3510. United States presidential election, 2004  \u2014  http:\/\/en.wikipedia.org.\/wiki\/United_States_presidential_election%2C_2004\n3511. Robert Redford  \u2014  http:\/\/en.wikipedia.org.\/wiki\/Robert_Redford\n3512. VAT identification number  \u2014  http:\/\/en.wikipedia.org.\/wiki\/VAT_identification_number\n3513. Sildenafil  \u2014  http:\/\/en.wikipedia.org.\/wiki\/Sildenafil\n3514. Miss Universe 2017  \u2014  http:\/\/en.wikipedia.org.\/wiki\/Miss_Universe_2017\n3515. Panama Canal  \u2014  http:\/\/en.wikipedia.org.\/wiki\/Panama_Canal\n3516. Kodak Black  \u2014  http:\/\/en.wikipedia.org.\/wiki\/Kodak_Black\n3517. ADX Florence  \u2014  http:\/\/en.wikipedia.org.\/wiki\/ADX_Florence\n3518. Sodium hydroxide  \u2014  http:\/\/en.wikipedia.org.\/wiki\/Sodium_hydroxide\n3519. The New Mutants (film)  \u2014  http:\/\/en.wikipedia.org.\/wiki\/The_New_Mutants_(film)\n3520. Ariel Winter  \u2014  http:\/\/en.wikipedia.org.\/wiki\/Ariel_Winter\n3521. Gregg Allman  \u2014  http:\/\/en.wikipedia.org.\/wiki\/Gregg_Allman\n3522. Pythagorean theorem  \u2014  http:\/\/en.wikipedia.org.\/wiki\/Pythagorean_theorem\n3523. David Attenborough  \u2014  http:\/\/en.wikipedia.org.\/wiki\/David_Attenborough\n3524. Arduino  \u2014  http:\/\/en.wikipedia.org.\/wiki\/Arduino\n3525. Ada Lovelace  \u2014  http:\/\/en.wikipedia.org.\/wiki\/Ada_Lovelace\n3526. Christina Ricci  \u2014  http:\/\/en.wikipedia.org.\/wiki\/Christina_Ricci\n3527. Portia de Rossi  \u2014  http:\/\/en.wikipedia.org.\/wiki\/Portia_de_Rossi\n3528. Deadpool 2  \u2014  http:\/\/en.wikipedia.org.\/wiki\/Deadpool_2\n3529. Human rights  \u2014  http:\/\/en.wikipedia.org.\/wiki\/Human_rights\n3530. International Women's Day  \u2014  http:\/\/en.wikipedia.org.\/wiki\/International_Women's_Day\n3531. Warcraft (film)  \u2014  http:\/\/en.wikipedia.org.\/wiki\/Warcraft_(film)\n3532. The Departed  \u2014  http:\/\/en.wikipedia.org.\/wiki\/The_Departed\n3533. Fungus  \u2014  http:\/\/en.wikipedia.org.\/wiki\/Fungus\n3534. Burt Reynolds  \u2014  http:\/\/en.wikipedia.org.\/wiki\/Burt_Reynolds\n3535. San Diego  \u2014  http:\/\/en.wikipedia.org.\/wiki\/San_Diego\n3536. Daddy Yankee  \u2014  http:\/\/en.wikipedia.org.\/wiki\/Daddy_Yankee\n3537. Margaret Atwood  \u2014  http:\/\/en.wikipedia.org.\/wiki\/Margaret_Atwood\n3538. PlayStation 2  \u2014  http:\/\/en.wikipedia.org.\/wiki\/PlayStation_2\n3539. Nibiru cataclysm  \u2014  http:\/\/en.wikipedia.org.\/wiki\/Nibiru_cataclysm\n3540. Elisabeth Shue  \u2014  http:\/\/en.wikipedia.org.\/wiki\/Elisabeth_Shue\n3541. G-Eazy  \u2014  http:\/\/en.wikipedia.org.\/wiki\/G-Eazy\n3542. Black Lives Matter  \u2014  http:\/\/en.wikipedia.org.\/wiki\/Black_Lives_Matter\n3543. Chicago P.D. (TV series)  \u2014  http:\/\/en.wikipedia.org.\/wiki\/Chicago_P.D._(TV_series)\n3544. Guatemala  \u2014  http:\/\/en.wikipedia.org.\/wiki\/Guatemala\n3545. List of solar eclipses in the 21st century  \u2014  http:\/\/en.wikipedia.org.\/wiki\/List_of_solar_eclipses_in_the_21st_century\n3546. List of It's Always Sunny in Philadelphia episodes  \u2014  http:\/\/en.wikipedia.org.\/wiki\/List_of_It's_Always_Sunny_in_Philadelphia_episodes\n3547. Cortisol  \u2014  http:\/\/en.wikipedia.org.\/wiki\/Cortisol\n3548. List of Disney Channel original films  \u2014  http:\/\/en.wikipedia.org.\/wiki\/List_of_Disney_Channel_original_films\n3549. Laverne Cox  \u2014  http:\/\/en.wikipedia.org.\/wiki\/Laverne_Cox\n3550. Customer relationship management  \u2014  http:\/\/en.wikipedia.org.\/wiki\/Customer_relationship_management\n3551. Hayden Panettiere  \u2014  http:\/\/en.wikipedia.org.\/wiki\/Hayden_Panettiere\n3552. Banksy  \u2014  http:\/\/en.wikipedia.org.\/wiki\/Banksy\n3553. Botswana  \u2014  http:\/\/en.wikipedia.org.\/wiki\/Botswana\n3554. Goldman Sachs  \u2014  http:\/\/en.wikipedia.org.\/wiki\/Goldman_Sachs\n3555. North Carolina  \u2014  http:\/\/en.wikipedia.org.\/wiki\/North_Carolina\n3556. Nancy Kerrigan  \u2014  http:\/\/en.wikipedia.org.\/wiki\/Nancy_Kerrigan\n3557. Oldest people  \u2014  http:\/\/en.wikipedia.org.\/wiki\/Oldest_people\n3558. 2011 NBA draft  \u2014  http:\/\/en.wikipedia.org.\/wiki\/2011_NBA_draft\n3559. Vince McMahon  \u2014  http:\/\/en.wikipedia.org.\/wiki\/Vince_McMahon\n3560. Jamie Bell  \u2014  http:\/\/en.wikipedia.org.\/wiki\/Jamie_Bell\n3561. Rod Stewart  \u2014  http:\/\/en.wikipedia.org.\/wiki\/Rod_Stewart\n3562. The Ranch (TV series)  \u2014  http:\/\/en.wikipedia.org.\/wiki\/The_Ranch_(TV_series)\n3563. Glycerol  \u2014  http:\/\/en.wikipedia.org.\/wiki\/Glycerol\n3564. Maize  \u2014  http:\/\/en.wikipedia.org.\/wiki\/Maize\n3565. Ex Machina (film)  \u2014  http:\/\/en.wikipedia.org.\/wiki\/Ex_Machina_(film)\n3566. Kung Fu Yoga  \u2014  http:\/\/en.wikipedia.org.\/wiki\/Kung_Fu_Yoga\n3567. Computer hardware  \u2014  http:\/\/en.wikipedia.org.\/wiki\/Computer_hardware\n3568. Sagrada Fam\u00EDlia  \u2014  http:\/\/en.wikipedia.org.\/wiki\/Sagrada_Fam%C3%ADlia\n3569. Kerala  \u2014  http:\/\/en.wikipedia.org.\/wiki\/Kerala\n3570. Smallpox  \u2014  http:\/\/en.wikipedia.org.\/wiki\/Smallpox\n3571. Analysis of variance  \u2014  http:\/\/en.wikipedia.org.\/wiki\/Analysis_of_variance\n3572. Crimea  \u2014  http:\/\/en.wikipedia.org.\/wiki\/Crimea\n3573. Matrix multiplication  \u2014  http:\/\/en.wikipedia.org.\/wiki\/Matrix_multiplication\n3574. Hannibal  \u2014  http:\/\/en.wikipedia.org.\/wiki\/Hannibal\n3575. Cognitive dissonance  \u2014  http:\/\/en.wikipedia.org.\/wiki\/Cognitive_dissonance\n3576. Maddie Ziegler  \u2014  http:\/\/en.wikipedia.org.\/wiki\/Maddie_Ziegler\n3577. Caribbean  \u2014  http:\/\/en.wikipedia.org.\/wiki\/Caribbean\n3578. Memorial Day  \u2014  http:\/\/en.wikipedia.org.\/wiki\/Memorial_Day\n3579. Marvin Gaye  \u2014  http:\/\/en.wikipedia.org.\/wiki\/Marvin_Gaye\n3580. Coffee  \u2014  http:\/\/en.wikipedia.org.\/wiki\/Coffee\n3581. Kylie Minogue  \u2014  http:\/\/en.wikipedia.org.\/wiki\/Kylie_Minogue\n3582. Penicillin  \u2014  http:\/\/en.wikipedia.org.\/wiki\/Penicillin\n3583. List of British monarchs  \u2014  http:\/\/en.wikipedia.org.\/wiki\/List_of_British_monarchs\n3584. Louise Linton  \u2014  http:\/\/en.wikipedia.org.\/wiki\/Louise_Linton\n3585. Tekken 7  \u2014  http:\/\/en.wikipedia.org.\/wiki\/Tekken_7\n3586. Jon Snow (character)  \u2014  http:\/\/en.wikipedia.org.\/wiki\/Jon_Snow_(character)\n3587. Becky G  \u2014  http:\/\/en.wikipedia.org.\/wiki\/Becky_G\n3588. Escherichia coli  \u2014  http:\/\/en.wikipedia.org.\/wiki\/Escherichia_coli\n3589. Emily Browning  \u2014  http:\/\/en.wikipedia.org.\/wiki\/Emily_Browning\n3590. Disappearance of Natalee Holloway  \u2014  http:\/\/en.wikipedia.org.\/wiki\/Disappearance_of_Natalee_Holloway\n3591. Skam (TV series)  \u2014  http:\/\/en.wikipedia.org.\/wiki\/Skam_(TV_series)\n3592. Maria Sharapova  \u2014  http:\/\/en.wikipedia.org.\/wiki\/Maria_Sharapova\n3593. Edge of Tomorrow  \u2014  http:\/\/en.wikipedia.org.\/wiki\/Edge_of_Tomorrow\n3594. Aaron Taylor-Johnson  \u2014  http:\/\/en.wikipedia.org.\/wiki\/Aaron_Taylor-Johnson\n3595. Marcus Aurelius  \u2014  http:\/\/en.wikipedia.org.\/wiki\/Marcus_Aurelius\n3596. Ohm's law  \u2014  http:\/\/en.wikipedia.org.\/wiki\/Ohm's_law\n3597. Easter Island  \u2014  http:\/\/en.wikipedia.org.\/wiki\/Easter_Island\n3598. Teenage Mutant Ninja Turtles  \u2014  http:\/\/en.wikipedia.org.\/wiki\/Teenage_Mutant_Ninja_Turtles\n3599. Anthony Eden  \u2014  http:\/\/en.wikipedia.org.\/wiki\/Anthony_Eden\n","miniList":"3500. Murder of Seth Rich\n3501. Elle Fanning\n3502. Electoral College (United States)\n3503. Mariana Trench\n3504. Stephen Fry\n3505. League of Legends\n3506. Responsibility assignment matrix\n3507. James Baldwin\n3508. Lead\n3509. Unmanned aerial vehicle\n3510. United States presidential election, 2004\n3511. Robert Redford\n3512. VAT identification number\n3513. Sildenafil\n3514. Miss Universe 2017\n3515. Panama Canal\n3516. Kodak Black\n3517. ADX Florence\n3518. Sodium hydroxide\n3519. The New Mutants (film)\n3520. Ariel Winter\n3521. Gregg Allman\n3522. Pythagorean theorem\n3523. David Attenborough\n3524. Arduino\n3525. Ada Lovelace\n3526. Christina Ricci\n3527. Portia de Rossi\n3528. Deadpool 2\n3529. Human rights\n3530. International Women's Day\n3531. Warcraft (film)\n3532. The Departed\n3533. Fungus\n3534. Burt Reynolds\n3535. San Diego\n3536. Daddy Yankee\n3537. Margaret Atwood\n3538. PlayStation 2\n3539. Nibiru cataclysm\n3540. Elisabeth Shue\n3541. G-Eazy\n3542. Black Lives Matter\n3543. Chicago P.D. (TV series)\n3544. Guatemala\n3545. List of solar eclipses in the 21st century\n3546. List of It's Always Sunny in Philadelphia episodes\n3547. Cortisol\n3548. List of Disney Channel original films\n3549. Laverne Cox\n3550. Customer relationship management\n3551. Hayden Panettiere\n3552. Banksy\n3553. Botswana\n3554. Goldman Sachs\n3555. North Carolina\n3556. Nancy Kerrigan\n3557. Oldest people\n3558. 2011 NBA draft\n3559. Vince McMahon\n3560. Jamie Bell\n3561. Rod Stewart\n3562. The Ranch (TV series)\n3563. Glycerol\n3564. Maize\n3565. Ex Machina (film)\n3566. Kung Fu Yoga\n3567. Computer hardware\n3568. Sagrada Fam\u00EDlia\n3569. Kerala\n3570. Smallpox\n3571. Analysis of variance\n3572. Crimea\n3573. Matrix multiplication\n3574. Hannibal\n3575. Cognitive dissonance\n3576. Maddie Ziegler\n3577. Caribbean\n3578. Memorial Day\n3579. Marvin Gaye\n3580. Coffee\n3581. Kylie Minogue\n3582. Penicillin\n3583. List of British monarchs\n3584. Louise Linton\n3585. Tekken 7\n3586. Jon Snow (character)\n3587. Becky G\n3588. Escherichia coli\n3589. Emily Browning\n3590. Disappearance of Natalee Holloway\n3591. Skam (TV series)\n3592. Maria Sharapova\n3593. Edge of Tomorrow\n3594. Aaron Taylor-Johnson\n3595. Marcus Aurelius\n3596. Ohm's law\n3597. Easter Island\n3598. Teenage Mutant Ninja Turtles\n3599. Anthony Eden\n"}
