{"start":3601,"end":3700,"count":5616717,"type":"pageviews","pageSize":100,"page":36,"pages":56168,"columns":[{"label":"","property":"pageviews","sortable":false}],"items":[{"pageviews":"3600. <a target=\"_blank\" href=\"http://en.wikipedia.org./wiki/Titanium\">Titanium</a>"},{"pageviews":"3601. <a target=\"_blank\" href=\"http://en.wikipedia.org./wiki/Sodium\">Sodium</a>"},{"pageviews":"3602. <a target=\"_blank\" href=\"http://en.wikipedia.org./wiki/Divergent_(film)\">Divergent (film)</a>"},{"pageviews":"3603. <a target=\"_blank\" href=\"http://en.wikipedia.org./wiki/Bill_Belichick\">Bill Belichick</a>"},{"pageviews":"3604. <a target=\"_blank\" href=\"http://en.wikipedia.org./wiki/Jennifer_Jason_Leigh\">Jennifer Jason Leigh</a>"},{"pageviews":"3605. <a target=\"_blank\" href=\"http://en.wikipedia.org./wiki/Jainism\">Jainism</a>"},{"pageviews":"3606. <a target=\"_blank\" href=\"http://en.wikipedia.org./wiki/British_Columbia\">British Columbia</a>"},{"pageviews":"3607. <a target=\"_blank\" href=\"http://en.wikipedia.org./wiki/Lockheed_C-130_Hercules\">Lockheed C-130 Hercules</a>"},{"pageviews":"3608. <a target=\"_blank\" href=\"http://en.wikipedia.org./wiki/Cognitive_behavioral_therapy\">Cognitive behavioral therapy</a>"},{"pageviews":"3609. <a target=\"_blank\" href=\"http://en.wikipedia.org./wiki/Hayden_Christensen\">Hayden Christensen</a>"},{"pageviews":"3610. <a target=\"_blank\" href=\"http://en.wikipedia.org./wiki/Mikoyan_MiG-29\">Mikoyan MiG-29</a>"},{"pageviews":"3611. <a target=\"_blank\" href=\"http://en.wikipedia.org./wiki/Larry_Bird\">Larry Bird</a>"},{"pageviews":"3612. <a target=\"_blank\" href=\"http://en.wikipedia.org./wiki/Zoophilia\">Zoophilia</a>"},{"pageviews":"3613. <a target=\"_blank\" href=\"http://en.wikipedia.org./wiki/William_Henry_Harrison\">William Henry Harrison</a>"},{"pageviews":"3614. <a target=\"_blank\" href=\"http://en.wikipedia.org./wiki/David_Fincher\">David Fincher</a>"},{"pageviews":"3615. <a target=\"_blank\" href=\"http://en.wikipedia.org./wiki/PubMed\">PubMed</a>"},{"pageviews":"3616. <a target=\"_blank\" href=\"http://en.wikipedia.org./wiki/Civil_Rights_Act_of_1964\">Civil Rights Act of 1964</a>"},{"pageviews":"3617. <a target=\"_blank\" href=\"http://en.wikipedia.org./wiki/Pepe_the_Frog\">Pepe the Frog</a>"},{"pageviews":"3618. <a target=\"_blank\" href=\"http://en.wikipedia.org./wiki/2017_CONCACAF_Gold_Cup\">2017 CONCACAF Gold Cup</a>"},{"pageviews":"3619. <a target=\"_blank\" href=\"http://en.wikipedia.org./wiki/Glee_(TV_series)\">Glee (TV series)</a>"},{"pageviews":"3620. <a target=\"_blank\" href=\"http://en.wikipedia.org./wiki/Hamburg\">Hamburg</a>"},{"pageviews":"3621. <a target=\"_blank\" href=\"http://en.wikipedia.org./wiki/Chicago_Fire_(TV_series)\">Chicago Fire (TV series)</a>"},{"pageviews":"3622. <a target=\"_blank\" href=\"http://en.wikipedia.org./wiki/Hurricane_Sandy\">Hurricane Sandy</a>"},{"pageviews":"3623. <a target=\"_blank\" href=\"http://en.wikipedia.org./wiki/AFC_Ajax\">AFC Ajax</a>"},{"pageviews":"3624. <a target=\"_blank\" href=\"http://en.wikipedia.org./wiki/Solo:_A_Star_Wars_Story\">Solo: A Star Wars Story</a>"},{"pageviews":"3625. <a target=\"_blank\" href=\"http://en.wikipedia.org./wiki/The_Last_Man_on_Earth_(TV_series)\">The Last Man on Earth (TV series)</a>"},{"pageviews":"3626. <a target=\"_blank\" href=\"http://en.wikipedia.org./wiki/Quakers\">Quakers</a>"},{"pageviews":"3627. <a target=\"_blank\" href=\"http://en.wikipedia.org./wiki/Volkswagen_Group\">Volkswagen Group</a>"},{"pageviews":"3628. <a target=\"_blank\" href=\"http://en.wikipedia.org./wiki/Hydrogen_peroxide\">Hydrogen peroxide</a>"},{"pageviews":"3629. <a target=\"_blank\" href=\"http://en.wikipedia.org./wiki/Robert_Pattinson\">Robert Pattinson</a>"},{"pageviews":"3630. <a target=\"_blank\" href=\"http://en.wikipedia.org./wiki/James_Stewart\">James Stewart</a>"},{"pageviews":"3631. <a target=\"_blank\" href=\"http://en.wikipedia.org./wiki/B._R._Ambedkar\">B. R. Ambedkar</a>"},{"pageviews":"3632. <a target=\"_blank\" href=\"http://en.wikipedia.org./wiki/Bloodline_(TV_series)\">Bloodline (TV series)</a>"},{"pageviews":"3633. <a target=\"_blank\" href=\"http://en.wikipedia.org./wiki/Sufism\">Sufism</a>"},{"pageviews":"3634. <a target=\"_blank\" href=\"http://en.wikipedia.org./wiki/Carbohydrate\">Carbohydrate</a>"},{"pageviews":"3635. <a target=\"_blank\" href=\"http://en.wikipedia.org./wiki/International_System_of_Units\">International System of Units</a>"},{"pageviews":"3636. <a target=\"_blank\" href=\"http://en.wikipedia.org./wiki/Battle_of_Gettysburg\">Battle of Gettysburg</a>"},{"pageviews":"3637. <a target=\"_blank\" href=\"http://en.wikipedia.org./wiki/Utilitarianism\">Utilitarianism</a>"},{"pageviews":"3638. <a target=\"_blank\" href=\"http://en.wikipedia.org./wiki/Syd_Barrett\">Syd Barrett</a>"},{"pageviews":"3639. <a target=\"_blank\" href=\"http://en.wikipedia.org./wiki/Rob_Lowe\">Rob Lowe</a>"},{"pageviews":"3640. <a target=\"_blank\" href=\"http://en.wikipedia.org./wiki/Boyd_Holbrook\">Boyd Holbrook</a>"},{"pageviews":"3641. <a target=\"_blank\" href=\"http://en.wikipedia.org./wiki/PlayStation_3\">PlayStation 3</a>"},{"pageviews":"3642. <a target=\"_blank\" href=\"http://en.wikipedia.org./wiki/Wayne_Gretzky\">Wayne Gretzky</a>"},{"pageviews":"3643. <a target=\"_blank\" href=\"http://en.wikipedia.org./wiki/Nobel_Prize\">Nobel Prize</a>"},{"pageviews":"3644. <a target=\"_blank\" href=\"http://en.wikipedia.org./wiki/Larry_David\">Larry David</a>"},{"pageviews":"3645. <a target=\"_blank\" href=\"http://en.wikipedia.org./wiki/Indiana_Jones_(franchise)\">Indiana Jones (franchise)</a>"},{"pageviews":"3646. <a target=\"_blank\" href=\"http://en.wikipedia.org./wiki/Radio-frequency_identification\">Radio-frequency identification</a>"},{"pageviews":"3647. <a target=\"_blank\" href=\"http://en.wikipedia.org./wiki/Michigan\">Michigan</a>"},{"pageviews":"3648. <a target=\"_blank\" href=\"http://en.wikipedia.org./wiki/Dwyane_Wade\">Dwyane Wade</a>"},{"pageviews":"3649. <a target=\"_blank\" href=\"http://en.wikipedia.org./wiki/Love_Actually\">Love Actually</a>"},{"pageviews":"3650. <a target=\"_blank\" href=\"http://en.wikipedia.org./wiki/Once_Upon_a_Time_(season_6)\">Once Upon a Time (season 6)</a>"},{"pageviews":"3651. <a target=\"_blank\" href=\"http://en.wikipedia.org./wiki/Gwendoline_Christie\">Gwendoline Christie</a>"},{"pageviews":"3652. <a target=\"_blank\" href=\"http://en.wikipedia.org./wiki/Riz_Ahmed\">Riz Ahmed</a>"},{"pageviews":"3653. <a target=\"_blank\" href=\"http://en.wikipedia.org./wiki/D._B._Cooper\">D. B. Cooper</a>"},{"pageviews":"3654. <a target=\"_blank\" href=\"http://en.wikipedia.org./wiki/Sunni_Islam\">Sunni Islam</a>"},{"pageviews":"3655. <a target=\"_blank\" href=\"http://en.wikipedia.org./wiki/List_of_best-selling_albums\">List of best-selling albums</a>"},{"pageviews":"3656. <a target=\"_blank\" href=\"http://en.wikipedia.org./wiki/WWE_Great_Balls_of_Fire\">WWE Great Balls of Fire</a>"},{"pageviews":"3657. <a target=\"_blank\" href=\"http://en.wikipedia.org./wiki/Playboy\">Playboy</a>"},{"pageviews":"3658. <a target=\"_blank\" href=\"http://en.wikipedia.org./wiki/Celts\">Celts</a>"},{"pageviews":"3659. <a target=\"_blank\" href=\"http://en.wikipedia.org./wiki/Chennai\">Chennai</a>"},{"pageviews":"3660. <a target=\"_blank\" href=\"http://en.wikipedia.org./wiki/BuzzFeed\">BuzzFeed</a>"},{"pageviews":"3661. <a target=\"_blank\" href=\"http://en.wikipedia.org./wiki/Nicolaus_Copernicus\">Nicolaus Copernicus</a>"},{"pageviews":"3662. <a target=\"_blank\" href=\"http://en.wikipedia.org./wiki/Thirteen_Colonies\">Thirteen Colonies</a>"},{"pageviews":"3663. <a target=\"_blank\" href=\"http://en.wikipedia.org./wiki/Hypertension\">Hypertension</a>"},{"pageviews":"3664. <a target=\"_blank\" href=\"http://en.wikipedia.org./wiki/Ben_Foster\">Ben Foster</a>"},{"pageviews":"3665. <a target=\"_blank\" href=\"http://en.wikipedia.org./wiki/Hundred_Years'_War\">Hundred Years' War</a>"},{"pageviews":"3666. <a target=\"_blank\" href=\"http://en.wikipedia.org./wiki/SZA_(singer)\">SZA (singer)</a>"},{"pageviews":"3667. <a target=\"_blank\" href=\"http://en.wikipedia.org./wiki/Hope_Hicks\">Hope Hicks</a>"},{"pageviews":"3668. <a target=\"_blank\" href=\"http://en.wikipedia.org./wiki/Neon_Genesis_Evangelion\">Neon Genesis Evangelion</a>"},{"pageviews":"3669. <a target=\"_blank\" href=\"http://en.wikipedia.org./wiki/Paulo_Dybala\">Paulo Dybala</a>"},{"pageviews":"3670. <a target=\"_blank\" href=\"http://en.wikipedia.org./wiki/Maya_Angelou\">Maya Angelou</a>"},{"pageviews":"3671. <a target=\"_blank\" href=\"http://en.wikipedia.org./wiki/Top_Gear_(2002_TV_series)\">Top Gear (2002 TV series)</a>"},{"pageviews":"3672. <a target=\"_blank\" href=\"http://en.wikipedia.org./wiki/Copenhagen\">Copenhagen</a>"},{"pageviews":"3673. <a target=\"_blank\" href=\"http://en.wikipedia.org./wiki/2012_Benghazi_attack\">2012 Benghazi attack</a>"},{"pageviews":"3674. <a target=\"_blank\" href=\"http://en.wikipedia.org./wiki/Solid-state_drive\">Solid-state drive</a>"},{"pageviews":"3675. <a target=\"_blank\" href=\"http://en.wikipedia.org./wiki/Crazy_Ex-Girlfriend_(TV_series)\">Crazy Ex-Girlfriend (TV series)</a>"},{"pageviews":"3676. <a target=\"_blank\" href=\"http://en.wikipedia.org./wiki/Paris_Hilton\">Paris Hilton</a>"},{"pageviews":"3677. <a target=\"_blank\" href=\"http://en.wikipedia.org./wiki/The_Sims\">The Sims</a>"},{"pageviews":"3678. <a target=\"_blank\" href=\"http://en.wikipedia.org./wiki/Adobe_Flash_Player\">Adobe Flash Player</a>"},{"pageviews":"3679. <a target=\"_blank\" href=\"http://en.wikipedia.org./wiki/Edgar_Wright\">Edgar Wright</a>"},{"pageviews":"3680. <a target=\"_blank\" href=\"http://en.wikipedia.org./wiki/Russell_Crowe\">Russell Crowe</a>"},{"pageviews":"3681. <a target=\"_blank\" href=\"http://en.wikipedia.org./wiki/Dionysus\">Dionysus</a>"},{"pageviews":"3682. <a target=\"_blank\" href=\"http://en.wikipedia.org./wiki/Phoenix%2C_Arizona\">Phoenix, Arizona</a>"},{"pageviews":"3683. <a target=\"_blank\" href=\"http://en.wikipedia.org./wiki/Sienna_Miller\">Sienna Miller</a>"},{"pageviews":"3684. <a target=\"_blank\" href=\"http://en.wikipedia.org./wiki/Serotonin\">Serotonin</a>"},{"pageviews":"3685. <a target=\"_blank\" href=\"http://en.wikipedia.org./wiki/McDonnell_Douglas_F-15_Eagle\">McDonnell Douglas F-15 Eagle</a>"},{"pageviews":"3686. <a target=\"_blank\" href=\"http://en.wikipedia.org./wiki/Afrikaans\">Afrikaans</a>"},{"pageviews":"3687. <a target=\"_blank\" href=\"http://en.wikipedia.org./wiki/Medal_of_Honor\">Medal of Honor</a>"},{"pageviews":"3688. <a target=\"_blank\" href=\"http://en.wikipedia.org./wiki/Household_income_in_the_United_States\">Household income in the United States</a>"},{"pageviews":"3689. <a target=\"_blank\" href=\"http://en.wikipedia.org./wiki/Niall_Horan\">Niall Horan</a>"},{"pageviews":"3690. <a target=\"_blank\" href=\"http://en.wikipedia.org./wiki/Pol_Pot\">Pol Pot</a>"},{"pageviews":"3691. <a target=\"_blank\" href=\"http://en.wikipedia.org./wiki/Trojan_horse_(computing)\">Trojan horse (computing)</a>"},{"pageviews":"3692. <a target=\"_blank\" href=\"http://en.wikipedia.org./wiki/Acetic_acid\">Acetic acid</a>"},{"pageviews":"3693. <a target=\"_blank\" href=\"http://en.wikipedia.org./wiki/Emu_War\">Emu War</a>"},{"pageviews":"3694. <a target=\"_blank\" href=\"http://en.wikipedia.org./wiki/Spider-Man_in_film\">Spider-Man in film</a>"},{"pageviews":"3695. <a target=\"_blank\" href=\"http://en.wikipedia.org./wiki/August_Ames\">August Ames</a>"},{"pageviews":"3696. <a target=\"_blank\" href=\"http://en.wikipedia.org./wiki/Battle_of_Raqqa_(2017)\">Battle of Raqqa (2017)</a>"},{"pageviews":"3697. <a target=\"_blank\" href=\"http://en.wikipedia.org./wiki/Posttraumatic_stress_disorder\">Posttraumatic stress disorder</a>"},{"pageviews":"3698. <a target=\"_blank\" href=\"http://en.wikipedia.org./wiki/Toy_Story_(franchise)\">Toy Story (franchise)</a>"},{"pageviews":"3699. <a target=\"_blank\" href=\"http://en.wikipedia.org./wiki/Dominica\">Dominica</a>"}],"list":"3600. Titanium  \u2014  http:\/\/en.wikipedia.org.\/wiki\/Titanium\n3601. Sodium  \u2014  http:\/\/en.wikipedia.org.\/wiki\/Sodium\n3602. Divergent (film)  \u2014  http:\/\/en.wikipedia.org.\/wiki\/Divergent_(film)\n3603. Bill Belichick  \u2014  http:\/\/en.wikipedia.org.\/wiki\/Bill_Belichick\n3604. Jennifer Jason Leigh  \u2014  http:\/\/en.wikipedia.org.\/wiki\/Jennifer_Jason_Leigh\n3605. Jainism  \u2014  http:\/\/en.wikipedia.org.\/wiki\/Jainism\n3606. British Columbia  \u2014  http:\/\/en.wikipedia.org.\/wiki\/British_Columbia\n3607. Lockheed C-130 Hercules  \u2014  http:\/\/en.wikipedia.org.\/wiki\/Lockheed_C-130_Hercules\n3608. Cognitive behavioral therapy  \u2014  http:\/\/en.wikipedia.org.\/wiki\/Cognitive_behavioral_therapy\n3609. Hayden Christensen  \u2014  http:\/\/en.wikipedia.org.\/wiki\/Hayden_Christensen\n3610. Mikoyan MiG-29  \u2014  http:\/\/en.wikipedia.org.\/wiki\/Mikoyan_MiG-29\n3611. Larry Bird  \u2014  http:\/\/en.wikipedia.org.\/wiki\/Larry_Bird\n3612. Zoophilia  \u2014  http:\/\/en.wikipedia.org.\/wiki\/Zoophilia\n3613. William Henry Harrison  \u2014  http:\/\/en.wikipedia.org.\/wiki\/William_Henry_Harrison\n3614. David Fincher  \u2014  http:\/\/en.wikipedia.org.\/wiki\/David_Fincher\n3615. PubMed  \u2014  http:\/\/en.wikipedia.org.\/wiki\/PubMed\n3616. Civil Rights Act of 1964  \u2014  http:\/\/en.wikipedia.org.\/wiki\/Civil_Rights_Act_of_1964\n3617. Pepe the Frog  \u2014  http:\/\/en.wikipedia.org.\/wiki\/Pepe_the_Frog\n3618. 2017 CONCACAF Gold Cup  \u2014  http:\/\/en.wikipedia.org.\/wiki\/2017_CONCACAF_Gold_Cup\n3619. Glee (TV series)  \u2014  http:\/\/en.wikipedia.org.\/wiki\/Glee_(TV_series)\n3620. Hamburg  \u2014  http:\/\/en.wikipedia.org.\/wiki\/Hamburg\n3621. Chicago Fire (TV series)  \u2014  http:\/\/en.wikipedia.org.\/wiki\/Chicago_Fire_(TV_series)\n3622. Hurricane Sandy  \u2014  http:\/\/en.wikipedia.org.\/wiki\/Hurricane_Sandy\n3623. AFC Ajax  \u2014  http:\/\/en.wikipedia.org.\/wiki\/AFC_Ajax\n3624. Solo: A Star Wars Story  \u2014  http:\/\/en.wikipedia.org.\/wiki\/Solo:_A_Star_Wars_Story\n3625. The Last Man on Earth (TV series)  \u2014  http:\/\/en.wikipedia.org.\/wiki\/The_Last_Man_on_Earth_(TV_series)\n3626. Quakers  \u2014  http:\/\/en.wikipedia.org.\/wiki\/Quakers\n3627. Volkswagen Group  \u2014  http:\/\/en.wikipedia.org.\/wiki\/Volkswagen_Group\n3628. Hydrogen peroxide  \u2014  http:\/\/en.wikipedia.org.\/wiki\/Hydrogen_peroxide\n3629. Robert Pattinson  \u2014  http:\/\/en.wikipedia.org.\/wiki\/Robert_Pattinson\n3630. James Stewart  \u2014  http:\/\/en.wikipedia.org.\/wiki\/James_Stewart\n3631. B. R. Ambedkar  \u2014  http:\/\/en.wikipedia.org.\/wiki\/B._R._Ambedkar\n3632. Bloodline (TV series)  \u2014  http:\/\/en.wikipedia.org.\/wiki\/Bloodline_(TV_series)\n3633. Sufism  \u2014  http:\/\/en.wikipedia.org.\/wiki\/Sufism\n3634. Carbohydrate  \u2014  http:\/\/en.wikipedia.org.\/wiki\/Carbohydrate\n3635. International System of Units  \u2014  http:\/\/en.wikipedia.org.\/wiki\/International_System_of_Units\n3636. Battle of Gettysburg  \u2014  http:\/\/en.wikipedia.org.\/wiki\/Battle_of_Gettysburg\n3637. Utilitarianism  \u2014  http:\/\/en.wikipedia.org.\/wiki\/Utilitarianism\n3638. Syd Barrett  \u2014  http:\/\/en.wikipedia.org.\/wiki\/Syd_Barrett\n3639. Rob Lowe  \u2014  http:\/\/en.wikipedia.org.\/wiki\/Rob_Lowe\n3640. Boyd Holbrook  \u2014  http:\/\/en.wikipedia.org.\/wiki\/Boyd_Holbrook\n3641. PlayStation 3  \u2014  http:\/\/en.wikipedia.org.\/wiki\/PlayStation_3\n3642. Wayne Gretzky  \u2014  http:\/\/en.wikipedia.org.\/wiki\/Wayne_Gretzky\n3643. Nobel Prize  \u2014  http:\/\/en.wikipedia.org.\/wiki\/Nobel_Prize\n3644. Larry David  \u2014  http:\/\/en.wikipedia.org.\/wiki\/Larry_David\n3645. Indiana Jones (franchise)  \u2014  http:\/\/en.wikipedia.org.\/wiki\/Indiana_Jones_(franchise)\n3646. Radio-frequency identification  \u2014  http:\/\/en.wikipedia.org.\/wiki\/Radio-frequency_identification\n3647. Michigan  \u2014  http:\/\/en.wikipedia.org.\/wiki\/Michigan\n3648. Dwyane Wade  \u2014  http:\/\/en.wikipedia.org.\/wiki\/Dwyane_Wade\n3649. Love Actually  \u2014  http:\/\/en.wikipedia.org.\/wiki\/Love_Actually\n3650. Once Upon a Time (season 6)  \u2014  http:\/\/en.wikipedia.org.\/wiki\/Once_Upon_a_Time_(season_6)\n3651. Gwendoline Christie  \u2014  http:\/\/en.wikipedia.org.\/wiki\/Gwendoline_Christie\n3652. Riz Ahmed  \u2014  http:\/\/en.wikipedia.org.\/wiki\/Riz_Ahmed\n3653. D. B. Cooper  \u2014  http:\/\/en.wikipedia.org.\/wiki\/D._B._Cooper\n3654. Sunni Islam  \u2014  http:\/\/en.wikipedia.org.\/wiki\/Sunni_Islam\n3655. List of best-selling albums  \u2014  http:\/\/en.wikipedia.org.\/wiki\/List_of_best-selling_albums\n3656. WWE Great Balls of Fire  \u2014  http:\/\/en.wikipedia.org.\/wiki\/WWE_Great_Balls_of_Fire\n3657. Playboy  \u2014  http:\/\/en.wikipedia.org.\/wiki\/Playboy\n3658. Celts  \u2014  http:\/\/en.wikipedia.org.\/wiki\/Celts\n3659. Chennai  \u2014  http:\/\/en.wikipedia.org.\/wiki\/Chennai\n3660. BuzzFeed  \u2014  http:\/\/en.wikipedia.org.\/wiki\/BuzzFeed\n3661. Nicolaus Copernicus  \u2014  http:\/\/en.wikipedia.org.\/wiki\/Nicolaus_Copernicus\n3662. Thirteen Colonies  \u2014  http:\/\/en.wikipedia.org.\/wiki\/Thirteen_Colonies\n3663. Hypertension  \u2014  http:\/\/en.wikipedia.org.\/wiki\/Hypertension\n3664. Ben Foster  \u2014  http:\/\/en.wikipedia.org.\/wiki\/Ben_Foster\n3665. Hundred Years' War  \u2014  http:\/\/en.wikipedia.org.\/wiki\/Hundred_Years'_War\n3666. SZA (singer)  \u2014  http:\/\/en.wikipedia.org.\/wiki\/SZA_(singer)\n3667. Hope Hicks  \u2014  http:\/\/en.wikipedia.org.\/wiki\/Hope_Hicks\n3668. Neon Genesis Evangelion  \u2014  http:\/\/en.wikipedia.org.\/wiki\/Neon_Genesis_Evangelion\n3669. Paulo Dybala  \u2014  http:\/\/en.wikipedia.org.\/wiki\/Paulo_Dybala\n3670. Maya Angelou  \u2014  http:\/\/en.wikipedia.org.\/wiki\/Maya_Angelou\n3671. Top Gear (2002 TV series)  \u2014  http:\/\/en.wikipedia.org.\/wiki\/Top_Gear_(2002_TV_series)\n3672. Copenhagen  \u2014  http:\/\/en.wikipedia.org.\/wiki\/Copenhagen\n3673. 2012 Benghazi attack  \u2014  http:\/\/en.wikipedia.org.\/wiki\/2012_Benghazi_attack\n3674. Solid-state drive  \u2014  http:\/\/en.wikipedia.org.\/wiki\/Solid-state_drive\n3675. Crazy Ex-Girlfriend (TV series)  \u2014  http:\/\/en.wikipedia.org.\/wiki\/Crazy_Ex-Girlfriend_(TV_series)\n3676. Paris Hilton  \u2014  http:\/\/en.wikipedia.org.\/wiki\/Paris_Hilton\n3677. The Sims  \u2014  http:\/\/en.wikipedia.org.\/wiki\/The_Sims\n3678. Adobe Flash Player  \u2014  http:\/\/en.wikipedia.org.\/wiki\/Adobe_Flash_Player\n3679. Edgar Wright  \u2014  http:\/\/en.wikipedia.org.\/wiki\/Edgar_Wright\n3680. Russell Crowe  \u2014  http:\/\/en.wikipedia.org.\/wiki\/Russell_Crowe\n3681. Dionysus  \u2014  http:\/\/en.wikipedia.org.\/wiki\/Dionysus\n3682. Phoenix, Arizona  \u2014  http:\/\/en.wikipedia.org.\/wiki\/Phoenix%2C_Arizona\n3683. Sienna Miller  \u2014  http:\/\/en.wikipedia.org.\/wiki\/Sienna_Miller\n3684. Serotonin  \u2014  http:\/\/en.wikipedia.org.\/wiki\/Serotonin\n3685. McDonnell Douglas F-15 Eagle  \u2014  http:\/\/en.wikipedia.org.\/wiki\/McDonnell_Douglas_F-15_Eagle\n3686. Afrikaans  \u2014  http:\/\/en.wikipedia.org.\/wiki\/Afrikaans\n3687. Medal of Honor  \u2014  http:\/\/en.wikipedia.org.\/wiki\/Medal_of_Honor\n3688. Household income in the United States  \u2014  http:\/\/en.wikipedia.org.\/wiki\/Household_income_in_the_United_States\n3689. Niall Horan  \u2014  http:\/\/en.wikipedia.org.\/wiki\/Niall_Horan\n3690. Pol Pot  \u2014  http:\/\/en.wikipedia.org.\/wiki\/Pol_Pot\n3691. Trojan horse (computing)  \u2014  http:\/\/en.wikipedia.org.\/wiki\/Trojan_horse_(computing)\n3692. Acetic acid  \u2014  http:\/\/en.wikipedia.org.\/wiki\/Acetic_acid\n3693. Emu War  \u2014  http:\/\/en.wikipedia.org.\/wiki\/Emu_War\n3694. Spider-Man in film  \u2014  http:\/\/en.wikipedia.org.\/wiki\/Spider-Man_in_film\n3695. August Ames  \u2014  http:\/\/en.wikipedia.org.\/wiki\/August_Ames\n3696. Battle of Raqqa (2017)  \u2014  http:\/\/en.wikipedia.org.\/wiki\/Battle_of_Raqqa_(2017)\n3697. Posttraumatic stress disorder  \u2014  http:\/\/en.wikipedia.org.\/wiki\/Posttraumatic_stress_disorder\n3698. Toy Story (franchise)  \u2014  http:\/\/en.wikipedia.org.\/wiki\/Toy_Story_(franchise)\n3699. Dominica  \u2014  http:\/\/en.wikipedia.org.\/wiki\/Dominica\n","miniList":"3600. Titanium\n3601. Sodium\n3602. Divergent (film)\n3603. Bill Belichick\n3604. Jennifer Jason Leigh\n3605. Jainism\n3606. British Columbia\n3607. Lockheed C-130 Hercules\n3608. Cognitive behavioral therapy\n3609. Hayden Christensen\n3610. Mikoyan MiG-29\n3611. Larry Bird\n3612. Zoophilia\n3613. William Henry Harrison\n3614. David Fincher\n3615. PubMed\n3616. Civil Rights Act of 1964\n3617. Pepe the Frog\n3618. 2017 CONCACAF Gold Cup\n3619. Glee (TV series)\n3620. Hamburg\n3621. Chicago Fire (TV series)\n3622. Hurricane Sandy\n3623. AFC Ajax\n3624. Solo: A Star Wars Story\n3625. The Last Man on Earth (TV series)\n3626. Quakers\n3627. Volkswagen Group\n3628. Hydrogen peroxide\n3629. Robert Pattinson\n3630. James Stewart\n3631. B. R. Ambedkar\n3632. Bloodline (TV series)\n3633. Sufism\n3634. Carbohydrate\n3635. International System of Units\n3636. Battle of Gettysburg\n3637. Utilitarianism\n3638. Syd Barrett\n3639. Rob Lowe\n3640. Boyd Holbrook\n3641. PlayStation 3\n3642. Wayne Gretzky\n3643. Nobel Prize\n3644. Larry David\n3645. Indiana Jones (franchise)\n3646. Radio-frequency identification\n3647. Michigan\n3648. Dwyane Wade\n3649. Love Actually\n3650. Once Upon a Time (season 6)\n3651. Gwendoline Christie\n3652. Riz Ahmed\n3653. D. B. Cooper\n3654. Sunni Islam\n3655. List of best-selling albums\n3656. WWE Great Balls of Fire\n3657. Playboy\n3658. Celts\n3659. Chennai\n3660. BuzzFeed\n3661. Nicolaus Copernicus\n3662. Thirteen Colonies\n3663. Hypertension\n3664. Ben Foster\n3665. Hundred Years' War\n3666. SZA (singer)\n3667. Hope Hicks\n3668. Neon Genesis Evangelion\n3669. Paulo Dybala\n3670. Maya Angelou\n3671. Top Gear (2002 TV series)\n3672. Copenhagen\n3673. 2012 Benghazi attack\n3674. Solid-state drive\n3675. Crazy Ex-Girlfriend (TV series)\n3676. Paris Hilton\n3677. The Sims\n3678. Adobe Flash Player\n3679. Edgar Wright\n3680. Russell Crowe\n3681. Dionysus\n3682. Phoenix, Arizona\n3683. Sienna Miller\n3684. Serotonin\n3685. McDonnell Douglas F-15 Eagle\n3686. Afrikaans\n3687. Medal of Honor\n3688. Household income in the United States\n3689. Niall Horan\n3690. Pol Pot\n3691. Trojan horse (computing)\n3692. Acetic acid\n3693. Emu War\n3694. Spider-Man in film\n3695. August Ames\n3696. Battle of Raqqa (2017)\n3697. Posttraumatic stress disorder\n3698. Toy Story (franchise)\n3699. Dominica\n"}
