{"start":3701,"end":3800,"count":5616717,"type":"pageviews","pageSize":100,"page":37,"pages":56168,"columns":[{"label":"","property":"pageviews","sortable":false}],"items":[{"pageviews":"3700. <a target=\"_blank\" href=\"http://en.wikipedia.org./wiki/Prohibition_in_the_United_States\">Prohibition in the United States</a>"},{"pageviews":"3701. <a target=\"_blank\" href=\"http://en.wikipedia.org./wiki/Nairobi\">Nairobi</a>"},{"pageviews":"3702. <a target=\"_blank\" href=\"http://en.wikipedia.org./wiki/R._Kelly\">R. Kelly</a>"},{"pageviews":"3703. <a target=\"_blank\" href=\"http://en.wikipedia.org./wiki/Justice_League_Dark_(film)\">Justice League Dark (film)</a>"},{"pageviews":"3704. <a target=\"_blank\" href=\"http://en.wikipedia.org./wiki/IPv6\">IPv6</a>"},{"pageviews":"3705. <a target=\"_blank\" href=\"http://en.wikipedia.org./wiki/Chronic_traumatic_encephalopathy\">Chronic traumatic encephalopathy</a>"},{"pageviews":"3706. <a target=\"_blank\" href=\"http://en.wikipedia.org./wiki/Boston_Celtics\">Boston Celtics</a>"},{"pageviews":"3707. <a target=\"_blank\" href=\"http://en.wikipedia.org./wiki/Calvin_Harris\">Calvin Harris</a>"},{"pageviews":"3708. <a target=\"_blank\" href=\"http://en.wikipedia.org./wiki/Sustainable_Development_Goals\">Sustainable Development Goals</a>"},{"pageviews":"3709. <a target=\"_blank\" href=\"http://en.wikipedia.org./wiki/Lee_Jong-suk\">Lee Jong-suk</a>"},{"pageviews":"3710. <a target=\"_blank\" href=\"http://en.wikipedia.org./wiki/Birmingham\">Birmingham</a>"},{"pageviews":"3711. <a target=\"_blank\" href=\"http://en.wikipedia.org./wiki/Aleister_Crowley\">Aleister Crowley</a>"},{"pageviews":"3712. <a target=\"_blank\" href=\"http://en.wikipedia.org./wiki/Sukhoi_Su-57\">Sukhoi Su-57</a>"},{"pageviews":"3713. <a target=\"_blank\" href=\"http://en.wikipedia.org./wiki/France_national_football_team\">France national football team</a>"},{"pageviews":"3714. <a target=\"_blank\" href=\"http://en.wikipedia.org./wiki/Streisand_effect\">Streisand effect</a>"},{"pageviews":"3715. <a target=\"_blank\" href=\"http://en.wikipedia.org./wiki/United_States_Attorney_General\">United States Attorney General</a>"},{"pageviews":"3716. <a target=\"_blank\" href=\"http://en.wikipedia.org./wiki/Russian_language\">Russian language</a>"},{"pageviews":"3717. <a target=\"_blank\" href=\"http://en.wikipedia.org./wiki/Gossip_Girl\">Gossip Girl</a>"},{"pageviews":"3718. <a target=\"_blank\" href=\"http://en.wikipedia.org./wiki/Adam_Smith\">Adam Smith</a>"},{"pageviews":"3719. <a target=\"_blank\" href=\"http://en.wikipedia.org./wiki/Subaru_Impreza\">Subaru Impreza</a>"},{"pageviews":"3720. <a target=\"_blank\" href=\"http://en.wikipedia.org./wiki/Micro_Bit\">Micro Bit</a>"},{"pageviews":"3721. <a target=\"_blank\" href=\"http://en.wikipedia.org./wiki/Augmented_reality\">Augmented reality</a>"},{"pageviews":"3722. <a target=\"_blank\" href=\"http://en.wikipedia.org./wiki/Jack_Black\">Jack Black</a>"},{"pageviews":"3723. <a target=\"_blank\" href=\"http://en.wikipedia.org./wiki/John_Denver\">John Denver</a>"},{"pageviews":"3724. <a target=\"_blank\" href=\"http://en.wikipedia.org./wiki/Weimar_Republic\">Weimar Republic</a>"},{"pageviews":"3725. <a target=\"_blank\" href=\"http://en.wikipedia.org./wiki/Pittsburgh\">Pittsburgh</a>"},{"pageviews":"3726. <a target=\"_blank\" href=\"http://en.wikipedia.org./wiki/Athens\">Athens</a>"},{"pageviews":"3727. <a target=\"_blank\" href=\"http://en.wikipedia.org./wiki/Zinc\">Zinc</a>"},{"pageviews":"3728. <a target=\"_blank\" href=\"http://en.wikipedia.org./wiki/Noah_Cyrus\">Noah Cyrus</a>"},{"pageviews":"3729. <a target=\"_blank\" href=\"http://en.wikipedia.org./wiki/Gillian_Anderson\">Gillian Anderson</a>"},{"pageviews":"3730. <a target=\"_blank\" href=\"http://en.wikipedia.org./wiki/Direct_and_indirect_realism\">Direct and indirect realism</a>"},{"pageviews":"3731. <a target=\"_blank\" href=\"http://en.wikipedia.org./wiki/Intel_Core\">Intel Core</a>"},{"pageviews":"3732. <a target=\"_blank\" href=\"http://en.wikipedia.org./wiki/Marshall_Plan\">Marshall Plan</a>"},{"pageviews":"3733. <a target=\"_blank\" href=\"http://en.wikipedia.org./wiki/Aladdin_(1992_Disney_film)\">Aladdin (1992 Disney film)</a>"},{"pageviews":"3734. <a target=\"_blank\" href=\"http://en.wikipedia.org./wiki/Slavery\">Slavery</a>"},{"pageviews":"3735. <a target=\"_blank\" href=\"http://en.wikipedia.org./wiki/Antisemitism\">Antisemitism</a>"},{"pageviews":"3736. <a target=\"_blank\" href=\"http://en.wikipedia.org./wiki/ASAP_Mob\">ASAP Mob</a>"},{"pageviews":"3737. <a target=\"_blank\" href=\"http://en.wikipedia.org./wiki/Andy_Samberg\">Andy Samberg</a>"},{"pageviews":"3738. <a target=\"_blank\" href=\"http://en.wikipedia.org./wiki/2017%E2%80%9318_United_States_network_television_schedule\">2017–18 United States network television schedule</a>"},{"pageviews":"3739. <a target=\"_blank\" href=\"http://en.wikipedia.org./wiki/Adderall\">Adderall</a>"},{"pageviews":"3740. <a target=\"_blank\" href=\"http://en.wikipedia.org./wiki/Aldous_Huxley\">Aldous Huxley</a>"},{"pageviews":"3741. <a target=\"_blank\" href=\"http://en.wikipedia.org./wiki/Jon_Stewart\">Jon Stewart</a>"},{"pageviews":"3742. <a target=\"_blank\" href=\"http://en.wikipedia.org./wiki/Nymphomaniac_(film)\">Nymphomaniac (film)</a>"},{"pageviews":"3743. <a target=\"_blank\" href=\"http://en.wikipedia.org./wiki/Ohio\">Ohio</a>"},{"pageviews":"3744. <a target=\"_blank\" href=\"http://en.wikipedia.org./wiki/The_Belko_Experiment\">The Belko Experiment</a>"},{"pageviews":"3745. <a target=\"_blank\" href=\"http://en.wikipedia.org./wiki/List_of_active_United_States_military_aircraft\">List of active United States military aircraft</a>"},{"pageviews":"3746. <a target=\"_blank\" href=\"http://en.wikipedia.org./wiki/Miles_Davis\">Miles Davis</a>"},{"pageviews":"3747. <a target=\"_blank\" href=\"http://en.wikipedia.org./wiki/Hexadecimal\">Hexadecimal</a>"},{"pageviews":"3748. <a target=\"_blank\" href=\"http://en.wikipedia.org./wiki/Beastie_Boys\">Beastie Boys</a>"},{"pageviews":"3749. <a target=\"_blank\" href=\"http://en.wikipedia.org./wiki/List_of_The_Originals_episodes\">List of The Originals episodes</a>"},{"pageviews":"3750. <a target=\"_blank\" href=\"http://en.wikipedia.org./wiki/Isis\">Isis</a>"},{"pageviews":"3751. <a target=\"_blank\" href=\"http://en.wikipedia.org./wiki/Moab\">Moab</a>"},{"pageviews":"3752. <a target=\"_blank\" href=\"http://en.wikipedia.org./wiki/Norse_mythology\">Norse mythology</a>"},{"pageviews":"3753. <a target=\"_blank\" href=\"http://en.wikipedia.org./wiki/Christopher_Lee\">Christopher Lee</a>"},{"pageviews":"3754. <a target=\"_blank\" href=\"http://en.wikipedia.org./wiki/Skynet_(satellite)\">Skynet (satellite)</a>"},{"pageviews":"3755. <a target=\"_blank\" href=\"http://en.wikipedia.org./wiki/Outlast_2\">Outlast 2</a>"},{"pageviews":"3756. <a target=\"_blank\" href=\"http://en.wikipedia.org./wiki/Philip_K._Dick\">Philip K. Dick</a>"},{"pageviews":"3757. <a target=\"_blank\" href=\"http://en.wikipedia.org./wiki/Zara_Larsson\">Zara Larsson</a>"},{"pageviews":"3758. <a target=\"_blank\" href=\"http://en.wikipedia.org./wiki/List_of_Samurai_Jack_episodes\">List of Samurai Jack episodes</a>"},{"pageviews":"3759. <a target=\"_blank\" href=\"http://en.wikipedia.org./wiki/KFC\">KFC</a>"},{"pageviews":"3760. <a target=\"_blank\" href=\"http://en.wikipedia.org./wiki/Iggy_Azalea\">Iggy Azalea</a>"},{"pageviews":"3761. <a target=\"_blank\" href=\"http://en.wikipedia.org./wiki/Hewlett-Packard\">Hewlett-Packard</a>"},{"pageviews":"3762. <a target=\"_blank\" href=\"http://en.wikipedia.org./wiki/Mr._Bean\">Mr. Bean</a>"},{"pageviews":"3763. <a target=\"_blank\" href=\"http://en.wikipedia.org./wiki/The_Predator_(film)\">The Predator (film)</a>"},{"pageviews":"3764. <a target=\"_blank\" href=\"http://en.wikipedia.org./wiki/John_Goodman\">John Goodman</a>"},{"pageviews":"3765. <a target=\"_blank\" href=\"http://en.wikipedia.org./wiki/Nate_Diaz\">Nate Diaz</a>"},{"pageviews":"3766. <a target=\"_blank\" href=\"http://en.wikipedia.org./wiki/Methanol_(data_page)\">Methanol (data page)</a>"},{"pageviews":"3767. <a target=\"_blank\" href=\"http://en.wikipedia.org./wiki/Sheryl_Sandberg\">Sheryl Sandberg</a>"},{"pageviews":"3768. <a target=\"_blank\" href=\"http://en.wikipedia.org./wiki/Olivia_Newton-John\">Olivia Newton-John</a>"},{"pageviews":"3769. <a target=\"_blank\" href=\"http://en.wikipedia.org./wiki/Uruguay\">Uruguay</a>"},{"pageviews":"3770. <a target=\"_blank\" href=\"http://en.wikipedia.org./wiki/List_of_Grand_Slam_men's_singles_champions\">List of Grand Slam men's singles champions</a>"},{"pageviews":"3771. <a target=\"_blank\" href=\"http://en.wikipedia.org./wiki/Plate_tectonics\">Plate tectonics</a>"},{"pageviews":"3772. <a target=\"_blank\" href=\"http://en.wikipedia.org./wiki/Transformer\">Transformer</a>"},{"pageviews":"3773. <a target=\"_blank\" href=\"http://en.wikipedia.org./wiki/Maryland\">Maryland</a>"},{"pageviews":"3774. <a target=\"_blank\" href=\"http://en.wikipedia.org./wiki/Korean_language\">Korean language</a>"},{"pageviews":"3775. <a target=\"_blank\" href=\"http://en.wikipedia.org./wiki/Matt_LeBlanc\">Matt LeBlanc</a>"},{"pageviews":"3776. <a target=\"_blank\" href=\"http://en.wikipedia.org./wiki/Love\">Love</a>"},{"pageviews":"3777. <a target=\"_blank\" href=\"http://en.wikipedia.org./wiki/LazyTown\">LazyTown</a>"},{"pageviews":"3778. <a target=\"_blank\" href=\"http://en.wikipedia.org./wiki/Psycho_(1960_film)\">Psycho (1960 film)</a>"},{"pageviews":"3779. <a target=\"_blank\" href=\"http://en.wikipedia.org./wiki/Anderson_Cooper\">Anderson Cooper</a>"},{"pageviews":"3780. <a target=\"_blank\" href=\"http://en.wikipedia.org./wiki/Khabib_Nurmagomedov\">Khabib Nurmagomedov</a>"},{"pageviews":"3781. <a target=\"_blank\" href=\"http://en.wikipedia.org./wiki/CNN\">CNN</a>"},{"pageviews":"3782. <a target=\"_blank\" href=\"http://en.wikipedia.org./wiki/Delta_Air_Lines\">Delta Air Lines</a>"},{"pageviews":"3783. <a target=\"_blank\" href=\"http://en.wikipedia.org./wiki/Beowulf\">Beowulf</a>"},{"pageviews":"3784. <a target=\"_blank\" href=\"http://en.wikipedia.org./wiki/Frontier_(2016_TV_series)\">Frontier (2016 TV series)</a>"},{"pageviews":"3785. <a target=\"_blank\" href=\"http://en.wikipedia.org./wiki/HVAC\">HVAC</a>"},{"pageviews":"3786. <a target=\"_blank\" href=\"http://en.wikipedia.org./wiki/List_of_countries_by_military_expenditures\">List of countries by military expenditures</a>"},{"pageviews":"3787. <a target=\"_blank\" href=\"http://en.wikipedia.org./wiki/N%2CN-Dimethyltryptamine\">N,N-Dimethyltryptamine</a>"},{"pageviews":"3788. <a target=\"_blank\" href=\"http://en.wikipedia.org./wiki/Unix\">Unix</a>"},{"pageviews":"3789. <a target=\"_blank\" href=\"http://en.wikipedia.org./wiki/Modernism\">Modernism</a>"},{"pageviews":"3790. <a target=\"_blank\" href=\"http://en.wikipedia.org./wiki/Sarin\">Sarin</a>"},{"pageviews":"3791. <a target=\"_blank\" href=\"http://en.wikipedia.org./wiki/Jon_Favreau\">Jon Favreau</a>"},{"pageviews":"3792. <a target=\"_blank\" href=\"http://en.wikipedia.org./wiki/Top_of_the_Lake\">Top of the Lake</a>"},{"pageviews":"3793. <a target=\"_blank\" href=\"http://en.wikipedia.org./wiki/Rockefeller_family\">Rockefeller family</a>"},{"pageviews":"3794. <a target=\"_blank\" href=\"http://en.wikipedia.org./wiki/Silk_Road_(marketplace)\">Silk Road (marketplace)</a>"},{"pageviews":"3795. <a target=\"_blank\" href=\"http://en.wikipedia.org./wiki/Homosexuality\">Homosexuality</a>"},{"pageviews":"3796. <a target=\"_blank\" href=\"http://en.wikipedia.org./wiki/88th_Academy_Awards\">88th Academy Awards</a>"},{"pageviews":"3797. <a target=\"_blank\" href=\"http://en.wikipedia.org./wiki/Django_Unchained\">Django Unchained</a>"},{"pageviews":"3798. <a target=\"_blank\" href=\"http://en.wikipedia.org./wiki/SHA-2\">SHA-2</a>"},{"pageviews":"3799. <a target=\"_blank\" href=\"http://en.wikipedia.org./wiki/Sean_Young\">Sean Young</a>"}],"list":"3700. Prohibition in the United States  \u2014  http:\/\/en.wikipedia.org.\/wiki\/Prohibition_in_the_United_States\n3701. Nairobi  \u2014  http:\/\/en.wikipedia.org.\/wiki\/Nairobi\n3702. R. Kelly  \u2014  http:\/\/en.wikipedia.org.\/wiki\/R._Kelly\n3703. Justice League Dark (film)  \u2014  http:\/\/en.wikipedia.org.\/wiki\/Justice_League_Dark_(film)\n3704. IPv6  \u2014  http:\/\/en.wikipedia.org.\/wiki\/IPv6\n3705. Chronic traumatic encephalopathy  \u2014  http:\/\/en.wikipedia.org.\/wiki\/Chronic_traumatic_encephalopathy\n3706. Boston Celtics  \u2014  http:\/\/en.wikipedia.org.\/wiki\/Boston_Celtics\n3707. Calvin Harris  \u2014  http:\/\/en.wikipedia.org.\/wiki\/Calvin_Harris\n3708. Sustainable Development Goals  \u2014  http:\/\/en.wikipedia.org.\/wiki\/Sustainable_Development_Goals\n3709. Lee Jong-suk  \u2014  http:\/\/en.wikipedia.org.\/wiki\/Lee_Jong-suk\n3710. Birmingham  \u2014  http:\/\/en.wikipedia.org.\/wiki\/Birmingham\n3711. Aleister Crowley  \u2014  http:\/\/en.wikipedia.org.\/wiki\/Aleister_Crowley\n3712. Sukhoi Su-57  \u2014  http:\/\/en.wikipedia.org.\/wiki\/Sukhoi_Su-57\n3713. France national football team  \u2014  http:\/\/en.wikipedia.org.\/wiki\/France_national_football_team\n3714. Streisand effect  \u2014  http:\/\/en.wikipedia.org.\/wiki\/Streisand_effect\n3715. United States Attorney General  \u2014  http:\/\/en.wikipedia.org.\/wiki\/United_States_Attorney_General\n3716. Russian language  \u2014  http:\/\/en.wikipedia.org.\/wiki\/Russian_language\n3717. Gossip Girl  \u2014  http:\/\/en.wikipedia.org.\/wiki\/Gossip_Girl\n3718. Adam Smith  \u2014  http:\/\/en.wikipedia.org.\/wiki\/Adam_Smith\n3719. Subaru Impreza  \u2014  http:\/\/en.wikipedia.org.\/wiki\/Subaru_Impreza\n3720. Micro Bit  \u2014  http:\/\/en.wikipedia.org.\/wiki\/Micro_Bit\n3721. Augmented reality  \u2014  http:\/\/en.wikipedia.org.\/wiki\/Augmented_reality\n3722. Jack Black  \u2014  http:\/\/en.wikipedia.org.\/wiki\/Jack_Black\n3723. John Denver  \u2014  http:\/\/en.wikipedia.org.\/wiki\/John_Denver\n3724. Weimar Republic  \u2014  http:\/\/en.wikipedia.org.\/wiki\/Weimar_Republic\n3725. Pittsburgh  \u2014  http:\/\/en.wikipedia.org.\/wiki\/Pittsburgh\n3726. Athens  \u2014  http:\/\/en.wikipedia.org.\/wiki\/Athens\n3727. Zinc  \u2014  http:\/\/en.wikipedia.org.\/wiki\/Zinc\n3728. Noah Cyrus  \u2014  http:\/\/en.wikipedia.org.\/wiki\/Noah_Cyrus\n3729. Gillian Anderson  \u2014  http:\/\/en.wikipedia.org.\/wiki\/Gillian_Anderson\n3730. Direct and indirect realism  \u2014  http:\/\/en.wikipedia.org.\/wiki\/Direct_and_indirect_realism\n3731. Intel Core  \u2014  http:\/\/en.wikipedia.org.\/wiki\/Intel_Core\n3732. Marshall Plan  \u2014  http:\/\/en.wikipedia.org.\/wiki\/Marshall_Plan\n3733. Aladdin (1992 Disney film)  \u2014  http:\/\/en.wikipedia.org.\/wiki\/Aladdin_(1992_Disney_film)\n3734. Slavery  \u2014  http:\/\/en.wikipedia.org.\/wiki\/Slavery\n3735. Antisemitism  \u2014  http:\/\/en.wikipedia.org.\/wiki\/Antisemitism\n3736. ASAP Mob  \u2014  http:\/\/en.wikipedia.org.\/wiki\/ASAP_Mob\n3737. Andy Samberg  \u2014  http:\/\/en.wikipedia.org.\/wiki\/Andy_Samberg\n3738. 2017\u201318 United States network television schedule  \u2014  http:\/\/en.wikipedia.org.\/wiki\/2017%E2%80%9318_United_States_network_television_schedule\n3739. Adderall  \u2014  http:\/\/en.wikipedia.org.\/wiki\/Adderall\n3740. Aldous Huxley  \u2014  http:\/\/en.wikipedia.org.\/wiki\/Aldous_Huxley\n3741. Jon Stewart  \u2014  http:\/\/en.wikipedia.org.\/wiki\/Jon_Stewart\n3742. Nymphomaniac (film)  \u2014  http:\/\/en.wikipedia.org.\/wiki\/Nymphomaniac_(film)\n3743. Ohio  \u2014  http:\/\/en.wikipedia.org.\/wiki\/Ohio\n3744. The Belko Experiment  \u2014  http:\/\/en.wikipedia.org.\/wiki\/The_Belko_Experiment\n3745. List of active United States military aircraft  \u2014  http:\/\/en.wikipedia.org.\/wiki\/List_of_active_United_States_military_aircraft\n3746. Miles Davis  \u2014  http:\/\/en.wikipedia.org.\/wiki\/Miles_Davis\n3747. Hexadecimal  \u2014  http:\/\/en.wikipedia.org.\/wiki\/Hexadecimal\n3748. Beastie Boys  \u2014  http:\/\/en.wikipedia.org.\/wiki\/Beastie_Boys\n3749. List of The Originals episodes  \u2014  http:\/\/en.wikipedia.org.\/wiki\/List_of_The_Originals_episodes\n3750. Isis  \u2014  http:\/\/en.wikipedia.org.\/wiki\/Isis\n3751. Moab  \u2014  http:\/\/en.wikipedia.org.\/wiki\/Moab\n3752. Norse mythology  \u2014  http:\/\/en.wikipedia.org.\/wiki\/Norse_mythology\n3753. Christopher Lee  \u2014  http:\/\/en.wikipedia.org.\/wiki\/Christopher_Lee\n3754. Skynet (satellite)  \u2014  http:\/\/en.wikipedia.org.\/wiki\/Skynet_(satellite)\n3755. Outlast 2  \u2014  http:\/\/en.wikipedia.org.\/wiki\/Outlast_2\n3756. Philip K. Dick  \u2014  http:\/\/en.wikipedia.org.\/wiki\/Philip_K._Dick\n3757. Zara Larsson  \u2014  http:\/\/en.wikipedia.org.\/wiki\/Zara_Larsson\n3758. List of Samurai Jack episodes  \u2014  http:\/\/en.wikipedia.org.\/wiki\/List_of_Samurai_Jack_episodes\n3759. KFC  \u2014  http:\/\/en.wikipedia.org.\/wiki\/KFC\n3760. Iggy Azalea  \u2014  http:\/\/en.wikipedia.org.\/wiki\/Iggy_Azalea\n3761. Hewlett-Packard  \u2014  http:\/\/en.wikipedia.org.\/wiki\/Hewlett-Packard\n3762. Mr. Bean  \u2014  http:\/\/en.wikipedia.org.\/wiki\/Mr._Bean\n3763. The Predator (film)  \u2014  http:\/\/en.wikipedia.org.\/wiki\/The_Predator_(film)\n3764. John Goodman  \u2014  http:\/\/en.wikipedia.org.\/wiki\/John_Goodman\n3765. Nate Diaz  \u2014  http:\/\/en.wikipedia.org.\/wiki\/Nate_Diaz\n3766. Methanol (data page)  \u2014  http:\/\/en.wikipedia.org.\/wiki\/Methanol_(data_page)\n3767. Sheryl Sandberg  \u2014  http:\/\/en.wikipedia.org.\/wiki\/Sheryl_Sandberg\n3768. Olivia Newton-John  \u2014  http:\/\/en.wikipedia.org.\/wiki\/Olivia_Newton-John\n3769. Uruguay  \u2014  http:\/\/en.wikipedia.org.\/wiki\/Uruguay\n3770. List of Grand Slam men's singles champions  \u2014  http:\/\/en.wikipedia.org.\/wiki\/List_of_Grand_Slam_men's_singles_champions\n3771. Plate tectonics  \u2014  http:\/\/en.wikipedia.org.\/wiki\/Plate_tectonics\n3772. Transformer  \u2014  http:\/\/en.wikipedia.org.\/wiki\/Transformer\n3773. Maryland  \u2014  http:\/\/en.wikipedia.org.\/wiki\/Maryland\n3774. Korean language  \u2014  http:\/\/en.wikipedia.org.\/wiki\/Korean_language\n3775. Matt LeBlanc  \u2014  http:\/\/en.wikipedia.org.\/wiki\/Matt_LeBlanc\n3776. Love  \u2014  http:\/\/en.wikipedia.org.\/wiki\/Love\n3777. LazyTown  \u2014  http:\/\/en.wikipedia.org.\/wiki\/LazyTown\n3778. Psycho (1960 film)  \u2014  http:\/\/en.wikipedia.org.\/wiki\/Psycho_(1960_film)\n3779. Anderson Cooper  \u2014  http:\/\/en.wikipedia.org.\/wiki\/Anderson_Cooper\n3780. Khabib Nurmagomedov  \u2014  http:\/\/en.wikipedia.org.\/wiki\/Khabib_Nurmagomedov\n3781. CNN  \u2014  http:\/\/en.wikipedia.org.\/wiki\/CNN\n3782. Delta Air Lines  \u2014  http:\/\/en.wikipedia.org.\/wiki\/Delta_Air_Lines\n3783. Beowulf  \u2014  http:\/\/en.wikipedia.org.\/wiki\/Beowulf\n3784. Frontier (2016 TV series)  \u2014  http:\/\/en.wikipedia.org.\/wiki\/Frontier_(2016_TV_series)\n3785. HVAC  \u2014  http:\/\/en.wikipedia.org.\/wiki\/HVAC\n3786. List of countries by military expenditures  \u2014  http:\/\/en.wikipedia.org.\/wiki\/List_of_countries_by_military_expenditures\n3787. N,N-Dimethyltryptamine  \u2014  http:\/\/en.wikipedia.org.\/wiki\/N%2CN-Dimethyltryptamine\n3788. Unix  \u2014  http:\/\/en.wikipedia.org.\/wiki\/Unix\n3789. Modernism  \u2014  http:\/\/en.wikipedia.org.\/wiki\/Modernism\n3790. Sarin  \u2014  http:\/\/en.wikipedia.org.\/wiki\/Sarin\n3791. Jon Favreau  \u2014  http:\/\/en.wikipedia.org.\/wiki\/Jon_Favreau\n3792. Top of the Lake  \u2014  http:\/\/en.wikipedia.org.\/wiki\/Top_of_the_Lake\n3793. Rockefeller family  \u2014  http:\/\/en.wikipedia.org.\/wiki\/Rockefeller_family\n3794. Silk Road (marketplace)  \u2014  http:\/\/en.wikipedia.org.\/wiki\/Silk_Road_(marketplace)\n3795. Homosexuality  \u2014  http:\/\/en.wikipedia.org.\/wiki\/Homosexuality\n3796. 88th Academy Awards  \u2014  http:\/\/en.wikipedia.org.\/wiki\/88th_Academy_Awards\n3797. Django Unchained  \u2014  http:\/\/en.wikipedia.org.\/wiki\/Django_Unchained\n3798. SHA-2  \u2014  http:\/\/en.wikipedia.org.\/wiki\/SHA-2\n3799. Sean Young  \u2014  http:\/\/en.wikipedia.org.\/wiki\/Sean_Young\n","miniList":"3700. Prohibition in the United States\n3701. Nairobi\n3702. R. Kelly\n3703. Justice League Dark (film)\n3704. IPv6\n3705. Chronic traumatic encephalopathy\n3706. Boston Celtics\n3707. Calvin Harris\n3708. Sustainable Development Goals\n3709. Lee Jong-suk\n3710. Birmingham\n3711. Aleister Crowley\n3712. Sukhoi Su-57\n3713. France national football team\n3714. Streisand effect\n3715. United States Attorney General\n3716. Russian language\n3717. Gossip Girl\n3718. Adam Smith\n3719. Subaru Impreza\n3720. Micro Bit\n3721. Augmented reality\n3722. Jack Black\n3723. John Denver\n3724. Weimar Republic\n3725. Pittsburgh\n3726. Athens\n3727. Zinc\n3728. Noah Cyrus\n3729. Gillian Anderson\n3730. Direct and indirect realism\n3731. Intel Core\n3732. Marshall Plan\n3733. Aladdin (1992 Disney film)\n3734. Slavery\n3735. Antisemitism\n3736. ASAP Mob\n3737. Andy Samberg\n3738. 2017\u201318 United States network television schedule\n3739. Adderall\n3740. Aldous Huxley\n3741. Jon Stewart\n3742. Nymphomaniac (film)\n3743. Ohio\n3744. The Belko Experiment\n3745. List of active United States military aircraft\n3746. Miles Davis\n3747. Hexadecimal\n3748. Beastie Boys\n3749. List of The Originals episodes\n3750. Isis\n3751. Moab\n3752. Norse mythology\n3753. Christopher Lee\n3754. Skynet (satellite)\n3755. Outlast 2\n3756. Philip K. Dick\n3757. Zara Larsson\n3758. List of Samurai Jack episodes\n3759. KFC\n3760. Iggy Azalea\n3761. Hewlett-Packard\n3762. Mr. Bean\n3763. The Predator (film)\n3764. John Goodman\n3765. Nate Diaz\n3766. Methanol (data page)\n3767. Sheryl Sandberg\n3768. Olivia Newton-John\n3769. Uruguay\n3770. List of Grand Slam men's singles champions\n3771. Plate tectonics\n3772. Transformer\n3773. Maryland\n3774. Korean language\n3775. Matt LeBlanc\n3776. Love\n3777. LazyTown\n3778. Psycho (1960 film)\n3779. Anderson Cooper\n3780. Khabib Nurmagomedov\n3781. CNN\n3782. Delta Air Lines\n3783. Beowulf\n3784. Frontier (2016 TV series)\n3785. HVAC\n3786. List of countries by military expenditures\n3787. N,N-Dimethyltryptamine\n3788. Unix\n3789. Modernism\n3790. Sarin\n3791. Jon Favreau\n3792. Top of the Lake\n3793. Rockefeller family\n3794. Silk Road (marketplace)\n3795. Homosexuality\n3796. 88th Academy Awards\n3797. Django Unchained\n3798. SHA-2\n3799. Sean Young\n"}
