{"start":3801,"end":3900,"count":5616717,"type":"pageviews","pageSize":100,"page":38,"pages":56168,"columns":[{"label":"","property":"pageviews","sortable":false}],"items":[{"pageviews":"3800. <a target=\"_blank\" href=\"http://en.wikipedia.org./wiki/Emirates_(airline)\">Emirates (airline)</a>"},{"pageviews":"3801. <a target=\"_blank\" href=\"http://en.wikipedia.org./wiki/2016_NFL_Draft\">2016 NFL Draft</a>"},{"pageviews":"3802. <a target=\"_blank\" href=\"http://en.wikipedia.org./wiki/Death_in_Paradise_(TV_series)\">Death in Paradise (TV series)</a>"},{"pageviews":"3803. <a target=\"_blank\" href=\"http://en.wikipedia.org./wiki/MacOS_Sierra\">MacOS Sierra</a>"},{"pageviews":"3804. <a target=\"_blank\" href=\"http://en.wikipedia.org./wiki/Kehlani\">Kehlani</a>"},{"pageviews":"3805. <a target=\"_blank\" href=\"http://en.wikipedia.org./wiki/Diazepam\">Diazepam</a>"},{"pageviews":"3806. <a target=\"_blank\" href=\"http://en.wikipedia.org./wiki/Airbus_A330\">Airbus A330</a>"},{"pageviews":"3807. <a target=\"_blank\" href=\"http://en.wikipedia.org./wiki/R%C3%A9sum%C3%A9\">Résumé</a>"},{"pageviews":"3808. <a target=\"_blank\" href=\"http://en.wikipedia.org./wiki/Archie_Comics\">Archie Comics</a>"},{"pageviews":"3809. <a target=\"_blank\" href=\"http://en.wikipedia.org./wiki/Brooklyn\">Brooklyn</a>"},{"pageviews":"3810. <a target=\"_blank\" href=\"http://en.wikipedia.org./wiki/Eurofighter_Typhoon\">Eurofighter Typhoon</a>"},{"pageviews":"3811. <a target=\"_blank\" href=\"http://en.wikipedia.org./wiki/Prime_Minister_of_the_United_Kingdom\">Prime Minister of the United Kingdom</a>"},{"pageviews":"3812. <a target=\"_blank\" href=\"http://en.wikipedia.org./wiki/Gong_Yoo\">Gong Yoo</a>"},{"pageviews":"3813. <a target=\"_blank\" href=\"http://en.wikipedia.org./wiki/Disappearance_of_Madeleine_McCann\">Disappearance of Madeleine McCann</a>"},{"pageviews":"3814. <a target=\"_blank\" href=\"http://en.wikipedia.org./wiki/Pomodoro_Technique\">Pomodoro Technique</a>"},{"pageviews":"3815. <a target=\"_blank\" href=\"http://en.wikipedia.org./wiki/Kane_(wrestler)\">Kane (wrestler)</a>"},{"pageviews":"3816. <a target=\"_blank\" href=\"http://en.wikipedia.org./wiki/H%C3%A9lmer_Herrera\">Hélmer Herrera</a>"},{"pageviews":"3817. <a target=\"_blank\" href=\"http://en.wikipedia.org./wiki/A\">A</a>"},{"pageviews":"3818. <a target=\"_blank\" href=\"http://en.wikipedia.org./wiki/Game_of_Thrones_(season_3)\">Game of Thrones (season 3)</a>"},{"pageviews":"3819. <a target=\"_blank\" href=\"http://en.wikipedia.org./wiki/Harry_Potter_and_the_Cursed_Child\">Harry Potter and the Cursed Child</a>"},{"pageviews":"3820. <a target=\"_blank\" href=\"http://en.wikipedia.org./wiki/Die_Antwoord\">Die Antwoord</a>"},{"pageviews":"3821. <a target=\"_blank\" href=\"http://en.wikipedia.org./wiki/Orgasm\">Orgasm</a>"},{"pageviews":"3822. <a target=\"_blank\" href=\"http://en.wikipedia.org./wiki/ZoneAlarm\">ZoneAlarm</a>"},{"pageviews":"3823. <a target=\"_blank\" href=\"http://en.wikipedia.org./wiki/Culture\">Culture</a>"},{"pageviews":"3824. <a target=\"_blank\" href=\"http://en.wikipedia.org./wiki/Whoopi_Goldberg\">Whoopi Goldberg</a>"},{"pageviews":"3825. <a target=\"_blank\" href=\"http://en.wikipedia.org./wiki/Heidi_Klum\">Heidi Klum</a>"},{"pageviews":"3826. <a target=\"_blank\" href=\"http://en.wikipedia.org./wiki/Reince_Priebus\">Reince Priebus</a>"},{"pageviews":"3827. <a target=\"_blank\" href=\"http://en.wikipedia.org./wiki/The_Edge_of_Seventeen\">The Edge of Seventeen</a>"},{"pageviews":"3828. <a target=\"_blank\" href=\"http://en.wikipedia.org./wiki/Rosenhan_experiment\">Rosenhan experiment</a>"},{"pageviews":"3829. <a target=\"_blank\" href=\"http://en.wikipedia.org./wiki/Darkseid\">Darkseid</a>"},{"pageviews":"3830. <a target=\"_blank\" href=\"http://en.wikipedia.org./wiki/Planet\">Planet</a>"},{"pageviews":"3831. <a target=\"_blank\" href=\"http://en.wikipedia.org./wiki/Nuremberg_trials\">Nuremberg trials</a>"},{"pageviews":"3832. <a target=\"_blank\" href=\"http://en.wikipedia.org./wiki/List_of_social_networking_websites\">List of social networking websites</a>"},{"pageviews":"3833. <a target=\"_blank\" href=\"http://en.wikipedia.org./wiki/Jefferson_Davis\">Jefferson Davis</a>"},{"pageviews":"3834. <a target=\"_blank\" href=\"http://en.wikipedia.org./wiki/Illinois\">Illinois</a>"},{"pageviews":"3835. <a target=\"_blank\" href=\"http://en.wikipedia.org./wiki/Backlash_(2017)\">Backlash (2017)</a>"},{"pageviews":"3836. <a target=\"_blank\" href=\"http://en.wikipedia.org./wiki/Cheese\">Cheese</a>"},{"pageviews":"3837. <a target=\"_blank\" href=\"http://en.wikipedia.org./wiki/Sarbanes%E2%80%93Oxley_Act\">Sarbanes–Oxley Act</a>"},{"pageviews":"3838. <a target=\"_blank\" href=\"http://en.wikipedia.org./wiki/Wayback_Machine\">Wayback Machine</a>"},{"pageviews":"3839. <a target=\"_blank\" href=\"http://en.wikipedia.org./wiki/Bob's_Burgers\">Bob's Burgers</a>"},{"pageviews":"3840. <a target=\"_blank\" href=\"http://en.wikipedia.org./wiki/Pitch_Perfect_3\">Pitch Perfect 3</a>"},{"pageviews":"3841. <a target=\"_blank\" href=\"http://en.wikipedia.org./wiki/Pareto_principle\">Pareto principle</a>"},{"pageviews":"3842. <a target=\"_blank\" href=\"http://en.wikipedia.org./wiki/Josh_Gad\">Josh Gad</a>"},{"pageviews":"3843. <a target=\"_blank\" href=\"http://en.wikipedia.org./wiki/Rammstein\">Rammstein</a>"},{"pageviews":"3844. <a target=\"_blank\" href=\"http://en.wikipedia.org./wiki/Great_Famine_(Ireland)\">Great Famine (Ireland)</a>"},{"pageviews":"3845. <a target=\"_blank\" href=\"http://en.wikipedia.org./wiki/Sorting_algorithm\">Sorting algorithm</a>"},{"pageviews":"3846. <a target=\"_blank\" href=\"http://en.wikipedia.org./wiki/Heroin\">Heroin</a>"},{"pageviews":"3847. <a target=\"_blank\" href=\"http://en.wikipedia.org./wiki/Rian_Johnson\">Rian Johnson</a>"},{"pageviews":"3848. <a target=\"_blank\" href=\"http://en.wikipedia.org./wiki/Brandon_Lee\">Brandon Lee</a>"},{"pageviews":"3849. <a target=\"_blank\" href=\"http://en.wikipedia.org./wiki/J._Robert_Oppenheimer\">J. Robert Oppenheimer</a>"},{"pageviews":"3850. <a target=\"_blank\" href=\"http://en.wikipedia.org./wiki/Steely_Dan\">Steely Dan</a>"},{"pageviews":"3851. <a target=\"_blank\" href=\"http://en.wikipedia.org./wiki/Yvonne_Strahovski\">Yvonne Strahovski</a>"},{"pageviews":"3852. <a target=\"_blank\" href=\"http://en.wikipedia.org./wiki/Indigenous_peoples_of_the_Americas\">Indigenous peoples of the Americas</a>"},{"pageviews":"3853. <a target=\"_blank\" href=\"http://en.wikipedia.org./wiki/Hyderabad\">Hyderabad</a>"},{"pageviews":"3854. <a target=\"_blank\" href=\"http://en.wikipedia.org./wiki/Casey_Neistat\">Casey Neistat</a>"},{"pageviews":"3855. <a target=\"_blank\" href=\"http://en.wikipedia.org./wiki/South_Sudan\">South Sudan</a>"},{"pageviews":"3856. <a target=\"_blank\" href=\"http://en.wikipedia.org./wiki/Ousmane_Demb%C3%A9l%C3%A9\">Ousmane Dembélé</a>"},{"pageviews":"3857. <a target=\"_blank\" href=\"http://en.wikipedia.org./wiki/A_Way_Out_(video_game)\">A Way Out (video game)</a>"},{"pageviews":"3858. <a target=\"_blank\" href=\"http://en.wikipedia.org./wiki/Good_Will_Hunting\">Good Will Hunting</a>"},{"pageviews":"3859. <a target=\"_blank\" href=\"http://en.wikipedia.org./wiki/Park_Hyung-sik\">Park Hyung-sik</a>"},{"pageviews":"3860. <a target=\"_blank\" href=\"http://en.wikipedia.org./wiki/The_Prestige_(film)\">The Prestige (film)</a>"},{"pageviews":"3861. <a target=\"_blank\" href=\"http://en.wikipedia.org./wiki/Man_of_Steel_(film)\">Man of Steel (film)</a>"},{"pageviews":"3862. <a target=\"_blank\" href=\"http://en.wikipedia.org./wiki/Jack_Ruby\">Jack Ruby</a>"},{"pageviews":"3863. <a target=\"_blank\" href=\"http://en.wikipedia.org./wiki/Petra\">Petra</a>"},{"pageviews":"3864. <a target=\"_blank\" href=\"http://en.wikipedia.org./wiki/Palace_of_Versailles\">Palace of Versailles</a>"},{"pageviews":"3865. <a target=\"_blank\" href=\"http://en.wikipedia.org./wiki/List_of_battery_sizes\">List of battery sizes</a>"},{"pageviews":"3866. <a target=\"_blank\" href=\"http://en.wikipedia.org./wiki/Miles_Teller\">Miles Teller</a>"},{"pageviews":"3867. <a target=\"_blank\" href=\"http://en.wikipedia.org./wiki/IU_(singer)\">IU (singer)</a>"},{"pageviews":"3868. <a target=\"_blank\" href=\"http://en.wikipedia.org./wiki/Huddersfield_Town_A.F.C.\">Huddersfield Town A.F.C.</a>"},{"pageviews":"3869. <a target=\"_blank\" href=\"http://en.wikipedia.org./wiki/The_X_Factor_(UK_TV_series)\">The X Factor (UK TV series)</a>"},{"pageviews":"3870. <a target=\"_blank\" href=\"http://en.wikipedia.org./wiki/Will_Arnett\">Will Arnett</a>"},{"pageviews":"3871. <a target=\"_blank\" href=\"http://en.wikipedia.org./wiki/Om_Puri\">Om Puri</a>"},{"pageviews":"3872. <a target=\"_blank\" href=\"http://en.wikipedia.org./wiki/Atheism\">Atheism</a>"},{"pageviews":"3873. <a target=\"_blank\" href=\"http://en.wikipedia.org./wiki/Frankfurt\">Frankfurt</a>"},{"pageviews":"3874. <a target=\"_blank\" href=\"http://en.wikipedia.org./wiki/Walrus\">Walrus</a>"},{"pageviews":"3875. <a target=\"_blank\" href=\"http://en.wikipedia.org./wiki/Akihito\">Akihito</a>"},{"pageviews":"3876. <a target=\"_blank\" href=\"http://en.wikipedia.org./wiki/Cyrus_the_Great\">Cyrus the Great</a>"},{"pageviews":"3877. <a target=\"_blank\" href=\"http://en.wikipedia.org./wiki/Hyperbolic_function\">Hyperbolic function</a>"},{"pageviews":"3878. <a target=\"_blank\" href=\"http://en.wikipedia.org./wiki/Evolution\">Evolution</a>"},{"pageviews":"3879. <a target=\"_blank\" href=\"http://en.wikipedia.org./wiki/Tornado\">Tornado</a>"},{"pageviews":"3880. <a target=\"_blank\" href=\"http://en.wikipedia.org./wiki/Hanging_Gardens_of_Babylon\">Hanging Gardens of Babylon</a>"},{"pageviews":"3881. <a target=\"_blank\" href=\"http://en.wikipedia.org./wiki/The_Lego_Ninjago_Movie\">The Lego Ninjago Movie</a>"},{"pageviews":"3882. <a target=\"_blank\" href=\"http://en.wikipedia.org./wiki/Yes_(band)\">Yes (band)</a>"},{"pageviews":"3883. <a target=\"_blank\" href=\"http://en.wikipedia.org./wiki/McDonnell_Douglas_F-4_Phantom_II\">McDonnell Douglas F-4 Phantom II</a>"},{"pageviews":"3884. <a target=\"_blank\" href=\"http://en.wikipedia.org./wiki/Marfan_syndrome\">Marfan syndrome</a>"},{"pageviews":"3885. <a target=\"_blank\" href=\"http://en.wikipedia.org./wiki/John_Quincy_Adams\">John Quincy Adams</a>"},{"pageviews":"3886. <a target=\"_blank\" href=\"http://en.wikipedia.org./wiki/Achaemenid_Empire\">Achaemenid Empire</a>"},{"pageviews":"3887. <a target=\"_blank\" href=\"http://en.wikipedia.org./wiki/Morrissey\">Morrissey</a>"},{"pageviews":"3888. <a target=\"_blank\" href=\"http://en.wikipedia.org./wiki/Base64\">Base64</a>"},{"pageviews":"3889. <a target=\"_blank\" href=\"http://en.wikipedia.org./wiki/List_of_My_Hero_Academia_episodes\">List of My Hero Academia episodes</a>"},{"pageviews":"3890. <a target=\"_blank\" href=\"http://en.wikipedia.org./wiki/Kolkata\">Kolkata</a>"},{"pageviews":"3891. <a target=\"_blank\" href=\"http://en.wikipedia.org./wiki/Game_of_Thrones_(season_2)\">Game of Thrones (season 2)</a>"},{"pageviews":"3892. <a target=\"_blank\" href=\"http://en.wikipedia.org./wiki/Racism\">Racism</a>"},{"pageviews":"3893. <a target=\"_blank\" href=\"http://en.wikipedia.org./wiki/Russell_Brand\">Russell Brand</a>"},{"pageviews":"3894. <a target=\"_blank\" href=\"http://en.wikipedia.org./wiki/Mindy_Kaling\">Mindy Kaling</a>"},{"pageviews":"3895. <a target=\"_blank\" href=\"http://en.wikipedia.org./wiki/J._K._Simmons\">J. K. Simmons</a>"},{"pageviews":"3896. <a target=\"_blank\" href=\"http://en.wikipedia.org./wiki/Claire_Danes\">Claire Danes</a>"},{"pageviews":"3897. <a target=\"_blank\" href=\"http://en.wikipedia.org./wiki/Evanescence\">Evanescence</a>"},{"pageviews":"3898. <a target=\"_blank\" href=\"http://en.wikipedia.org./wiki/A.S._Roma\">A.S. Roma</a>"},{"pageviews":"3899. <a target=\"_blank\" href=\"http://en.wikipedia.org./wiki/Barry_Gibb\">Barry Gibb</a>"}],"list":"3800. Emirates (airline)  \u2014  http:\/\/en.wikipedia.org.\/wiki\/Emirates_(airline)\n3801. 2016 NFL Draft  \u2014  http:\/\/en.wikipedia.org.\/wiki\/2016_NFL_Draft\n3802. Death in Paradise (TV series)  \u2014  http:\/\/en.wikipedia.org.\/wiki\/Death_in_Paradise_(TV_series)\n3803. MacOS Sierra  \u2014  http:\/\/en.wikipedia.org.\/wiki\/MacOS_Sierra\n3804. Kehlani  \u2014  http:\/\/en.wikipedia.org.\/wiki\/Kehlani\n3805. Diazepam  \u2014  http:\/\/en.wikipedia.org.\/wiki\/Diazepam\n3806. Airbus A330  \u2014  http:\/\/en.wikipedia.org.\/wiki\/Airbus_A330\n3807. R\u00E9sum\u00E9  \u2014  http:\/\/en.wikipedia.org.\/wiki\/R%C3%A9sum%C3%A9\n3808. Archie Comics  \u2014  http:\/\/en.wikipedia.org.\/wiki\/Archie_Comics\n3809. Brooklyn  \u2014  http:\/\/en.wikipedia.org.\/wiki\/Brooklyn\n3810. Eurofighter Typhoon  \u2014  http:\/\/en.wikipedia.org.\/wiki\/Eurofighter_Typhoon\n3811. Prime Minister of the United Kingdom  \u2014  http:\/\/en.wikipedia.org.\/wiki\/Prime_Minister_of_the_United_Kingdom\n3812. Gong Yoo  \u2014  http:\/\/en.wikipedia.org.\/wiki\/Gong_Yoo\n3813. Disappearance of Madeleine McCann  \u2014  http:\/\/en.wikipedia.org.\/wiki\/Disappearance_of_Madeleine_McCann\n3814. Pomodoro Technique  \u2014  http:\/\/en.wikipedia.org.\/wiki\/Pomodoro_Technique\n3815. Kane (wrestler)  \u2014  http:\/\/en.wikipedia.org.\/wiki\/Kane_(wrestler)\n3816. H\u00E9lmer Herrera  \u2014  http:\/\/en.wikipedia.org.\/wiki\/H%C3%A9lmer_Herrera\n3817. A  \u2014  http:\/\/en.wikipedia.org.\/wiki\/A\n3818. Game of Thrones (season 3)  \u2014  http:\/\/en.wikipedia.org.\/wiki\/Game_of_Thrones_(season_3)\n3819. Harry Potter and the Cursed Child  \u2014  http:\/\/en.wikipedia.org.\/wiki\/Harry_Potter_and_the_Cursed_Child\n3820. Die Antwoord  \u2014  http:\/\/en.wikipedia.org.\/wiki\/Die_Antwoord\n3821. Orgasm  \u2014  http:\/\/en.wikipedia.org.\/wiki\/Orgasm\n3822. ZoneAlarm  \u2014  http:\/\/en.wikipedia.org.\/wiki\/ZoneAlarm\n3823. Culture  \u2014  http:\/\/en.wikipedia.org.\/wiki\/Culture\n3824. Whoopi Goldberg  \u2014  http:\/\/en.wikipedia.org.\/wiki\/Whoopi_Goldberg\n3825. Heidi Klum  \u2014  http:\/\/en.wikipedia.org.\/wiki\/Heidi_Klum\n3826. Reince Priebus  \u2014  http:\/\/en.wikipedia.org.\/wiki\/Reince_Priebus\n3827. The Edge of Seventeen  \u2014  http:\/\/en.wikipedia.org.\/wiki\/The_Edge_of_Seventeen\n3828. Rosenhan experiment  \u2014  http:\/\/en.wikipedia.org.\/wiki\/Rosenhan_experiment\n3829. Darkseid  \u2014  http:\/\/en.wikipedia.org.\/wiki\/Darkseid\n3830. Planet  \u2014  http:\/\/en.wikipedia.org.\/wiki\/Planet\n3831. Nuremberg trials  \u2014  http:\/\/en.wikipedia.org.\/wiki\/Nuremberg_trials\n3832. List of social networking websites  \u2014  http:\/\/en.wikipedia.org.\/wiki\/List_of_social_networking_websites\n3833. Jefferson Davis  \u2014  http:\/\/en.wikipedia.org.\/wiki\/Jefferson_Davis\n3834. Illinois  \u2014  http:\/\/en.wikipedia.org.\/wiki\/Illinois\n3835. Backlash (2017)  \u2014  http:\/\/en.wikipedia.org.\/wiki\/Backlash_(2017)\n3836. Cheese  \u2014  http:\/\/en.wikipedia.org.\/wiki\/Cheese\n3837. Sarbanes\u2013Oxley Act  \u2014  http:\/\/en.wikipedia.org.\/wiki\/Sarbanes%E2%80%93Oxley_Act\n3838. Wayback Machine  \u2014  http:\/\/en.wikipedia.org.\/wiki\/Wayback_Machine\n3839. Bob's Burgers  \u2014  http:\/\/en.wikipedia.org.\/wiki\/Bob's_Burgers\n3840. Pitch Perfect 3  \u2014  http:\/\/en.wikipedia.org.\/wiki\/Pitch_Perfect_3\n3841. Pareto principle  \u2014  http:\/\/en.wikipedia.org.\/wiki\/Pareto_principle\n3842. Josh Gad  \u2014  http:\/\/en.wikipedia.org.\/wiki\/Josh_Gad\n3843. Rammstein  \u2014  http:\/\/en.wikipedia.org.\/wiki\/Rammstein\n3844. Great Famine (Ireland)  \u2014  http:\/\/en.wikipedia.org.\/wiki\/Great_Famine_(Ireland)\n3845. Sorting algorithm  \u2014  http:\/\/en.wikipedia.org.\/wiki\/Sorting_algorithm\n3846. Heroin  \u2014  http:\/\/en.wikipedia.org.\/wiki\/Heroin\n3847. Rian Johnson  \u2014  http:\/\/en.wikipedia.org.\/wiki\/Rian_Johnson\n3848. Brandon Lee  \u2014  http:\/\/en.wikipedia.org.\/wiki\/Brandon_Lee\n3849. J. Robert Oppenheimer  \u2014  http:\/\/en.wikipedia.org.\/wiki\/J._Robert_Oppenheimer\n3850. Steely Dan  \u2014  http:\/\/en.wikipedia.org.\/wiki\/Steely_Dan\n3851. Yvonne Strahovski  \u2014  http:\/\/en.wikipedia.org.\/wiki\/Yvonne_Strahovski\n3852. Indigenous peoples of the Americas  \u2014  http:\/\/en.wikipedia.org.\/wiki\/Indigenous_peoples_of_the_Americas\n3853. Hyderabad  \u2014  http:\/\/en.wikipedia.org.\/wiki\/Hyderabad\n3854. Casey Neistat  \u2014  http:\/\/en.wikipedia.org.\/wiki\/Casey_Neistat\n3855. South Sudan  \u2014  http:\/\/en.wikipedia.org.\/wiki\/South_Sudan\n3856. Ousmane Demb\u00E9l\u00E9  \u2014  http:\/\/en.wikipedia.org.\/wiki\/Ousmane_Demb%C3%A9l%C3%A9\n3857. A Way Out (video game)  \u2014  http:\/\/en.wikipedia.org.\/wiki\/A_Way_Out_(video_game)\n3858. Good Will Hunting  \u2014  http:\/\/en.wikipedia.org.\/wiki\/Good_Will_Hunting\n3859. Park Hyung-sik  \u2014  http:\/\/en.wikipedia.org.\/wiki\/Park_Hyung-sik\n3860. The Prestige (film)  \u2014  http:\/\/en.wikipedia.org.\/wiki\/The_Prestige_(film)\n3861. Man of Steel (film)  \u2014  http:\/\/en.wikipedia.org.\/wiki\/Man_of_Steel_(film)\n3862. Jack Ruby  \u2014  http:\/\/en.wikipedia.org.\/wiki\/Jack_Ruby\n3863. Petra  \u2014  http:\/\/en.wikipedia.org.\/wiki\/Petra\n3864. Palace of Versailles  \u2014  http:\/\/en.wikipedia.org.\/wiki\/Palace_of_Versailles\n3865. List of battery sizes  \u2014  http:\/\/en.wikipedia.org.\/wiki\/List_of_battery_sizes\n3866. Miles Teller  \u2014  http:\/\/en.wikipedia.org.\/wiki\/Miles_Teller\n3867. IU (singer)  \u2014  http:\/\/en.wikipedia.org.\/wiki\/IU_(singer)\n3868. Huddersfield Town A.F.C.  \u2014  http:\/\/en.wikipedia.org.\/wiki\/Huddersfield_Town_A.F.C.\n3869. The X Factor (UK TV series)  \u2014  http:\/\/en.wikipedia.org.\/wiki\/The_X_Factor_(UK_TV_series)\n3870. Will Arnett  \u2014  http:\/\/en.wikipedia.org.\/wiki\/Will_Arnett\n3871. Om Puri  \u2014  http:\/\/en.wikipedia.org.\/wiki\/Om_Puri\n3872. Atheism  \u2014  http:\/\/en.wikipedia.org.\/wiki\/Atheism\n3873. Frankfurt  \u2014  http:\/\/en.wikipedia.org.\/wiki\/Frankfurt\n3874. Walrus  \u2014  http:\/\/en.wikipedia.org.\/wiki\/Walrus\n3875. Akihito  \u2014  http:\/\/en.wikipedia.org.\/wiki\/Akihito\n3876. Cyrus the Great  \u2014  http:\/\/en.wikipedia.org.\/wiki\/Cyrus_the_Great\n3877. Hyperbolic function  \u2014  http:\/\/en.wikipedia.org.\/wiki\/Hyperbolic_function\n3878. Evolution  \u2014  http:\/\/en.wikipedia.org.\/wiki\/Evolution\n3879. Tornado  \u2014  http:\/\/en.wikipedia.org.\/wiki\/Tornado\n3880. Hanging Gardens of Babylon  \u2014  http:\/\/en.wikipedia.org.\/wiki\/Hanging_Gardens_of_Babylon\n3881. The Lego Ninjago Movie  \u2014  http:\/\/en.wikipedia.org.\/wiki\/The_Lego_Ninjago_Movie\n3882. Yes (band)  \u2014  http:\/\/en.wikipedia.org.\/wiki\/Yes_(band)\n3883. McDonnell Douglas F-4 Phantom II  \u2014  http:\/\/en.wikipedia.org.\/wiki\/McDonnell_Douglas_F-4_Phantom_II\n3884. Marfan syndrome  \u2014  http:\/\/en.wikipedia.org.\/wiki\/Marfan_syndrome\n3885. John Quincy Adams  \u2014  http:\/\/en.wikipedia.org.\/wiki\/John_Quincy_Adams\n3886. Achaemenid Empire  \u2014  http:\/\/en.wikipedia.org.\/wiki\/Achaemenid_Empire\n3887. Morrissey  \u2014  http:\/\/en.wikipedia.org.\/wiki\/Morrissey\n3888. Base64  \u2014  http:\/\/en.wikipedia.org.\/wiki\/Base64\n3889. List of My Hero Academia episodes  \u2014  http:\/\/en.wikipedia.org.\/wiki\/List_of_My_Hero_Academia_episodes\n3890. Kolkata  \u2014  http:\/\/en.wikipedia.org.\/wiki\/Kolkata\n3891. Game of Thrones (season 2)  \u2014  http:\/\/en.wikipedia.org.\/wiki\/Game_of_Thrones_(season_2)\n3892. Racism  \u2014  http:\/\/en.wikipedia.org.\/wiki\/Racism\n3893. Russell Brand  \u2014  http:\/\/en.wikipedia.org.\/wiki\/Russell_Brand\n3894. Mindy Kaling  \u2014  http:\/\/en.wikipedia.org.\/wiki\/Mindy_Kaling\n3895. J. K. Simmons  \u2014  http:\/\/en.wikipedia.org.\/wiki\/J._K._Simmons\n3896. Claire Danes  \u2014  http:\/\/en.wikipedia.org.\/wiki\/Claire_Danes\n3897. Evanescence  \u2014  http:\/\/en.wikipedia.org.\/wiki\/Evanescence\n3898. A.S. Roma  \u2014  http:\/\/en.wikipedia.org.\/wiki\/A.S._Roma\n3899. Barry Gibb  \u2014  http:\/\/en.wikipedia.org.\/wiki\/Barry_Gibb\n","miniList":"3800. Emirates (airline)\n3801. 2016 NFL Draft\n3802. Death in Paradise (TV series)\n3803. MacOS Sierra\n3804. Kehlani\n3805. Diazepam\n3806. Airbus A330\n3807. R\u00E9sum\u00E9\n3808. Archie Comics\n3809. Brooklyn\n3810. Eurofighter Typhoon\n3811. Prime Minister of the United Kingdom\n3812. Gong Yoo\n3813. Disappearance of Madeleine McCann\n3814. Pomodoro Technique\n3815. Kane (wrestler)\n3816. H\u00E9lmer Herrera\n3817. A\n3818. Game of Thrones (season 3)\n3819. Harry Potter and the Cursed Child\n3820. Die Antwoord\n3821. Orgasm\n3822. ZoneAlarm\n3823. Culture\n3824. Whoopi Goldberg\n3825. Heidi Klum\n3826. Reince Priebus\n3827. The Edge of Seventeen\n3828. Rosenhan experiment\n3829. Darkseid\n3830. Planet\n3831. Nuremberg trials\n3832. List of social networking websites\n3833. Jefferson Davis\n3834. Illinois\n3835. Backlash (2017)\n3836. Cheese\n3837. Sarbanes\u2013Oxley Act\n3838. Wayback Machine\n3839. Bob's Burgers\n3840. Pitch Perfect 3\n3841. Pareto principle\n3842. Josh Gad\n3843. Rammstein\n3844. Great Famine (Ireland)\n3845. Sorting algorithm\n3846. Heroin\n3847. Rian Johnson\n3848. Brandon Lee\n3849. J. Robert Oppenheimer\n3850. Steely Dan\n3851. Yvonne Strahovski\n3852. Indigenous peoples of the Americas\n3853. Hyderabad\n3854. Casey Neistat\n3855. South Sudan\n3856. Ousmane Demb\u00E9l\u00E9\n3857. A Way Out (video game)\n3858. Good Will Hunting\n3859. Park Hyung-sik\n3860. The Prestige (film)\n3861. Man of Steel (film)\n3862. Jack Ruby\n3863. Petra\n3864. Palace of Versailles\n3865. List of battery sizes\n3866. Miles Teller\n3867. IU (singer)\n3868. Huddersfield Town A.F.C.\n3869. The X Factor (UK TV series)\n3870. Will Arnett\n3871. Om Puri\n3872. Atheism\n3873. Frankfurt\n3874. Walrus\n3875. Akihito\n3876. Cyrus the Great\n3877. Hyperbolic function\n3878. Evolution\n3879. Tornado\n3880. Hanging Gardens of Babylon\n3881. The Lego Ninjago Movie\n3882. Yes (band)\n3883. McDonnell Douglas F-4 Phantom II\n3884. Marfan syndrome\n3885. John Quincy Adams\n3886. Achaemenid Empire\n3887. Morrissey\n3888. Base64\n3889. List of My Hero Academia episodes\n3890. Kolkata\n3891. Game of Thrones (season 2)\n3892. Racism\n3893. Russell Brand\n3894. Mindy Kaling\n3895. J. K. Simmons\n3896. Claire Danes\n3897. Evanescence\n3898. A.S. Roma\n3899. Barry Gibb\n"}
