{"start":3901,"end":4000,"count":5616717,"type":"pageviews","pageSize":100,"page":39,"pages":56168,"columns":[{"label":"","property":"pageviews","sortable":false}],"items":[{"pageviews":"3900. <a target=\"_blank\" href=\"http://en.wikipedia.org./wiki/British_royal_family\">British royal family</a>"},{"pageviews":"3901. <a target=\"_blank\" href=\"http://en.wikipedia.org./wiki/Leo_Tolstoy\">Leo Tolstoy</a>"},{"pageviews":"3902. <a target=\"_blank\" href=\"http://en.wikipedia.org./wiki/History_of_India\">History of India</a>"},{"pageviews":"3903. <a target=\"_blank\" href=\"http://en.wikipedia.org./wiki/Impact_Wrestling\">Impact Wrestling</a>"},{"pageviews":"3904. <a target=\"_blank\" href=\"http://en.wikipedia.org./wiki/Automotive_industry\">Automotive industry</a>"},{"pageviews":"3905. <a target=\"_blank\" href=\"http://en.wikipedia.org./wiki/Baltimore\">Baltimore</a>"},{"pageviews":"3906. <a target=\"_blank\" href=\"http://en.wikipedia.org./wiki/Cerebral_palsy\">Cerebral palsy</a>"},{"pageviews":"3907. <a target=\"_blank\" href=\"http://en.wikipedia.org./wiki/Asia_Carrera\">Asia Carrera</a>"},{"pageviews":"3908. <a target=\"_blank\" href=\"http://en.wikipedia.org./wiki/Impeachment\">Impeachment</a>"},{"pageviews":"3909. <a target=\"_blank\" href=\"http://en.wikipedia.org./wiki/Chris_Jericho\">Chris Jericho</a>"},{"pageviews":"3910. <a target=\"_blank\" href=\"http://en.wikipedia.org./wiki/Hunter_%C3%97_Hunter\">Hunter × Hunter</a>"},{"pageviews":"3911. <a target=\"_blank\" href=\"http://en.wikipedia.org./wiki/Ultraviolet\">Ultraviolet</a>"},{"pageviews":"3912. <a target=\"_blank\" href=\"http://en.wikipedia.org./wiki/New_England\">New England</a>"},{"pageviews":"3913. <a target=\"_blank\" href=\"http://en.wikipedia.org./wiki/Rush_(band)\">Rush (band)</a>"},{"pageviews":"3914. <a target=\"_blank\" href=\"http://en.wikipedia.org./wiki/Social_science\">Social science</a>"},{"pageviews":"3915. <a target=\"_blank\" href=\"http://en.wikipedia.org./wiki/Sing_(disambiguation)\">Sing (disambiguation)</a>"},{"pageviews":"3916. <a target=\"_blank\" href=\"http://en.wikipedia.org./wiki/Olivia_de_Havilland\">Olivia de Havilland</a>"},{"pageviews":"3917. <a target=\"_blank\" href=\"http://en.wikipedia.org./wiki/LS_based_GM_small-block_engine\">LS based GM small-block engine</a>"},{"pageviews":"3918. <a target=\"_blank\" href=\"http://en.wikipedia.org./wiki/Money_in_the_Bank_(2017)\">Money in the Bank (2017)</a>"},{"pageviews":"3919. <a target=\"_blank\" href=\"http://en.wikipedia.org./wiki/William_McKinley\">William McKinley</a>"},{"pageviews":"3920. <a target=\"_blank\" href=\"http://en.wikipedia.org./wiki/Monica_Bellucci\">Monica Bellucci</a>"},{"pageviews":"3921. <a target=\"_blank\" href=\"http://en.wikipedia.org./wiki/Oceania\">Oceania</a>"},{"pageviews":"3922. <a target=\"_blank\" href=\"http://en.wikipedia.org./wiki/Diamond\">Diamond</a>"},{"pageviews":"3923. <a target=\"_blank\" href=\"http://en.wikipedia.org./wiki/UFC_215\">UFC 215</a>"},{"pageviews":"3924. <a target=\"_blank\" href=\"http://en.wikipedia.org./wiki/Chinese_language\">Chinese language</a>"},{"pageviews":"3925. <a target=\"_blank\" href=\"http://en.wikipedia.org./wiki/Americas\">Americas</a>"},{"pageviews":"3926. <a target=\"_blank\" href=\"http://en.wikipedia.org./wiki/Tesla_Model_S\">Tesla Model S</a>"},{"pageviews":"3927. <a target=\"_blank\" href=\"http://en.wikipedia.org./wiki/Lymphoma\">Lymphoma</a>"},{"pageviews":"3928. <a target=\"_blank\" href=\"http://en.wikipedia.org./wiki/Anglo-Saxons\">Anglo-Saxons</a>"},{"pageviews":"3929. <a target=\"_blank\" href=\"http://en.wikipedia.org./wiki/The_Black_Eyed_Peas\">The Black Eyed Peas</a>"},{"pageviews":"3930. <a target=\"_blank\" href=\"http://en.wikipedia.org./wiki/Amazon_Web_Services\">Amazon Web Services</a>"},{"pageviews":"3931. <a target=\"_blank\" href=\"http://en.wikipedia.org./wiki/List_of_Walt_Disney_Animation_Studios_films\">List of Walt Disney Animation Studios films</a>"},{"pageviews":"3932. <a target=\"_blank\" href=\"http://en.wikipedia.org./wiki/Penny_Dreadful_(TV_series)\">Penny Dreadful (TV series)</a>"},{"pageviews":"3933. <a target=\"_blank\" href=\"http://en.wikipedia.org./wiki/Santa_Claus\">Santa Claus</a>"},{"pageviews":"3934. <a target=\"_blank\" href=\"http://en.wikipedia.org./wiki/Telstra\">Telstra</a>"},{"pageviews":"3935. <a target=\"_blank\" href=\"http://en.wikipedia.org./wiki/Joe_Scarborough\">Joe Scarborough</a>"},{"pageviews":"3936. <a target=\"_blank\" href=\"http://en.wikipedia.org./wiki/Anthony_Bourdain\">Anthony Bourdain</a>"},{"pageviews":"3937. <a target=\"_blank\" href=\"http://en.wikipedia.org./wiki/Religion\">Religion</a>"},{"pageviews":"3938. <a target=\"_blank\" href=\"http://en.wikipedia.org./wiki/Dallas\">Dallas</a>"},{"pageviews":"3939. <a target=\"_blank\" href=\"http://en.wikipedia.org./wiki/Inca_Empire\">Inca Empire</a>"},{"pageviews":"3940. <a target=\"_blank\" href=\"http://en.wikipedia.org./wiki/Mot%C3%B6rhead\">Motörhead</a>"},{"pageviews":"3941. <a target=\"_blank\" href=\"http://en.wikipedia.org./wiki/Shinto\">Shinto</a>"},{"pageviews":"3942. <a target=\"_blank\" href=\"http://en.wikipedia.org./wiki/Last_Week_Tonight_with_John_Oliver\">Last Week Tonight with John Oliver</a>"},{"pageviews":"3943. <a target=\"_blank\" href=\"http://en.wikipedia.org./wiki/H.264/MPEG-4_AVC\">H.264/MPEG-4 AVC</a>"},{"pageviews":"3944. <a target=\"_blank\" href=\"http://en.wikipedia.org./wiki/San_Marino\">San Marino</a>"},{"pageviews":"3945. <a target=\"_blank\" href=\"http://en.wikipedia.org./wiki/Mulholland_Drive_(film)\">Mulholland Drive (film)</a>"},{"pageviews":"3946. <a target=\"_blank\" href=\"http://en.wikipedia.org./wiki/List_of_video_games_considered_the_best\">List of video games considered the best</a>"},{"pageviews":"3947. <a target=\"_blank\" href=\"http://en.wikipedia.org./wiki/Hanukkah\">Hanukkah</a>"},{"pageviews":"3948. <a target=\"_blank\" href=\"http://en.wikipedia.org./wiki/Gerard_Butler\">Gerard Butler</a>"},{"pageviews":"3949. <a target=\"_blank\" href=\"http://en.wikipedia.org./wiki/Vivegam\">Vivegam</a>"},{"pageviews":"3950. <a target=\"_blank\" href=\"http://en.wikipedia.org./wiki/Miss_Peregrine's_Home_for_Peculiar_Children_(film)\">Miss Peregrine's Home for Peculiar Children (film)</a>"},{"pageviews":"3951. <a target=\"_blank\" href=\"http://en.wikipedia.org./wiki/Panic!_at_the_Disco\">Panic! at the Disco</a>"},{"pageviews":"3952. <a target=\"_blank\" href=\"http://en.wikipedia.org./wiki/List_of_New_Girl_episodes\">List of New Girl episodes</a>"},{"pageviews":"3953. <a target=\"_blank\" href=\"http://en.wikipedia.org./wiki/Dylann_Roof\">Dylann Roof</a>"},{"pageviews":"3954. <a target=\"_blank\" href=\"http://en.wikipedia.org./wiki/Spyder_(film)\">Spyder (film)</a>"},{"pageviews":"3955. <a target=\"_blank\" href=\"http://en.wikipedia.org./wiki/Fox_News\">Fox News</a>"},{"pageviews":"3956. <a target=\"_blank\" href=\"http://en.wikipedia.org./wiki/Voyager_1\">Voyager 1</a>"},{"pageviews":"3957. <a target=\"_blank\" href=\"http://en.wikipedia.org./wiki/Matt_Smith_(actor)\">Matt Smith (actor)</a>"},{"pageviews":"3958. <a target=\"_blank\" href=\"http://en.wikipedia.org./wiki/Bourne_(film_series)\">Bourne (film series)</a>"},{"pageviews":"3959. <a target=\"_blank\" href=\"http://en.wikipedia.org./wiki/War_in_Donbass\">War in Donbass</a>"},{"pageviews":"3960. <a target=\"_blank\" href=\"http://en.wikipedia.org./wiki/Blu-ray\">Blu-ray</a>"},{"pageviews":"3961. <a target=\"_blank\" href=\"http://en.wikipedia.org./wiki/Government\">Government</a>"},{"pageviews":"3962. <a target=\"_blank\" href=\"http://en.wikipedia.org./wiki/Christopher_Plummer\">Christopher Plummer</a>"},{"pageviews":"3963. <a target=\"_blank\" href=\"http://en.wikipedia.org./wiki/Data_mining\">Data mining</a>"},{"pageviews":"3964. <a target=\"_blank\" href=\"http://en.wikipedia.org./wiki/Adrianne_Palicki\">Adrianne Palicki</a>"},{"pageviews":"3965. <a target=\"_blank\" href=\"http://en.wikipedia.org./wiki/Traveling_Wilburys\">Traveling Wilburys</a>"},{"pageviews":"3966. <a target=\"_blank\" href=\"http://en.wikipedia.org./wiki/Gantt_chart\">Gantt chart</a>"},{"pageviews":"3967. <a target=\"_blank\" href=\"http://en.wikipedia.org./wiki/Angkor_Wat\">Angkor Wat</a>"},{"pageviews":"3968. <a target=\"_blank\" href=\"http://en.wikipedia.org./wiki/Rwanda\">Rwanda</a>"},{"pageviews":"3969. <a target=\"_blank\" href=\"http://en.wikipedia.org./wiki/Moment_of_inertia\">Moment of inertia</a>"},{"pageviews":"3970. <a target=\"_blank\" href=\"http://en.wikipedia.org./wiki/Dragon_Ball_Z\">Dragon Ball Z</a>"},{"pageviews":"3971. <a target=\"_blank\" href=\"http://en.wikipedia.org./wiki/Battle_of_Waterloo\">Battle of Waterloo</a>"},{"pageviews":"3972. <a target=\"_blank\" href=\"http://en.wikipedia.org./wiki/Trumpton\">Trumpton</a>"},{"pageviews":"3973. <a target=\"_blank\" href=\"http://en.wikipedia.org./wiki/NCT_(band)\">NCT (band)</a>"},{"pageviews":"3974. <a target=\"_blank\" href=\"http://en.wikipedia.org./wiki/1080p\">1080p</a>"},{"pageviews":"3975. <a target=\"_blank\" href=\"http://en.wikipedia.org./wiki/Val_Kilmer\">Val Kilmer</a>"},{"pageviews":"3976. <a target=\"_blank\" href=\"http://en.wikipedia.org./wiki/Idi_Amin\">Idi Amin</a>"},{"pageviews":"3977. <a target=\"_blank\" href=\"http://en.wikipedia.org./wiki/Napoleonic_Wars\">Napoleonic Wars</a>"},{"pageviews":"3978. <a target=\"_blank\" href=\"http://en.wikipedia.org./wiki/Charles_Kushner\">Charles Kushner</a>"},{"pageviews":"3979. <a target=\"_blank\" href=\"http://en.wikipedia.org./wiki/List_of_Stanley_Cup_champions\">List of Stanley Cup champions</a>"},{"pageviews":"3980. <a target=\"_blank\" href=\"http://en.wikipedia.org./wiki/Tony_Ferguson\">Tony Ferguson</a>"},{"pageviews":"3981. <a target=\"_blank\" href=\"http://en.wikipedia.org./wiki/Big_Show\">Big Show</a>"},{"pageviews":"3982. <a target=\"_blank\" href=\"http://en.wikipedia.org./wiki/Value-added_tax\">Value-added tax</a>"},{"pageviews":"3983. <a target=\"_blank\" href=\"http://en.wikipedia.org./wiki/American_Dad!\">American Dad!</a>"},{"pageviews":"3984. <a target=\"_blank\" href=\"http://en.wikipedia.org./wiki/Rana_Daggubati\">Rana Daggubati</a>"},{"pageviews":"3985. <a target=\"_blank\" href=\"http://en.wikipedia.org./wiki/Thermonuclear_weapon\">Thermonuclear weapon</a>"},{"pageviews":"3986. <a target=\"_blank\" href=\"http://en.wikipedia.org./wiki/Federal_Reserve_System\">Federal Reserve System</a>"},{"pageviews":"3987. <a target=\"_blank\" href=\"http://en.wikipedia.org./wiki/The_Book_of_Henry\">The Book of Henry</a>"},{"pageviews":"3988. <a target=\"_blank\" href=\"http://en.wikipedia.org./wiki/Poldark_(2015_TV_series)\">Poldark (2015 TV series)</a>"},{"pageviews":"3989. <a target=\"_blank\" href=\"http://en.wikipedia.org./wiki/List_of_popes\">List of popes</a>"},{"pageviews":"3990. <a target=\"_blank\" href=\"http://en.wikipedia.org./wiki/Heart_failure\">Heart failure</a>"},{"pageviews":"3991. <a target=\"_blank\" href=\"http://en.wikipedia.org./wiki/Mads_Mikkelsen\">Mads Mikkelsen</a>"},{"pageviews":"3992. <a target=\"_blank\" href=\"http://en.wikipedia.org./wiki/List_of_search_engines\">List of search engines</a>"},{"pageviews":"3993. <a target=\"_blank\" href=\"http://en.wikipedia.org./wiki/East_Timor\">East Timor</a>"},{"pageviews":"3994. <a target=\"_blank\" href=\"http://en.wikipedia.org./wiki/George_Carlin\">George Carlin</a>"},{"pageviews":"3995. <a target=\"_blank\" href=\"http://en.wikipedia.org./wiki/Luke_Cage\">Luke Cage</a>"},{"pageviews":"3996. <a target=\"_blank\" href=\"http://en.wikipedia.org./wiki/Atlantis\">Atlantis</a>"},{"pageviews":"3997. <a target=\"_blank\" href=\"http://en.wikipedia.org./wiki/Train_to_Busan\">Train to Busan</a>"},{"pageviews":"3998. <a target=\"_blank\" href=\"http://en.wikipedia.org./wiki/Percy_Fawcett\">Percy Fawcett</a>"},{"pageviews":"3999. <a target=\"_blank\" href=\"http://en.wikipedia.org./wiki/USS_Indianapolis_(CA-35)\">USS Indianapolis (CA-35)</a>"}],"list":"3900. British royal family  \u2014  http:\/\/en.wikipedia.org.\/wiki\/British_royal_family\n3901. Leo Tolstoy  \u2014  http:\/\/en.wikipedia.org.\/wiki\/Leo_Tolstoy\n3902. History of India  \u2014  http:\/\/en.wikipedia.org.\/wiki\/History_of_India\n3903. Impact Wrestling  \u2014  http:\/\/en.wikipedia.org.\/wiki\/Impact_Wrestling\n3904. Automotive industry  \u2014  http:\/\/en.wikipedia.org.\/wiki\/Automotive_industry\n3905. Baltimore  \u2014  http:\/\/en.wikipedia.org.\/wiki\/Baltimore\n3906. Cerebral palsy  \u2014  http:\/\/en.wikipedia.org.\/wiki\/Cerebral_palsy\n3907. Asia Carrera  \u2014  http:\/\/en.wikipedia.org.\/wiki\/Asia_Carrera\n3908. Impeachment  \u2014  http:\/\/en.wikipedia.org.\/wiki\/Impeachment\n3909. Chris Jericho  \u2014  http:\/\/en.wikipedia.org.\/wiki\/Chris_Jericho\n3910. Hunter \u00D7 Hunter  \u2014  http:\/\/en.wikipedia.org.\/wiki\/Hunter_%C3%97_Hunter\n3911. Ultraviolet  \u2014  http:\/\/en.wikipedia.org.\/wiki\/Ultraviolet\n3912. New England  \u2014  http:\/\/en.wikipedia.org.\/wiki\/New_England\n3913. Rush (band)  \u2014  http:\/\/en.wikipedia.org.\/wiki\/Rush_(band)\n3914. Social science  \u2014  http:\/\/en.wikipedia.org.\/wiki\/Social_science\n3915. Sing (disambiguation)  \u2014  http:\/\/en.wikipedia.org.\/wiki\/Sing_(disambiguation)\n3916. Olivia de Havilland  \u2014  http:\/\/en.wikipedia.org.\/wiki\/Olivia_de_Havilland\n3917. LS based GM small-block engine  \u2014  http:\/\/en.wikipedia.org.\/wiki\/LS_based_GM_small-block_engine\n3918. Money in the Bank (2017)  \u2014  http:\/\/en.wikipedia.org.\/wiki\/Money_in_the_Bank_(2017)\n3919. William McKinley  \u2014  http:\/\/en.wikipedia.org.\/wiki\/William_McKinley\n3920. Monica Bellucci  \u2014  http:\/\/en.wikipedia.org.\/wiki\/Monica_Bellucci\n3921. Oceania  \u2014  http:\/\/en.wikipedia.org.\/wiki\/Oceania\n3922. Diamond  \u2014  http:\/\/en.wikipedia.org.\/wiki\/Diamond\n3923. UFC 215  \u2014  http:\/\/en.wikipedia.org.\/wiki\/UFC_215\n3924. Chinese language  \u2014  http:\/\/en.wikipedia.org.\/wiki\/Chinese_language\n3925. Americas  \u2014  http:\/\/en.wikipedia.org.\/wiki\/Americas\n3926. Tesla Model S  \u2014  http:\/\/en.wikipedia.org.\/wiki\/Tesla_Model_S\n3927. Lymphoma  \u2014  http:\/\/en.wikipedia.org.\/wiki\/Lymphoma\n3928. Anglo-Saxons  \u2014  http:\/\/en.wikipedia.org.\/wiki\/Anglo-Saxons\n3929. The Black Eyed Peas  \u2014  http:\/\/en.wikipedia.org.\/wiki\/The_Black_Eyed_Peas\n3930. Amazon Web Services  \u2014  http:\/\/en.wikipedia.org.\/wiki\/Amazon_Web_Services\n3931. List of Walt Disney Animation Studios films  \u2014  http:\/\/en.wikipedia.org.\/wiki\/List_of_Walt_Disney_Animation_Studios_films\n3932. Penny Dreadful (TV series)  \u2014  http:\/\/en.wikipedia.org.\/wiki\/Penny_Dreadful_(TV_series)\n3933. Santa Claus  \u2014  http:\/\/en.wikipedia.org.\/wiki\/Santa_Claus\n3934. Telstra  \u2014  http:\/\/en.wikipedia.org.\/wiki\/Telstra\n3935. Joe Scarborough  \u2014  http:\/\/en.wikipedia.org.\/wiki\/Joe_Scarborough\n3936. Anthony Bourdain  \u2014  http:\/\/en.wikipedia.org.\/wiki\/Anthony_Bourdain\n3937. Religion  \u2014  http:\/\/en.wikipedia.org.\/wiki\/Religion\n3938. Dallas  \u2014  http:\/\/en.wikipedia.org.\/wiki\/Dallas\n3939. Inca Empire  \u2014  http:\/\/en.wikipedia.org.\/wiki\/Inca_Empire\n3940. Mot\u00F6rhead  \u2014  http:\/\/en.wikipedia.org.\/wiki\/Mot%C3%B6rhead\n3941. Shinto  \u2014  http:\/\/en.wikipedia.org.\/wiki\/Shinto\n3942. Last Week Tonight with John Oliver  \u2014  http:\/\/en.wikipedia.org.\/wiki\/Last_Week_Tonight_with_John_Oliver\n3943. H.264\/MPEG-4 AVC  \u2014  http:\/\/en.wikipedia.org.\/wiki\/H.264\/MPEG-4_AVC\n3944. San Marino  \u2014  http:\/\/en.wikipedia.org.\/wiki\/San_Marino\n3945. Mulholland Drive (film)  \u2014  http:\/\/en.wikipedia.org.\/wiki\/Mulholland_Drive_(film)\n3946. List of video games considered the best  \u2014  http:\/\/en.wikipedia.org.\/wiki\/List_of_video_games_considered_the_best\n3947. Hanukkah  \u2014  http:\/\/en.wikipedia.org.\/wiki\/Hanukkah\n3948. Gerard Butler  \u2014  http:\/\/en.wikipedia.org.\/wiki\/Gerard_Butler\n3949. Vivegam  \u2014  http:\/\/en.wikipedia.org.\/wiki\/Vivegam\n3950. Miss Peregrine's Home for Peculiar Children (film)  \u2014  http:\/\/en.wikipedia.org.\/wiki\/Miss_Peregrine's_Home_for_Peculiar_Children_(film)\n3951. Panic! at the Disco  \u2014  http:\/\/en.wikipedia.org.\/wiki\/Panic!_at_the_Disco\n3952. List of New Girl episodes  \u2014  http:\/\/en.wikipedia.org.\/wiki\/List_of_New_Girl_episodes\n3953. Dylann Roof  \u2014  http:\/\/en.wikipedia.org.\/wiki\/Dylann_Roof\n3954. Spyder (film)  \u2014  http:\/\/en.wikipedia.org.\/wiki\/Spyder_(film)\n3955. Fox News  \u2014  http:\/\/en.wikipedia.org.\/wiki\/Fox_News\n3956. Voyager 1  \u2014  http:\/\/en.wikipedia.org.\/wiki\/Voyager_1\n3957. Matt Smith (actor)  \u2014  http:\/\/en.wikipedia.org.\/wiki\/Matt_Smith_(actor)\n3958. Bourne (film series)  \u2014  http:\/\/en.wikipedia.org.\/wiki\/Bourne_(film_series)\n3959. War in Donbass  \u2014  http:\/\/en.wikipedia.org.\/wiki\/War_in_Donbass\n3960. Blu-ray  \u2014  http:\/\/en.wikipedia.org.\/wiki\/Blu-ray\n3961. Government  \u2014  http:\/\/en.wikipedia.org.\/wiki\/Government\n3962. Christopher Plummer  \u2014  http:\/\/en.wikipedia.org.\/wiki\/Christopher_Plummer\n3963. Data mining  \u2014  http:\/\/en.wikipedia.org.\/wiki\/Data_mining\n3964. Adrianne Palicki  \u2014  http:\/\/en.wikipedia.org.\/wiki\/Adrianne_Palicki\n3965. Traveling Wilburys  \u2014  http:\/\/en.wikipedia.org.\/wiki\/Traveling_Wilburys\n3966. Gantt chart  \u2014  http:\/\/en.wikipedia.org.\/wiki\/Gantt_chart\n3967. Angkor Wat  \u2014  http:\/\/en.wikipedia.org.\/wiki\/Angkor_Wat\n3968. Rwanda  \u2014  http:\/\/en.wikipedia.org.\/wiki\/Rwanda\n3969. Moment of inertia  \u2014  http:\/\/en.wikipedia.org.\/wiki\/Moment_of_inertia\n3970. Dragon Ball Z  \u2014  http:\/\/en.wikipedia.org.\/wiki\/Dragon_Ball_Z\n3971. Battle of Waterloo  \u2014  http:\/\/en.wikipedia.org.\/wiki\/Battle_of_Waterloo\n3972. Trumpton  \u2014  http:\/\/en.wikipedia.org.\/wiki\/Trumpton\n3973. NCT (band)  \u2014  http:\/\/en.wikipedia.org.\/wiki\/NCT_(band)\n3974. 1080p  \u2014  http:\/\/en.wikipedia.org.\/wiki\/1080p\n3975. Val Kilmer  \u2014  http:\/\/en.wikipedia.org.\/wiki\/Val_Kilmer\n3976. Idi Amin  \u2014  http:\/\/en.wikipedia.org.\/wiki\/Idi_Amin\n3977. Napoleonic Wars  \u2014  http:\/\/en.wikipedia.org.\/wiki\/Napoleonic_Wars\n3978. Charles Kushner  \u2014  http:\/\/en.wikipedia.org.\/wiki\/Charles_Kushner\n3979. List of Stanley Cup champions  \u2014  http:\/\/en.wikipedia.org.\/wiki\/List_of_Stanley_Cup_champions\n3980. Tony Ferguson  \u2014  http:\/\/en.wikipedia.org.\/wiki\/Tony_Ferguson\n3981. Big Show  \u2014  http:\/\/en.wikipedia.org.\/wiki\/Big_Show\n3982. Value-added tax  \u2014  http:\/\/en.wikipedia.org.\/wiki\/Value-added_tax\n3983. American Dad!  \u2014  http:\/\/en.wikipedia.org.\/wiki\/American_Dad!\n3984. Rana Daggubati  \u2014  http:\/\/en.wikipedia.org.\/wiki\/Rana_Daggubati\n3985. Thermonuclear weapon  \u2014  http:\/\/en.wikipedia.org.\/wiki\/Thermonuclear_weapon\n3986. Federal Reserve System  \u2014  http:\/\/en.wikipedia.org.\/wiki\/Federal_Reserve_System\n3987. The Book of Henry  \u2014  http:\/\/en.wikipedia.org.\/wiki\/The_Book_of_Henry\n3988. Poldark (2015 TV series)  \u2014  http:\/\/en.wikipedia.org.\/wiki\/Poldark_(2015_TV_series)\n3989. List of popes  \u2014  http:\/\/en.wikipedia.org.\/wiki\/List_of_popes\n3990. Heart failure  \u2014  http:\/\/en.wikipedia.org.\/wiki\/Heart_failure\n3991. Mads Mikkelsen  \u2014  http:\/\/en.wikipedia.org.\/wiki\/Mads_Mikkelsen\n3992. List of search engines  \u2014  http:\/\/en.wikipedia.org.\/wiki\/List_of_search_engines\n3993. East Timor  \u2014  http:\/\/en.wikipedia.org.\/wiki\/East_Timor\n3994. George Carlin  \u2014  http:\/\/en.wikipedia.org.\/wiki\/George_Carlin\n3995. Luke Cage  \u2014  http:\/\/en.wikipedia.org.\/wiki\/Luke_Cage\n3996. Atlantis  \u2014  http:\/\/en.wikipedia.org.\/wiki\/Atlantis\n3997. Train to Busan  \u2014  http:\/\/en.wikipedia.org.\/wiki\/Train_to_Busan\n3998. Percy Fawcett  \u2014  http:\/\/en.wikipedia.org.\/wiki\/Percy_Fawcett\n3999. USS Indianapolis (CA-35)  \u2014  http:\/\/en.wikipedia.org.\/wiki\/USS_Indianapolis_(CA-35)\n","miniList":"3900. British royal family\n3901. Leo Tolstoy\n3902. History of India\n3903. Impact Wrestling\n3904. Automotive industry\n3905. Baltimore\n3906. Cerebral palsy\n3907. Asia Carrera\n3908. Impeachment\n3909. Chris Jericho\n3910. Hunter \u00D7 Hunter\n3911. Ultraviolet\n3912. New England\n3913. Rush (band)\n3914. Social science\n3915. Sing (disambiguation)\n3916. Olivia de Havilland\n3917. LS based GM small-block engine\n3918. Money in the Bank (2017)\n3919. William McKinley\n3920. Monica Bellucci\n3921. Oceania\n3922. Diamond\n3923. UFC 215\n3924. Chinese language\n3925. Americas\n3926. Tesla Model S\n3927. Lymphoma\n3928. Anglo-Saxons\n3929. The Black Eyed Peas\n3930. Amazon Web Services\n3931. List of Walt Disney Animation Studios films\n3932. Penny Dreadful (TV series)\n3933. Santa Claus\n3934. Telstra\n3935. Joe Scarborough\n3936. Anthony Bourdain\n3937. Religion\n3938. Dallas\n3939. Inca Empire\n3940. Mot\u00F6rhead\n3941. Shinto\n3942. Last Week Tonight with John Oliver\n3943. H.264\/MPEG-4 AVC\n3944. San Marino\n3945. Mulholland Drive (film)\n3946. List of video games considered the best\n3947. Hanukkah\n3948. Gerard Butler\n3949. Vivegam\n3950. Miss Peregrine's Home for Peculiar Children (film)\n3951. Panic! at the Disco\n3952. List of New Girl episodes\n3953. Dylann Roof\n3954. Spyder (film)\n3955. Fox News\n3956. Voyager 1\n3957. Matt Smith (actor)\n3958. Bourne (film series)\n3959. War in Donbass\n3960. Blu-ray\n3961. Government\n3962. Christopher Plummer\n3963. Data mining\n3964. Adrianne Palicki\n3965. Traveling Wilburys\n3966. Gantt chart\n3967. Angkor Wat\n3968. Rwanda\n3969. Moment of inertia\n3970. Dragon Ball Z\n3971. Battle of Waterloo\n3972. Trumpton\n3973. NCT (band)\n3974. 1080p\n3975. Val Kilmer\n3976. Idi Amin\n3977. Napoleonic Wars\n3978. Charles Kushner\n3979. List of Stanley Cup champions\n3980. Tony Ferguson\n3981. Big Show\n3982. Value-added tax\n3983. American Dad!\n3984. Rana Daggubati\n3985. Thermonuclear weapon\n3986. Federal Reserve System\n3987. The Book of Henry\n3988. Poldark (2015 TV series)\n3989. List of popes\n3990. Heart failure\n3991. Mads Mikkelsen\n3992. List of search engines\n3993. East Timor\n3994. George Carlin\n3995. Luke Cage\n3996. Atlantis\n3997. Train to Busan\n3998. Percy Fawcett\n3999. USS Indianapolis (CA-35)\n"}
