{"start":401,"end":500,"count":5616717,"type":"pageviews","pageSize":100,"page":4,"pages":56168,"columns":[{"label":"","property":"pageviews","sortable":false}],"items":[{"pageviews":"400. <a target=\"_blank\" href=\"http://en.wikipedia.org./wiki/List_of_Adventure_Time_episodes\">List of Adventure Time episodes</a>"},{"pageviews":"401. <a target=\"_blank\" href=\"http://en.wikipedia.org./wiki/Saint_Lucia\">Saint Lucia</a>"},{"pageviews":"402. <a target=\"_blank\" href=\"http://en.wikipedia.org./wiki/Netflix\">Netflix</a>"},{"pageviews":"403. <a target=\"_blank\" href=\"http://en.wikipedia.org./wiki/England\">England</a>"},{"pageviews":"404. <a target=\"_blank\" href=\"http://en.wikipedia.org./wiki/FC_Barcelona\">FC Barcelona</a>"},{"pageviews":"405. <a target=\"_blank\" href=\"http://en.wikipedia.org./wiki/Valerian_and_the_City_of_a_Thousand_Planets\">Valerian and the City of a Thousand Planets</a>"},{"pageviews":"406. <a target=\"_blank\" href=\"http://en.wikipedia.org./wiki/Freddie_Mercury\">Freddie Mercury</a>"},{"pageviews":"407. <a target=\"_blank\" href=\"http://en.wikipedia.org./wiki/Royal_Rumble_(2017)\">Royal Rumble (2017)</a>"},{"pageviews":"408. <a target=\"_blank\" href=\"http://en.wikipedia.org./wiki/Post_Malone\">Post Malone</a>"},{"pageviews":"409. <a target=\"_blank\" href=\"http://en.wikipedia.org./wiki/Orange_Is_the_New_Black\">Orange Is the New Black</a>"},{"pageviews":"410. <a target=\"_blank\" href=\"http://en.wikipedia.org./wiki/United_Nations\">United Nations</a>"},{"pageviews":"411. <a target=\"_blank\" href=\"http://en.wikipedia.org./wiki/Breaking_Bad\">Breaking Bad</a>"},{"pageviews":"412. <a target=\"_blank\" href=\"http://en.wikipedia.org./wiki/Mary%2C_Queen_of_Scots\">Mary, Queen of Scots</a>"},{"pageviews":"413. <a target=\"_blank\" href=\"http://en.wikipedia.org./wiki/Gorillaz\">Gorillaz</a>"},{"pageviews":"414. <a target=\"_blank\" href=\"http://en.wikipedia.org./wiki/Greek_alphabet\">Greek alphabet</a>"},{"pageviews":"415. <a target=\"_blank\" href=\"http://en.wikipedia.org./wiki/Kellyanne_Conway\">Kellyanne Conway</a>"},{"pageviews":"416. <a target=\"_blank\" href=\"http://en.wikipedia.org./wiki/Lockheed_Martin_F-35_Lightning_II\">Lockheed Martin F-35 Lightning II</a>"},{"pageviews":"417. <a target=\"_blank\" href=\"http://en.wikipedia.org./wiki/Goods_and_Services_Tax_(India)\">Goods and Services Tax (India)</a>"},{"pageviews":"418. <a target=\"_blank\" href=\"http://en.wikipedia.org./wiki/Internet_of_things\">Internet of things</a>"},{"pageviews":"419. <a target=\"_blank\" href=\"http://en.wikipedia.org./wiki/Drake_(musician)\">Drake (musician)</a>"},{"pageviews":"420. <a target=\"_blank\" href=\"http://en.wikipedia.org./wiki/Chelsea_Manning\">Chelsea Manning</a>"},{"pageviews":"421. <a target=\"_blank\" href=\"http://en.wikipedia.org./wiki/Vietnam\">Vietnam</a>"},{"pageviews":"422. <a target=\"_blank\" href=\"http://en.wikipedia.org./wiki/Alexander_the_Great\">Alexander the Great</a>"},{"pageviews":"423. <a target=\"_blank\" href=\"http://en.wikipedia.org./wiki/Isaac_Newton\">Isaac Newton</a>"},{"pageviews":"424. <a target=\"_blank\" href=\"http://en.wikipedia.org./wiki/Kingdom_of_Prussia\">Kingdom of Prussia</a>"},{"pageviews":"425. <a target=\"_blank\" href=\"http://en.wikipedia.org./wiki/Your_Name\">Your Name</a>"},{"pageviews":"426. <a target=\"_blank\" href=\"http://en.wikipedia.org./wiki/Bill_Clinton\">Bill Clinton</a>"},{"pageviews":"427. <a target=\"_blank\" href=\"http://en.wikipedia.org./wiki/Grenada\">Grenada</a>"},{"pageviews":"428. <a target=\"_blank\" href=\"http://en.wikipedia.org./wiki/American_Gods\">American Gods</a>"},{"pageviews":"429. <a target=\"_blank\" href=\"http://en.wikipedia.org./wiki/List_of_WWE_personnel\">List of WWE personnel</a>"},{"pageviews":"430. <a target=\"_blank\" href=\"http://en.wikipedia.org./wiki/George_V\">George V</a>"},{"pageviews":"431. <a target=\"_blank\" href=\"http://en.wikipedia.org./wiki/Aaron_Hernandez\">Aaron Hernandez</a>"},{"pageviews":"432. <a target=\"_blank\" href=\"http://en.wikipedia.org./wiki/Titanic_(1997_film)\">Titanic (1997 film)</a>"},{"pageviews":"433. <a target=\"_blank\" href=\"http://en.wikipedia.org./wiki/Hern%C3%A1n_Cort%C3%A9s\">Hernán Cortés</a>"},{"pageviews":"434. <a target=\"_blank\" href=\"http://en.wikipedia.org./wiki/2016_in_film\">2016 in film</a>"},{"pageviews":"435. <a target=\"_blank\" href=\"http://en.wikipedia.org./wiki/Artificial_intelligence\">Artificial intelligence</a>"},{"pageviews":"436. <a target=\"_blank\" href=\"http://en.wikipedia.org./wiki/Despacito\">Despacito</a>"},{"pageviews":"437. <a target=\"_blank\" href=\"http://en.wikipedia.org./wiki/Bruce_Lee\">Bruce Lee</a>"},{"pageviews":"438. <a target=\"_blank\" href=\"http://en.wikipedia.org./wiki/Passengers_(2016_film)\">Passengers (2016 film)</a>"},{"pageviews":"439. <a target=\"_blank\" href=\"http://en.wikipedia.org./wiki/Transport_Layer_Security\">Transport Layer Security</a>"},{"pageviews":"440. <a target=\"_blank\" href=\"http://en.wikipedia.org./wiki/Iceland\">Iceland</a>"},{"pageviews":"441. <a target=\"_blank\" href=\"http://en.wikipedia.org./wiki/Mia_Khalifa\">Mia Khalifa</a>"},{"pageviews":"442. <a target=\"_blank\" href=\"http://en.wikipedia.org./wiki/The_100_(TV_series)\">The 100 (TV series)</a>"},{"pageviews":"443. <a target=\"_blank\" href=\"http://en.wikipedia.org./wiki/Agents_of_S.H.I.E.L.D.\">Agents of S.H.I.E.L.D.</a>"},{"pageviews":"444. <a target=\"_blank\" href=\"http://en.wikipedia.org./wiki/American_Horror_Story\">American Horror Story</a>"},{"pageviews":"445. <a target=\"_blank\" href=\"http://en.wikipedia.org./wiki/Hurricane_Irma\">Hurricane Irma</a>"},{"pageviews":"446. <a target=\"_blank\" href=\"http://en.wikipedia.org./wiki/Wonder_Woman\">Wonder Woman</a>"},{"pageviews":"447. <a target=\"_blank\" href=\"http://en.wikipedia.org./wiki/Attack_on_Titan\">Attack on Titan</a>"},{"pageviews":"448. <a target=\"_blank\" href=\"http://en.wikipedia.org./wiki/Saint_Kitts_and_Nevis\">Saint Kitts and Nevis</a>"},{"pageviews":"449. <a target=\"_blank\" href=\"http://en.wikipedia.org./wiki/Net_neutrality\">Net neutrality</a>"},{"pageviews":"450. <a target=\"_blank\" href=\"http://en.wikipedia.org./wiki/Los_Angeles\">Los Angeles</a>"},{"pageviews":"451. <a target=\"_blank\" href=\"http://en.wikipedia.org./wiki/Generation_X\">Generation X</a>"},{"pageviews":"452. <a target=\"_blank\" href=\"http://en.wikipedia.org./wiki/Life_(2017_film)\">Life (2017 film)</a>"},{"pageviews":"453. <a target=\"_blank\" href=\"http://en.wikipedia.org./wiki/Mr._Robot\">Mr. Robot</a>"},{"pageviews":"454. <a target=\"_blank\" href=\"http://en.wikipedia.org./wiki/Brooklyn_Nine-Nine\">Brooklyn Nine-Nine</a>"},{"pageviews":"455. <a target=\"_blank\" href=\"http://en.wikipedia.org./wiki/Selena\">Selena</a>"},{"pageviews":"456. <a target=\"_blank\" href=\"http://en.wikipedia.org./wiki/WannaCry_ransomware_attack\">WannaCry ransomware attack</a>"},{"pageviews":"457. <a target=\"_blank\" href=\"http://en.wikipedia.org./wiki/Poland\">Poland</a>"},{"pageviews":"458. <a target=\"_blank\" href=\"http://en.wikipedia.org./wiki/Representational_state_transfer\">Representational state transfer</a>"},{"pageviews":"459. <a target=\"_blank\" href=\"http://en.wikipedia.org./wiki/Theresa_May\">Theresa May</a>"},{"pageviews":"460. <a target=\"_blank\" href=\"http://en.wikipedia.org./wiki/Stephen_Curry\">Stephen Curry</a>"},{"pageviews":"461. <a target=\"_blank\" href=\"http://en.wikipedia.org./wiki/Jesus\">Jesus</a>"},{"pageviews":"462. <a target=\"_blank\" href=\"http://en.wikipedia.org./wiki/HTTP_cookie\">HTTP cookie</a>"},{"pageviews":"463. <a target=\"_blank\" href=\"http://en.wikipedia.org./wiki/Europe\">Europe</a>"},{"pageviews":"464. <a target=\"_blank\" href=\"http://en.wikipedia.org./wiki/Pink_Floyd\">Pink Floyd</a>"},{"pageviews":"465. <a target=\"_blank\" href=\"http://en.wikipedia.org./wiki/List_of_WWE_pay-per-view_events\">List of WWE pay-per-view events</a>"},{"pageviews":"466. <a target=\"_blank\" href=\"http://en.wikipedia.org./wiki/The_Blacklist_(TV_series)\">The Blacklist (TV series)</a>"},{"pageviews":"467. <a target=\"_blank\" href=\"http://en.wikipedia.org./wiki/2017%E2%80%9318_UEFA_Europa_League\">2017–18 UEFA Europa League</a>"},{"pageviews":"468. <a target=\"_blank\" href=\"http://en.wikipedia.org./wiki/Casey_Affleck\">Casey Affleck</a>"},{"pageviews":"469. <a target=\"_blank\" href=\"http://en.wikipedia.org./wiki/Ben_Affleck\">Ben Affleck</a>"},{"pageviews":"470. <a target=\"_blank\" href=\"http://en.wikipedia.org./wiki/The_Man_in_the_High_Castle_(TV_series)\">The Man in the High Castle (TV series)</a>"},{"pageviews":"471. <a target=\"_blank\" href=\"http://en.wikipedia.org./wiki/Paris_Agreement\">Paris Agreement</a>"},{"pageviews":"472. <a target=\"_blank\" href=\"http://en.wikipedia.org./wiki/Mindhunter_(TV_series)\">Mindhunter (TV series)</a>"},{"pageviews":"473. <a target=\"_blank\" href=\"http://en.wikipedia.org./wiki/Ted_Kaczynski\">Ted Kaczynski</a>"},{"pageviews":"474. <a target=\"_blank\" href=\"http://en.wikipedia.org./wiki/Cat\">Cat</a>"},{"pageviews":"475. <a target=\"_blank\" href=\"http://en.wikipedia.org./wiki/XXXX\">XXXX</a>"},{"pageviews":"476. <a target=\"_blank\" href=\"http://en.wikipedia.org./wiki/Bill_Skarsg%C3%A5rd\">Bill Skarsgård</a>"},{"pageviews":"477. <a target=\"_blank\" href=\"http://en.wikipedia.org./wiki/Bangladesh\">Bangladesh</a>"},{"pageviews":"478. <a target=\"_blank\" href=\"http://en.wikipedia.org./wiki/Jay-Z\">Jay-Z</a>"},{"pageviews":"479. <a target=\"_blank\" href=\"http://en.wikipedia.org./wiki/Cold_War\">Cold War</a>"},{"pageviews":"480. <a target=\"_blank\" href=\"http://en.wikipedia.org./wiki/Nazi_Germany\">Nazi Germany</a>"},{"pageviews":"481. <a target=\"_blank\" href=\"http://en.wikipedia.org./wiki/2017_ATP_World_Tour\">2017 ATP World Tour</a>"},{"pageviews":"482. <a target=\"_blank\" href=\"http://en.wikipedia.org./wiki/Educational_technology\">Educational technology</a>"},{"pageviews":"483. <a target=\"_blank\" href=\"http://en.wikipedia.org./wiki/Python_(programming_language)\">Python (programming language)</a>"},{"pageviews":"484. <a target=\"_blank\" href=\"http://en.wikipedia.org./wiki/International_Standard_Book_Number\">International Standard Book Number</a>"},{"pageviews":"485. <a target=\"_blank\" href=\"http://en.wikipedia.org./wiki/Peaky_Blinders_(TV_series)\">Peaky Blinders (TV series)</a>"},{"pageviews":"486. <a target=\"_blank\" href=\"http://en.wikipedia.org./wiki/Hugh_Jackman\">Hugh Jackman</a>"},{"pageviews":"487. <a target=\"_blank\" href=\"http://en.wikipedia.org./wiki/Anthony_Joshua\">Anthony Joshua</a>"},{"pageviews":"488. <a target=\"_blank\" href=\"http://en.wikipedia.org./wiki/Nelson_Mandela\">Nelson Mandela</a>"},{"pageviews":"489. <a target=\"_blank\" href=\"http://en.wikipedia.org./wiki/Justin_Trudeau\">Justin Trudeau</a>"},{"pageviews":"490. <a target=\"_blank\" href=\"http://en.wikipedia.org./wiki/List_of_Brooklyn_Nine-Nine_episodes\">List of Brooklyn Nine-Nine episodes</a>"},{"pageviews":"491. <a target=\"_blank\" href=\"http://en.wikipedia.org./wiki/Malaysia\">Malaysia</a>"},{"pageviews":"492. <a target=\"_blank\" href=\"http://en.wikipedia.org./wiki/Ivana_Trump\">Ivana Trump</a>"},{"pageviews":"493. <a target=\"_blank\" href=\"http://en.wikipedia.org./wiki/John_Lennon\">John Lennon</a>"},{"pageviews":"494. <a target=\"_blank\" href=\"http://en.wikipedia.org./wiki/Pornography\">Pornography</a>"},{"pageviews":"495. <a target=\"_blank\" href=\"http://en.wikipedia.org./wiki/Narcos\">Narcos</a>"},{"pageviews":"496. <a target=\"_blank\" href=\"http://en.wikipedia.org./wiki/DC_Extended_Universe\">DC Extended Universe</a>"},{"pageviews":"497. <a target=\"_blank\" href=\"http://en.wikipedia.org./wiki/Sense8\">Sense8</a>"},{"pageviews":"498. <a target=\"_blank\" href=\"http://en.wikipedia.org./wiki/Charlize_Theron\">Charlize Theron</a>"},{"pageviews":"499. <a target=\"_blank\" href=\"http://en.wikipedia.org./wiki/Solar_eclipse_of_August_21%2C_2017\">Solar eclipse of August 21, 2017</a>"}],"list":"400. List of Adventure Time episodes  \u2014  http:\/\/en.wikipedia.org.\/wiki\/List_of_Adventure_Time_episodes\n401. Saint Lucia  \u2014  http:\/\/en.wikipedia.org.\/wiki\/Saint_Lucia\n402. Netflix  \u2014  http:\/\/en.wikipedia.org.\/wiki\/Netflix\n403. England  \u2014  http:\/\/en.wikipedia.org.\/wiki\/England\n404. FC Barcelona  \u2014  http:\/\/en.wikipedia.org.\/wiki\/FC_Barcelona\n405. Valerian and the City of a Thousand Planets  \u2014  http:\/\/en.wikipedia.org.\/wiki\/Valerian_and_the_City_of_a_Thousand_Planets\n406. Freddie Mercury  \u2014  http:\/\/en.wikipedia.org.\/wiki\/Freddie_Mercury\n407. Royal Rumble (2017)  \u2014  http:\/\/en.wikipedia.org.\/wiki\/Royal_Rumble_(2017)\n408. Post Malone  \u2014  http:\/\/en.wikipedia.org.\/wiki\/Post_Malone\n409. Orange Is the New Black  \u2014  http:\/\/en.wikipedia.org.\/wiki\/Orange_Is_the_New_Black\n410. United Nations  \u2014  http:\/\/en.wikipedia.org.\/wiki\/United_Nations\n411. Breaking Bad  \u2014  http:\/\/en.wikipedia.org.\/wiki\/Breaking_Bad\n412. Mary, Queen of Scots  \u2014  http:\/\/en.wikipedia.org.\/wiki\/Mary%2C_Queen_of_Scots\n413. Gorillaz  \u2014  http:\/\/en.wikipedia.org.\/wiki\/Gorillaz\n414. Greek alphabet  \u2014  http:\/\/en.wikipedia.org.\/wiki\/Greek_alphabet\n415. Kellyanne Conway  \u2014  http:\/\/en.wikipedia.org.\/wiki\/Kellyanne_Conway\n416. Lockheed Martin F-35 Lightning II  \u2014  http:\/\/en.wikipedia.org.\/wiki\/Lockheed_Martin_F-35_Lightning_II\n417. Goods and Services Tax (India)  \u2014  http:\/\/en.wikipedia.org.\/wiki\/Goods_and_Services_Tax_(India)\n418. Internet of things  \u2014  http:\/\/en.wikipedia.org.\/wiki\/Internet_of_things\n419. Drake (musician)  \u2014  http:\/\/en.wikipedia.org.\/wiki\/Drake_(musician)\n420. Chelsea Manning  \u2014  http:\/\/en.wikipedia.org.\/wiki\/Chelsea_Manning\n421. Vietnam  \u2014  http:\/\/en.wikipedia.org.\/wiki\/Vietnam\n422. Alexander the Great  \u2014  http:\/\/en.wikipedia.org.\/wiki\/Alexander_the_Great\n423. Isaac Newton  \u2014  http:\/\/en.wikipedia.org.\/wiki\/Isaac_Newton\n424. Kingdom of Prussia  \u2014  http:\/\/en.wikipedia.org.\/wiki\/Kingdom_of_Prussia\n425. Your Name  \u2014  http:\/\/en.wikipedia.org.\/wiki\/Your_Name\n426. Bill Clinton  \u2014  http:\/\/en.wikipedia.org.\/wiki\/Bill_Clinton\n427. Grenada  \u2014  http:\/\/en.wikipedia.org.\/wiki\/Grenada\n428. American Gods  \u2014  http:\/\/en.wikipedia.org.\/wiki\/American_Gods\n429. List of WWE personnel  \u2014  http:\/\/en.wikipedia.org.\/wiki\/List_of_WWE_personnel\n430. George V  \u2014  http:\/\/en.wikipedia.org.\/wiki\/George_V\n431. Aaron Hernandez  \u2014  http:\/\/en.wikipedia.org.\/wiki\/Aaron_Hernandez\n432. Titanic (1997 film)  \u2014  http:\/\/en.wikipedia.org.\/wiki\/Titanic_(1997_film)\n433. Hern\u00E1n Cort\u00E9s  \u2014  http:\/\/en.wikipedia.org.\/wiki\/Hern%C3%A1n_Cort%C3%A9s\n434. 2016 in film  \u2014  http:\/\/en.wikipedia.org.\/wiki\/2016_in_film\n435. Artificial intelligence  \u2014  http:\/\/en.wikipedia.org.\/wiki\/Artificial_intelligence\n436. Despacito  \u2014  http:\/\/en.wikipedia.org.\/wiki\/Despacito\n437. Bruce Lee  \u2014  http:\/\/en.wikipedia.org.\/wiki\/Bruce_Lee\n438. Passengers (2016 film)  \u2014  http:\/\/en.wikipedia.org.\/wiki\/Passengers_(2016_film)\n439. Transport Layer Security  \u2014  http:\/\/en.wikipedia.org.\/wiki\/Transport_Layer_Security\n440. Iceland  \u2014  http:\/\/en.wikipedia.org.\/wiki\/Iceland\n441. Mia Khalifa  \u2014  http:\/\/en.wikipedia.org.\/wiki\/Mia_Khalifa\n442. The 100 (TV series)  \u2014  http:\/\/en.wikipedia.org.\/wiki\/The_100_(TV_series)\n443. Agents of S.H.I.E.L.D.  \u2014  http:\/\/en.wikipedia.org.\/wiki\/Agents_of_S.H.I.E.L.D.\n444. American Horror Story  \u2014  http:\/\/en.wikipedia.org.\/wiki\/American_Horror_Story\n445. Hurricane Irma  \u2014  http:\/\/en.wikipedia.org.\/wiki\/Hurricane_Irma\n446. Wonder Woman  \u2014  http:\/\/en.wikipedia.org.\/wiki\/Wonder_Woman\n447. Attack on Titan  \u2014  http:\/\/en.wikipedia.org.\/wiki\/Attack_on_Titan\n448. Saint Kitts and Nevis  \u2014  http:\/\/en.wikipedia.org.\/wiki\/Saint_Kitts_and_Nevis\n449. Net neutrality  \u2014  http:\/\/en.wikipedia.org.\/wiki\/Net_neutrality\n450. Los Angeles  \u2014  http:\/\/en.wikipedia.org.\/wiki\/Los_Angeles\n451. Generation X  \u2014  http:\/\/en.wikipedia.org.\/wiki\/Generation_X\n452. Life (2017 film)  \u2014  http:\/\/en.wikipedia.org.\/wiki\/Life_(2017_film)\n453. Mr. Robot  \u2014  http:\/\/en.wikipedia.org.\/wiki\/Mr._Robot\n454. Brooklyn Nine-Nine  \u2014  http:\/\/en.wikipedia.org.\/wiki\/Brooklyn_Nine-Nine\n455. Selena  \u2014  http:\/\/en.wikipedia.org.\/wiki\/Selena\n456. WannaCry ransomware attack  \u2014  http:\/\/en.wikipedia.org.\/wiki\/WannaCry_ransomware_attack\n457. Poland  \u2014  http:\/\/en.wikipedia.org.\/wiki\/Poland\n458. Representational state transfer  \u2014  http:\/\/en.wikipedia.org.\/wiki\/Representational_state_transfer\n459. Theresa May  \u2014  http:\/\/en.wikipedia.org.\/wiki\/Theresa_May\n460. Stephen Curry  \u2014  http:\/\/en.wikipedia.org.\/wiki\/Stephen_Curry\n461. Jesus  \u2014  http:\/\/en.wikipedia.org.\/wiki\/Jesus\n462. HTTP cookie  \u2014  http:\/\/en.wikipedia.org.\/wiki\/HTTP_cookie\n463. Europe  \u2014  http:\/\/en.wikipedia.org.\/wiki\/Europe\n464. Pink Floyd  \u2014  http:\/\/en.wikipedia.org.\/wiki\/Pink_Floyd\n465. List of WWE pay-per-view events  \u2014  http:\/\/en.wikipedia.org.\/wiki\/List_of_WWE_pay-per-view_events\n466. The Blacklist (TV series)  \u2014  http:\/\/en.wikipedia.org.\/wiki\/The_Blacklist_(TV_series)\n467. 2017\u201318 UEFA Europa League  \u2014  http:\/\/en.wikipedia.org.\/wiki\/2017%E2%80%9318_UEFA_Europa_League\n468. Casey Affleck  \u2014  http:\/\/en.wikipedia.org.\/wiki\/Casey_Affleck\n469. Ben Affleck  \u2014  http:\/\/en.wikipedia.org.\/wiki\/Ben_Affleck\n470. The Man in the High Castle (TV series)  \u2014  http:\/\/en.wikipedia.org.\/wiki\/The_Man_in_the_High_Castle_(TV_series)\n471. Paris Agreement  \u2014  http:\/\/en.wikipedia.org.\/wiki\/Paris_Agreement\n472. Mindhunter (TV series)  \u2014  http:\/\/en.wikipedia.org.\/wiki\/Mindhunter_(TV_series)\n473. Ted Kaczynski  \u2014  http:\/\/en.wikipedia.org.\/wiki\/Ted_Kaczynski\n474. Cat  \u2014  http:\/\/en.wikipedia.org.\/wiki\/Cat\n475. XXXX  \u2014  http:\/\/en.wikipedia.org.\/wiki\/XXXX\n476. Bill Skarsg\u00E5rd  \u2014  http:\/\/en.wikipedia.org.\/wiki\/Bill_Skarsg%C3%A5rd\n477. Bangladesh  \u2014  http:\/\/en.wikipedia.org.\/wiki\/Bangladesh\n478. Jay-Z  \u2014  http:\/\/en.wikipedia.org.\/wiki\/Jay-Z\n479. Cold War  \u2014  http:\/\/en.wikipedia.org.\/wiki\/Cold_War\n480. Nazi Germany  \u2014  http:\/\/en.wikipedia.org.\/wiki\/Nazi_Germany\n481. 2017 ATP World Tour  \u2014  http:\/\/en.wikipedia.org.\/wiki\/2017_ATP_World_Tour\n482. Educational technology  \u2014  http:\/\/en.wikipedia.org.\/wiki\/Educational_technology\n483. Python (programming language)  \u2014  http:\/\/en.wikipedia.org.\/wiki\/Python_(programming_language)\n484. International Standard Book Number  \u2014  http:\/\/en.wikipedia.org.\/wiki\/International_Standard_Book_Number\n485. Peaky Blinders (TV series)  \u2014  http:\/\/en.wikipedia.org.\/wiki\/Peaky_Blinders_(TV_series)\n486. Hugh Jackman  \u2014  http:\/\/en.wikipedia.org.\/wiki\/Hugh_Jackman\n487. Anthony Joshua  \u2014  http:\/\/en.wikipedia.org.\/wiki\/Anthony_Joshua\n488. Nelson Mandela  \u2014  http:\/\/en.wikipedia.org.\/wiki\/Nelson_Mandela\n489. Justin Trudeau  \u2014  http:\/\/en.wikipedia.org.\/wiki\/Justin_Trudeau\n490. List of Brooklyn Nine-Nine episodes  \u2014  http:\/\/en.wikipedia.org.\/wiki\/List_of_Brooklyn_Nine-Nine_episodes\n491. Malaysia  \u2014  http:\/\/en.wikipedia.org.\/wiki\/Malaysia\n492. Ivana Trump  \u2014  http:\/\/en.wikipedia.org.\/wiki\/Ivana_Trump\n493. John Lennon  \u2014  http:\/\/en.wikipedia.org.\/wiki\/John_Lennon\n494. Pornography  \u2014  http:\/\/en.wikipedia.org.\/wiki\/Pornography\n495. Narcos  \u2014  http:\/\/en.wikipedia.org.\/wiki\/Narcos\n496. DC Extended Universe  \u2014  http:\/\/en.wikipedia.org.\/wiki\/DC_Extended_Universe\n497. Sense8  \u2014  http:\/\/en.wikipedia.org.\/wiki\/Sense8\n498. Charlize Theron  \u2014  http:\/\/en.wikipedia.org.\/wiki\/Charlize_Theron\n499. Solar eclipse of August 21, 2017  \u2014  http:\/\/en.wikipedia.org.\/wiki\/Solar_eclipse_of_August_21%2C_2017\n","miniList":"400. List of Adventure Time episodes\n401. Saint Lucia\n402. Netflix\n403. England\n404. FC Barcelona\n405. Valerian and the City of a Thousand Planets\n406. Freddie Mercury\n407. Royal Rumble (2017)\n408. Post Malone\n409. Orange Is the New Black\n410. United Nations\n411. Breaking Bad\n412. Mary, Queen of Scots\n413. Gorillaz\n414. Greek alphabet\n415. Kellyanne Conway\n416. Lockheed Martin F-35 Lightning II\n417. Goods and Services Tax (India)\n418. Internet of things\n419. Drake (musician)\n420. Chelsea Manning\n421. Vietnam\n422. Alexander the Great\n423. Isaac Newton\n424. Kingdom of Prussia\n425. Your Name\n426. Bill Clinton\n427. Grenada\n428. American Gods\n429. List of WWE personnel\n430. George V\n431. Aaron Hernandez\n432. Titanic (1997 film)\n433. Hern\u00E1n Cort\u00E9s\n434. 2016 in film\n435. Artificial intelligence\n436. Despacito\n437. Bruce Lee\n438. Passengers (2016 film)\n439. Transport Layer Security\n440. Iceland\n441. Mia Khalifa\n442. The 100 (TV series)\n443. Agents of S.H.I.E.L.D.\n444. American Horror Story\n445. Hurricane Irma\n446. Wonder Woman\n447. Attack on Titan\n448. Saint Kitts and Nevis\n449. Net neutrality\n450. Los Angeles\n451. Generation X\n452. Life (2017 film)\n453. Mr. Robot\n454. Brooklyn Nine-Nine\n455. Selena\n456. WannaCry ransomware attack\n457. Poland\n458. Representational state transfer\n459. Theresa May\n460. Stephen Curry\n461. Jesus\n462. HTTP cookie\n463. Europe\n464. Pink Floyd\n465. List of WWE pay-per-view events\n466. The Blacklist (TV series)\n467. 2017\u201318 UEFA Europa League\n468. Casey Affleck\n469. Ben Affleck\n470. The Man in the High Castle (TV series)\n471. Paris Agreement\n472. Mindhunter (TV series)\n473. Ted Kaczynski\n474. Cat\n475. XXXX\n476. Bill Skarsg\u00E5rd\n477. Bangladesh\n478. Jay-Z\n479. Cold War\n480. Nazi Germany\n481. 2017 ATP World Tour\n482. Educational technology\n483. Python (programming language)\n484. International Standard Book Number\n485. Peaky Blinders (TV series)\n486. Hugh Jackman\n487. Anthony Joshua\n488. Nelson Mandela\n489. Justin Trudeau\n490. List of Brooklyn Nine-Nine episodes\n491. Malaysia\n492. Ivana Trump\n493. John Lennon\n494. Pornography\n495. Narcos\n496. DC Extended Universe\n497. Sense8\n498. Charlize Theron\n499. Solar eclipse of August 21, 2017\n"}
