{"start":4001,"end":4100,"count":5616717,"type":"pageviews","pageSize":100,"page":40,"pages":56168,"columns":[{"label":"","property":"pageviews","sortable":false}],"items":[{"pageviews":"4000. <a target=\"_blank\" href=\"http://en.wikipedia.org./wiki/United_States_presidential_election%2C_1992\">United States presidential election, 1992</a>"},{"pageviews":"4001. <a target=\"_blank\" href=\"http://en.wikipedia.org./wiki/Polymerase_chain_reaction\">Polymerase chain reaction</a>"},{"pageviews":"4002. <a target=\"_blank\" href=\"http://en.wikipedia.org./wiki/Charles_de_Gaulle\">Charles de Gaulle</a>"},{"pageviews":"4003. <a target=\"_blank\" href=\"http://en.wikipedia.org./wiki/Jennifer_Love_Hewitt\">Jennifer Love Hewitt</a>"},{"pageviews":"4004. <a target=\"_blank\" href=\"http://en.wikipedia.org./wiki/Braveheart\">Braveheart</a>"},{"pageviews":"4005. <a target=\"_blank\" href=\"http://en.wikipedia.org./wiki/W._E._B._Du_Bois\">W. E. B. Du Bois</a>"},{"pageviews":"4006. <a target=\"_blank\" href=\"http://en.wikipedia.org./wiki/Lisa_Kudrow\">Lisa Kudrow</a>"},{"pageviews":"4007. <a target=\"_blank\" href=\"http://en.wikipedia.org./wiki/Diane_Lane\">Diane Lane</a>"},{"pageviews":"4008. <a target=\"_blank\" href=\"http://en.wikipedia.org./wiki/Gamergate_controversy\">Gamergate controversy</a>"},{"pageviews":"4009. <a target=\"_blank\" href=\"http://en.wikipedia.org./wiki/Boeing_737_MAX\">Boeing 737 MAX</a>"},{"pageviews":"4010. <a target=\"_blank\" href=\"http://en.wikipedia.org./wiki/Esperanto\">Esperanto</a>"},{"pageviews":"4011. <a target=\"_blank\" href=\"http://en.wikipedia.org./wiki/Suicide\">Suicide</a>"},{"pageviews":"4012. <a target=\"_blank\" href=\"http://en.wikipedia.org./wiki/Lenny_Kravitz\">Lenny Kravitz</a>"},{"pageviews":"4013. <a target=\"_blank\" href=\"http://en.wikipedia.org./wiki/James_Bond_in_film\">James Bond in film</a>"},{"pageviews":"4014. <a target=\"_blank\" href=\"http://en.wikipedia.org./wiki/Saint_Patrick\">Saint Patrick</a>"},{"pageviews":"4015. <a target=\"_blank\" href=\"http://en.wikipedia.org./wiki/Jersey\">Jersey</a>"},{"pageviews":"4016. <a target=\"_blank\" href=\"http://en.wikipedia.org./wiki/Francis_Ford_Coppola\">Francis Ford Coppola</a>"},{"pageviews":"4017. <a target=\"_blank\" href=\"http://en.wikipedia.org./wiki/Gnosticism\">Gnosticism</a>"},{"pageviews":"4018. <a target=\"_blank\" href=\"http://en.wikipedia.org./wiki/Two_and_a_Half_Men\">Two and a Half Men</a>"},{"pageviews":"4019. <a target=\"_blank\" href=\"http://en.wikipedia.org./wiki/Bavaria\">Bavaria</a>"},{"pageviews":"4020. <a target=\"_blank\" href=\"http://en.wikipedia.org./wiki/Calculus\">Calculus</a>"},{"pageviews":"4021. <a target=\"_blank\" href=\"http://en.wikipedia.org./wiki/Gareth_Bale\">Gareth Bale</a>"},{"pageviews":"4022. <a target=\"_blank\" href=\"http://en.wikipedia.org./wiki/Person_of_Interest_(TV_series)\">Person of Interest (TV series)</a>"},{"pageviews":"4023. <a target=\"_blank\" href=\"http://en.wikipedia.org./wiki/Trypophobia\">Trypophobia</a>"},{"pageviews":"4024. <a target=\"_blank\" href=\"http://en.wikipedia.org./wiki/Crimean_War\">Crimean War</a>"},{"pageviews":"4025. <a target=\"_blank\" href=\"http://en.wikipedia.org./wiki/Battle_of_Marawi\">Battle of Marawi</a>"},{"pageviews":"4026. <a target=\"_blank\" href=\"http://en.wikipedia.org./wiki/Bill_Goldberg\">Bill Goldberg</a>"},{"pageviews":"4027. <a target=\"_blank\" href=\"http://en.wikipedia.org./wiki/Magnetic_resonance_imaging\">Magnetic resonance imaging</a>"},{"pageviews":"4028. <a target=\"_blank\" href=\"http://en.wikipedia.org./wiki/List_of_Intel_Core_i5_microprocessors\">List of Intel Core i5 microprocessors</a>"},{"pageviews":"4029. <a target=\"_blank\" href=\"http://en.wikipedia.org./wiki/Travel_visa\">Travel visa</a>"},{"pageviews":"4030. <a target=\"_blank\" href=\"http://en.wikipedia.org./wiki/Edward_Norton\">Edward Norton</a>"},{"pageviews":"4031. <a target=\"_blank\" href=\"http://en.wikipedia.org./wiki/Stockholm_syndrome\">Stockholm syndrome</a>"},{"pageviews":"4032. <a target=\"_blank\" href=\"http://en.wikipedia.org./wiki/Alan_Walker_(music_producer)\">Alan Walker (music producer)</a>"},{"pageviews":"4033. <a target=\"_blank\" href=\"http://en.wikipedia.org./wiki/Programming_language\">Programming language</a>"},{"pageviews":"4034. <a target=\"_blank\" href=\"http://en.wikipedia.org./wiki/Graphene\">Graphene</a>"},{"pageviews":"4035. <a target=\"_blank\" href=\"http://en.wikipedia.org./wiki/Finding_Dory\">Finding Dory</a>"},{"pageviews":"4036. <a target=\"_blank\" href=\"http://en.wikipedia.org./wiki/Secret_Superstar\">Secret Superstar</a>"},{"pageviews":"4037. <a target=\"_blank\" href=\"http://en.wikipedia.org./wiki/Wyatt_Earp\">Wyatt Earp</a>"},{"pageviews":"4038. <a target=\"_blank\" href=\"http://en.wikipedia.org./wiki/Geeta_Phogat\">Geeta Phogat</a>"},{"pageviews":"4039. <a target=\"_blank\" href=\"http://en.wikipedia.org./wiki/Cain_and_Abel\">Cain and Abel</a>"},{"pageviews":"4040. <a target=\"_blank\" href=\"http://en.wikipedia.org./wiki/Life_Is_Strange\">Life Is Strange</a>"},{"pageviews":"4041. <a target=\"_blank\" href=\"http://en.wikipedia.org./wiki/Art_Deco\">Art Deco</a>"},{"pageviews":"4042. <a target=\"_blank\" href=\"http://en.wikipedia.org./wiki/Advertising\">Advertising</a>"},{"pageviews":"4043. <a target=\"_blank\" href=\"http://en.wikipedia.org./wiki/Honduras\">Honduras</a>"},{"pageviews":"4044. <a target=\"_blank\" href=\"http://en.wikipedia.org./wiki/Constantinople\">Constantinople</a>"},{"pageviews":"4045. <a target=\"_blank\" href=\"http://en.wikipedia.org./wiki/Harry_Dean_Stanton\">Harry Dean Stanton</a>"},{"pageviews":"4046. <a target=\"_blank\" href=\"http://en.wikipedia.org./wiki/Secure_Digital\">Secure Digital</a>"},{"pageviews":"4047. <a target=\"_blank\" href=\"http://en.wikipedia.org./wiki/American_Airlines\">American Airlines</a>"},{"pageviews":"4048. <a target=\"_blank\" href=\"http://en.wikipedia.org./wiki/Yellowstone_National_Park\">Yellowstone National Park</a>"},{"pageviews":"4049. <a target=\"_blank\" href=\"http://en.wikipedia.org./wiki/Joseph_Gordon-Levitt\">Joseph Gordon-Levitt</a>"},{"pageviews":"4050. <a target=\"_blank\" href=\"http://en.wikipedia.org./wiki/Danny_Masterson\">Danny Masterson</a>"},{"pageviews":"4051. <a target=\"_blank\" href=\"http://en.wikipedia.org./wiki/Tyrannosaurus\">Tyrannosaurus</a>"},{"pageviews":"4052. <a target=\"_blank\" href=\"http://en.wikipedia.org./wiki/ZIP_Code\">ZIP Code</a>"},{"pageviews":"4053. <a target=\"_blank\" href=\"http://en.wikipedia.org./wiki/Great_American_Interchange\">Great American Interchange</a>"},{"pageviews":"4054. <a target=\"_blank\" href=\"http://en.wikipedia.org./wiki/Game_of_Thrones_(season_4)\">Game of Thrones (season 4)</a>"},{"pageviews":"4055. <a target=\"_blank\" href=\"http://en.wikipedia.org./wiki/Lolita\">Lolita</a>"},{"pageviews":"4056. <a target=\"_blank\" href=\"http://en.wikipedia.org./wiki/Cthulhu\">Cthulhu</a>"},{"pageviews":"4057. <a target=\"_blank\" href=\"http://en.wikipedia.org./wiki/Transformers_(film)\">Transformers (film)</a>"},{"pageviews":"4058. <a target=\"_blank\" href=\"http://en.wikipedia.org./wiki/Nine_Inch_Nails\">Nine Inch Nails</a>"},{"pageviews":"4059. <a target=\"_blank\" href=\"http://en.wikipedia.org./wiki/The_Sinner_(TV_series)\">The Sinner (TV series)</a>"},{"pageviews":"4060. <a target=\"_blank\" href=\"http://en.wikipedia.org./wiki/Basic_access_authentication\">Basic access authentication</a>"},{"pageviews":"4061. <a target=\"_blank\" href=\"http://en.wikipedia.org./wiki/McCarthyism\">McCarthyism</a>"},{"pageviews":"4062. <a target=\"_blank\" href=\"http://en.wikipedia.org./wiki/English_alphabet\">English alphabet</a>"},{"pageviews":"4063. <a target=\"_blank\" href=\"http://en.wikipedia.org./wiki/2018_FIFA_World_Cup_qualification_%E2%80%93_CONCACAF_Fifth_Round\">2018 FIFA World Cup qualification – CONCACAF Fifth Round</a>"},{"pageviews":"4064. <a target=\"_blank\" href=\"http://en.wikipedia.org./wiki/Celtic_F.C.\">Celtic F.C.</a>"},{"pageviews":"4065. <a target=\"_blank\" href=\"http://en.wikipedia.org./wiki/G\">G</a>"},{"pageviews":"4066. <a target=\"_blank\" href=\"http://en.wikipedia.org./wiki/Doris_Day\">Doris Day</a>"},{"pageviews":"4067. <a target=\"_blank\" href=\"http://en.wikipedia.org./wiki/IPhone_7\">IPhone 7</a>"},{"pageviews":"4068. <a target=\"_blank\" href=\"http://en.wikipedia.org./wiki/Ejaculation\">Ejaculation</a>"},{"pageviews":"4069. <a target=\"_blank\" href=\"http://en.wikipedia.org./wiki/Song_Joong-ki\">Song Joong-ki</a>"},{"pageviews":"4070. <a target=\"_blank\" href=\"http://en.wikipedia.org./wiki/Montana\">Montana</a>"},{"pageviews":"4071. <a target=\"_blank\" href=\"http://en.wikipedia.org./wiki/Nile\">Nile</a>"},{"pageviews":"4072. <a target=\"_blank\" href=\"http://en.wikipedia.org./wiki/2022_FIFA_World_Cup\">2022 FIFA World Cup</a>"},{"pageviews":"4073. <a target=\"_blank\" href=\"http://en.wikipedia.org./wiki/Second_Sino-Japanese_War\">Second Sino-Japanese War</a>"},{"pageviews":"4074. <a target=\"_blank\" href=\"http://en.wikipedia.org./wiki/Seppuku\">Seppuku</a>"},{"pageviews":"4075. <a target=\"_blank\" href=\"http://en.wikipedia.org./wiki/Damn_(disambiguation)\">Damn (disambiguation)</a>"},{"pageviews":"4076. <a target=\"_blank\" href=\"http://en.wikipedia.org./wiki/Madrid\">Madrid</a>"},{"pageviews":"4077. <a target=\"_blank\" href=\"http://en.wikipedia.org./wiki/Hrithik_Roshan\">Hrithik Roshan</a>"},{"pageviews":"4078. <a target=\"_blank\" href=\"http://en.wikipedia.org./wiki/Gregorian_calendar\">Gregorian calendar</a>"},{"pageviews":"4079. <a target=\"_blank\" href=\"http://en.wikipedia.org./wiki/ICC_Champions_Trophy\">ICC Champions Trophy</a>"},{"pageviews":"4080. <a target=\"_blank\" href=\"http://en.wikipedia.org./wiki/Wii_U\">Wii U</a>"},{"pageviews":"4081. <a target=\"_blank\" href=\"http://en.wikipedia.org./wiki/Katie_Cassidy\">Katie Cassidy</a>"},{"pageviews":"4082. <a target=\"_blank\" href=\"http://en.wikipedia.org./wiki/New_Deal\">New Deal</a>"},{"pageviews":"4083. <a target=\"_blank\" href=\"http://en.wikipedia.org./wiki/The_Fresh_Prince_of_Bel-Air\">The Fresh Prince of Bel-Air</a>"},{"pageviews":"4084. <a target=\"_blank\" href=\"http://en.wikipedia.org./wiki/Pamela_Anderson\">Pamela Anderson</a>"},{"pageviews":"4085. <a target=\"_blank\" href=\"http://en.wikipedia.org./wiki/Content_delivery_network\">Content delivery network</a>"},{"pageviews":"4086. <a target=\"_blank\" href=\"http://en.wikipedia.org./wiki/Brute-force_attack\">Brute-force attack</a>"},{"pageviews":"4087. <a target=\"_blank\" href=\"http://en.wikipedia.org./wiki/Arcade_Fire\">Arcade Fire</a>"},{"pageviews":"4088. <a target=\"_blank\" href=\"http://en.wikipedia.org./wiki/Digimon_Adventure_tri.\">Digimon Adventure tri.</a>"},{"pageviews":"4089. <a target=\"_blank\" href=\"http://en.wikipedia.org./wiki/Laurence_Fishburne\">Laurence Fishburne</a>"},{"pageviews":"4090. <a target=\"_blank\" href=\"http://en.wikipedia.org./wiki/Volkswagen\">Volkswagen</a>"},{"pageviews":"4091. <a target=\"_blank\" href=\"http://en.wikipedia.org./wiki/Anthropology\">Anthropology</a>"},{"pageviews":"4092. <a target=\"_blank\" href=\"http://en.wikipedia.org./wiki/International_Bank_Account_Number\">International Bank Account Number</a>"},{"pageviews":"4093. <a target=\"_blank\" href=\"http://en.wikipedia.org./wiki/John_Boyega\">John Boyega</a>"},{"pageviews":"4094. <a target=\"_blank\" href=\"http://en.wikipedia.org./wiki/Tulip_mania\">Tulip mania</a>"},{"pageviews":"4095. <a target=\"_blank\" href=\"http://en.wikipedia.org./wiki/Senegal\">Senegal</a>"},{"pageviews":"4096. <a target=\"_blank\" href=\"http://en.wikipedia.org./wiki/Buffy_the_Vampire_Slayer\">Buffy the Vampire Slayer</a>"},{"pageviews":"4097. <a target=\"_blank\" href=\"http://en.wikipedia.org./wiki/MySQL\">MySQL</a>"},{"pageviews":"4098. <a target=\"_blank\" href=\"http://en.wikipedia.org./wiki/Half_Girlfriend_(film)\">Half Girlfriend (film)</a>"},{"pageviews":"4099. <a target=\"_blank\" href=\"http://en.wikipedia.org./wiki/The_Ghazi_Attack\">The Ghazi Attack</a>"}],"list":"4000. United States presidential election, 1992  \u2014  http:\/\/en.wikipedia.org.\/wiki\/United_States_presidential_election%2C_1992\n4001. Polymerase chain reaction  \u2014  http:\/\/en.wikipedia.org.\/wiki\/Polymerase_chain_reaction\n4002. Charles de Gaulle  \u2014  http:\/\/en.wikipedia.org.\/wiki\/Charles_de_Gaulle\n4003. Jennifer Love Hewitt  \u2014  http:\/\/en.wikipedia.org.\/wiki\/Jennifer_Love_Hewitt\n4004. Braveheart  \u2014  http:\/\/en.wikipedia.org.\/wiki\/Braveheart\n4005. W. E. B. Du Bois  \u2014  http:\/\/en.wikipedia.org.\/wiki\/W._E._B._Du_Bois\n4006. Lisa Kudrow  \u2014  http:\/\/en.wikipedia.org.\/wiki\/Lisa_Kudrow\n4007. Diane Lane  \u2014  http:\/\/en.wikipedia.org.\/wiki\/Diane_Lane\n4008. Gamergate controversy  \u2014  http:\/\/en.wikipedia.org.\/wiki\/Gamergate_controversy\n4009. Boeing 737 MAX  \u2014  http:\/\/en.wikipedia.org.\/wiki\/Boeing_737_MAX\n4010. Esperanto  \u2014  http:\/\/en.wikipedia.org.\/wiki\/Esperanto\n4011. Suicide  \u2014  http:\/\/en.wikipedia.org.\/wiki\/Suicide\n4012. Lenny Kravitz  \u2014  http:\/\/en.wikipedia.org.\/wiki\/Lenny_Kravitz\n4013. James Bond in film  \u2014  http:\/\/en.wikipedia.org.\/wiki\/James_Bond_in_film\n4014. Saint Patrick  \u2014  http:\/\/en.wikipedia.org.\/wiki\/Saint_Patrick\n4015. Jersey  \u2014  http:\/\/en.wikipedia.org.\/wiki\/Jersey\n4016. Francis Ford Coppola  \u2014  http:\/\/en.wikipedia.org.\/wiki\/Francis_Ford_Coppola\n4017. Gnosticism  \u2014  http:\/\/en.wikipedia.org.\/wiki\/Gnosticism\n4018. Two and a Half Men  \u2014  http:\/\/en.wikipedia.org.\/wiki\/Two_and_a_Half_Men\n4019. Bavaria  \u2014  http:\/\/en.wikipedia.org.\/wiki\/Bavaria\n4020. Calculus  \u2014  http:\/\/en.wikipedia.org.\/wiki\/Calculus\n4021. Gareth Bale  \u2014  http:\/\/en.wikipedia.org.\/wiki\/Gareth_Bale\n4022. Person of Interest (TV series)  \u2014  http:\/\/en.wikipedia.org.\/wiki\/Person_of_Interest_(TV_series)\n4023. Trypophobia  \u2014  http:\/\/en.wikipedia.org.\/wiki\/Trypophobia\n4024. Crimean War  \u2014  http:\/\/en.wikipedia.org.\/wiki\/Crimean_War\n4025. Battle of Marawi  \u2014  http:\/\/en.wikipedia.org.\/wiki\/Battle_of_Marawi\n4026. Bill Goldberg  \u2014  http:\/\/en.wikipedia.org.\/wiki\/Bill_Goldberg\n4027. Magnetic resonance imaging  \u2014  http:\/\/en.wikipedia.org.\/wiki\/Magnetic_resonance_imaging\n4028. List of Intel Core i5 microprocessors  \u2014  http:\/\/en.wikipedia.org.\/wiki\/List_of_Intel_Core_i5_microprocessors\n4029. Travel visa  \u2014  http:\/\/en.wikipedia.org.\/wiki\/Travel_visa\n4030. Edward Norton  \u2014  http:\/\/en.wikipedia.org.\/wiki\/Edward_Norton\n4031. Stockholm syndrome  \u2014  http:\/\/en.wikipedia.org.\/wiki\/Stockholm_syndrome\n4032. Alan Walker (music producer)  \u2014  http:\/\/en.wikipedia.org.\/wiki\/Alan_Walker_(music_producer)\n4033. Programming language  \u2014  http:\/\/en.wikipedia.org.\/wiki\/Programming_language\n4034. Graphene  \u2014  http:\/\/en.wikipedia.org.\/wiki\/Graphene\n4035. Finding Dory  \u2014  http:\/\/en.wikipedia.org.\/wiki\/Finding_Dory\n4036. Secret Superstar  \u2014  http:\/\/en.wikipedia.org.\/wiki\/Secret_Superstar\n4037. Wyatt Earp  \u2014  http:\/\/en.wikipedia.org.\/wiki\/Wyatt_Earp\n4038. Geeta Phogat  \u2014  http:\/\/en.wikipedia.org.\/wiki\/Geeta_Phogat\n4039. Cain and Abel  \u2014  http:\/\/en.wikipedia.org.\/wiki\/Cain_and_Abel\n4040. Life Is Strange  \u2014  http:\/\/en.wikipedia.org.\/wiki\/Life_Is_Strange\n4041. Art Deco  \u2014  http:\/\/en.wikipedia.org.\/wiki\/Art_Deco\n4042. Advertising  \u2014  http:\/\/en.wikipedia.org.\/wiki\/Advertising\n4043. Honduras  \u2014  http:\/\/en.wikipedia.org.\/wiki\/Honduras\n4044. Constantinople  \u2014  http:\/\/en.wikipedia.org.\/wiki\/Constantinople\n4045. Harry Dean Stanton  \u2014  http:\/\/en.wikipedia.org.\/wiki\/Harry_Dean_Stanton\n4046. Secure Digital  \u2014  http:\/\/en.wikipedia.org.\/wiki\/Secure_Digital\n4047. American Airlines  \u2014  http:\/\/en.wikipedia.org.\/wiki\/American_Airlines\n4048. Yellowstone National Park  \u2014  http:\/\/en.wikipedia.org.\/wiki\/Yellowstone_National_Park\n4049. Joseph Gordon-Levitt  \u2014  http:\/\/en.wikipedia.org.\/wiki\/Joseph_Gordon-Levitt\n4050. Danny Masterson  \u2014  http:\/\/en.wikipedia.org.\/wiki\/Danny_Masterson\n4051. Tyrannosaurus  \u2014  http:\/\/en.wikipedia.org.\/wiki\/Tyrannosaurus\n4052. ZIP Code  \u2014  http:\/\/en.wikipedia.org.\/wiki\/ZIP_Code\n4053. Great American Interchange  \u2014  http:\/\/en.wikipedia.org.\/wiki\/Great_American_Interchange\n4054. Game of Thrones (season 4)  \u2014  http:\/\/en.wikipedia.org.\/wiki\/Game_of_Thrones_(season_4)\n4055. Lolita  \u2014  http:\/\/en.wikipedia.org.\/wiki\/Lolita\n4056. Cthulhu  \u2014  http:\/\/en.wikipedia.org.\/wiki\/Cthulhu\n4057. Transformers (film)  \u2014  http:\/\/en.wikipedia.org.\/wiki\/Transformers_(film)\n4058. Nine Inch Nails  \u2014  http:\/\/en.wikipedia.org.\/wiki\/Nine_Inch_Nails\n4059. The Sinner (TV series)  \u2014  http:\/\/en.wikipedia.org.\/wiki\/The_Sinner_(TV_series)\n4060. Basic access authentication  \u2014  http:\/\/en.wikipedia.org.\/wiki\/Basic_access_authentication\n4061. McCarthyism  \u2014  http:\/\/en.wikipedia.org.\/wiki\/McCarthyism\n4062. English alphabet  \u2014  http:\/\/en.wikipedia.org.\/wiki\/English_alphabet\n4063. 2018 FIFA World Cup qualification \u2013 CONCACAF Fifth Round  \u2014  http:\/\/en.wikipedia.org.\/wiki\/2018_FIFA_World_Cup_qualification_%E2%80%93_CONCACAF_Fifth_Round\n4064. Celtic F.C.  \u2014  http:\/\/en.wikipedia.org.\/wiki\/Celtic_F.C.\n4065. G  \u2014  http:\/\/en.wikipedia.org.\/wiki\/G\n4066. Doris Day  \u2014  http:\/\/en.wikipedia.org.\/wiki\/Doris_Day\n4067. IPhone 7  \u2014  http:\/\/en.wikipedia.org.\/wiki\/IPhone_7\n4068. Ejaculation  \u2014  http:\/\/en.wikipedia.org.\/wiki\/Ejaculation\n4069. Song Joong-ki  \u2014  http:\/\/en.wikipedia.org.\/wiki\/Song_Joong-ki\n4070. Montana  \u2014  http:\/\/en.wikipedia.org.\/wiki\/Montana\n4071. Nile  \u2014  http:\/\/en.wikipedia.org.\/wiki\/Nile\n4072. 2022 FIFA World Cup  \u2014  http:\/\/en.wikipedia.org.\/wiki\/2022_FIFA_World_Cup\n4073. Second Sino-Japanese War  \u2014  http:\/\/en.wikipedia.org.\/wiki\/Second_Sino-Japanese_War\n4074. Seppuku  \u2014  http:\/\/en.wikipedia.org.\/wiki\/Seppuku\n4075. Damn (disambiguation)  \u2014  http:\/\/en.wikipedia.org.\/wiki\/Damn_(disambiguation)\n4076. Madrid  \u2014  http:\/\/en.wikipedia.org.\/wiki\/Madrid\n4077. Hrithik Roshan  \u2014  http:\/\/en.wikipedia.org.\/wiki\/Hrithik_Roshan\n4078. Gregorian calendar  \u2014  http:\/\/en.wikipedia.org.\/wiki\/Gregorian_calendar\n4079. ICC Champions Trophy  \u2014  http:\/\/en.wikipedia.org.\/wiki\/ICC_Champions_Trophy\n4080. Wii U  \u2014  http:\/\/en.wikipedia.org.\/wiki\/Wii_U\n4081. Katie Cassidy  \u2014  http:\/\/en.wikipedia.org.\/wiki\/Katie_Cassidy\n4082. New Deal  \u2014  http:\/\/en.wikipedia.org.\/wiki\/New_Deal\n4083. The Fresh Prince of Bel-Air  \u2014  http:\/\/en.wikipedia.org.\/wiki\/The_Fresh_Prince_of_Bel-Air\n4084. Pamela Anderson  \u2014  http:\/\/en.wikipedia.org.\/wiki\/Pamela_Anderson\n4085. Content delivery network  \u2014  http:\/\/en.wikipedia.org.\/wiki\/Content_delivery_network\n4086. Brute-force attack  \u2014  http:\/\/en.wikipedia.org.\/wiki\/Brute-force_attack\n4087. Arcade Fire  \u2014  http:\/\/en.wikipedia.org.\/wiki\/Arcade_Fire\n4088. Digimon Adventure tri.  \u2014  http:\/\/en.wikipedia.org.\/wiki\/Digimon_Adventure_tri.\n4089. Laurence Fishburne  \u2014  http:\/\/en.wikipedia.org.\/wiki\/Laurence_Fishburne\n4090. Volkswagen  \u2014  http:\/\/en.wikipedia.org.\/wiki\/Volkswagen\n4091. Anthropology  \u2014  http:\/\/en.wikipedia.org.\/wiki\/Anthropology\n4092. International Bank Account Number  \u2014  http:\/\/en.wikipedia.org.\/wiki\/International_Bank_Account_Number\n4093. John Boyega  \u2014  http:\/\/en.wikipedia.org.\/wiki\/John_Boyega\n4094. Tulip mania  \u2014  http:\/\/en.wikipedia.org.\/wiki\/Tulip_mania\n4095. Senegal  \u2014  http:\/\/en.wikipedia.org.\/wiki\/Senegal\n4096. Buffy the Vampire Slayer  \u2014  http:\/\/en.wikipedia.org.\/wiki\/Buffy_the_Vampire_Slayer\n4097. MySQL  \u2014  http:\/\/en.wikipedia.org.\/wiki\/MySQL\n4098. Half Girlfriend (film)  \u2014  http:\/\/en.wikipedia.org.\/wiki\/Half_Girlfriend_(film)\n4099. The Ghazi Attack  \u2014  http:\/\/en.wikipedia.org.\/wiki\/The_Ghazi_Attack\n","miniList":"4000. United States presidential election, 1992\n4001. Polymerase chain reaction\n4002. Charles de Gaulle\n4003. Jennifer Love Hewitt\n4004. Braveheart\n4005. W. E. B. Du Bois\n4006. Lisa Kudrow\n4007. Diane Lane\n4008. Gamergate controversy\n4009. Boeing 737 MAX\n4010. Esperanto\n4011. Suicide\n4012. Lenny Kravitz\n4013. James Bond in film\n4014. Saint Patrick\n4015. Jersey\n4016. Francis Ford Coppola\n4017. Gnosticism\n4018. Two and a Half Men\n4019. Bavaria\n4020. Calculus\n4021. Gareth Bale\n4022. Person of Interest (TV series)\n4023. Trypophobia\n4024. Crimean War\n4025. Battle of Marawi\n4026. Bill Goldberg\n4027. Magnetic resonance imaging\n4028. List of Intel Core i5 microprocessors\n4029. Travel visa\n4030. Edward Norton\n4031. Stockholm syndrome\n4032. Alan Walker (music producer)\n4033. Programming language\n4034. Graphene\n4035. Finding Dory\n4036. Secret Superstar\n4037. Wyatt Earp\n4038. Geeta Phogat\n4039. Cain and Abel\n4040. Life Is Strange\n4041. Art Deco\n4042. Advertising\n4043. Honduras\n4044. Constantinople\n4045. Harry Dean Stanton\n4046. Secure Digital\n4047. American Airlines\n4048. Yellowstone National Park\n4049. Joseph Gordon-Levitt\n4050. Danny Masterson\n4051. Tyrannosaurus\n4052. ZIP Code\n4053. Great American Interchange\n4054. Game of Thrones (season 4)\n4055. Lolita\n4056. Cthulhu\n4057. Transformers (film)\n4058. Nine Inch Nails\n4059. The Sinner (TV series)\n4060. Basic access authentication\n4061. McCarthyism\n4062. English alphabet\n4063. 2018 FIFA World Cup qualification \u2013 CONCACAF Fifth Round\n4064. Celtic F.C.\n4065. G\n4066. Doris Day\n4067. IPhone 7\n4068. Ejaculation\n4069. Song Joong-ki\n4070. Montana\n4071. Nile\n4072. 2022 FIFA World Cup\n4073. Second Sino-Japanese War\n4074. Seppuku\n4075. Damn (disambiguation)\n4076. Madrid\n4077. Hrithik Roshan\n4078. Gregorian calendar\n4079. ICC Champions Trophy\n4080. Wii U\n4081. Katie Cassidy\n4082. New Deal\n4083. The Fresh Prince of Bel-Air\n4084. Pamela Anderson\n4085. Content delivery network\n4086. Brute-force attack\n4087. Arcade Fire\n4088. Digimon Adventure tri.\n4089. Laurence Fishburne\n4090. Volkswagen\n4091. Anthropology\n4092. International Bank Account Number\n4093. John Boyega\n4094. Tulip mania\n4095. Senegal\n4096. Buffy the Vampire Slayer\n4097. MySQL\n4098. Half Girlfriend (film)\n4099. The Ghazi Attack\n"}
