{"start":4101,"end":4200,"count":5616717,"type":"pageviews","pageSize":100,"page":41,"pages":56168,"columns":[{"label":"","property":"pageviews","sortable":false}],"items":[{"pageviews":"4100. <a target=\"_blank\" href=\"http://en.wikipedia.org./wiki/Artemis\">Artemis</a>"},{"pageviews":"4101. <a target=\"_blank\" href=\"http://en.wikipedia.org./wiki/Meningitis\">Meningitis</a>"},{"pageviews":"4102. <a target=\"_blank\" href=\"http://en.wikipedia.org./wiki/The_xx\">The xx</a>"},{"pageviews":"4103. <a target=\"_blank\" href=\"http://en.wikipedia.org./wiki/Edward_IV_of_England\">Edward IV of England</a>"},{"pageviews":"4104. <a target=\"_blank\" href=\"http://en.wikipedia.org./wiki/WWE_Championship\">WWE Championship</a>"},{"pageviews":"4105. <a target=\"_blank\" href=\"http://en.wikipedia.org./wiki/Bobby_Fischer\">Bobby Fischer</a>"},{"pageviews":"4106. <a target=\"_blank\" href=\"http://en.wikipedia.org./wiki/Battle_of_the_Alamo\">Battle of the Alamo</a>"},{"pageviews":"4107. <a target=\"_blank\" href=\"http://en.wikipedia.org./wiki/AOL\">AOL</a>"},{"pageviews":"4108. <a target=\"_blank\" href=\"http://en.wikipedia.org./wiki/Jakarta\">Jakarta</a>"},{"pageviews":"4109. <a target=\"_blank\" href=\"http://en.wikipedia.org./wiki/Grover_Cleveland\">Grover Cleveland</a>"},{"pageviews":"4110. <a target=\"_blank\" href=\"http://en.wikipedia.org./wiki/Deepwater_Horizon_(film)\">Deepwater Horizon (film)</a>"},{"pageviews":"4111. <a target=\"_blank\" href=\"http://en.wikipedia.org./wiki/Raw_(film)\">Raw (film)</a>"},{"pageviews":"4112. <a target=\"_blank\" href=\"http://en.wikipedia.org./wiki/Keegan-Michael_Key\">Keegan-Michael Key</a>"},{"pageviews":"4113. <a target=\"_blank\" href=\"http://en.wikipedia.org./wiki/24-hour_clock\">24-hour clock</a>"},{"pageviews":"4114. <a target=\"_blank\" href=\"http://en.wikipedia.org./wiki/Adrenaline\">Adrenaline</a>"},{"pageviews":"4115. <a target=\"_blank\" href=\"http://en.wikipedia.org./wiki/Jerry_Seinfeld\">Jerry Seinfeld</a>"},{"pageviews":"4116. <a target=\"_blank\" href=\"http://en.wikipedia.org./wiki/Portmanteau\">Portmanteau</a>"},{"pageviews":"4117. <a target=\"_blank\" href=\"http://en.wikipedia.org./wiki/Oregon\">Oregon</a>"},{"pageviews":"4118. <a target=\"_blank\" href=\"http://en.wikipedia.org./wiki/List_of_programs_broadcast_by_Cartoon_Network\">List of programs broadcast by Cartoon Network</a>"},{"pageviews":"4119. <a target=\"_blank\" href=\"http://en.wikipedia.org./wiki/Casablanca_(film)\">Casablanca (film)</a>"},{"pageviews":"4120. <a target=\"_blank\" href=\"http://en.wikipedia.org./wiki/SOAP\">SOAP</a>"},{"pageviews":"4121. <a target=\"_blank\" href=\"http://en.wikipedia.org./wiki/Correlation_and_dependence\">Correlation and dependence</a>"},{"pageviews":"4122. <a target=\"_blank\" href=\"http://en.wikipedia.org./wiki/Hiragana\">Hiragana</a>"},{"pageviews":"4123. <a target=\"_blank\" href=\"http://en.wikipedia.org./wiki/Andrew_Breitbart\">Andrew Breitbart</a>"},{"pageviews":"4124. <a target=\"_blank\" href=\"http://en.wikipedia.org./wiki/Katrina_Kaif\">Katrina Kaif</a>"},{"pageviews":"4125. <a target=\"_blank\" href=\"http://en.wikipedia.org./wiki/Fyodor_Dostoevsky\">Fyodor Dostoevsky</a>"},{"pageviews":"4126. <a target=\"_blank\" href=\"http://en.wikipedia.org./wiki/Amanda_Nunes\">Amanda Nunes</a>"},{"pageviews":"4127. <a target=\"_blank\" href=\"http://en.wikipedia.org./wiki/A_Wrinkle_in_Time\">A Wrinkle in Time</a>"},{"pageviews":"4128. <a target=\"_blank\" href=\"http://en.wikipedia.org./wiki/Jonathan_Groff\">Jonathan Groff</a>"},{"pageviews":"4129. <a target=\"_blank\" href=\"http://en.wikipedia.org./wiki/The_Empire_Strikes_Back\">The Empire Strikes Back</a>"},{"pageviews":"4130. <a target=\"_blank\" href=\"http://en.wikipedia.org./wiki/Plastic\">Plastic</a>"},{"pageviews":"4131. <a target=\"_blank\" href=\"http://en.wikipedia.org./wiki/Memento_(film)\">Memento (film)</a>"},{"pageviews":"4132. <a target=\"_blank\" href=\"http://en.wikipedia.org./wiki/Black_Panther_(comics)\">Black Panther (comics)</a>"},{"pageviews":"4133. <a target=\"_blank\" href=\"http://en.wikipedia.org./wiki/Grateful_Dead\">Grateful Dead</a>"},{"pageviews":"4134. <a target=\"_blank\" href=\"http://en.wikipedia.org./wiki/2010_FIFA_World_Cup\">2010 FIFA World Cup</a>"},{"pageviews":"4135. <a target=\"_blank\" href=\"http://en.wikipedia.org./wiki/Missouri\">Missouri</a>"},{"pageviews":"4136. <a target=\"_blank\" href=\"http://en.wikipedia.org./wiki/Hybrid_Theory\">Hybrid Theory</a>"},{"pageviews":"4137. <a target=\"_blank\" href=\"http://en.wikipedia.org./wiki/Cheetah\">Cheetah</a>"},{"pageviews":"4138. <a target=\"_blank\" href=\"http://en.wikipedia.org./wiki/The_Godfather_Part_II\">The Godfather Part II</a>"},{"pageviews":"4139. <a target=\"_blank\" href=\"http://en.wikipedia.org./wiki/Pinterest\">Pinterest</a>"},{"pageviews":"4140. <a target=\"_blank\" href=\"http://en.wikipedia.org./wiki/Casualties_of_the_September_11_attacks\">Casualties of the September 11 attacks</a>"},{"pageviews":"4141. <a target=\"_blank\" href=\"http://en.wikipedia.org./wiki/Pitcairn_Islands\">Pitcairn Islands</a>"},{"pageviews":"4142. <a target=\"_blank\" href=\"http://en.wikipedia.org./wiki/Judi_Dench\">Judi Dench</a>"},{"pageviews":"4143. <a target=\"_blank\" href=\"http://en.wikipedia.org./wiki/Michel_Foucault\">Michel Foucault</a>"},{"pageviews":"4144. <a target=\"_blank\" href=\"http://en.wikipedia.org./wiki/Rose_Byrne\">Rose Byrne</a>"},{"pageviews":"4145. <a target=\"_blank\" href=\"http://en.wikipedia.org./wiki/Quinoa\">Quinoa</a>"},{"pageviews":"4146. <a target=\"_blank\" href=\"http://en.wikipedia.org./wiki/Hagia_Sophia\">Hagia Sophia</a>"},{"pageviews":"4147. <a target=\"_blank\" href=\"http://en.wikipedia.org./wiki/K-means_clustering\">K-means clustering</a>"},{"pageviews":"4148. <a target=\"_blank\" href=\"http://en.wikipedia.org./wiki/List_of_languages_by_number_of_native_speakers\">List of languages by number of native speakers</a>"},{"pageviews":"4149. <a target=\"_blank\" href=\"http://en.wikipedia.org./wiki/US_Airways_Flight_1549\">US Airways Flight 1549</a>"},{"pageviews":"4150. <a target=\"_blank\" href=\"http://en.wikipedia.org./wiki/Burning_Man\">Burning Man</a>"},{"pageviews":"4151. <a target=\"_blank\" href=\"http://en.wikipedia.org./wiki/A_Clockwork_Orange_(film)\">A Clockwork Orange (film)</a>"},{"pageviews":"4152. <a target=\"_blank\" href=\"http://en.wikipedia.org./wiki/Aaron_Swartz\">Aaron Swartz</a>"},{"pageviews":"4153. <a target=\"_blank\" href=\"http://en.wikipedia.org./wiki/Charlie_Heaton\">Charlie Heaton</a>"},{"pageviews":"4154. <a target=\"_blank\" href=\"http://en.wikipedia.org./wiki/Bosnian_War\">Bosnian War</a>"},{"pageviews":"4155. <a target=\"_blank\" href=\"http://en.wikipedia.org./wiki/Synesthesia\">Synesthesia</a>"},{"pageviews":"4156. <a target=\"_blank\" href=\"http://en.wikipedia.org./wiki/Hezbollah\">Hezbollah</a>"},{"pageviews":"4157. <a target=\"_blank\" href=\"http://en.wikipedia.org./wiki/Arctic_Monkeys\">Arctic Monkeys</a>"},{"pageviews":"4158. <a target=\"_blank\" href=\"http://en.wikipedia.org./wiki/Joel_Osteen\">Joel Osteen</a>"},{"pageviews":"4159. <a target=\"_blank\" href=\"http://en.wikipedia.org./wiki/Poliomyelitis\">Poliomyelitis</a>"},{"pageviews":"4160. <a target=\"_blank\" href=\"http://en.wikipedia.org./wiki/Flags_of_the_Confederate_States_of_America\">Flags of the Confederate States of America</a>"},{"pageviews":"4161. <a target=\"_blank\" href=\"http://en.wikipedia.org./wiki/Kennedy_family\">Kennedy family</a>"},{"pageviews":"4162. <a target=\"_blank\" href=\"http://en.wikipedia.org./wiki/Israeli%E2%80%93Palestinian_conflict\">Israeli–Palestinian conflict</a>"},{"pageviews":"4163. <a target=\"_blank\" href=\"http://en.wikipedia.org./wiki/James_Cook\">James Cook</a>"},{"pageviews":"4164. <a target=\"_blank\" href=\"http://en.wikipedia.org./wiki/Ghost_(Swedish_band)\">Ghost (Swedish band)</a>"},{"pageviews":"4165. <a target=\"_blank\" href=\"http://en.wikipedia.org./wiki/2017%E2%80%9318_NBA_season\">2017–18 NBA season</a>"},{"pageviews":"4166. <a target=\"_blank\" href=\"http://en.wikipedia.org./wiki/Yom_Kippur_War\">Yom Kippur War</a>"},{"pageviews":"4167. <a target=\"_blank\" href=\"http://en.wikipedia.org./wiki/Iron_Man_(2008_film)\">Iron Man (2008 film)</a>"},{"pageviews":"4168. <a target=\"_blank\" href=\"http://en.wikipedia.org./wiki/Dengue_fever\">Dengue fever</a>"},{"pageviews":"4169. <a target=\"_blank\" href=\"http://en.wikipedia.org./wiki/Assembly_language\">Assembly language</a>"},{"pageviews":"4170. <a target=\"_blank\" href=\"http://en.wikipedia.org./wiki/Jimmy_Page\">Jimmy Page</a>"},{"pageviews":"4171. <a target=\"_blank\" href=\"http://en.wikipedia.org./wiki/The_Doors\">The Doors</a>"},{"pageviews":"4172. <a target=\"_blank\" href=\"http://en.wikipedia.org./wiki/The_Smashing_Pumpkins\">The Smashing Pumpkins</a>"},{"pageviews":"4173. <a target=\"_blank\" href=\"http://en.wikipedia.org./wiki/Les_Mis%C3%A9rables\">Les Misérables</a>"},{"pageviews":"4174. <a target=\"_blank\" href=\"http://en.wikipedia.org./wiki/Robbie_Williams\">Robbie Williams</a>"},{"pageviews":"4175. <a target=\"_blank\" href=\"http://en.wikipedia.org./wiki/List_of_National_Basketball_Association_career_scoring_leaders\">List of National Basketball Association career scoring leaders</a>"},{"pageviews":"4176. <a target=\"_blank\" href=\"http://en.wikipedia.org./wiki/Aquaman_(film)\">Aquaman (film)</a>"},{"pageviews":"4177. <a target=\"_blank\" href=\"http://en.wikipedia.org./wiki/KGB\">KGB</a>"},{"pageviews":"4178. <a target=\"_blank\" href=\"http://en.wikipedia.org./wiki/Omegle\">Omegle</a>"},{"pageviews":"4179. <a target=\"_blank\" href=\"http://en.wikipedia.org./wiki/Abraham\">Abraham</a>"},{"pageviews":"4180. <a target=\"_blank\" href=\"http://en.wikipedia.org./wiki/Magnesium\">Magnesium</a>"},{"pageviews":"4181. <a target=\"_blank\" href=\"http://en.wikipedia.org./wiki/Unit_731\">Unit 731</a>"},{"pageviews":"4182. <a target=\"_blank\" href=\"http://en.wikipedia.org./wiki/Active_Directory\">Active Directory</a>"},{"pageviews":"4183. <a target=\"_blank\" href=\"http://en.wikipedia.org./wiki/Iggy_Pop\">Iggy Pop</a>"},{"pageviews":"4184. <a target=\"_blank\" href=\"http://en.wikipedia.org./wiki/El_Salvador\">El Salvador</a>"},{"pageviews":"4185. <a target=\"_blank\" href=\"http://en.wikipedia.org./wiki/Yogi_Adityanath\">Yogi Adityanath</a>"},{"pageviews":"4186. <a target=\"_blank\" href=\"http://en.wikipedia.org./wiki/2017_MotoGP_season\">2017 MotoGP season</a>"},{"pageviews":"4187. <a target=\"_blank\" href=\"http://en.wikipedia.org./wiki/Human_sexual_activity\">Human sexual activity</a>"},{"pageviews":"4188. <a target=\"_blank\" href=\"http://en.wikipedia.org./wiki/Confucius\">Confucius</a>"},{"pageviews":"4189. <a target=\"_blank\" href=\"http://en.wikipedia.org./wiki/Bohemian_Rhapsody\">Bohemian Rhapsody</a>"},{"pageviews":"4190. <a target=\"_blank\" href=\"http://en.wikipedia.org./wiki/Stone_Cold_Steve_Austin\">Stone Cold Steve Austin</a>"},{"pageviews":"4191. <a target=\"_blank\" href=\"http://en.wikipedia.org./wiki/FA_Cup\">FA Cup</a>"},{"pageviews":"4192. <a target=\"_blank\" href=\"http://en.wikipedia.org./wiki/Public_domain\">Public domain</a>"},{"pageviews":"4193. <a target=\"_blank\" href=\"http://en.wikipedia.org./wiki/Iran%E2%80%93Iraq_War\">Iran–Iraq War</a>"},{"pageviews":"4194. <a target=\"_blank\" href=\"http://en.wikipedia.org./wiki/Impressionism\">Impressionism</a>"},{"pageviews":"4195. <a target=\"_blank\" href=\"http://en.wikipedia.org./wiki/Achilles\">Achilles</a>"},{"pageviews":"4196. <a target=\"_blank\" href=\"http://en.wikipedia.org./wiki/Tucker_Carlson\">Tucker Carlson</a>"},{"pageviews":"4197. <a target=\"_blank\" href=\"http://en.wikipedia.org./wiki/Convolutional_neural_network\">Convolutional neural network</a>"},{"pageviews":"4198. <a target=\"_blank\" href=\"http://en.wikipedia.org./wiki/The_Imitation_Game\">The Imitation Game</a>"},{"pageviews":"4199. <a target=\"_blank\" href=\"http://en.wikipedia.org./wiki/Cat_Stevens\">Cat Stevens</a>"}],"list":"4100. Artemis  \u2014  http:\/\/en.wikipedia.org.\/wiki\/Artemis\n4101. Meningitis  \u2014  http:\/\/en.wikipedia.org.\/wiki\/Meningitis\n4102. The xx  \u2014  http:\/\/en.wikipedia.org.\/wiki\/The_xx\n4103. Edward IV of England  \u2014  http:\/\/en.wikipedia.org.\/wiki\/Edward_IV_of_England\n4104. WWE Championship  \u2014  http:\/\/en.wikipedia.org.\/wiki\/WWE_Championship\n4105. Bobby Fischer  \u2014  http:\/\/en.wikipedia.org.\/wiki\/Bobby_Fischer\n4106. Battle of the Alamo  \u2014  http:\/\/en.wikipedia.org.\/wiki\/Battle_of_the_Alamo\n4107. AOL  \u2014  http:\/\/en.wikipedia.org.\/wiki\/AOL\n4108. Jakarta  \u2014  http:\/\/en.wikipedia.org.\/wiki\/Jakarta\n4109. Grover Cleveland  \u2014  http:\/\/en.wikipedia.org.\/wiki\/Grover_Cleveland\n4110. Deepwater Horizon (film)  \u2014  http:\/\/en.wikipedia.org.\/wiki\/Deepwater_Horizon_(film)\n4111. Raw (film)  \u2014  http:\/\/en.wikipedia.org.\/wiki\/Raw_(film)\n4112. Keegan-Michael Key  \u2014  http:\/\/en.wikipedia.org.\/wiki\/Keegan-Michael_Key\n4113. 24-hour clock  \u2014  http:\/\/en.wikipedia.org.\/wiki\/24-hour_clock\n4114. Adrenaline  \u2014  http:\/\/en.wikipedia.org.\/wiki\/Adrenaline\n4115. Jerry Seinfeld  \u2014  http:\/\/en.wikipedia.org.\/wiki\/Jerry_Seinfeld\n4116. Portmanteau  \u2014  http:\/\/en.wikipedia.org.\/wiki\/Portmanteau\n4117. Oregon  \u2014  http:\/\/en.wikipedia.org.\/wiki\/Oregon\n4118. List of programs broadcast by Cartoon Network  \u2014  http:\/\/en.wikipedia.org.\/wiki\/List_of_programs_broadcast_by_Cartoon_Network\n4119. Casablanca (film)  \u2014  http:\/\/en.wikipedia.org.\/wiki\/Casablanca_(film)\n4120. SOAP  \u2014  http:\/\/en.wikipedia.org.\/wiki\/SOAP\n4121. Correlation and dependence  \u2014  http:\/\/en.wikipedia.org.\/wiki\/Correlation_and_dependence\n4122. Hiragana  \u2014  http:\/\/en.wikipedia.org.\/wiki\/Hiragana\n4123. Andrew Breitbart  \u2014  http:\/\/en.wikipedia.org.\/wiki\/Andrew_Breitbart\n4124. Katrina Kaif  \u2014  http:\/\/en.wikipedia.org.\/wiki\/Katrina_Kaif\n4125. Fyodor Dostoevsky  \u2014  http:\/\/en.wikipedia.org.\/wiki\/Fyodor_Dostoevsky\n4126. Amanda Nunes  \u2014  http:\/\/en.wikipedia.org.\/wiki\/Amanda_Nunes\n4127. A Wrinkle in Time  \u2014  http:\/\/en.wikipedia.org.\/wiki\/A_Wrinkle_in_Time\n4128. Jonathan Groff  \u2014  http:\/\/en.wikipedia.org.\/wiki\/Jonathan_Groff\n4129. The Empire Strikes Back  \u2014  http:\/\/en.wikipedia.org.\/wiki\/The_Empire_Strikes_Back\n4130. Plastic  \u2014  http:\/\/en.wikipedia.org.\/wiki\/Plastic\n4131. Memento (film)  \u2014  http:\/\/en.wikipedia.org.\/wiki\/Memento_(film)\n4132. Black Panther (comics)  \u2014  http:\/\/en.wikipedia.org.\/wiki\/Black_Panther_(comics)\n4133. Grateful Dead  \u2014  http:\/\/en.wikipedia.org.\/wiki\/Grateful_Dead\n4134. 2010 FIFA World Cup  \u2014  http:\/\/en.wikipedia.org.\/wiki\/2010_FIFA_World_Cup\n4135. Missouri  \u2014  http:\/\/en.wikipedia.org.\/wiki\/Missouri\n4136. Hybrid Theory  \u2014  http:\/\/en.wikipedia.org.\/wiki\/Hybrid_Theory\n4137. Cheetah  \u2014  http:\/\/en.wikipedia.org.\/wiki\/Cheetah\n4138. The Godfather Part II  \u2014  http:\/\/en.wikipedia.org.\/wiki\/The_Godfather_Part_II\n4139. Pinterest  \u2014  http:\/\/en.wikipedia.org.\/wiki\/Pinterest\n4140. Casualties of the September 11 attacks  \u2014  http:\/\/en.wikipedia.org.\/wiki\/Casualties_of_the_September_11_attacks\n4141. Pitcairn Islands  \u2014  http:\/\/en.wikipedia.org.\/wiki\/Pitcairn_Islands\n4142. Judi Dench  \u2014  http:\/\/en.wikipedia.org.\/wiki\/Judi_Dench\n4143. Michel Foucault  \u2014  http:\/\/en.wikipedia.org.\/wiki\/Michel_Foucault\n4144. Rose Byrne  \u2014  http:\/\/en.wikipedia.org.\/wiki\/Rose_Byrne\n4145. Quinoa  \u2014  http:\/\/en.wikipedia.org.\/wiki\/Quinoa\n4146. Hagia Sophia  \u2014  http:\/\/en.wikipedia.org.\/wiki\/Hagia_Sophia\n4147. K-means clustering  \u2014  http:\/\/en.wikipedia.org.\/wiki\/K-means_clustering\n4148. List of languages by number of native speakers  \u2014  http:\/\/en.wikipedia.org.\/wiki\/List_of_languages_by_number_of_native_speakers\n4149. US Airways Flight 1549  \u2014  http:\/\/en.wikipedia.org.\/wiki\/US_Airways_Flight_1549\n4150. Burning Man  \u2014  http:\/\/en.wikipedia.org.\/wiki\/Burning_Man\n4151. A Clockwork Orange (film)  \u2014  http:\/\/en.wikipedia.org.\/wiki\/A_Clockwork_Orange_(film)\n4152. Aaron Swartz  \u2014  http:\/\/en.wikipedia.org.\/wiki\/Aaron_Swartz\n4153. Charlie Heaton  \u2014  http:\/\/en.wikipedia.org.\/wiki\/Charlie_Heaton\n4154. Bosnian War  \u2014  http:\/\/en.wikipedia.org.\/wiki\/Bosnian_War\n4155. Synesthesia  \u2014  http:\/\/en.wikipedia.org.\/wiki\/Synesthesia\n4156. Hezbollah  \u2014  http:\/\/en.wikipedia.org.\/wiki\/Hezbollah\n4157. Arctic Monkeys  \u2014  http:\/\/en.wikipedia.org.\/wiki\/Arctic_Monkeys\n4158. Joel Osteen  \u2014  http:\/\/en.wikipedia.org.\/wiki\/Joel_Osteen\n4159. Poliomyelitis  \u2014  http:\/\/en.wikipedia.org.\/wiki\/Poliomyelitis\n4160. Flags of the Confederate States of America  \u2014  http:\/\/en.wikipedia.org.\/wiki\/Flags_of_the_Confederate_States_of_America\n4161. Kennedy family  \u2014  http:\/\/en.wikipedia.org.\/wiki\/Kennedy_family\n4162. Israeli\u2013Palestinian conflict  \u2014  http:\/\/en.wikipedia.org.\/wiki\/Israeli%E2%80%93Palestinian_conflict\n4163. James Cook  \u2014  http:\/\/en.wikipedia.org.\/wiki\/James_Cook\n4164. Ghost (Swedish band)  \u2014  http:\/\/en.wikipedia.org.\/wiki\/Ghost_(Swedish_band)\n4165. 2017\u201318 NBA season  \u2014  http:\/\/en.wikipedia.org.\/wiki\/2017%E2%80%9318_NBA_season\n4166. Yom Kippur War  \u2014  http:\/\/en.wikipedia.org.\/wiki\/Yom_Kippur_War\n4167. Iron Man (2008 film)  \u2014  http:\/\/en.wikipedia.org.\/wiki\/Iron_Man_(2008_film)\n4168. Dengue fever  \u2014  http:\/\/en.wikipedia.org.\/wiki\/Dengue_fever\n4169. Assembly language  \u2014  http:\/\/en.wikipedia.org.\/wiki\/Assembly_language\n4170. Jimmy Page  \u2014  http:\/\/en.wikipedia.org.\/wiki\/Jimmy_Page\n4171. The Doors  \u2014  http:\/\/en.wikipedia.org.\/wiki\/The_Doors\n4172. The Smashing Pumpkins  \u2014  http:\/\/en.wikipedia.org.\/wiki\/The_Smashing_Pumpkins\n4173. Les Mis\u00E9rables  \u2014  http:\/\/en.wikipedia.org.\/wiki\/Les_Mis%C3%A9rables\n4174. Robbie Williams  \u2014  http:\/\/en.wikipedia.org.\/wiki\/Robbie_Williams\n4175. List of National Basketball Association career scoring leaders  \u2014  http:\/\/en.wikipedia.org.\/wiki\/List_of_National_Basketball_Association_career_scoring_leaders\n4176. Aquaman (film)  \u2014  http:\/\/en.wikipedia.org.\/wiki\/Aquaman_(film)\n4177. KGB  \u2014  http:\/\/en.wikipedia.org.\/wiki\/KGB\n4178. Omegle  \u2014  http:\/\/en.wikipedia.org.\/wiki\/Omegle\n4179. Abraham  \u2014  http:\/\/en.wikipedia.org.\/wiki\/Abraham\n4180. Magnesium  \u2014  http:\/\/en.wikipedia.org.\/wiki\/Magnesium\n4181. Unit 731  \u2014  http:\/\/en.wikipedia.org.\/wiki\/Unit_731\n4182. Active Directory  \u2014  http:\/\/en.wikipedia.org.\/wiki\/Active_Directory\n4183. Iggy Pop  \u2014  http:\/\/en.wikipedia.org.\/wiki\/Iggy_Pop\n4184. El Salvador  \u2014  http:\/\/en.wikipedia.org.\/wiki\/El_Salvador\n4185. Yogi Adityanath  \u2014  http:\/\/en.wikipedia.org.\/wiki\/Yogi_Adityanath\n4186. 2017 MotoGP season  \u2014  http:\/\/en.wikipedia.org.\/wiki\/2017_MotoGP_season\n4187. Human sexual activity  \u2014  http:\/\/en.wikipedia.org.\/wiki\/Human_sexual_activity\n4188. Confucius  \u2014  http:\/\/en.wikipedia.org.\/wiki\/Confucius\n4189. Bohemian Rhapsody  \u2014  http:\/\/en.wikipedia.org.\/wiki\/Bohemian_Rhapsody\n4190. Stone Cold Steve Austin  \u2014  http:\/\/en.wikipedia.org.\/wiki\/Stone_Cold_Steve_Austin\n4191. FA Cup  \u2014  http:\/\/en.wikipedia.org.\/wiki\/FA_Cup\n4192. Public domain  \u2014  http:\/\/en.wikipedia.org.\/wiki\/Public_domain\n4193. Iran\u2013Iraq War  \u2014  http:\/\/en.wikipedia.org.\/wiki\/Iran%E2%80%93Iraq_War\n4194. Impressionism  \u2014  http:\/\/en.wikipedia.org.\/wiki\/Impressionism\n4195. Achilles  \u2014  http:\/\/en.wikipedia.org.\/wiki\/Achilles\n4196. Tucker Carlson  \u2014  http:\/\/en.wikipedia.org.\/wiki\/Tucker_Carlson\n4197. Convolutional neural network  \u2014  http:\/\/en.wikipedia.org.\/wiki\/Convolutional_neural_network\n4198. The Imitation Game  \u2014  http:\/\/en.wikipedia.org.\/wiki\/The_Imitation_Game\n4199. Cat Stevens  \u2014  http:\/\/en.wikipedia.org.\/wiki\/Cat_Stevens\n","miniList":"4100. Artemis\n4101. Meningitis\n4102. The xx\n4103. Edward IV of England\n4104. WWE Championship\n4105. Bobby Fischer\n4106. Battle of the Alamo\n4107. AOL\n4108. Jakarta\n4109. Grover Cleveland\n4110. Deepwater Horizon (film)\n4111. Raw (film)\n4112. Keegan-Michael Key\n4113. 24-hour clock\n4114. Adrenaline\n4115. Jerry Seinfeld\n4116. Portmanteau\n4117. Oregon\n4118. List of programs broadcast by Cartoon Network\n4119. Casablanca (film)\n4120. SOAP\n4121. Correlation and dependence\n4122. Hiragana\n4123. Andrew Breitbart\n4124. Katrina Kaif\n4125. Fyodor Dostoevsky\n4126. Amanda Nunes\n4127. A Wrinkle in Time\n4128. Jonathan Groff\n4129. The Empire Strikes Back\n4130. Plastic\n4131. Memento (film)\n4132. Black Panther (comics)\n4133. Grateful Dead\n4134. 2010 FIFA World Cup\n4135. Missouri\n4136. Hybrid Theory\n4137. Cheetah\n4138. The Godfather Part II\n4139. Pinterest\n4140. Casualties of the September 11 attacks\n4141. Pitcairn Islands\n4142. Judi Dench\n4143. Michel Foucault\n4144. Rose Byrne\n4145. Quinoa\n4146. Hagia Sophia\n4147. K-means clustering\n4148. List of languages by number of native speakers\n4149. US Airways Flight 1549\n4150. Burning Man\n4151. A Clockwork Orange (film)\n4152. Aaron Swartz\n4153. Charlie Heaton\n4154. Bosnian War\n4155. Synesthesia\n4156. Hezbollah\n4157. Arctic Monkeys\n4158. Joel Osteen\n4159. Poliomyelitis\n4160. Flags of the Confederate States of America\n4161. Kennedy family\n4162. Israeli\u2013Palestinian conflict\n4163. James Cook\n4164. Ghost (Swedish band)\n4165. 2017\u201318 NBA season\n4166. Yom Kippur War\n4167. Iron Man (2008 film)\n4168. Dengue fever\n4169. Assembly language\n4170. Jimmy Page\n4171. The Doors\n4172. The Smashing Pumpkins\n4173. Les Mis\u00E9rables\n4174. Robbie Williams\n4175. List of National Basketball Association career scoring leaders\n4176. Aquaman (film)\n4177. KGB\n4178. Omegle\n4179. Abraham\n4180. Magnesium\n4181. Unit 731\n4182. Active Directory\n4183. Iggy Pop\n4184. El Salvador\n4185. Yogi Adityanath\n4186. 2017 MotoGP season\n4187. Human sexual activity\n4188. Confucius\n4189. Bohemian Rhapsody\n4190. Stone Cold Steve Austin\n4191. FA Cup\n4192. Public domain\n4193. Iran\u2013Iraq War\n4194. Impressionism\n4195. Achilles\n4196. Tucker Carlson\n4197. Convolutional neural network\n4198. The Imitation Game\n4199. Cat Stevens\n"}
