{"start":4201,"end":4300,"count":5616717,"type":"pageviews","pageSize":100,"page":42,"pages":56168,"columns":[{"label":"","property":"pageviews","sortable":false}],"items":[{"pageviews":"4200. <a target=\"_blank\" href=\"http://en.wikipedia.org./wiki/Kevin_Bacon\">Kevin Bacon</a>"},{"pageviews":"4201. <a target=\"_blank\" href=\"http://en.wikipedia.org./wiki/Jolly_LLB_2\">Jolly LLB 2</a>"},{"pageviews":"4202. <a target=\"_blank\" href=\"http://en.wikipedia.org./wiki/Maine\">Maine</a>"},{"pageviews":"4203. <a target=\"_blank\" href=\"http://en.wikipedia.org./wiki/Vice_President_of_the_United_States\">Vice President of the United States</a>"},{"pageviews":"4204. <a target=\"_blank\" href=\"http://en.wikipedia.org./wiki/Portugal._The_Man\">Portugal. The Man</a>"},{"pageviews":"4205. <a target=\"_blank\" href=\"http://en.wikipedia.org./wiki/List_of_Qualcomm_Snapdragon_systems-on-chip\">List of Qualcomm Snapdragon systems-on-chip</a>"},{"pageviews":"4206. <a target=\"_blank\" href=\"http://en.wikipedia.org./wiki/Big_Bang_(South_Korean_band)\">Big Bang (South Korean band)</a>"},{"pageviews":"4207. <a target=\"_blank\" href=\"http://en.wikipedia.org./wiki/Fargo_(film)\">Fargo (film)</a>"},{"pageviews":"4208. <a target=\"_blank\" href=\"http://en.wikipedia.org./wiki/Wyoming\">Wyoming</a>"},{"pageviews":"4209. <a target=\"_blank\" href=\"http://en.wikipedia.org./wiki/Nathalie_Emmanuel\">Nathalie Emmanuel</a>"},{"pageviews":"4210. <a target=\"_blank\" href=\"http://en.wikipedia.org./wiki/KonoSuba\">KonoSuba</a>"},{"pageviews":"4211. <a target=\"_blank\" href=\"http://en.wikipedia.org./wiki/Seal_(musician)\">Seal (musician)</a>"},{"pageviews":"4212. <a target=\"_blank\" href=\"http://en.wikipedia.org./wiki/Serie_A\">Serie A</a>"},{"pageviews":"4213. <a target=\"_blank\" href=\"http://en.wikipedia.org./wiki/Sex_and_the_City\">Sex and the City</a>"},{"pageviews":"4214. <a target=\"_blank\" href=\"http://en.wikipedia.org./wiki/Sierra_Leone\">Sierra Leone</a>"},{"pageviews":"4215. <a target=\"_blank\" href=\"http://en.wikipedia.org./wiki/Walt_Disney_World\">Walt Disney World</a>"},{"pageviews":"4216. <a target=\"_blank\" href=\"http://en.wikipedia.org./wiki/Id%2C_ego_and_super-ego\">Id, ego and super-ego</a>"},{"pageviews":"4217. <a target=\"_blank\" href=\"http://en.wikipedia.org./wiki/Derrick_Rose\">Derrick Rose</a>"},{"pageviews":"4218. <a target=\"_blank\" href=\"http://en.wikipedia.org./wiki/Universe\">Universe</a>"},{"pageviews":"4219. <a target=\"_blank\" href=\"http://en.wikipedia.org./wiki/Semiotics\">Semiotics</a>"},{"pageviews":"4220. <a target=\"_blank\" href=\"http://en.wikipedia.org./wiki/Michael_Bloomberg\">Michael Bloomberg</a>"},{"pageviews":"4221. <a target=\"_blank\" href=\"http://en.wikipedia.org./wiki/Kevin_Costner\">Kevin Costner</a>"},{"pageviews":"4222. <a target=\"_blank\" href=\"http://en.wikipedia.org./wiki/2024_Summer_Olympics\">2024 Summer Olympics</a>"},{"pageviews":"4223. <a target=\"_blank\" href=\"http://en.wikipedia.org./wiki/Noel_Gallagher\">Noel Gallagher</a>"},{"pageviews":"4224. <a target=\"_blank\" href=\"http://en.wikipedia.org./wiki/Lilith\">Lilith</a>"},{"pageviews":"4225. <a target=\"_blank\" href=\"http://en.wikipedia.org./wiki/International_Organization_for_Standardization\">International Organization for Standardization</a>"},{"pageviews":"4226. <a target=\"_blank\" href=\"http://en.wikipedia.org./wiki/Revival_(Eminem_album)\">Revival (Eminem album)</a>"},{"pageviews":"4227. <a target=\"_blank\" href=\"http://en.wikipedia.org./wiki/Sexism\">Sexism</a>"},{"pageviews":"4228. <a target=\"_blank\" href=\"http://en.wikipedia.org./wiki/Typhoid_fever\">Typhoid fever</a>"},{"pageviews":"4229. <a target=\"_blank\" href=\"http://en.wikipedia.org./wiki/Territories_of_the_United_States\">Territories of the United States</a>"},{"pageviews":"4230. <a target=\"_blank\" href=\"http://en.wikipedia.org./wiki/Extreme_Rules_(2017)\">Extreme Rules (2017)</a>"},{"pageviews":"4231. <a target=\"_blank\" href=\"http://en.wikipedia.org./wiki/World_Health_Organization\">World Health Organization</a>"},{"pageviews":"4232. <a target=\"_blank\" href=\"http://en.wikipedia.org./wiki/Connie_Nielsen\">Connie Nielsen</a>"},{"pageviews":"4233. <a target=\"_blank\" href=\"http://en.wikipedia.org./wiki/Common_Era\">Common Era</a>"},{"pageviews":"4234. <a target=\"_blank\" href=\"http://en.wikipedia.org./wiki/Dacre_Montgomery\">Dacre Montgomery</a>"},{"pageviews":"4235. <a target=\"_blank\" href=\"http://en.wikipedia.org./wiki/Root_mean_square\">Root mean square</a>"},{"pageviews":"4236. <a target=\"_blank\" href=\"http://en.wikipedia.org./wiki/Lucille_Ball\">Lucille Ball</a>"},{"pageviews":"4237. <a target=\"_blank\" href=\"http://en.wikipedia.org./wiki/Zodiac\">Zodiac</a>"},{"pageviews":"4238. <a target=\"_blank\" href=\"http://en.wikipedia.org./wiki/Measles\">Measles</a>"},{"pageviews":"4239. <a target=\"_blank\" href=\"http://en.wikipedia.org./wiki/Mecca\">Mecca</a>"},{"pageviews":"4240. <a target=\"_blank\" href=\"http://en.wikipedia.org./wiki/Arleigh_Burke-class_destroyer\">Arleigh Burke-class destroyer</a>"},{"pageviews":"4241. <a target=\"_blank\" href=\"http://en.wikipedia.org./wiki/List_of_AMD_graphics_processing_units\">List of AMD graphics processing units</a>"},{"pageviews":"4242. <a target=\"_blank\" href=\"http://en.wikipedia.org./wiki/Hedy_Lamarr\">Hedy Lamarr</a>"},{"pageviews":"4243. <a target=\"_blank\" href=\"http://en.wikipedia.org./wiki/Jumanji\">Jumanji</a>"},{"pageviews":"4244. <a target=\"_blank\" href=\"http://en.wikipedia.org./wiki/Hugh_Laurie\">Hugh Laurie</a>"},{"pageviews":"4245. <a target=\"_blank\" href=\"http://en.wikipedia.org./wiki/Turkic_languages\">Turkic languages</a>"},{"pageviews":"4246. <a target=\"_blank\" href=\"http://en.wikipedia.org./wiki/20th_Century_Fox\">20th Century Fox</a>"},{"pageviews":"4247. <a target=\"_blank\" href=\"http://en.wikipedia.org./wiki/Hash_table\">Hash table</a>"},{"pageviews":"4248. <a target=\"_blank\" href=\"http://en.wikipedia.org./wiki/Shameless_(season_8)\">Shameless (season 8)</a>"},{"pageviews":"4249. <a target=\"_blank\" href=\"http://en.wikipedia.org./wiki/A._R._Rahman\">A. R. Rahman</a>"},{"pageviews":"4250. <a target=\"_blank\" href=\"http://en.wikipedia.org./wiki/Calvin_Coolidge\">Calvin Coolidge</a>"},{"pageviews":"4251. <a target=\"_blank\" href=\"http://en.wikipedia.org./wiki/Sausage_Party\">Sausage Party</a>"},{"pageviews":"4252. <a target=\"_blank\" href=\"http://en.wikipedia.org./wiki/C._S._Lewis\">C. S. Lewis</a>"},{"pageviews":"4253. <a target=\"_blank\" href=\"http://en.wikipedia.org./wiki/Encyclopedia\">Encyclopedia</a>"},{"pageviews":"4254. <a target=\"_blank\" href=\"http://en.wikipedia.org./wiki/Maggie_Q\">Maggie Q</a>"},{"pageviews":"4255. <a target=\"_blank\" href=\"http://en.wikipedia.org./wiki/Turmeric\">Turmeric</a>"},{"pageviews":"4256. <a target=\"_blank\" href=\"http://en.wikipedia.org./wiki/Lord_Byron\">Lord Byron</a>"},{"pageviews":"4257. <a target=\"_blank\" href=\"http://en.wikipedia.org./wiki/Nicaragua\">Nicaragua</a>"},{"pageviews":"4258. <a target=\"_blank\" href=\"http://en.wikipedia.org./wiki/Boeing_737_Next_Generation\">Boeing 737 Next Generation</a>"},{"pageviews":"4259. <a target=\"_blank\" href=\"http://en.wikipedia.org./wiki/Jackie_(2016_film)\">Jackie (2016 film)</a>"},{"pageviews":"4260. <a target=\"_blank\" href=\"http://en.wikipedia.org./wiki/Oskar_Schindler\">Oskar Schindler</a>"},{"pageviews":"4261. <a target=\"_blank\" href=\"http://en.wikipedia.org./wiki/Ho_Chi_Minh\">Ho Chi Minh</a>"},{"pageviews":"4262. <a target=\"_blank\" href=\"http://en.wikipedia.org./wiki/Art\">Art</a>"},{"pageviews":"4263. <a target=\"_blank\" href=\"http://en.wikipedia.org./wiki/Eye_color\">Eye color</a>"},{"pageviews":"4264. <a target=\"_blank\" href=\"http://en.wikipedia.org./wiki/Johnny_Galecki\">Johnny Galecki</a>"},{"pageviews":"4265. <a target=\"_blank\" href=\"http://en.wikipedia.org./wiki/Milan\">Milan</a>"},{"pageviews":"4266. <a target=\"_blank\" href=\"http://en.wikipedia.org./wiki/Inside_Out_(2015_film)\">Inside Out (2015 film)</a>"},{"pageviews":"4267. <a target=\"_blank\" href=\"http://en.wikipedia.org./wiki/Downsizing_(film)\">Downsizing (film)</a>"},{"pageviews":"4268. <a target=\"_blank\" href=\"http://en.wikipedia.org./wiki/McDonnell_Douglas_F/A-18_Hornet\">McDonnell Douglas F/A-18 Hornet</a>"},{"pageviews":"4269. <a target=\"_blank\" href=\"http://en.wikipedia.org./wiki/Naomie_Harris\">Naomie Harris</a>"},{"pageviews":"4270. <a target=\"_blank\" href=\"http://en.wikipedia.org./wiki/Electromagnetic_radiation\">Electromagnetic radiation</a>"},{"pageviews":"4271. <a target=\"_blank\" href=\"http://en.wikipedia.org./wiki/Harry_Houdini\">Harry Houdini</a>"},{"pageviews":"4272. <a target=\"_blank\" href=\"http://en.wikipedia.org./wiki/Guy_Ritchie\">Guy Ritchie</a>"},{"pageviews":"4273. <a target=\"_blank\" href=\"http://en.wikipedia.org./wiki/2017_Southeast_Asian_Games\">2017 Southeast Asian Games</a>"},{"pageviews":"4274. <a target=\"_blank\" href=\"http://en.wikipedia.org./wiki/Aruba\">Aruba</a>"},{"pageviews":"4275. <a target=\"_blank\" href=\"http://en.wikipedia.org./wiki/Grey's_Anatomy_(season_14)\">Grey's Anatomy (season 14)</a>"},{"pageviews":"4276. <a target=\"_blank\" href=\"http://en.wikipedia.org./wiki/Huawei\">Huawei</a>"},{"pageviews":"4277. <a target=\"_blank\" href=\"http://en.wikipedia.org./wiki/Natural_disaster\">Natural disaster</a>"},{"pageviews":"4278. <a target=\"_blank\" href=\"http://en.wikipedia.org./wiki/Christopher_Reeve\">Christopher Reeve</a>"},{"pageviews":"4279. <a target=\"_blank\" href=\"http://en.wikipedia.org./wiki/Foreign_exchange_market\">Foreign exchange market</a>"},{"pageviews":"4280. <a target=\"_blank\" href=\"http://en.wikipedia.org./wiki/Quincy_Jones\">Quincy Jones</a>"},{"pageviews":"4281. <a target=\"_blank\" href=\"http://en.wikipedia.org./wiki/Puyi\">Puyi</a>"},{"pageviews":"4282. <a target=\"_blank\" href=\"http://en.wikipedia.org./wiki/USS_Gerald_R._Ford\">USS Gerald R. Ford</a>"},{"pageviews":"4283. <a target=\"_blank\" href=\"http://en.wikipedia.org./wiki/Spain_national_football_team\">Spain national football team</a>"},{"pageviews":"4284. <a target=\"_blank\" href=\"http://en.wikipedia.org./wiki/Ben_Stiller\">Ben Stiller</a>"},{"pageviews":"4285. <a target=\"_blank\" href=\"http://en.wikipedia.org./wiki/Howard_Stern\">Howard Stern</a>"},{"pageviews":"4286. <a target=\"_blank\" href=\"http://en.wikipedia.org./wiki/Rosetta_Stone\">Rosetta Stone</a>"},{"pageviews":"4287. <a target=\"_blank\" href=\"http://en.wikipedia.org./wiki/RAID\">RAID</a>"},{"pageviews":"4288. <a target=\"_blank\" href=\"http://en.wikipedia.org./wiki/Terminator_Genisys\">Terminator Genisys</a>"},{"pageviews":"4289. <a target=\"_blank\" href=\"http://en.wikipedia.org./wiki/Genesis_(band)\">Genesis (band)</a>"},{"pageviews":"4290. <a target=\"_blank\" href=\"http://en.wikipedia.org./wiki/Mobile_country_code\">Mobile country code</a>"},{"pageviews":"4291. <a target=\"_blank\" href=\"http://en.wikipedia.org./wiki/Hilary_Duff\">Hilary Duff</a>"},{"pageviews":"4292. <a target=\"_blank\" href=\"http://en.wikipedia.org./wiki/Nonprofit_organization\">Nonprofit organization</a>"},{"pageviews":"4293. <a target=\"_blank\" href=\"http://en.wikipedia.org./wiki/Angel_of_the_North\">Angel of the North</a>"},{"pageviews":"4294. <a target=\"_blank\" href=\"http://en.wikipedia.org./wiki/Ho_Chi_Minh_City\">Ho Chi Minh City</a>"},{"pageviews":"4295. <a target=\"_blank\" href=\"http://en.wikipedia.org./wiki/Back_to_the_Future\">Back to the Future</a>"},{"pageviews":"4296. <a target=\"_blank\" href=\"http://en.wikipedia.org./wiki/The_West_Wing\">The West Wing</a>"},{"pageviews":"4297. <a target=\"_blank\" href=\"http://en.wikipedia.org./wiki/Family_Guy_(season_15)\">Family Guy (season 15)</a>"},{"pageviews":"4298. <a target=\"_blank\" href=\"http://en.wikipedia.org./wiki/Huntington's_disease\">Huntington's disease</a>"},{"pageviews":"4299. <a target=\"_blank\" href=\"http://en.wikipedia.org./wiki/Edward_I_of_England\">Edward I of England</a>"}],"list":"4200. Kevin Bacon  \u2014  http:\/\/en.wikipedia.org.\/wiki\/Kevin_Bacon\n4201. Jolly LLB 2  \u2014  http:\/\/en.wikipedia.org.\/wiki\/Jolly_LLB_2\n4202. Maine  \u2014  http:\/\/en.wikipedia.org.\/wiki\/Maine\n4203. Vice President of the United States  \u2014  http:\/\/en.wikipedia.org.\/wiki\/Vice_President_of_the_United_States\n4204. Portugal. The Man  \u2014  http:\/\/en.wikipedia.org.\/wiki\/Portugal._The_Man\n4205. List of Qualcomm Snapdragon systems-on-chip  \u2014  http:\/\/en.wikipedia.org.\/wiki\/List_of_Qualcomm_Snapdragon_systems-on-chip\n4206. Big Bang (South Korean band)  \u2014  http:\/\/en.wikipedia.org.\/wiki\/Big_Bang_(South_Korean_band)\n4207. Fargo (film)  \u2014  http:\/\/en.wikipedia.org.\/wiki\/Fargo_(film)\n4208. Wyoming  \u2014  http:\/\/en.wikipedia.org.\/wiki\/Wyoming\n4209. Nathalie Emmanuel  \u2014  http:\/\/en.wikipedia.org.\/wiki\/Nathalie_Emmanuel\n4210. KonoSuba  \u2014  http:\/\/en.wikipedia.org.\/wiki\/KonoSuba\n4211. Seal (musician)  \u2014  http:\/\/en.wikipedia.org.\/wiki\/Seal_(musician)\n4212. Serie A  \u2014  http:\/\/en.wikipedia.org.\/wiki\/Serie_A\n4213. Sex and the City  \u2014  http:\/\/en.wikipedia.org.\/wiki\/Sex_and_the_City\n4214. Sierra Leone  \u2014  http:\/\/en.wikipedia.org.\/wiki\/Sierra_Leone\n4215. Walt Disney World  \u2014  http:\/\/en.wikipedia.org.\/wiki\/Walt_Disney_World\n4216. Id, ego and super-ego  \u2014  http:\/\/en.wikipedia.org.\/wiki\/Id%2C_ego_and_super-ego\n4217. Derrick Rose  \u2014  http:\/\/en.wikipedia.org.\/wiki\/Derrick_Rose\n4218. Universe  \u2014  http:\/\/en.wikipedia.org.\/wiki\/Universe\n4219. Semiotics  \u2014  http:\/\/en.wikipedia.org.\/wiki\/Semiotics\n4220. Michael Bloomberg  \u2014  http:\/\/en.wikipedia.org.\/wiki\/Michael_Bloomberg\n4221. Kevin Costner  \u2014  http:\/\/en.wikipedia.org.\/wiki\/Kevin_Costner\n4222. 2024 Summer Olympics  \u2014  http:\/\/en.wikipedia.org.\/wiki\/2024_Summer_Olympics\n4223. Noel Gallagher  \u2014  http:\/\/en.wikipedia.org.\/wiki\/Noel_Gallagher\n4224. Lilith  \u2014  http:\/\/en.wikipedia.org.\/wiki\/Lilith\n4225. International Organization for Standardization  \u2014  http:\/\/en.wikipedia.org.\/wiki\/International_Organization_for_Standardization\n4226. Revival (Eminem album)  \u2014  http:\/\/en.wikipedia.org.\/wiki\/Revival_(Eminem_album)\n4227. Sexism  \u2014  http:\/\/en.wikipedia.org.\/wiki\/Sexism\n4228. Typhoid fever  \u2014  http:\/\/en.wikipedia.org.\/wiki\/Typhoid_fever\n4229. Territories of the United States  \u2014  http:\/\/en.wikipedia.org.\/wiki\/Territories_of_the_United_States\n4230. Extreme Rules (2017)  \u2014  http:\/\/en.wikipedia.org.\/wiki\/Extreme_Rules_(2017)\n4231. World Health Organization  \u2014  http:\/\/en.wikipedia.org.\/wiki\/World_Health_Organization\n4232. Connie Nielsen  \u2014  http:\/\/en.wikipedia.org.\/wiki\/Connie_Nielsen\n4233. Common Era  \u2014  http:\/\/en.wikipedia.org.\/wiki\/Common_Era\n4234. Dacre Montgomery  \u2014  http:\/\/en.wikipedia.org.\/wiki\/Dacre_Montgomery\n4235. Root mean square  \u2014  http:\/\/en.wikipedia.org.\/wiki\/Root_mean_square\n4236. Lucille Ball  \u2014  http:\/\/en.wikipedia.org.\/wiki\/Lucille_Ball\n4237. Zodiac  \u2014  http:\/\/en.wikipedia.org.\/wiki\/Zodiac\n4238. Measles  \u2014  http:\/\/en.wikipedia.org.\/wiki\/Measles\n4239. Mecca  \u2014  http:\/\/en.wikipedia.org.\/wiki\/Mecca\n4240. Arleigh Burke-class destroyer  \u2014  http:\/\/en.wikipedia.org.\/wiki\/Arleigh_Burke-class_destroyer\n4241. List of AMD graphics processing units  \u2014  http:\/\/en.wikipedia.org.\/wiki\/List_of_AMD_graphics_processing_units\n4242. Hedy Lamarr  \u2014  http:\/\/en.wikipedia.org.\/wiki\/Hedy_Lamarr\n4243. Jumanji  \u2014  http:\/\/en.wikipedia.org.\/wiki\/Jumanji\n4244. Hugh Laurie  \u2014  http:\/\/en.wikipedia.org.\/wiki\/Hugh_Laurie\n4245. Turkic languages  \u2014  http:\/\/en.wikipedia.org.\/wiki\/Turkic_languages\n4246. 20th Century Fox  \u2014  http:\/\/en.wikipedia.org.\/wiki\/20th_Century_Fox\n4247. Hash table  \u2014  http:\/\/en.wikipedia.org.\/wiki\/Hash_table\n4248. Shameless (season 8)  \u2014  http:\/\/en.wikipedia.org.\/wiki\/Shameless_(season_8)\n4249. A. R. Rahman  \u2014  http:\/\/en.wikipedia.org.\/wiki\/A._R._Rahman\n4250. Calvin Coolidge  \u2014  http:\/\/en.wikipedia.org.\/wiki\/Calvin_Coolidge\n4251. Sausage Party  \u2014  http:\/\/en.wikipedia.org.\/wiki\/Sausage_Party\n4252. C. S. Lewis  \u2014  http:\/\/en.wikipedia.org.\/wiki\/C._S._Lewis\n4253. Encyclopedia  \u2014  http:\/\/en.wikipedia.org.\/wiki\/Encyclopedia\n4254. Maggie Q  \u2014  http:\/\/en.wikipedia.org.\/wiki\/Maggie_Q\n4255. Turmeric  \u2014  http:\/\/en.wikipedia.org.\/wiki\/Turmeric\n4256. Lord Byron  \u2014  http:\/\/en.wikipedia.org.\/wiki\/Lord_Byron\n4257. Nicaragua  \u2014  http:\/\/en.wikipedia.org.\/wiki\/Nicaragua\n4258. Boeing 737 Next Generation  \u2014  http:\/\/en.wikipedia.org.\/wiki\/Boeing_737_Next_Generation\n4259. Jackie (2016 film)  \u2014  http:\/\/en.wikipedia.org.\/wiki\/Jackie_(2016_film)\n4260. Oskar Schindler  \u2014  http:\/\/en.wikipedia.org.\/wiki\/Oskar_Schindler\n4261. Ho Chi Minh  \u2014  http:\/\/en.wikipedia.org.\/wiki\/Ho_Chi_Minh\n4262. Art  \u2014  http:\/\/en.wikipedia.org.\/wiki\/Art\n4263. Eye color  \u2014  http:\/\/en.wikipedia.org.\/wiki\/Eye_color\n4264. Johnny Galecki  \u2014  http:\/\/en.wikipedia.org.\/wiki\/Johnny_Galecki\n4265. Milan  \u2014  http:\/\/en.wikipedia.org.\/wiki\/Milan\n4266. Inside Out (2015 film)  \u2014  http:\/\/en.wikipedia.org.\/wiki\/Inside_Out_(2015_film)\n4267. Downsizing (film)  \u2014  http:\/\/en.wikipedia.org.\/wiki\/Downsizing_(film)\n4268. McDonnell Douglas F\/A-18 Hornet  \u2014  http:\/\/en.wikipedia.org.\/wiki\/McDonnell_Douglas_F\/A-18_Hornet\n4269. Naomie Harris  \u2014  http:\/\/en.wikipedia.org.\/wiki\/Naomie_Harris\n4270. Electromagnetic radiation  \u2014  http:\/\/en.wikipedia.org.\/wiki\/Electromagnetic_radiation\n4271. Harry Houdini  \u2014  http:\/\/en.wikipedia.org.\/wiki\/Harry_Houdini\n4272. Guy Ritchie  \u2014  http:\/\/en.wikipedia.org.\/wiki\/Guy_Ritchie\n4273. 2017 Southeast Asian Games  \u2014  http:\/\/en.wikipedia.org.\/wiki\/2017_Southeast_Asian_Games\n4274. Aruba  \u2014  http:\/\/en.wikipedia.org.\/wiki\/Aruba\n4275. Grey's Anatomy (season 14)  \u2014  http:\/\/en.wikipedia.org.\/wiki\/Grey's_Anatomy_(season_14)\n4276. Huawei  \u2014  http:\/\/en.wikipedia.org.\/wiki\/Huawei\n4277. Natural disaster  \u2014  http:\/\/en.wikipedia.org.\/wiki\/Natural_disaster\n4278. Christopher Reeve  \u2014  http:\/\/en.wikipedia.org.\/wiki\/Christopher_Reeve\n4279. Foreign exchange market  \u2014  http:\/\/en.wikipedia.org.\/wiki\/Foreign_exchange_market\n4280. Quincy Jones  \u2014  http:\/\/en.wikipedia.org.\/wiki\/Quincy_Jones\n4281. Puyi  \u2014  http:\/\/en.wikipedia.org.\/wiki\/Puyi\n4282. USS Gerald R. Ford  \u2014  http:\/\/en.wikipedia.org.\/wiki\/USS_Gerald_R._Ford\n4283. Spain national football team  \u2014  http:\/\/en.wikipedia.org.\/wiki\/Spain_national_football_team\n4284. Ben Stiller  \u2014  http:\/\/en.wikipedia.org.\/wiki\/Ben_Stiller\n4285. Howard Stern  \u2014  http:\/\/en.wikipedia.org.\/wiki\/Howard_Stern\n4286. Rosetta Stone  \u2014  http:\/\/en.wikipedia.org.\/wiki\/Rosetta_Stone\n4287. RAID  \u2014  http:\/\/en.wikipedia.org.\/wiki\/RAID\n4288. Terminator Genisys  \u2014  http:\/\/en.wikipedia.org.\/wiki\/Terminator_Genisys\n4289. Genesis (band)  \u2014  http:\/\/en.wikipedia.org.\/wiki\/Genesis_(band)\n4290. Mobile country code  \u2014  http:\/\/en.wikipedia.org.\/wiki\/Mobile_country_code\n4291. Hilary Duff  \u2014  http:\/\/en.wikipedia.org.\/wiki\/Hilary_Duff\n4292. Nonprofit organization  \u2014  http:\/\/en.wikipedia.org.\/wiki\/Nonprofit_organization\n4293. Angel of the North  \u2014  http:\/\/en.wikipedia.org.\/wiki\/Angel_of_the_North\n4294. Ho Chi Minh City  \u2014  http:\/\/en.wikipedia.org.\/wiki\/Ho_Chi_Minh_City\n4295. Back to the Future  \u2014  http:\/\/en.wikipedia.org.\/wiki\/Back_to_the_Future\n4296. The West Wing  \u2014  http:\/\/en.wikipedia.org.\/wiki\/The_West_Wing\n4297. Family Guy (season 15)  \u2014  http:\/\/en.wikipedia.org.\/wiki\/Family_Guy_(season_15)\n4298. Huntington's disease  \u2014  http:\/\/en.wikipedia.org.\/wiki\/Huntington's_disease\n4299. Edward I of England  \u2014  http:\/\/en.wikipedia.org.\/wiki\/Edward_I_of_England\n","miniList":"4200. Kevin Bacon\n4201. Jolly LLB 2\n4202. Maine\n4203. Vice President of the United States\n4204. Portugal. The Man\n4205. List of Qualcomm Snapdragon systems-on-chip\n4206. Big Bang (South Korean band)\n4207. Fargo (film)\n4208. Wyoming\n4209. Nathalie Emmanuel\n4210. KonoSuba\n4211. Seal (musician)\n4212. Serie A\n4213. Sex and the City\n4214. Sierra Leone\n4215. Walt Disney World\n4216. Id, ego and super-ego\n4217. Derrick Rose\n4218. Universe\n4219. Semiotics\n4220. Michael Bloomberg\n4221. Kevin Costner\n4222. 2024 Summer Olympics\n4223. Noel Gallagher\n4224. Lilith\n4225. International Organization for Standardization\n4226. Revival (Eminem album)\n4227. Sexism\n4228. Typhoid fever\n4229. Territories of the United States\n4230. Extreme Rules (2017)\n4231. World Health Organization\n4232. Connie Nielsen\n4233. Common Era\n4234. Dacre Montgomery\n4235. Root mean square\n4236. Lucille Ball\n4237. Zodiac\n4238. Measles\n4239. Mecca\n4240. Arleigh Burke-class destroyer\n4241. List of AMD graphics processing units\n4242. Hedy Lamarr\n4243. Jumanji\n4244. Hugh Laurie\n4245. Turkic languages\n4246. 20th Century Fox\n4247. Hash table\n4248. Shameless (season 8)\n4249. A. R. Rahman\n4250. Calvin Coolidge\n4251. Sausage Party\n4252. C. S. Lewis\n4253. Encyclopedia\n4254. Maggie Q\n4255. Turmeric\n4256. Lord Byron\n4257. Nicaragua\n4258. Boeing 737 Next Generation\n4259. Jackie (2016 film)\n4260. Oskar Schindler\n4261. Ho Chi Minh\n4262. Art\n4263. Eye color\n4264. Johnny Galecki\n4265. Milan\n4266. Inside Out (2015 film)\n4267. Downsizing (film)\n4268. McDonnell Douglas F\/A-18 Hornet\n4269. Naomie Harris\n4270. Electromagnetic radiation\n4271. Harry Houdini\n4272. Guy Ritchie\n4273. 2017 Southeast Asian Games\n4274. Aruba\n4275. Grey's Anatomy (season 14)\n4276. Huawei\n4277. Natural disaster\n4278. Christopher Reeve\n4279. Foreign exchange market\n4280. Quincy Jones\n4281. Puyi\n4282. USS Gerald R. Ford\n4283. Spain national football team\n4284. Ben Stiller\n4285. Howard Stern\n4286. Rosetta Stone\n4287. RAID\n4288. Terminator Genisys\n4289. Genesis (band)\n4290. Mobile country code\n4291. Hilary Duff\n4292. Nonprofit organization\n4293. Angel of the North\n4294. Ho Chi Minh City\n4295. Back to the Future\n4296. The West Wing\n4297. Family Guy (season 15)\n4298. Huntington's disease\n4299. Edward I of England\n"}
