{"start":4301,"end":4400,"count":5616717,"type":"pageviews","pageSize":100,"page":43,"pages":56168,"columns":[{"label":"","property":"pageviews","sortable":false}],"items":[{"pageviews":"4300. <a target=\"_blank\" href=\"http://en.wikipedia.org./wiki/Nick_Offerman\">Nick Offerman</a>"},{"pageviews":"4301. <a target=\"_blank\" href=\"http://en.wikipedia.org./wiki/Bill_Maher\">Bill Maher</a>"},{"pageviews":"4302. <a target=\"_blank\" href=\"http://en.wikipedia.org./wiki/J._P._Morgan\">J. P. Morgan</a>"},{"pageviews":"4303. <a target=\"_blank\" href=\"http://en.wikipedia.org./wiki/Cameroon\">Cameroon</a>"},{"pageviews":"4304. <a target=\"_blank\" href=\"http://en.wikipedia.org./wiki/Lorazepam\">Lorazepam</a>"},{"pageviews":"4305. <a target=\"_blank\" href=\"http://en.wikipedia.org./wiki/William_Howard_Taft\">William Howard Taft</a>"},{"pageviews":"4306. <a target=\"_blank\" href=\"http://en.wikipedia.org./wiki/Tamil_language\">Tamil language</a>"},{"pageviews":"4307. <a target=\"_blank\" href=\"http://en.wikipedia.org./wiki/Absinthe\">Absinthe</a>"},{"pageviews":"4308. <a target=\"_blank\" href=\"http://en.wikipedia.org./wiki/Sociology\">Sociology</a>"},{"pageviews":"4309. <a target=\"_blank\" href=\"http://en.wikipedia.org./wiki/Tom_and_Jerry\">Tom and Jerry</a>"},{"pageviews":"4310. <a target=\"_blank\" href=\"http://en.wikipedia.org./wiki/Dirty_Dancing\">Dirty Dancing</a>"},{"pageviews":"4311. <a target=\"_blank\" href=\"http://en.wikipedia.org./wiki/World_of_Warcraft\">World of Warcraft</a>"},{"pageviews":"4312. <a target=\"_blank\" href=\"http://en.wikipedia.org./wiki/Deathstroke\">Deathstroke</a>"},{"pageviews":"4313. <a target=\"_blank\" href=\"http://en.wikipedia.org./wiki/Elsa_Pataky\">Elsa Pataky</a>"},{"pageviews":"4314. <a target=\"_blank\" href=\"http://en.wikipedia.org./wiki/Richard_Dawkins\">Richard Dawkins</a>"},{"pageviews":"4315. <a target=\"_blank\" href=\"http://en.wikipedia.org./wiki/Sparta\">Sparta</a>"},{"pageviews":"4316. <a target=\"_blank\" href=\"http://en.wikipedia.org./wiki/Tim_Allen\">Tim Allen</a>"},{"pageviews":"4317. <a target=\"_blank\" href=\"http://en.wikipedia.org./wiki/The_Post_(film)\">The Post (film)</a>"},{"pageviews":"4318. <a target=\"_blank\" href=\"http://en.wikipedia.org./wiki/Dada\">Dada</a>"},{"pageviews":"4319. <a target=\"_blank\" href=\"http://en.wikipedia.org./wiki/Connecticut\">Connecticut</a>"},{"pageviews":"4320. <a target=\"_blank\" href=\"http://en.wikipedia.org./wiki/The_Mick_(TV_series)\">The Mick (TV series)</a>"},{"pageviews":"4321. <a target=\"_blank\" href=\"http://en.wikipedia.org./wiki/Bombardier_Dash_8\">Bombardier Dash 8</a>"},{"pageviews":"4322. <a target=\"_blank\" href=\"http://en.wikipedia.org./wiki/Thandie_Newton\">Thandie Newton</a>"},{"pageviews":"4323. <a target=\"_blank\" href=\"http://en.wikipedia.org./wiki/Docker_(software)\">Docker (software)</a>"},{"pageviews":"4324. <a target=\"_blank\" href=\"http://en.wikipedia.org./wiki/The_White_Princess_(miniseries)\">The White Princess (miniseries)</a>"},{"pageviews":"4325. <a target=\"_blank\" href=\"http://en.wikipedia.org./wiki/List_of_Shameless_(U.S._TV_series)_episodes\">List of Shameless (U.S. TV series) episodes</a>"},{"pageviews":"4326. <a target=\"_blank\" href=\"http://en.wikipedia.org./wiki/Kid_Rock\">Kid Rock</a>"},{"pageviews":"4327. <a target=\"_blank\" href=\"http://en.wikipedia.org./wiki/Kathy_Griffin\">Kathy Griffin</a>"},{"pageviews":"4328. <a target=\"_blank\" href=\"http://en.wikipedia.org./wiki/White_blood_cell\">White blood cell</a>"},{"pageviews":"4329. <a target=\"_blank\" href=\"http://en.wikipedia.org./wiki/Ron_Goldman\">Ron Goldman</a>"},{"pageviews":"4330. <a target=\"_blank\" href=\"http://en.wikipedia.org./wiki/Nashville%2C_Tennessee\">Nashville, Tennessee</a>"},{"pageviews":"4331. <a target=\"_blank\" href=\"http://en.wikipedia.org./wiki/Anarchism\">Anarchism</a>"},{"pageviews":"4332. <a target=\"_blank\" href=\"http://en.wikipedia.org./wiki/Ernst_%26_Young\">Ernst & Young</a>"},{"pageviews":"4333. <a target=\"_blank\" href=\"http://en.wikipedia.org./wiki/Pope\">Pope</a>"},{"pageviews":"4334. <a target=\"_blank\" href=\"http://en.wikipedia.org./wiki/Ego_the_Living_Planet\">Ego the Living Planet</a>"},{"pageviews":"4335. <a target=\"_blank\" href=\"http://en.wikipedia.org./wiki/Law_%26_Order\">Law & Order</a>"},{"pageviews":"4336. <a target=\"_blank\" href=\"http://en.wikipedia.org./wiki/Nicholas_Hoult\">Nicholas Hoult</a>"},{"pageviews":"4337. <a target=\"_blank\" href=\"http://en.wikipedia.org./wiki/T._E._Lawrence\">T. E. Lawrence</a>"},{"pageviews":"4338. <a target=\"_blank\" href=\"http://en.wikipedia.org./wiki/Receiver_operating_characteristic\">Receiver operating characteristic</a>"},{"pageviews":"4339. <a target=\"_blank\" href=\"http://en.wikipedia.org./wiki/Spring_(season)\">Spring (season)</a>"},{"pageviews":"4340. <a target=\"_blank\" href=\"http://en.wikipedia.org./wiki/Roanoke_Colony\">Roanoke Colony</a>"},{"pageviews":"4341. <a target=\"_blank\" href=\"http://en.wikipedia.org./wiki/Boeing_F/A-18E/F_Super_Hornet\">Boeing F/A-18E/F Super Hornet</a>"},{"pageviews":"4342. <a target=\"_blank\" href=\"http://en.wikipedia.org./wiki/Groundhog_Day_(film)\">Groundhog Day (film)</a>"},{"pageviews":"4343. <a target=\"_blank\" href=\"http://en.wikipedia.org./wiki/Xiaomi\">Xiaomi</a>"},{"pageviews":"4344. <a target=\"_blank\" href=\"http://en.wikipedia.org./wiki/Amir_Khan_(boxer)\">Amir Khan (boxer)</a>"},{"pageviews":"4345. <a target=\"_blank\" href=\"http://en.wikipedia.org./wiki/Sickle-cell_disease\">Sickle-cell disease</a>"},{"pageviews":"4346. <a target=\"_blank\" href=\"http://en.wikipedia.org./wiki/Jenna_Jameson\">Jenna Jameson</a>"},{"pageviews":"4347. <a target=\"_blank\" href=\"http://en.wikipedia.org./wiki/Death_of_Osama_bin_Laden\">Death of Osama bin Laden</a>"},{"pageviews":"4348. <a target=\"_blank\" href=\"http://en.wikipedia.org./wiki/Craigslist\">Craigslist</a>"},{"pageviews":"4349. <a target=\"_blank\" href=\"http://en.wikipedia.org./wiki/Ottawa\">Ottawa</a>"},{"pageviews":"4350. <a target=\"_blank\" href=\"http://en.wikipedia.org./wiki/LTE_(telecommunication)\">LTE (telecommunication)</a>"},{"pageviews":"4351. <a target=\"_blank\" href=\"http://en.wikipedia.org./wiki/Claude_Monet\">Claude Monet</a>"},{"pageviews":"4352. <a target=\"_blank\" href=\"http://en.wikipedia.org./wiki/List_of_musical_symbols\">List of musical symbols</a>"},{"pageviews":"4353. <a target=\"_blank\" href=\"http://en.wikipedia.org./wiki/Gallipoli_Campaign\">Gallipoli Campaign</a>"},{"pageviews":"4354. <a target=\"_blank\" href=\"http://en.wikipedia.org./wiki/0\">0</a>"},{"pageviews":"4355. <a target=\"_blank\" href=\"http://en.wikipedia.org./wiki/Swami_Vivekananda\">Swami Vivekananda</a>"},{"pageviews":"4356. <a target=\"_blank\" href=\"http://en.wikipedia.org./wiki/Usher_(musician)\">Usher (musician)</a>"},{"pageviews":"4357. <a target=\"_blank\" href=\"http://en.wikipedia.org./wiki/New_Edition\">New Edition</a>"},{"pageviews":"4358. <a target=\"_blank\" href=\"http://en.wikipedia.org./wiki/Matrix_(mathematics)\">Matrix (mathematics)</a>"},{"pageviews":"4359. <a target=\"_blank\" href=\"http://en.wikipedia.org./wiki/Murder_of_Odin_Lloyd\">Murder of Odin Lloyd</a>"},{"pageviews":"4360. <a target=\"_blank\" href=\"http://en.wikipedia.org./wiki/Cisco_Systems\">Cisco Systems</a>"},{"pageviews":"4361. <a target=\"_blank\" href=\"http://en.wikipedia.org./wiki/Mel_Brooks\">Mel Brooks</a>"},{"pageviews":"4362. <a target=\"_blank\" href=\"http://en.wikipedia.org./wiki/Adolf_Eichmann\">Adolf Eichmann</a>"},{"pageviews":"4363. <a target=\"_blank\" href=\"http://en.wikipedia.org./wiki/Jason_Isaacs\">Jason Isaacs</a>"},{"pageviews":"4364. <a target=\"_blank\" href=\"http://en.wikipedia.org./wiki/Convolution\">Convolution</a>"},{"pageviews":"4365. <a target=\"_blank\" href=\"http://en.wikipedia.org./wiki/Bechdel_test\">Bechdel test</a>"},{"pageviews":"4366. <a target=\"_blank\" href=\"http://en.wikipedia.org./wiki/United_States_Secretary_of_State\">United States Secretary of State</a>"},{"pageviews":"4367. <a target=\"_blank\" href=\"http://en.wikipedia.org./wiki/The_Sound_of_Music_(film)\">The Sound of Music (film)</a>"},{"pageviews":"4368. <a target=\"_blank\" href=\"http://en.wikipedia.org./wiki/Eastern_Time_Zone\">Eastern Time Zone</a>"},{"pageviews":"4369. <a target=\"_blank\" href=\"http://en.wikipedia.org./wiki/All_the_Money_in_the_World\">All the Money in the World</a>"},{"pageviews":"4370. <a target=\"_blank\" href=\"http://en.wikipedia.org./wiki/Empire_of_Japan\">Empire of Japan</a>"},{"pageviews":"4371. <a target=\"_blank\" href=\"http://en.wikipedia.org./wiki/Comcast\">Comcast</a>"},{"pageviews":"4372. <a target=\"_blank\" href=\"http://en.wikipedia.org./wiki/Bubonic_plague\">Bubonic plague</a>"},{"pageviews":"4373. <a target=\"_blank\" href=\"http://en.wikipedia.org./wiki/Tina_Fey\">Tina Fey</a>"},{"pageviews":"4374. <a target=\"_blank\" href=\"http://en.wikipedia.org./wiki/Hugh_Grant\">Hugh Grant</a>"},{"pageviews":"4375. <a target=\"_blank\" href=\"http://en.wikipedia.org./wiki/Mediterranean_Sea\">Mediterranean Sea</a>"},{"pageviews":"4376. <a target=\"_blank\" href=\"http://en.wikipedia.org./wiki/Descendants_of_the_Sun\">Descendants of the Sun</a>"},{"pageviews":"4377. <a target=\"_blank\" href=\"http://en.wikipedia.org./wiki/List_of_busiest_airports_by_passenger_traffic\">List of busiest airports by passenger traffic</a>"},{"pageviews":"4378. <a target=\"_blank\" href=\"http://en.wikipedia.org./wiki/Oona_Chaplin\">Oona Chaplin</a>"},{"pageviews":"4379. <a target=\"_blank\" href=\"http://en.wikipedia.org./wiki/Pythagoras\">Pythagoras</a>"},{"pageviews":"4380. <a target=\"_blank\" href=\"http://en.wikipedia.org./wiki/Charles_V%2C_Holy_Roman_Emperor\">Charles V, Holy Roman Emperor</a>"},{"pageviews":"4381. <a target=\"_blank\" href=\"http://en.wikipedia.org./wiki/Mia_Farrow\">Mia Farrow</a>"},{"pageviews":"4382. <a target=\"_blank\" href=\"http://en.wikipedia.org./wiki/R.E.M.\">R.E.M.</a>"},{"pageviews":"4383. <a target=\"_blank\" href=\"http://en.wikipedia.org./wiki/Judwaa_2\">Judwaa 2</a>"},{"pageviews":"4384. <a target=\"_blank\" href=\"http://en.wikipedia.org./wiki/Yin_and_yang\">Yin and yang</a>"},{"pageviews":"4385. <a target=\"_blank\" href=\"http://en.wikipedia.org./wiki/Isaac_Asimov\">Isaac Asimov</a>"},{"pageviews":"4386. <a target=\"_blank\" href=\"http://en.wikipedia.org./wiki/Battle_of_Britain\">Battle of Britain</a>"},{"pageviews":"4387. <a target=\"_blank\" href=\"http://en.wikipedia.org./wiki/Vitamin_C\">Vitamin C</a>"},{"pageviews":"4388. <a target=\"_blank\" href=\"http://en.wikipedia.org./wiki/Rhodesia\">Rhodesia</a>"},{"pageviews":"4389. <a target=\"_blank\" href=\"http://en.wikipedia.org./wiki/Bangkok\">Bangkok</a>"},{"pageviews":"4390. <a target=\"_blank\" href=\"http://en.wikipedia.org./wiki/Henrietta_Lacks\">Henrietta Lacks</a>"},{"pageviews":"4391. <a target=\"_blank\" href=\"http://en.wikipedia.org./wiki/Prince_George_of_Cambridge\">Prince George of Cambridge</a>"},{"pageviews":"4392. <a target=\"_blank\" href=\"http://en.wikipedia.org./wiki/Humphrey_Bogart\">Humphrey Bogart</a>"},{"pageviews":"4393. <a target=\"_blank\" href=\"http://en.wikipedia.org./wiki/List_of_tz_database_time_zones\">List of tz database time zones</a>"},{"pageviews":"4394. <a target=\"_blank\" href=\"http://en.wikipedia.org./wiki/Boltzmann_constant\">Boltzmann constant</a>"},{"pageviews":"4395. <a target=\"_blank\" href=\"http://en.wikipedia.org./wiki/Madam_Secretary_(TV_series)\">Madam Secretary (TV series)</a>"},{"pageviews":"4396. <a target=\"_blank\" href=\"http://en.wikipedia.org./wiki/Steam_(software)\">Steam (software)</a>"},{"pageviews":"4397. <a target=\"_blank\" href=\"http://en.wikipedia.org./wiki/Gerard_Piqu%C3%A9\">Gerard Piqué</a>"},{"pageviews":"4398. <a target=\"_blank\" href=\"http://en.wikipedia.org./wiki/Virginia_Woolf\">Virginia Woolf</a>"},{"pageviews":"4399. <a target=\"_blank\" href=\"http://en.wikipedia.org./wiki/Everything%2C_Everything_(film)\">Everything, Everything (film)</a>"}],"list":"4300. Nick Offerman  \u2014  http:\/\/en.wikipedia.org.\/wiki\/Nick_Offerman\n4301. Bill Maher  \u2014  http:\/\/en.wikipedia.org.\/wiki\/Bill_Maher\n4302. J. P. Morgan  \u2014  http:\/\/en.wikipedia.org.\/wiki\/J._P._Morgan\n4303. Cameroon  \u2014  http:\/\/en.wikipedia.org.\/wiki\/Cameroon\n4304. Lorazepam  \u2014  http:\/\/en.wikipedia.org.\/wiki\/Lorazepam\n4305. William Howard Taft  \u2014  http:\/\/en.wikipedia.org.\/wiki\/William_Howard_Taft\n4306. Tamil language  \u2014  http:\/\/en.wikipedia.org.\/wiki\/Tamil_language\n4307. Absinthe  \u2014  http:\/\/en.wikipedia.org.\/wiki\/Absinthe\n4308. Sociology  \u2014  http:\/\/en.wikipedia.org.\/wiki\/Sociology\n4309. Tom and Jerry  \u2014  http:\/\/en.wikipedia.org.\/wiki\/Tom_and_Jerry\n4310. Dirty Dancing  \u2014  http:\/\/en.wikipedia.org.\/wiki\/Dirty_Dancing\n4311. World of Warcraft  \u2014  http:\/\/en.wikipedia.org.\/wiki\/World_of_Warcraft\n4312. Deathstroke  \u2014  http:\/\/en.wikipedia.org.\/wiki\/Deathstroke\n4313. Elsa Pataky  \u2014  http:\/\/en.wikipedia.org.\/wiki\/Elsa_Pataky\n4314. Richard Dawkins  \u2014  http:\/\/en.wikipedia.org.\/wiki\/Richard_Dawkins\n4315. Sparta  \u2014  http:\/\/en.wikipedia.org.\/wiki\/Sparta\n4316. Tim Allen  \u2014  http:\/\/en.wikipedia.org.\/wiki\/Tim_Allen\n4317. The Post (film)  \u2014  http:\/\/en.wikipedia.org.\/wiki\/The_Post_(film)\n4318. Dada  \u2014  http:\/\/en.wikipedia.org.\/wiki\/Dada\n4319. Connecticut  \u2014  http:\/\/en.wikipedia.org.\/wiki\/Connecticut\n4320. The Mick (TV series)  \u2014  http:\/\/en.wikipedia.org.\/wiki\/The_Mick_(TV_series)\n4321. Bombardier Dash 8  \u2014  http:\/\/en.wikipedia.org.\/wiki\/Bombardier_Dash_8\n4322. Thandie Newton  \u2014  http:\/\/en.wikipedia.org.\/wiki\/Thandie_Newton\n4323. Docker (software)  \u2014  http:\/\/en.wikipedia.org.\/wiki\/Docker_(software)\n4324. The White Princess (miniseries)  \u2014  http:\/\/en.wikipedia.org.\/wiki\/The_White_Princess_(miniseries)\n4325. List of Shameless (U.S. TV series) episodes  \u2014  http:\/\/en.wikipedia.org.\/wiki\/List_of_Shameless_(U.S._TV_series)_episodes\n4326. Kid Rock  \u2014  http:\/\/en.wikipedia.org.\/wiki\/Kid_Rock\n4327. Kathy Griffin  \u2014  http:\/\/en.wikipedia.org.\/wiki\/Kathy_Griffin\n4328. White blood cell  \u2014  http:\/\/en.wikipedia.org.\/wiki\/White_blood_cell\n4329. Ron Goldman  \u2014  http:\/\/en.wikipedia.org.\/wiki\/Ron_Goldman\n4330. Nashville, Tennessee  \u2014  http:\/\/en.wikipedia.org.\/wiki\/Nashville%2C_Tennessee\n4331. Anarchism  \u2014  http:\/\/en.wikipedia.org.\/wiki\/Anarchism\n4332. Ernst & Young  \u2014  http:\/\/en.wikipedia.org.\/wiki\/Ernst_%26_Young\n4333. Pope  \u2014  http:\/\/en.wikipedia.org.\/wiki\/Pope\n4334. Ego the Living Planet  \u2014  http:\/\/en.wikipedia.org.\/wiki\/Ego_the_Living_Planet\n4335. Law & Order  \u2014  http:\/\/en.wikipedia.org.\/wiki\/Law_%26_Order\n4336. Nicholas Hoult  \u2014  http:\/\/en.wikipedia.org.\/wiki\/Nicholas_Hoult\n4337. T. E. Lawrence  \u2014  http:\/\/en.wikipedia.org.\/wiki\/T._E._Lawrence\n4338. Receiver operating characteristic  \u2014  http:\/\/en.wikipedia.org.\/wiki\/Receiver_operating_characteristic\n4339. Spring (season)  \u2014  http:\/\/en.wikipedia.org.\/wiki\/Spring_(season)\n4340. Roanoke Colony  \u2014  http:\/\/en.wikipedia.org.\/wiki\/Roanoke_Colony\n4341. Boeing F\/A-18E\/F Super Hornet  \u2014  http:\/\/en.wikipedia.org.\/wiki\/Boeing_F\/A-18E\/F_Super_Hornet\n4342. Groundhog Day (film)  \u2014  http:\/\/en.wikipedia.org.\/wiki\/Groundhog_Day_(film)\n4343. Xiaomi  \u2014  http:\/\/en.wikipedia.org.\/wiki\/Xiaomi\n4344. Amir Khan (boxer)  \u2014  http:\/\/en.wikipedia.org.\/wiki\/Amir_Khan_(boxer)\n4345. Sickle-cell disease  \u2014  http:\/\/en.wikipedia.org.\/wiki\/Sickle-cell_disease\n4346. Jenna Jameson  \u2014  http:\/\/en.wikipedia.org.\/wiki\/Jenna_Jameson\n4347. Death of Osama bin Laden  \u2014  http:\/\/en.wikipedia.org.\/wiki\/Death_of_Osama_bin_Laden\n4348. Craigslist  \u2014  http:\/\/en.wikipedia.org.\/wiki\/Craigslist\n4349. Ottawa  \u2014  http:\/\/en.wikipedia.org.\/wiki\/Ottawa\n4350. LTE (telecommunication)  \u2014  http:\/\/en.wikipedia.org.\/wiki\/LTE_(telecommunication)\n4351. Claude Monet  \u2014  http:\/\/en.wikipedia.org.\/wiki\/Claude_Monet\n4352. List of musical symbols  \u2014  http:\/\/en.wikipedia.org.\/wiki\/List_of_musical_symbols\n4353. Gallipoli Campaign  \u2014  http:\/\/en.wikipedia.org.\/wiki\/Gallipoli_Campaign\n4354. 0  \u2014  http:\/\/en.wikipedia.org.\/wiki\/0\n4355. Swami Vivekananda  \u2014  http:\/\/en.wikipedia.org.\/wiki\/Swami_Vivekananda\n4356. Usher (musician)  \u2014  http:\/\/en.wikipedia.org.\/wiki\/Usher_(musician)\n4357. New Edition  \u2014  http:\/\/en.wikipedia.org.\/wiki\/New_Edition\n4358. Matrix (mathematics)  \u2014  http:\/\/en.wikipedia.org.\/wiki\/Matrix_(mathematics)\n4359. Murder of Odin Lloyd  \u2014  http:\/\/en.wikipedia.org.\/wiki\/Murder_of_Odin_Lloyd\n4360. Cisco Systems  \u2014  http:\/\/en.wikipedia.org.\/wiki\/Cisco_Systems\n4361. Mel Brooks  \u2014  http:\/\/en.wikipedia.org.\/wiki\/Mel_Brooks\n4362. Adolf Eichmann  \u2014  http:\/\/en.wikipedia.org.\/wiki\/Adolf_Eichmann\n4363. Jason Isaacs  \u2014  http:\/\/en.wikipedia.org.\/wiki\/Jason_Isaacs\n4364. Convolution  \u2014  http:\/\/en.wikipedia.org.\/wiki\/Convolution\n4365. Bechdel test  \u2014  http:\/\/en.wikipedia.org.\/wiki\/Bechdel_test\n4366. United States Secretary of State  \u2014  http:\/\/en.wikipedia.org.\/wiki\/United_States_Secretary_of_State\n4367. The Sound of Music (film)  \u2014  http:\/\/en.wikipedia.org.\/wiki\/The_Sound_of_Music_(film)\n4368. Eastern Time Zone  \u2014  http:\/\/en.wikipedia.org.\/wiki\/Eastern_Time_Zone\n4369. All the Money in the World  \u2014  http:\/\/en.wikipedia.org.\/wiki\/All_the_Money_in_the_World\n4370. Empire of Japan  \u2014  http:\/\/en.wikipedia.org.\/wiki\/Empire_of_Japan\n4371. Comcast  \u2014  http:\/\/en.wikipedia.org.\/wiki\/Comcast\n4372. Bubonic plague  \u2014  http:\/\/en.wikipedia.org.\/wiki\/Bubonic_plague\n4373. Tina Fey  \u2014  http:\/\/en.wikipedia.org.\/wiki\/Tina_Fey\n4374. Hugh Grant  \u2014  http:\/\/en.wikipedia.org.\/wiki\/Hugh_Grant\n4375. Mediterranean Sea  \u2014  http:\/\/en.wikipedia.org.\/wiki\/Mediterranean_Sea\n4376. Descendants of the Sun  \u2014  http:\/\/en.wikipedia.org.\/wiki\/Descendants_of_the_Sun\n4377. List of busiest airports by passenger traffic  \u2014  http:\/\/en.wikipedia.org.\/wiki\/List_of_busiest_airports_by_passenger_traffic\n4378. Oona Chaplin  \u2014  http:\/\/en.wikipedia.org.\/wiki\/Oona_Chaplin\n4379. Pythagoras  \u2014  http:\/\/en.wikipedia.org.\/wiki\/Pythagoras\n4380. Charles V, Holy Roman Emperor  \u2014  http:\/\/en.wikipedia.org.\/wiki\/Charles_V%2C_Holy_Roman_Emperor\n4381. Mia Farrow  \u2014  http:\/\/en.wikipedia.org.\/wiki\/Mia_Farrow\n4382. R.E.M.  \u2014  http:\/\/en.wikipedia.org.\/wiki\/R.E.M.\n4383. Judwaa 2  \u2014  http:\/\/en.wikipedia.org.\/wiki\/Judwaa_2\n4384. Yin and yang  \u2014  http:\/\/en.wikipedia.org.\/wiki\/Yin_and_yang\n4385. Isaac Asimov  \u2014  http:\/\/en.wikipedia.org.\/wiki\/Isaac_Asimov\n4386. Battle of Britain  \u2014  http:\/\/en.wikipedia.org.\/wiki\/Battle_of_Britain\n4387. Vitamin C  \u2014  http:\/\/en.wikipedia.org.\/wiki\/Vitamin_C\n4388. Rhodesia  \u2014  http:\/\/en.wikipedia.org.\/wiki\/Rhodesia\n4389. Bangkok  \u2014  http:\/\/en.wikipedia.org.\/wiki\/Bangkok\n4390. Henrietta Lacks  \u2014  http:\/\/en.wikipedia.org.\/wiki\/Henrietta_Lacks\n4391. Prince George of Cambridge  \u2014  http:\/\/en.wikipedia.org.\/wiki\/Prince_George_of_Cambridge\n4392. Humphrey Bogart  \u2014  http:\/\/en.wikipedia.org.\/wiki\/Humphrey_Bogart\n4393. List of tz database time zones  \u2014  http:\/\/en.wikipedia.org.\/wiki\/List_of_tz_database_time_zones\n4394. Boltzmann constant  \u2014  http:\/\/en.wikipedia.org.\/wiki\/Boltzmann_constant\n4395. Madam Secretary (TV series)  \u2014  http:\/\/en.wikipedia.org.\/wiki\/Madam_Secretary_(TV_series)\n4396. Steam (software)  \u2014  http:\/\/en.wikipedia.org.\/wiki\/Steam_(software)\n4397. Gerard Piqu\u00E9  \u2014  http:\/\/en.wikipedia.org.\/wiki\/Gerard_Piqu%C3%A9\n4398. Virginia Woolf  \u2014  http:\/\/en.wikipedia.org.\/wiki\/Virginia_Woolf\n4399. Everything, Everything (film)  \u2014  http:\/\/en.wikipedia.org.\/wiki\/Everything%2C_Everything_(film)\n","miniList":"4300. Nick Offerman\n4301. Bill Maher\n4302. J. P. Morgan\n4303. Cameroon\n4304. Lorazepam\n4305. William Howard Taft\n4306. Tamil language\n4307. Absinthe\n4308. Sociology\n4309. Tom and Jerry\n4310. Dirty Dancing\n4311. World of Warcraft\n4312. Deathstroke\n4313. Elsa Pataky\n4314. Richard Dawkins\n4315. Sparta\n4316. Tim Allen\n4317. The Post (film)\n4318. Dada\n4319. Connecticut\n4320. The Mick (TV series)\n4321. Bombardier Dash 8\n4322. Thandie Newton\n4323. Docker (software)\n4324. The White Princess (miniseries)\n4325. List of Shameless (U.S. TV series) episodes\n4326. Kid Rock\n4327. Kathy Griffin\n4328. White blood cell\n4329. Ron Goldman\n4330. Nashville, Tennessee\n4331. Anarchism\n4332. Ernst & Young\n4333. Pope\n4334. Ego the Living Planet\n4335. Law & Order\n4336. Nicholas Hoult\n4337. T. E. Lawrence\n4338. Receiver operating characteristic\n4339. Spring (season)\n4340. Roanoke Colony\n4341. Boeing F\/A-18E\/F Super Hornet\n4342. Groundhog Day (film)\n4343. Xiaomi\n4344. Amir Khan (boxer)\n4345. Sickle-cell disease\n4346. Jenna Jameson\n4347. Death of Osama bin Laden\n4348. Craigslist\n4349. Ottawa\n4350. LTE (telecommunication)\n4351. Claude Monet\n4352. List of musical symbols\n4353. Gallipoli Campaign\n4354. 0\n4355. Swami Vivekananda\n4356. Usher (musician)\n4357. New Edition\n4358. Matrix (mathematics)\n4359. Murder of Odin Lloyd\n4360. Cisco Systems\n4361. Mel Brooks\n4362. Adolf Eichmann\n4363. Jason Isaacs\n4364. Convolution\n4365. Bechdel test\n4366. United States Secretary of State\n4367. The Sound of Music (film)\n4368. Eastern Time Zone\n4369. All the Money in the World\n4370. Empire of Japan\n4371. Comcast\n4372. Bubonic plague\n4373. Tina Fey\n4374. Hugh Grant\n4375. Mediterranean Sea\n4376. Descendants of the Sun\n4377. List of busiest airports by passenger traffic\n4378. Oona Chaplin\n4379. Pythagoras\n4380. Charles V, Holy Roman Emperor\n4381. Mia Farrow\n4382. R.E.M.\n4383. Judwaa 2\n4384. Yin and yang\n4385. Isaac Asimov\n4386. Battle of Britain\n4387. Vitamin C\n4388. Rhodesia\n4389. Bangkok\n4390. Henrietta Lacks\n4391. Prince George of Cambridge\n4392. Humphrey Bogart\n4393. List of tz database time zones\n4394. Boltzmann constant\n4395. Madam Secretary (TV series)\n4396. Steam (software)\n4397. Gerard Piqu\u00E9\n4398. Virginia Woolf\n4399. Everything, Everything (film)\n"}
