{"start":4401,"end":4500,"count":5616717,"type":"pageviews","pageSize":100,"page":44,"pages":56168,"columns":[{"label":"","property":"pageviews","sortable":false}],"items":[{"pageviews":"4400. <a target=\"_blank\" href=\"http://en.wikipedia.org./wiki/Blood_type\">Blood type</a>"},{"pageviews":"4401. <a target=\"_blank\" href=\"http://en.wikipedia.org./wiki/Mary%2C_mother_of_Jesus\">Mary, mother of Jesus</a>"},{"pageviews":"4402. <a target=\"_blank\" href=\"http://en.wikipedia.org./wiki/David\">David</a>"},{"pageviews":"4403. <a target=\"_blank\" href=\"http://en.wikipedia.org./wiki/300_(film)\">300 (film)</a>"},{"pageviews":"4404. <a target=\"_blank\" href=\"http://en.wikipedia.org./wiki/Latin_America\">Latin America</a>"},{"pageviews":"4405. <a target=\"_blank\" href=\"http://en.wikipedia.org./wiki/RuPaul\">RuPaul</a>"},{"pageviews":"4406. <a target=\"_blank\" href=\"http://en.wikipedia.org./wiki/Saint_Helena\">Saint Helena</a>"},{"pageviews":"4407. <a target=\"_blank\" href=\"http://en.wikipedia.org./wiki/Old_Man_Logan\">Old Man Logan</a>"},{"pageviews":"4408. <a target=\"_blank\" href=\"http://en.wikipedia.org./wiki/Serial_killer\">Serial killer</a>"},{"pageviews":"4409. <a target=\"_blank\" href=\"http://en.wikipedia.org./wiki/Mohammad_Reza_Pahlavi\">Mohammad Reza Pahlavi</a>"},{"pageviews":"4410. <a target=\"_blank\" href=\"http://en.wikipedia.org./wiki/Royal_Navy\">Royal Navy</a>"},{"pageviews":"4411. <a target=\"_blank\" href=\"http://en.wikipedia.org./wiki/List_of_countries_and_dependencies_by_population_density\">List of countries and dependencies by population density</a>"},{"pageviews":"4412. <a target=\"_blank\" href=\"http://en.wikipedia.org./wiki/Plant\">Plant</a>"},{"pageviews":"4413. <a target=\"_blank\" href=\"http://en.wikipedia.org./wiki/Chesley_Sullenberger\">Chesley Sullenberger</a>"},{"pageviews":"4414. <a target=\"_blank\" href=\"http://en.wikipedia.org./wiki/Shingles\">Shingles</a>"},{"pageviews":"4415. <a target=\"_blank\" href=\"http://en.wikipedia.org./wiki/Intercontinental_ballistic_missile\">Intercontinental ballistic missile</a>"},{"pageviews":"4416. <a target=\"_blank\" href=\"http://en.wikipedia.org./wiki/Secondary_school\">Secondary school</a>"},{"pageviews":"4417. <a target=\"_blank\" href=\"http://en.wikipedia.org./wiki/The_Picture_of_Dorian_Gray\">The Picture of Dorian Gray</a>"},{"pageviews":"4418. <a target=\"_blank\" href=\"http://en.wikipedia.org./wiki/Stockholm\">Stockholm</a>"},{"pageviews":"4419. <a target=\"_blank\" href=\"http://en.wikipedia.org./wiki/Gout\">Gout</a>"},{"pageviews":"4420. <a target=\"_blank\" href=\"http://en.wikipedia.org./wiki/Wiz_Khalifa\">Wiz Khalifa</a>"},{"pageviews":"4421. <a target=\"_blank\" href=\"http://en.wikipedia.org./wiki/Golden_Globe_Award\">Golden Globe Award</a>"},{"pageviews":"4422. <a target=\"_blank\" href=\"http://en.wikipedia.org./wiki/Google_Earth\">Google Earth</a>"},{"pageviews":"4423. <a target=\"_blank\" href=\"http://en.wikipedia.org./wiki/Czech_language\">Czech language</a>"},{"pageviews":"4424. <a target=\"_blank\" href=\"http://en.wikipedia.org./wiki/Nominal_Pipe_Size\">Nominal Pipe Size</a>"},{"pageviews":"4425. <a target=\"_blank\" href=\"http://en.wikipedia.org./wiki/Founding_Fathers_of_the_United_States\">Founding Fathers of the United States</a>"},{"pageviews":"4426. <a target=\"_blank\" href=\"http://en.wikipedia.org./wiki/Benedict_Arnold\">Benedict Arnold</a>"},{"pageviews":"4427. <a target=\"_blank\" href=\"http://en.wikipedia.org./wiki/SharePoint\">SharePoint</a>"},{"pageviews":"4428. <a target=\"_blank\" href=\"http://en.wikipedia.org./wiki/Chiang_Kai-shek\">Chiang Kai-shek</a>"},{"pageviews":"4429. <a target=\"_blank\" href=\"http://en.wikipedia.org./wiki/Subhas_Chandra_Bose\">Subhas Chandra Bose</a>"},{"pageviews":"4430. <a target=\"_blank\" href=\"http://en.wikipedia.org./wiki/Malware\">Malware</a>"},{"pageviews":"4431. <a target=\"_blank\" href=\"http://en.wikipedia.org./wiki/Fate/stay_night\">Fate/stay night</a>"},{"pageviews":"4432. <a target=\"_blank\" href=\"http://en.wikipedia.org./wiki/Atom\">Atom</a>"},{"pageviews":"4433. <a target=\"_blank\" href=\"http://en.wikipedia.org./wiki/Operators_in_C_and_C%2B%2B\">Operators in C and C++</a>"},{"pageviews":"4434. <a target=\"_blank\" href=\"http://en.wikipedia.org./wiki/S%26P_500_Index\">S&P 500 Index</a>"},{"pageviews":"4435. <a target=\"_blank\" href=\"http://en.wikipedia.org./wiki/Boeing\">Boeing</a>"},{"pageviews":"4436. <a target=\"_blank\" href=\"http://en.wikipedia.org./wiki/List_of_Bob's_Burgers_episodes\">List of Bob's Burgers episodes</a>"},{"pageviews":"4437. <a target=\"_blank\" href=\"http://en.wikipedia.org./wiki/Ben_Carson\">Ben Carson</a>"},{"pageviews":"4438. <a target=\"_blank\" href=\"http://en.wikipedia.org./wiki/Khmer_Rouge\">Khmer Rouge</a>"},{"pageviews":"4439. <a target=\"_blank\" href=\"http://en.wikipedia.org./wiki/Jeremy_Irons\">Jeremy Irons</a>"},{"pageviews":"4440. <a target=\"_blank\" href=\"http://en.wikipedia.org./wiki/Electricity\">Electricity</a>"},{"pageviews":"4441. <a target=\"_blank\" href=\"http://en.wikipedia.org./wiki/Mulan_(1998_film)\">Mulan (1998 film)</a>"},{"pageviews":"4442. <a target=\"_blank\" href=\"http://en.wikipedia.org./wiki/Boeing_767\">Boeing 767</a>"},{"pageviews":"4443. <a target=\"_blank\" href=\"http://en.wikipedia.org./wiki/Alice_in_Chains\">Alice in Chains</a>"},{"pageviews":"4444. <a target=\"_blank\" href=\"http://en.wikipedia.org./wiki/Kevin_James\">Kevin James</a>"},{"pageviews":"4445. <a target=\"_blank\" href=\"http://en.wikipedia.org./wiki/Fortitude_(TV_series)\">Fortitude (TV series)</a>"},{"pageviews":"4446. <a target=\"_blank\" href=\"http://en.wikipedia.org./wiki/Windows_XP\">Windows XP</a>"},{"pageviews":"4447. <a target=\"_blank\" href=\"http://en.wikipedia.org./wiki/Ernest_Rutherford\">Ernest Rutherford</a>"},{"pageviews":"4448. <a target=\"_blank\" href=\"http://en.wikipedia.org./wiki/Cumulative_distribution_function\">Cumulative distribution function</a>"},{"pageviews":"4449. <a target=\"_blank\" href=\"http://en.wikipedia.org./wiki/Priscilla_Presley\">Priscilla Presley</a>"},{"pageviews":"4450. <a target=\"_blank\" href=\"http://en.wikipedia.org./wiki/Saint_Peter\">Saint Peter</a>"},{"pageviews":"4451. <a target=\"_blank\" href=\"http://en.wikipedia.org./wiki/Terrorism\">Terrorism</a>"},{"pageviews":"4452. <a target=\"_blank\" href=\"http://en.wikipedia.org./wiki/Confucianism\">Confucianism</a>"},{"pageviews":"4453. <a target=\"_blank\" href=\"http://en.wikipedia.org./wiki/Line_of_Duty\">Line of Duty</a>"},{"pageviews":"4454. <a target=\"_blank\" href=\"http://en.wikipedia.org./wiki/Heathrow_Airport\">Heathrow Airport</a>"},{"pageviews":"4455. <a target=\"_blank\" href=\"http://en.wikipedia.org./wiki/Battle_of_the_Somme\">Battle of the Somme</a>"},{"pageviews":"4456. <a target=\"_blank\" href=\"http://en.wikipedia.org./wiki/Dementia\">Dementia</a>"},{"pageviews":"4457. <a target=\"_blank\" href=\"http://en.wikipedia.org./wiki/Glenne_Headly\">Glenne Headly</a>"},{"pageviews":"4458. <a target=\"_blank\" href=\"http://en.wikipedia.org./wiki/Diane_Keaton\">Diane Keaton</a>"},{"pageviews":"4459. <a target=\"_blank\" href=\"http://en.wikipedia.org./wiki/Greg_Sestero\">Greg Sestero</a>"},{"pageviews":"4460. <a target=\"_blank\" href=\"http://en.wikipedia.org./wiki/Document_Object_Model\">Document Object Model</a>"},{"pageviews":"4461. <a target=\"_blank\" href=\"http://en.wikipedia.org./wiki/Lupita_Nyong'o\">Lupita Nyong'o</a>"},{"pageviews":"4462. <a target=\"_blank\" href=\"http://en.wikipedia.org./wiki/Creedence_Clearwater_Revival\">Creedence Clearwater Revival</a>"},{"pageviews":"4463. <a target=\"_blank\" href=\"http://en.wikipedia.org./wiki/NBA_Most_Valuable_Player_Award\">NBA Most Valuable Player Award</a>"},{"pageviews":"4464. <a target=\"_blank\" href=\"http://en.wikipedia.org./wiki/Academic_grading_in_the_United_States\">Academic grading in the United States</a>"},{"pageviews":"4465. <a target=\"_blank\" href=\"http://en.wikipedia.org./wiki/Alexa_Bliss\">Alexa Bliss</a>"},{"pageviews":"4466. <a target=\"_blank\" href=\"http://en.wikipedia.org./wiki/No_Mercy_(2017)\">No Mercy (2017)</a>"},{"pageviews":"4467. <a target=\"_blank\" href=\"http://en.wikipedia.org./wiki/Sumer\">Sumer</a>"},{"pageviews":"4468. <a target=\"_blank\" href=\"http://en.wikipedia.org./wiki/Hangul\">Hangul</a>"},{"pageviews":"4469. <a target=\"_blank\" href=\"http://en.wikipedia.org./wiki/David_Schwimmer\">David Schwimmer</a>"},{"pageviews":"4470. <a target=\"_blank\" href=\"http://en.wikipedia.org./wiki/Stop_words\">Stop words</a>"},{"pageviews":"4471. <a target=\"_blank\" href=\"http://en.wikipedia.org./wiki/Cultural_Revolution\">Cultural Revolution</a>"},{"pageviews":"4472. <a target=\"_blank\" href=\"http://en.wikipedia.org./wiki/Nina_Simone\">Nina Simone</a>"},{"pageviews":"4473. <a target=\"_blank\" href=\"http://en.wikipedia.org./wiki/List_of_World_Series_champions\">List of World Series champions</a>"},{"pageviews":"4474. <a target=\"_blank\" href=\"http://en.wikipedia.org./wiki/Thesis\">Thesis</a>"},{"pageviews":"4475. <a target=\"_blank\" href=\"http://en.wikipedia.org./wiki/Aerosmith\">Aerosmith</a>"},{"pageviews":"4476. <a target=\"_blank\" href=\"http://en.wikipedia.org./wiki/History_of_China\">History of China</a>"},{"pageviews":"4477. <a target=\"_blank\" href=\"http://en.wikipedia.org./wiki/Cougar\">Cougar</a>"},{"pageviews":"4478. <a target=\"_blank\" href=\"http://en.wikipedia.org./wiki/Nam_Joo-hyuk\">Nam Joo-hyuk</a>"},{"pageviews":"4479. <a target=\"_blank\" href=\"http://en.wikipedia.org./wiki/Watchmen_(film)\">Watchmen (film)</a>"},{"pageviews":"4480. <a target=\"_blank\" href=\"http://en.wikipedia.org./wiki/Ford_Mustang\">Ford Mustang</a>"},{"pageviews":"4481. <a target=\"_blank\" href=\"http://en.wikipedia.org./wiki/Cincinnati\">Cincinnati</a>"},{"pageviews":"4482. <a target=\"_blank\" href=\"http://en.wikipedia.org./wiki/Mumpsimus\">Mumpsimus</a>"},{"pageviews":"4483. <a target=\"_blank\" href=\"http://en.wikipedia.org./wiki/Florence\">Florence</a>"},{"pageviews":"4484. <a target=\"_blank\" href=\"http://en.wikipedia.org./wiki/Gangs_of_New_York\">Gangs of New York</a>"},{"pageviews":"4485. <a target=\"_blank\" href=\"http://en.wikipedia.org./wiki/John_French%2C_1st_Earl_of_Ypres\">John French, 1st Earl of Ypres</a>"},{"pageviews":"4486. <a target=\"_blank\" href=\"http://en.wikipedia.org./wiki/Influenza\">Influenza</a>"},{"pageviews":"4487. <a target=\"_blank\" href=\"http://en.wikipedia.org./wiki/List_of_countries_by_suicide_rate\">List of countries by suicide rate</a>"},{"pageviews":"4488. <a target=\"_blank\" href=\"http://en.wikipedia.org./wiki/Keeping_Up_with_the_Kardashians\">Keeping Up with the Kardashians</a>"},{"pageviews":"4489. <a target=\"_blank\" href=\"http://en.wikipedia.org./wiki/Andrew_Carnegie\">Andrew Carnegie</a>"},{"pageviews":"4490. <a target=\"_blank\" href=\"http://en.wikipedia.org./wiki/Kelsey_Grammer\">Kelsey Grammer</a>"},{"pageviews":"4491. <a target=\"_blank\" href=\"http://en.wikipedia.org./wiki/List_of_countries_by_tax_rates\">List of countries by tax rates</a>"},{"pageviews":"4492. <a target=\"_blank\" href=\"http://en.wikipedia.org./wiki/Sinn_F%C3%A9in\">Sinn Féin</a>"},{"pageviews":"4493. <a target=\"_blank\" href=\"http://en.wikipedia.org./wiki/Sonic_Mania\">Sonic Mania</a>"},{"pageviews":"4494. <a target=\"_blank\" href=\"http://en.wikipedia.org./wiki/University_of_Cambridge\">University of Cambridge</a>"},{"pageviews":"4495. <a target=\"_blank\" href=\"http://en.wikipedia.org./wiki/Hannibal_(TV_series)\">Hannibal (TV series)</a>"},{"pageviews":"4496. <a target=\"_blank\" href=\"http://en.wikipedia.org./wiki/The_Ring_(2002_film)\">The Ring (2002 film)</a>"},{"pageviews":"4497. <a target=\"_blank\" href=\"http://en.wikipedia.org./wiki/Autonomous_car\">Autonomous car</a>"},{"pageviews":"4498. <a target=\"_blank\" href=\"http://en.wikipedia.org./wiki/Diego_Maradona\">Diego Maradona</a>"},{"pageviews":"4499. <a target=\"_blank\" href=\"http://en.wikipedia.org./wiki/Universal_Declaration_of_Human_Rights\">Universal Declaration of Human Rights</a>"}],"list":"4400. Blood type  \u2014  http:\/\/en.wikipedia.org.\/wiki\/Blood_type\n4401. Mary, mother of Jesus  \u2014  http:\/\/en.wikipedia.org.\/wiki\/Mary%2C_mother_of_Jesus\n4402. David  \u2014  http:\/\/en.wikipedia.org.\/wiki\/David\n4403. 300 (film)  \u2014  http:\/\/en.wikipedia.org.\/wiki\/300_(film)\n4404. Latin America  \u2014  http:\/\/en.wikipedia.org.\/wiki\/Latin_America\n4405. RuPaul  \u2014  http:\/\/en.wikipedia.org.\/wiki\/RuPaul\n4406. Saint Helena  \u2014  http:\/\/en.wikipedia.org.\/wiki\/Saint_Helena\n4407. Old Man Logan  \u2014  http:\/\/en.wikipedia.org.\/wiki\/Old_Man_Logan\n4408. Serial killer  \u2014  http:\/\/en.wikipedia.org.\/wiki\/Serial_killer\n4409. Mohammad Reza Pahlavi  \u2014  http:\/\/en.wikipedia.org.\/wiki\/Mohammad_Reza_Pahlavi\n4410. Royal Navy  \u2014  http:\/\/en.wikipedia.org.\/wiki\/Royal_Navy\n4411. List of countries and dependencies by population density  \u2014  http:\/\/en.wikipedia.org.\/wiki\/List_of_countries_and_dependencies_by_population_density\n4412. Plant  \u2014  http:\/\/en.wikipedia.org.\/wiki\/Plant\n4413. Chesley Sullenberger  \u2014  http:\/\/en.wikipedia.org.\/wiki\/Chesley_Sullenberger\n4414. Shingles  \u2014  http:\/\/en.wikipedia.org.\/wiki\/Shingles\n4415. Intercontinental ballistic missile  \u2014  http:\/\/en.wikipedia.org.\/wiki\/Intercontinental_ballistic_missile\n4416. Secondary school  \u2014  http:\/\/en.wikipedia.org.\/wiki\/Secondary_school\n4417. The Picture of Dorian Gray  \u2014  http:\/\/en.wikipedia.org.\/wiki\/The_Picture_of_Dorian_Gray\n4418. Stockholm  \u2014  http:\/\/en.wikipedia.org.\/wiki\/Stockholm\n4419. Gout  \u2014  http:\/\/en.wikipedia.org.\/wiki\/Gout\n4420. Wiz Khalifa  \u2014  http:\/\/en.wikipedia.org.\/wiki\/Wiz_Khalifa\n4421. Golden Globe Award  \u2014  http:\/\/en.wikipedia.org.\/wiki\/Golden_Globe_Award\n4422. Google Earth  \u2014  http:\/\/en.wikipedia.org.\/wiki\/Google_Earth\n4423. Czech language  \u2014  http:\/\/en.wikipedia.org.\/wiki\/Czech_language\n4424. Nominal Pipe Size  \u2014  http:\/\/en.wikipedia.org.\/wiki\/Nominal_Pipe_Size\n4425. Founding Fathers of the United States  \u2014  http:\/\/en.wikipedia.org.\/wiki\/Founding_Fathers_of_the_United_States\n4426. Benedict Arnold  \u2014  http:\/\/en.wikipedia.org.\/wiki\/Benedict_Arnold\n4427. SharePoint  \u2014  http:\/\/en.wikipedia.org.\/wiki\/SharePoint\n4428. Chiang Kai-shek  \u2014  http:\/\/en.wikipedia.org.\/wiki\/Chiang_Kai-shek\n4429. Subhas Chandra Bose  \u2014  http:\/\/en.wikipedia.org.\/wiki\/Subhas_Chandra_Bose\n4430. Malware  \u2014  http:\/\/en.wikipedia.org.\/wiki\/Malware\n4431. Fate\/stay night  \u2014  http:\/\/en.wikipedia.org.\/wiki\/Fate\/stay_night\n4432. Atom  \u2014  http:\/\/en.wikipedia.org.\/wiki\/Atom\n4433. Operators in C and C++  \u2014  http:\/\/en.wikipedia.org.\/wiki\/Operators_in_C_and_C%2B%2B\n4434. S&P 500 Index  \u2014  http:\/\/en.wikipedia.org.\/wiki\/S%26P_500_Index\n4435. Boeing  \u2014  http:\/\/en.wikipedia.org.\/wiki\/Boeing\n4436. List of Bob's Burgers episodes  \u2014  http:\/\/en.wikipedia.org.\/wiki\/List_of_Bob's_Burgers_episodes\n4437. Ben Carson  \u2014  http:\/\/en.wikipedia.org.\/wiki\/Ben_Carson\n4438. Khmer Rouge  \u2014  http:\/\/en.wikipedia.org.\/wiki\/Khmer_Rouge\n4439. Jeremy Irons  \u2014  http:\/\/en.wikipedia.org.\/wiki\/Jeremy_Irons\n4440. Electricity  \u2014  http:\/\/en.wikipedia.org.\/wiki\/Electricity\n4441. Mulan (1998 film)  \u2014  http:\/\/en.wikipedia.org.\/wiki\/Mulan_(1998_film)\n4442. Boeing 767  \u2014  http:\/\/en.wikipedia.org.\/wiki\/Boeing_767\n4443. Alice in Chains  \u2014  http:\/\/en.wikipedia.org.\/wiki\/Alice_in_Chains\n4444. Kevin James  \u2014  http:\/\/en.wikipedia.org.\/wiki\/Kevin_James\n4445. Fortitude (TV series)  \u2014  http:\/\/en.wikipedia.org.\/wiki\/Fortitude_(TV_series)\n4446. Windows XP  \u2014  http:\/\/en.wikipedia.org.\/wiki\/Windows_XP\n4447. Ernest Rutherford  \u2014  http:\/\/en.wikipedia.org.\/wiki\/Ernest_Rutherford\n4448. Cumulative distribution function  \u2014  http:\/\/en.wikipedia.org.\/wiki\/Cumulative_distribution_function\n4449. Priscilla Presley  \u2014  http:\/\/en.wikipedia.org.\/wiki\/Priscilla_Presley\n4450. Saint Peter  \u2014  http:\/\/en.wikipedia.org.\/wiki\/Saint_Peter\n4451. Terrorism  \u2014  http:\/\/en.wikipedia.org.\/wiki\/Terrorism\n4452. Confucianism  \u2014  http:\/\/en.wikipedia.org.\/wiki\/Confucianism\n4453. Line of Duty  \u2014  http:\/\/en.wikipedia.org.\/wiki\/Line_of_Duty\n4454. Heathrow Airport  \u2014  http:\/\/en.wikipedia.org.\/wiki\/Heathrow_Airport\n4455. Battle of the Somme  \u2014  http:\/\/en.wikipedia.org.\/wiki\/Battle_of_the_Somme\n4456. Dementia  \u2014  http:\/\/en.wikipedia.org.\/wiki\/Dementia\n4457. Glenne Headly  \u2014  http:\/\/en.wikipedia.org.\/wiki\/Glenne_Headly\n4458. Diane Keaton  \u2014  http:\/\/en.wikipedia.org.\/wiki\/Diane_Keaton\n4459. Greg Sestero  \u2014  http:\/\/en.wikipedia.org.\/wiki\/Greg_Sestero\n4460. Document Object Model  \u2014  http:\/\/en.wikipedia.org.\/wiki\/Document_Object_Model\n4461. Lupita Nyong'o  \u2014  http:\/\/en.wikipedia.org.\/wiki\/Lupita_Nyong'o\n4462. Creedence Clearwater Revival  \u2014  http:\/\/en.wikipedia.org.\/wiki\/Creedence_Clearwater_Revival\n4463. NBA Most Valuable Player Award  \u2014  http:\/\/en.wikipedia.org.\/wiki\/NBA_Most_Valuable_Player_Award\n4464. Academic grading in the United States  \u2014  http:\/\/en.wikipedia.org.\/wiki\/Academic_grading_in_the_United_States\n4465. Alexa Bliss  \u2014  http:\/\/en.wikipedia.org.\/wiki\/Alexa_Bliss\n4466. No Mercy (2017)  \u2014  http:\/\/en.wikipedia.org.\/wiki\/No_Mercy_(2017)\n4467. Sumer  \u2014  http:\/\/en.wikipedia.org.\/wiki\/Sumer\n4468. Hangul  \u2014  http:\/\/en.wikipedia.org.\/wiki\/Hangul\n4469. David Schwimmer  \u2014  http:\/\/en.wikipedia.org.\/wiki\/David_Schwimmer\n4470. Stop words  \u2014  http:\/\/en.wikipedia.org.\/wiki\/Stop_words\n4471. Cultural Revolution  \u2014  http:\/\/en.wikipedia.org.\/wiki\/Cultural_Revolution\n4472. Nina Simone  \u2014  http:\/\/en.wikipedia.org.\/wiki\/Nina_Simone\n4473. List of World Series champions  \u2014  http:\/\/en.wikipedia.org.\/wiki\/List_of_World_Series_champions\n4474. Thesis  \u2014  http:\/\/en.wikipedia.org.\/wiki\/Thesis\n4475. Aerosmith  \u2014  http:\/\/en.wikipedia.org.\/wiki\/Aerosmith\n4476. History of China  \u2014  http:\/\/en.wikipedia.org.\/wiki\/History_of_China\n4477. Cougar  \u2014  http:\/\/en.wikipedia.org.\/wiki\/Cougar\n4478. Nam Joo-hyuk  \u2014  http:\/\/en.wikipedia.org.\/wiki\/Nam_Joo-hyuk\n4479. Watchmen (film)  \u2014  http:\/\/en.wikipedia.org.\/wiki\/Watchmen_(film)\n4480. Ford Mustang  \u2014  http:\/\/en.wikipedia.org.\/wiki\/Ford_Mustang\n4481. Cincinnati  \u2014  http:\/\/en.wikipedia.org.\/wiki\/Cincinnati\n4482. Mumpsimus  \u2014  http:\/\/en.wikipedia.org.\/wiki\/Mumpsimus\n4483. Florence  \u2014  http:\/\/en.wikipedia.org.\/wiki\/Florence\n4484. Gangs of New York  \u2014  http:\/\/en.wikipedia.org.\/wiki\/Gangs_of_New_York\n4485. John French, 1st Earl of Ypres  \u2014  http:\/\/en.wikipedia.org.\/wiki\/John_French%2C_1st_Earl_of_Ypres\n4486. Influenza  \u2014  http:\/\/en.wikipedia.org.\/wiki\/Influenza\n4487. List of countries by suicide rate  \u2014  http:\/\/en.wikipedia.org.\/wiki\/List_of_countries_by_suicide_rate\n4488. Keeping Up with the Kardashians  \u2014  http:\/\/en.wikipedia.org.\/wiki\/Keeping_Up_with_the_Kardashians\n4489. Andrew Carnegie  \u2014  http:\/\/en.wikipedia.org.\/wiki\/Andrew_Carnegie\n4490. Kelsey Grammer  \u2014  http:\/\/en.wikipedia.org.\/wiki\/Kelsey_Grammer\n4491. List of countries by tax rates  \u2014  http:\/\/en.wikipedia.org.\/wiki\/List_of_countries_by_tax_rates\n4492. Sinn F\u00E9in  \u2014  http:\/\/en.wikipedia.org.\/wiki\/Sinn_F%C3%A9in\n4493. Sonic Mania  \u2014  http:\/\/en.wikipedia.org.\/wiki\/Sonic_Mania\n4494. University of Cambridge  \u2014  http:\/\/en.wikipedia.org.\/wiki\/University_of_Cambridge\n4495. Hannibal (TV series)  \u2014  http:\/\/en.wikipedia.org.\/wiki\/Hannibal_(TV_series)\n4496. The Ring (2002 film)  \u2014  http:\/\/en.wikipedia.org.\/wiki\/The_Ring_(2002_film)\n4497. Autonomous car  \u2014  http:\/\/en.wikipedia.org.\/wiki\/Autonomous_car\n4498. Diego Maradona  \u2014  http:\/\/en.wikipedia.org.\/wiki\/Diego_Maradona\n4499. Universal Declaration of Human Rights  \u2014  http:\/\/en.wikipedia.org.\/wiki\/Universal_Declaration_of_Human_Rights\n","miniList":"4400. Blood type\n4401. Mary, mother of Jesus\n4402. David\n4403. 300 (film)\n4404. Latin America\n4405. RuPaul\n4406. Saint Helena\n4407. Old Man Logan\n4408. Serial killer\n4409. Mohammad Reza Pahlavi\n4410. Royal Navy\n4411. List of countries and dependencies by population density\n4412. Plant\n4413. Chesley Sullenberger\n4414. Shingles\n4415. Intercontinental ballistic missile\n4416. Secondary school\n4417. The Picture of Dorian Gray\n4418. Stockholm\n4419. Gout\n4420. Wiz Khalifa\n4421. Golden Globe Award\n4422. Google Earth\n4423. Czech language\n4424. Nominal Pipe Size\n4425. Founding Fathers of the United States\n4426. Benedict Arnold\n4427. SharePoint\n4428. Chiang Kai-shek\n4429. Subhas Chandra Bose\n4430. Malware\n4431. Fate\/stay night\n4432. Atom\n4433. Operators in C and C++\n4434. S&P 500 Index\n4435. Boeing\n4436. List of Bob's Burgers episodes\n4437. Ben Carson\n4438. Khmer Rouge\n4439. Jeremy Irons\n4440. Electricity\n4441. Mulan (1998 film)\n4442. Boeing 767\n4443. Alice in Chains\n4444. Kevin James\n4445. Fortitude (TV series)\n4446. Windows XP\n4447. Ernest Rutherford\n4448. Cumulative distribution function\n4449. Priscilla Presley\n4450. Saint Peter\n4451. Terrorism\n4452. Confucianism\n4453. Line of Duty\n4454. Heathrow Airport\n4455. Battle of the Somme\n4456. Dementia\n4457. Glenne Headly\n4458. Diane Keaton\n4459. Greg Sestero\n4460. Document Object Model\n4461. Lupita Nyong'o\n4462. Creedence Clearwater Revival\n4463. NBA Most Valuable Player Award\n4464. Academic grading in the United States\n4465. Alexa Bliss\n4466. No Mercy (2017)\n4467. Sumer\n4468. Hangul\n4469. David Schwimmer\n4470. Stop words\n4471. Cultural Revolution\n4472. Nina Simone\n4473. List of World Series champions\n4474. Thesis\n4475. Aerosmith\n4476. History of China\n4477. Cougar\n4478. Nam Joo-hyuk\n4479. Watchmen (film)\n4480. Ford Mustang\n4481. Cincinnati\n4482. Mumpsimus\n4483. Florence\n4484. Gangs of New York\n4485. John French, 1st Earl of Ypres\n4486. Influenza\n4487. List of countries by suicide rate\n4488. Keeping Up with the Kardashians\n4489. Andrew Carnegie\n4490. Kelsey Grammer\n4491. List of countries by tax rates\n4492. Sinn F\u00E9in\n4493. Sonic Mania\n4494. University of Cambridge\n4495. Hannibal (TV series)\n4496. The Ring (2002 film)\n4497. Autonomous car\n4498. Diego Maradona\n4499. Universal Declaration of Human Rights\n"}
