{"start":4501,"end":4600,"count":5616717,"type":"pageviews","pageSize":100,"page":45,"pages":56168,"columns":[{"label":"","property":"pageviews","sortable":false}],"items":[{"pageviews":"4500. <a target=\"_blank\" href=\"http://en.wikipedia.org./wiki/Futurama\">Futurama</a>"},{"pageviews":"4501. <a target=\"_blank\" href=\"http://en.wikipedia.org./wiki/Dyslexia\">Dyslexia</a>"},{"pageviews":"4502. <a target=\"_blank\" href=\"http://en.wikipedia.org./wiki/Salman_Rushdie\">Salman Rushdie</a>"},{"pageviews":"4503. <a target=\"_blank\" href=\"http://en.wikipedia.org./wiki/Iron_Man\">Iron Man</a>"},{"pageviews":"4504. <a target=\"_blank\" href=\"http://en.wikipedia.org./wiki/Niger\">Niger</a>"},{"pageviews":"4505. <a target=\"_blank\" href=\"http://en.wikipedia.org./wiki/Suez_Crisis\">Suez Crisis</a>"},{"pageviews":"4506. <a target=\"_blank\" href=\"http://en.wikipedia.org./wiki/John%2C_King_of_England\">John, King of England</a>"},{"pageviews":"4507. <a target=\"_blank\" href=\"http://en.wikipedia.org./wiki/Live_by_Night_(film)\">Live by Night (film)</a>"},{"pageviews":"4508. <a target=\"_blank\" href=\"http://en.wikipedia.org./wiki/Jing_Tian\">Jing Tian</a>"},{"pageviews":"4509. <a target=\"_blank\" href=\"http://en.wikipedia.org./wiki/Citric_acid_cycle\">Citric acid cycle</a>"},{"pageviews":"4510. <a target=\"_blank\" href=\"http://en.wikipedia.org./wiki/Stef%C3%A1n_Karl_Stef%C3%A1nsson\">Stefán Karl Stefánsson</a>"},{"pageviews":"4511. <a target=\"_blank\" href=\"http://en.wikipedia.org./wiki/Travis_Fimmel\">Travis Fimmel</a>"},{"pageviews":"4512. <a target=\"_blank\" href=\"http://en.wikipedia.org./wiki/AT%26T\">AT&T</a>"},{"pageviews":"4513. <a target=\"_blank\" href=\"http://en.wikipedia.org./wiki/Baadshaho\">Baadshaho</a>"},{"pageviews":"4514. <a target=\"_blank\" href=\"http://en.wikipedia.org./wiki/5G\">5G</a>"},{"pageviews":"4515. <a target=\"_blank\" href=\"http://en.wikipedia.org./wiki/Ellie_Kemper\">Ellie Kemper</a>"},{"pageviews":"4516. <a target=\"_blank\" href=\"http://en.wikipedia.org./wiki/Kaitlin_Olson\">Kaitlin Olson</a>"},{"pageviews":"4517. <a target=\"_blank\" href=\"http://en.wikipedia.org./wiki/Pitbull_(rapper)\">Pitbull (rapper)</a>"},{"pageviews":"4518. <a target=\"_blank\" href=\"http://en.wikipedia.org./wiki/MonsterVerse\">MonsterVerse</a>"},{"pageviews":"4519. <a target=\"_blank\" href=\"http://en.wikipedia.org./wiki/Ethan_Hawke\">Ethan Hawke</a>"},{"pageviews":"4520. <a target=\"_blank\" href=\"http://en.wikipedia.org./wiki/Advanced_Micro_Devices\">Advanced Micro Devices</a>"},{"pageviews":"4521. <a target=\"_blank\" href=\"http://en.wikipedia.org./wiki/Korean_Demilitarized_Zone\">Korean Demilitarized Zone</a>"},{"pageviews":"4522. <a target=\"_blank\" href=\"http://en.wikipedia.org./wiki/Star\">Star</a>"},{"pageviews":"4523. <a target=\"_blank\" href=\"http://en.wikipedia.org./wiki/Napoleon_III\">Napoleon III</a>"},{"pageviews":"4524. <a target=\"_blank\" href=\"http://en.wikipedia.org./wiki/ISO_4217\">ISO 4217</a>"},{"pageviews":"4525. <a target=\"_blank\" href=\"http://en.wikipedia.org./wiki/Ken_Jeong\">Ken Jeong</a>"},{"pageviews":"4526. <a target=\"_blank\" href=\"http://en.wikipedia.org./wiki/Pretty_Good_Privacy\">Pretty Good Privacy</a>"},{"pageviews":"4527. <a target=\"_blank\" href=\"http://en.wikipedia.org./wiki/Sikhism\">Sikhism</a>"},{"pageviews":"4528. <a target=\"_blank\" href=\"http://en.wikipedia.org./wiki/Destiny_(video_game)\">Destiny (video game)</a>"},{"pageviews":"4529. <a target=\"_blank\" href=\"http://en.wikipedia.org./wiki/CAPTCHA\">CAPTCHA</a>"},{"pageviews":"4530. <a target=\"_blank\" href=\"http://en.wikipedia.org./wiki/Miranda_Kerr\">Miranda Kerr</a>"},{"pageviews":"4531. <a target=\"_blank\" href=\"http://en.wikipedia.org./wiki/Nimitz-class_aircraft_carrier\">Nimitz-class aircraft carrier</a>"},{"pageviews":"4532. <a target=\"_blank\" href=\"http://en.wikipedia.org./wiki/Delta_Force\">Delta Force</a>"},{"pageviews":"4533. <a target=\"_blank\" href=\"http://en.wikipedia.org./wiki/Serial_ATA\">Serial ATA</a>"},{"pageviews":"4534. <a target=\"_blank\" href=\"http://en.wikipedia.org./wiki/Randy_Orton\">Randy Orton</a>"},{"pageviews":"4535. <a target=\"_blank\" href=\"http://en.wikipedia.org./wiki/A%2A_search_algorithm\">A* search algorithm</a>"},{"pageviews":"4536. <a target=\"_blank\" href=\"http://en.wikipedia.org./wiki/Sonic_Forces\">Sonic Forces</a>"},{"pageviews":"4537. <a target=\"_blank\" href=\"http://en.wikipedia.org./wiki/Fuller_House_(TV_series)\">Fuller House (TV series)</a>"},{"pageviews":"4538. <a target=\"_blank\" href=\"http://en.wikipedia.org./wiki/Vitamin_D\">Vitamin D</a>"},{"pageviews":"4539. <a target=\"_blank\" href=\"http://en.wikipedia.org./wiki/Heuristic\">Heuristic</a>"},{"pageviews":"4540. <a target=\"_blank\" href=\"http://en.wikipedia.org./wiki/Unified_Modeling_Language\">Unified Modeling Language</a>"},{"pageviews":"4541. <a target=\"_blank\" href=\"http://en.wikipedia.org./wiki/Density\">Density</a>"},{"pageviews":"4542. <a target=\"_blank\" href=\"http://en.wikipedia.org./wiki/Dot-com_bubble\">Dot-com bubble</a>"},{"pageviews":"4543. <a target=\"_blank\" href=\"http://en.wikipedia.org./wiki/Guillain%E2%80%93Barr%C3%A9_syndrome\">Guillain–Barré syndrome</a>"},{"pageviews":"4544. <a target=\"_blank\" href=\"http://en.wikipedia.org./wiki/Thanksgiving_(United_States)\">Thanksgiving (United States)</a>"},{"pageviews":"4545. <a target=\"_blank\" href=\"http://en.wikipedia.org./wiki/Magnetic_field\">Magnetic field</a>"},{"pageviews":"4546. <a target=\"_blank\" href=\"http://en.wikipedia.org./wiki/Poseidon\">Poseidon</a>"},{"pageviews":"4547. <a target=\"_blank\" href=\"http://en.wikipedia.org./wiki/Justin_Roiland\">Justin Roiland</a>"},{"pageviews":"4548. <a target=\"_blank\" href=\"http://en.wikipedia.org./wiki/Quadratic_formula\">Quadratic formula</a>"},{"pageviews":"4549. <a target=\"_blank\" href=\"http://en.wikipedia.org./wiki/John_Gotti\">John Gotti</a>"},{"pageviews":"4550. <a target=\"_blank\" href=\"http://en.wikipedia.org./wiki/Beck\">Beck</a>"},{"pageviews":"4551. <a target=\"_blank\" href=\"http://en.wikipedia.org./wiki/Sarah_Michelle_Gellar\">Sarah Michelle Gellar</a>"},{"pageviews":"4552. <a target=\"_blank\" href=\"http://en.wikipedia.org./wiki/Pacific_Ocean\">Pacific Ocean</a>"},{"pageviews":"4553. <a target=\"_blank\" href=\"http://en.wikipedia.org./wiki/Samurai\">Samurai</a>"},{"pageviews":"4554. <a target=\"_blank\" href=\"http://en.wikipedia.org./wiki/Witness_(Katy_Perry_album)\">Witness (Katy Perry album)</a>"},{"pageviews":"4555. <a target=\"_blank\" href=\"http://en.wikipedia.org./wiki/Golmaal_Again\">Golmaal Again</a>"},{"pageviews":"4556. <a target=\"_blank\" href=\"http://en.wikipedia.org./wiki/Got7\">Got7</a>"},{"pageviews":"4557. <a target=\"_blank\" href=\"http://en.wikipedia.org./wiki/Stormzy\">Stormzy</a>"},{"pageviews":"4558. <a target=\"_blank\" href=\"http://en.wikipedia.org./wiki/Kris_Wu\">Kris Wu</a>"},{"pageviews":"4559. <a target=\"_blank\" href=\"http://en.wikipedia.org./wiki/Chumlee\">Chumlee</a>"},{"pageviews":"4560. <a target=\"_blank\" href=\"http://en.wikipedia.org./wiki/Rough_Night\">Rough Night</a>"},{"pageviews":"4561. <a target=\"_blank\" href=\"http://en.wikipedia.org./wiki/List_of_Shadowhunters_episodes\">List of Shadowhunters episodes</a>"},{"pageviews":"4562. <a target=\"_blank\" href=\"http://en.wikipedia.org./wiki/List_of_WWE_Champions\">List of WWE Champions</a>"},{"pageviews":"4563. <a target=\"_blank\" href=\"http://en.wikipedia.org./wiki/Populism\">Populism</a>"},{"pageviews":"4564. <a target=\"_blank\" href=\"http://en.wikipedia.org./wiki/Penis\">Penis</a>"},{"pageviews":"4565. <a target=\"_blank\" href=\"http://en.wikipedia.org./wiki/Kray_twins\">Kray twins</a>"},{"pageviews":"4566. <a target=\"_blank\" href=\"http://en.wikipedia.org./wiki/14th_Dalai_Lama\">14th Dalai Lama</a>"},{"pageviews":"4567. <a target=\"_blank\" href=\"http://en.wikipedia.org./wiki/Vegas_Golden_Knights\">Vegas Golden Knights</a>"},{"pageviews":"4568. <a target=\"_blank\" href=\"http://en.wikipedia.org./wiki/Union_Jack\">Union Jack</a>"},{"pageviews":"4569. <a target=\"_blank\" href=\"http://en.wikipedia.org./wiki/Lenovo\">Lenovo</a>"},{"pageviews":"4570. <a target=\"_blank\" href=\"http://en.wikipedia.org./wiki/Louisiana\">Louisiana</a>"},{"pageviews":"4571. <a target=\"_blank\" href=\"http://en.wikipedia.org./wiki/Alexis_S%C3%A1nchez\">Alexis Sánchez</a>"},{"pageviews":"4572. <a target=\"_blank\" href=\"http://en.wikipedia.org./wiki/Oakland_Raiders\">Oakland Raiders</a>"},{"pageviews":"4573. <a target=\"_blank\" href=\"http://en.wikipedia.org./wiki/Time\">Time</a>"},{"pageviews":"4574. <a target=\"_blank\" href=\"http://en.wikipedia.org./wiki/V_for_Vendetta_(film)\">V for Vendetta (film)</a>"},{"pageviews":"4575. <a target=\"_blank\" href=\"http://en.wikipedia.org./wiki/Coeliac_disease\">Coeliac disease</a>"},{"pageviews":"4576. <a target=\"_blank\" href=\"http://en.wikipedia.org./wiki/World_Bank\">World Bank</a>"},{"pageviews":"4577. <a target=\"_blank\" href=\"http://en.wikipedia.org./wiki/Zionism\">Zionism</a>"},{"pageviews":"4578. <a target=\"_blank\" href=\"http://en.wikipedia.org./wiki/X-ray\">X-ray</a>"},{"pageviews":"4579. <a target=\"_blank\" href=\"http://en.wikipedia.org./wiki/Cell_(biology)\">Cell (biology)</a>"},{"pageviews":"4580. <a target=\"_blank\" href=\"http://en.wikipedia.org./wiki/Star-Lord\">Star-Lord</a>"},{"pageviews":"4581. <a target=\"_blank\" href=\"http://en.wikipedia.org./wiki/Type_I_and_type_II_errors\">Type I and type II errors</a>"},{"pageviews":"4582. <a target=\"_blank\" href=\"http://en.wikipedia.org./wiki/Polymath\">Polymath</a>"},{"pageviews":"4583. <a target=\"_blank\" href=\"http://en.wikipedia.org./wiki/Sarah_Hyland\">Sarah Hyland</a>"},{"pageviews":"4584. <a target=\"_blank\" href=\"http://en.wikipedia.org./wiki/Of_Mice_and_Men\">Of Mice and Men</a>"},{"pageviews":"4585. <a target=\"_blank\" href=\"http://en.wikipedia.org./wiki/Uniform_Resource_Identifier\">Uniform Resource Identifier</a>"},{"pageviews":"4586. <a target=\"_blank\" href=\"http://en.wikipedia.org./wiki/Ri_Sol-ju\">Ri Sol-ju</a>"},{"pageviews":"4587. <a target=\"_blank\" href=\"http://en.wikipedia.org./wiki/Eva_Braun\">Eva Braun</a>"},{"pageviews":"4588. <a target=\"_blank\" href=\"http://en.wikipedia.org./wiki/Roger_Stone\">Roger Stone</a>"},{"pageviews":"4589. <a target=\"_blank\" href=\"http://en.wikipedia.org./wiki/Ballers\">Ballers</a>"},{"pageviews":"4590. <a target=\"_blank\" href=\"http://en.wikipedia.org./wiki/Computer_keyboard\">Computer keyboard</a>"},{"pageviews":"4591. <a target=\"_blank\" href=\"http://en.wikipedia.org./wiki/Rhode_Island\">Rhode Island</a>"},{"pageviews":"4592. <a target=\"_blank\" href=\"http://en.wikipedia.org./wiki/American_Beauty_(1999_film)\">American Beauty (1999 film)</a>"},{"pageviews":"4593. <a target=\"_blank\" href=\"http://en.wikipedia.org./wiki/Melodrama_(Lorde_album)\">Melodrama (Lorde album)</a>"},{"pageviews":"4594. <a target=\"_blank\" href=\"http://en.wikipedia.org./wiki/24_(TV_series)\">24 (TV series)</a>"},{"pageviews":"4595. <a target=\"_blank\" href=\"http://en.wikipedia.org./wiki/Surrealism\">Surrealism</a>"},{"pageviews":"4596. <a target=\"_blank\" href=\"http://en.wikipedia.org./wiki/Abu_Dhabi\">Abu Dhabi</a>"},{"pageviews":"4597. <a target=\"_blank\" href=\"http://en.wikipedia.org./wiki/Quantico_(season_2)\">Quantico (season 2)</a>"},{"pageviews":"4598. <a target=\"_blank\" href=\"http://en.wikipedia.org./wiki/Lord_of_the_Flies\">Lord of the Flies</a>"},{"pageviews":"4599. <a target=\"_blank\" href=\"http://en.wikipedia.org./wiki/Clarence_Thomas\">Clarence Thomas</a>"}],"list":"4500. Futurama  \u2014  http:\/\/en.wikipedia.org.\/wiki\/Futurama\n4501. Dyslexia  \u2014  http:\/\/en.wikipedia.org.\/wiki\/Dyslexia\n4502. Salman Rushdie  \u2014  http:\/\/en.wikipedia.org.\/wiki\/Salman_Rushdie\n4503. Iron Man  \u2014  http:\/\/en.wikipedia.org.\/wiki\/Iron_Man\n4504. Niger  \u2014  http:\/\/en.wikipedia.org.\/wiki\/Niger\n4505. Suez Crisis  \u2014  http:\/\/en.wikipedia.org.\/wiki\/Suez_Crisis\n4506. John, King of England  \u2014  http:\/\/en.wikipedia.org.\/wiki\/John%2C_King_of_England\n4507. Live by Night (film)  \u2014  http:\/\/en.wikipedia.org.\/wiki\/Live_by_Night_(film)\n4508. Jing Tian  \u2014  http:\/\/en.wikipedia.org.\/wiki\/Jing_Tian\n4509. Citric acid cycle  \u2014  http:\/\/en.wikipedia.org.\/wiki\/Citric_acid_cycle\n4510. Stef\u00E1n Karl Stef\u00E1nsson  \u2014  http:\/\/en.wikipedia.org.\/wiki\/Stef%C3%A1n_Karl_Stef%C3%A1nsson\n4511. Travis Fimmel  \u2014  http:\/\/en.wikipedia.org.\/wiki\/Travis_Fimmel\n4512. AT&T  \u2014  http:\/\/en.wikipedia.org.\/wiki\/AT%26T\n4513. Baadshaho  \u2014  http:\/\/en.wikipedia.org.\/wiki\/Baadshaho\n4514. 5G  \u2014  http:\/\/en.wikipedia.org.\/wiki\/5G\n4515. Ellie Kemper  \u2014  http:\/\/en.wikipedia.org.\/wiki\/Ellie_Kemper\n4516. Kaitlin Olson  \u2014  http:\/\/en.wikipedia.org.\/wiki\/Kaitlin_Olson\n4517. Pitbull (rapper)  \u2014  http:\/\/en.wikipedia.org.\/wiki\/Pitbull_(rapper)\n4518. MonsterVerse  \u2014  http:\/\/en.wikipedia.org.\/wiki\/MonsterVerse\n4519. Ethan Hawke  \u2014  http:\/\/en.wikipedia.org.\/wiki\/Ethan_Hawke\n4520. Advanced Micro Devices  \u2014  http:\/\/en.wikipedia.org.\/wiki\/Advanced_Micro_Devices\n4521. Korean Demilitarized Zone  \u2014  http:\/\/en.wikipedia.org.\/wiki\/Korean_Demilitarized_Zone\n4522. Star  \u2014  http:\/\/en.wikipedia.org.\/wiki\/Star\n4523. Napoleon III  \u2014  http:\/\/en.wikipedia.org.\/wiki\/Napoleon_III\n4524. ISO 4217  \u2014  http:\/\/en.wikipedia.org.\/wiki\/ISO_4217\n4525. Ken Jeong  \u2014  http:\/\/en.wikipedia.org.\/wiki\/Ken_Jeong\n4526. Pretty Good Privacy  \u2014  http:\/\/en.wikipedia.org.\/wiki\/Pretty_Good_Privacy\n4527. Sikhism  \u2014  http:\/\/en.wikipedia.org.\/wiki\/Sikhism\n4528. Destiny (video game)  \u2014  http:\/\/en.wikipedia.org.\/wiki\/Destiny_(video_game)\n4529. CAPTCHA  \u2014  http:\/\/en.wikipedia.org.\/wiki\/CAPTCHA\n4530. Miranda Kerr  \u2014  http:\/\/en.wikipedia.org.\/wiki\/Miranda_Kerr\n4531. Nimitz-class aircraft carrier  \u2014  http:\/\/en.wikipedia.org.\/wiki\/Nimitz-class_aircraft_carrier\n4532. Delta Force  \u2014  http:\/\/en.wikipedia.org.\/wiki\/Delta_Force\n4533. Serial ATA  \u2014  http:\/\/en.wikipedia.org.\/wiki\/Serial_ATA\n4534. Randy Orton  \u2014  http:\/\/en.wikipedia.org.\/wiki\/Randy_Orton\n4535. A* search algorithm  \u2014  http:\/\/en.wikipedia.org.\/wiki\/A%2A_search_algorithm\n4536. Sonic Forces  \u2014  http:\/\/en.wikipedia.org.\/wiki\/Sonic_Forces\n4537. Fuller House (TV series)  \u2014  http:\/\/en.wikipedia.org.\/wiki\/Fuller_House_(TV_series)\n4538. Vitamin D  \u2014  http:\/\/en.wikipedia.org.\/wiki\/Vitamin_D\n4539. Heuristic  \u2014  http:\/\/en.wikipedia.org.\/wiki\/Heuristic\n4540. Unified Modeling Language  \u2014  http:\/\/en.wikipedia.org.\/wiki\/Unified_Modeling_Language\n4541. Density  \u2014  http:\/\/en.wikipedia.org.\/wiki\/Density\n4542. Dot-com bubble  \u2014  http:\/\/en.wikipedia.org.\/wiki\/Dot-com_bubble\n4543. Guillain\u2013Barr\u00E9 syndrome  \u2014  http:\/\/en.wikipedia.org.\/wiki\/Guillain%E2%80%93Barr%C3%A9_syndrome\n4544. Thanksgiving (United States)  \u2014  http:\/\/en.wikipedia.org.\/wiki\/Thanksgiving_(United_States)\n4545. Magnetic field  \u2014  http:\/\/en.wikipedia.org.\/wiki\/Magnetic_field\n4546. Poseidon  \u2014  http:\/\/en.wikipedia.org.\/wiki\/Poseidon\n4547. Justin Roiland  \u2014  http:\/\/en.wikipedia.org.\/wiki\/Justin_Roiland\n4548. Quadratic formula  \u2014  http:\/\/en.wikipedia.org.\/wiki\/Quadratic_formula\n4549. John Gotti  \u2014  http:\/\/en.wikipedia.org.\/wiki\/John_Gotti\n4550. Beck  \u2014  http:\/\/en.wikipedia.org.\/wiki\/Beck\n4551. Sarah Michelle Gellar  \u2014  http:\/\/en.wikipedia.org.\/wiki\/Sarah_Michelle_Gellar\n4552. Pacific Ocean  \u2014  http:\/\/en.wikipedia.org.\/wiki\/Pacific_Ocean\n4553. Samurai  \u2014  http:\/\/en.wikipedia.org.\/wiki\/Samurai\n4554. Witness (Katy Perry album)  \u2014  http:\/\/en.wikipedia.org.\/wiki\/Witness_(Katy_Perry_album)\n4555. Golmaal Again  \u2014  http:\/\/en.wikipedia.org.\/wiki\/Golmaal_Again\n4556. Got7  \u2014  http:\/\/en.wikipedia.org.\/wiki\/Got7\n4557. Stormzy  \u2014  http:\/\/en.wikipedia.org.\/wiki\/Stormzy\n4558. Kris Wu  \u2014  http:\/\/en.wikipedia.org.\/wiki\/Kris_Wu\n4559. Chumlee  \u2014  http:\/\/en.wikipedia.org.\/wiki\/Chumlee\n4560. Rough Night  \u2014  http:\/\/en.wikipedia.org.\/wiki\/Rough_Night\n4561. List of Shadowhunters episodes  \u2014  http:\/\/en.wikipedia.org.\/wiki\/List_of_Shadowhunters_episodes\n4562. List of WWE Champions  \u2014  http:\/\/en.wikipedia.org.\/wiki\/List_of_WWE_Champions\n4563. Populism  \u2014  http:\/\/en.wikipedia.org.\/wiki\/Populism\n4564. Penis  \u2014  http:\/\/en.wikipedia.org.\/wiki\/Penis\n4565. Kray twins  \u2014  http:\/\/en.wikipedia.org.\/wiki\/Kray_twins\n4566. 14th Dalai Lama  \u2014  http:\/\/en.wikipedia.org.\/wiki\/14th_Dalai_Lama\n4567. Vegas Golden Knights  \u2014  http:\/\/en.wikipedia.org.\/wiki\/Vegas_Golden_Knights\n4568. Union Jack  \u2014  http:\/\/en.wikipedia.org.\/wiki\/Union_Jack\n4569. Lenovo  \u2014  http:\/\/en.wikipedia.org.\/wiki\/Lenovo\n4570. Louisiana  \u2014  http:\/\/en.wikipedia.org.\/wiki\/Louisiana\n4571. Alexis S\u00E1nchez  \u2014  http:\/\/en.wikipedia.org.\/wiki\/Alexis_S%C3%A1nchez\n4572. Oakland Raiders  \u2014  http:\/\/en.wikipedia.org.\/wiki\/Oakland_Raiders\n4573. Time  \u2014  http:\/\/en.wikipedia.org.\/wiki\/Time\n4574. V for Vendetta (film)  \u2014  http:\/\/en.wikipedia.org.\/wiki\/V_for_Vendetta_(film)\n4575. Coeliac disease  \u2014  http:\/\/en.wikipedia.org.\/wiki\/Coeliac_disease\n4576. World Bank  \u2014  http:\/\/en.wikipedia.org.\/wiki\/World_Bank\n4577. Zionism  \u2014  http:\/\/en.wikipedia.org.\/wiki\/Zionism\n4578. X-ray  \u2014  http:\/\/en.wikipedia.org.\/wiki\/X-ray\n4579. Cell (biology)  \u2014  http:\/\/en.wikipedia.org.\/wiki\/Cell_(biology)\n4580. Star-Lord  \u2014  http:\/\/en.wikipedia.org.\/wiki\/Star-Lord\n4581. Type I and type II errors  \u2014  http:\/\/en.wikipedia.org.\/wiki\/Type_I_and_type_II_errors\n4582. Polymath  \u2014  http:\/\/en.wikipedia.org.\/wiki\/Polymath\n4583. Sarah Hyland  \u2014  http:\/\/en.wikipedia.org.\/wiki\/Sarah_Hyland\n4584. Of Mice and Men  \u2014  http:\/\/en.wikipedia.org.\/wiki\/Of_Mice_and_Men\n4585. Uniform Resource Identifier  \u2014  http:\/\/en.wikipedia.org.\/wiki\/Uniform_Resource_Identifier\n4586. Ri Sol-ju  \u2014  http:\/\/en.wikipedia.org.\/wiki\/Ri_Sol-ju\n4587. Eva Braun  \u2014  http:\/\/en.wikipedia.org.\/wiki\/Eva_Braun\n4588. Roger Stone  \u2014  http:\/\/en.wikipedia.org.\/wiki\/Roger_Stone\n4589. Ballers  \u2014  http:\/\/en.wikipedia.org.\/wiki\/Ballers\n4590. Computer keyboard  \u2014  http:\/\/en.wikipedia.org.\/wiki\/Computer_keyboard\n4591. Rhode Island  \u2014  http:\/\/en.wikipedia.org.\/wiki\/Rhode_Island\n4592. American Beauty (1999 film)  \u2014  http:\/\/en.wikipedia.org.\/wiki\/American_Beauty_(1999_film)\n4593. Melodrama (Lorde album)  \u2014  http:\/\/en.wikipedia.org.\/wiki\/Melodrama_(Lorde_album)\n4594. 24 (TV series)  \u2014  http:\/\/en.wikipedia.org.\/wiki\/24_(TV_series)\n4595. Surrealism  \u2014  http:\/\/en.wikipedia.org.\/wiki\/Surrealism\n4596. Abu Dhabi  \u2014  http:\/\/en.wikipedia.org.\/wiki\/Abu_Dhabi\n4597. Quantico (season 2)  \u2014  http:\/\/en.wikipedia.org.\/wiki\/Quantico_(season_2)\n4598. Lord of the Flies  \u2014  http:\/\/en.wikipedia.org.\/wiki\/Lord_of_the_Flies\n4599. Clarence Thomas  \u2014  http:\/\/en.wikipedia.org.\/wiki\/Clarence_Thomas\n","miniList":"4500. Futurama\n4501. Dyslexia\n4502. Salman Rushdie\n4503. Iron Man\n4504. Niger\n4505. Suez Crisis\n4506. John, King of England\n4507. Live by Night (film)\n4508. Jing Tian\n4509. Citric acid cycle\n4510. Stef\u00E1n Karl Stef\u00E1nsson\n4511. Travis Fimmel\n4512. AT&T\n4513. Baadshaho\n4514. 5G\n4515. Ellie Kemper\n4516. Kaitlin Olson\n4517. Pitbull (rapper)\n4518. MonsterVerse\n4519. Ethan Hawke\n4520. Advanced Micro Devices\n4521. Korean Demilitarized Zone\n4522. Star\n4523. Napoleon III\n4524. ISO 4217\n4525. Ken Jeong\n4526. Pretty Good Privacy\n4527. Sikhism\n4528. Destiny (video game)\n4529. CAPTCHA\n4530. Miranda Kerr\n4531. Nimitz-class aircraft carrier\n4532. Delta Force\n4533. Serial ATA\n4534. Randy Orton\n4535. A* search algorithm\n4536. Sonic Forces\n4537. Fuller House (TV series)\n4538. Vitamin D\n4539. Heuristic\n4540. Unified Modeling Language\n4541. Density\n4542. Dot-com bubble\n4543. Guillain\u2013Barr\u00E9 syndrome\n4544. Thanksgiving (United States)\n4545. Magnetic field\n4546. Poseidon\n4547. Justin Roiland\n4548. Quadratic formula\n4549. John Gotti\n4550. Beck\n4551. Sarah Michelle Gellar\n4552. Pacific Ocean\n4553. Samurai\n4554. Witness (Katy Perry album)\n4555. Golmaal Again\n4556. Got7\n4557. Stormzy\n4558. Kris Wu\n4559. Chumlee\n4560. Rough Night\n4561. List of Shadowhunters episodes\n4562. List of WWE Champions\n4563. Populism\n4564. Penis\n4565. Kray twins\n4566. 14th Dalai Lama\n4567. Vegas Golden Knights\n4568. Union Jack\n4569. Lenovo\n4570. Louisiana\n4571. Alexis S\u00E1nchez\n4572. Oakland Raiders\n4573. Time\n4574. V for Vendetta (film)\n4575. Coeliac disease\n4576. World Bank\n4577. Zionism\n4578. X-ray\n4579. Cell (biology)\n4580. Star-Lord\n4581. Type I and type II errors\n4582. Polymath\n4583. Sarah Hyland\n4584. Of Mice and Men\n4585. Uniform Resource Identifier\n4586. Ri Sol-ju\n4587. Eva Braun\n4588. Roger Stone\n4589. Ballers\n4590. Computer keyboard\n4591. Rhode Island\n4592. American Beauty (1999 film)\n4593. Melodrama (Lorde album)\n4594. 24 (TV series)\n4595. Surrealism\n4596. Abu Dhabi\n4597. Quantico (season 2)\n4598. Lord of the Flies\n4599. Clarence Thomas\n"}
