{"start":4601,"end":4700,"count":5616717,"type":"pageviews","pageSize":100,"page":46,"pages":56168,"columns":[{"label":"","property":"pageviews","sortable":false}],"items":[{"pageviews":"4600. <a target=\"_blank\" href=\"http://en.wikipedia.org./wiki/Haim_(band)\">Haim (band)</a>"},{"pageviews":"4601. <a target=\"_blank\" href=\"http://en.wikipedia.org./wiki/The_Bachelor_(U.S._TV_series)\">The Bachelor (U.S. TV series)</a>"},{"pageviews":"4602. <a target=\"_blank\" href=\"http://en.wikipedia.org./wiki/Vitiligo\">Vitiligo</a>"},{"pageviews":"4603. <a target=\"_blank\" href=\"http://en.wikipedia.org./wiki/Equinox\">Equinox</a>"},{"pageviews":"4604. <a target=\"_blank\" href=\"http://en.wikipedia.org./wiki/Management\">Management</a>"},{"pageviews":"4605. <a target=\"_blank\" href=\"http://en.wikipedia.org./wiki/Benjamin_Netanyahu\">Benjamin Netanyahu</a>"},{"pageviews":"4606. <a target=\"_blank\" href=\"http://en.wikipedia.org./wiki/Fahrenheit_451\">Fahrenheit 451</a>"},{"pageviews":"4607. <a target=\"_blank\" href=\"http://en.wikipedia.org./wiki/Human_penis\">Human penis</a>"},{"pageviews":"4608. <a target=\"_blank\" href=\"http://en.wikipedia.org./wiki/Slobodan_Praljak\">Slobodan Praljak</a>"},{"pageviews":"4609. <a target=\"_blank\" href=\"http://en.wikipedia.org./wiki/Assassination_of_Martin_Luther_King_Jr.\">Assassination of Martin Luther King Jr.</a>"},{"pageviews":"4610. <a target=\"_blank\" href=\"http://en.wikipedia.org./wiki/Kazuo_Ishiguro\">Kazuo Ishiguro</a>"},{"pageviews":"4611. <a target=\"_blank\" href=\"http://en.wikipedia.org./wiki/Roman_Republic\">Roman Republic</a>"},{"pageviews":"4612. <a target=\"_blank\" href=\"http://en.wikipedia.org./wiki/2017_World_Championships_in_Athletics\">2017 World Championships in Athletics</a>"},{"pageviews":"4613. <a target=\"_blank\" href=\"http://en.wikipedia.org./wiki/Amish\">Amish</a>"},{"pageviews":"4614. <a target=\"_blank\" href=\"http://en.wikipedia.org./wiki/The_Witch_(2015_film)\">The Witch (2015 film)</a>"},{"pageviews":"4615. <a target=\"_blank\" href=\"http://en.wikipedia.org./wiki/Jenna_Fischer\">Jenna Fischer</a>"},{"pageviews":"4616. <a target=\"_blank\" href=\"http://en.wikipedia.org./wiki/John_Glenn\">John Glenn</a>"},{"pageviews":"4617. <a target=\"_blank\" href=\"http://en.wikipedia.org./wiki/Linda_Cardellini\">Linda Cardellini</a>"},{"pageviews":"4618. <a target=\"_blank\" href=\"http://en.wikipedia.org./wiki/Baseball\">Baseball</a>"},{"pageviews":"4619. <a target=\"_blank\" href=\"http://en.wikipedia.org./wiki/Kubo_and_the_Two_Strings\">Kubo and the Two Strings</a>"},{"pageviews":"4620. <a target=\"_blank\" href=\"http://en.wikipedia.org./wiki/Fall_Out_Boy\">Fall Out Boy</a>"},{"pageviews":"4621. <a target=\"_blank\" href=\"http://en.wikipedia.org./wiki/AVN_Award\">AVN Award</a>"},{"pageviews":"4622. <a target=\"_blank\" href=\"http://en.wikipedia.org./wiki/MAC_address\">MAC address</a>"},{"pageviews":"4623. <a target=\"_blank\" href=\"http://en.wikipedia.org./wiki/MATLAB\">MATLAB</a>"},{"pageviews":"4624. <a target=\"_blank\" href=\"http://en.wikipedia.org./wiki/Seven_(1995_film)\">Seven (1995 film)</a>"},{"pageviews":"4625. <a target=\"_blank\" href=\"http://en.wikipedia.org./wiki/Israel_Kamakawiwo%CA%BBole\">Israel Kamakawiwoʻole</a>"},{"pageviews":"4626. <a target=\"_blank\" href=\"http://en.wikipedia.org./wiki/Tetrasomy_X\">Tetrasomy X</a>"},{"pageviews":"4627. <a target=\"_blank\" href=\"http://en.wikipedia.org./wiki/2017_NBA_Playoffs\">2017 NBA Playoffs</a>"},{"pageviews":"4628. <a target=\"_blank\" href=\"http://en.wikipedia.org./wiki/Evan_Peters\">Evan Peters</a>"},{"pageviews":"4629. <a target=\"_blank\" href=\"http://en.wikipedia.org./wiki/Humanz\">Humanz</a>"},{"pageviews":"4630. <a target=\"_blank\" href=\"http://en.wikipedia.org./wiki/Mark_Ruffalo\">Mark Ruffalo</a>"},{"pageviews":"4631. <a target=\"_blank\" href=\"http://en.wikipedia.org./wiki/Muse_(band)\">Muse (band)</a>"},{"pageviews":"4632. <a target=\"_blank\" href=\"http://en.wikipedia.org./wiki/Columbia_University\">Columbia University</a>"},{"pageviews":"4633. <a target=\"_blank\" href=\"http://en.wikipedia.org./wiki/Probability_density_function\">Probability density function</a>"},{"pageviews":"4634. <a target=\"_blank\" href=\"http://en.wikipedia.org./wiki/Mariska_Hargitay\">Mariska Hargitay</a>"},{"pageviews":"4635. <a target=\"_blank\" href=\"http://en.wikipedia.org./wiki/Bay_of_Pigs_Invasion\">Bay of Pigs Invasion</a>"},{"pageviews":"4636. <a target=\"_blank\" href=\"http://en.wikipedia.org./wiki/Isopropyl_alcohol\">Isopropyl alcohol</a>"},{"pageviews":"4637. <a target=\"_blank\" href=\"http://en.wikipedia.org./wiki/Doctor_Strange_(2016_film)\">Doctor Strange (2016 film)</a>"},{"pageviews":"4638. <a target=\"_blank\" href=\"http://en.wikipedia.org./wiki/University_of_California%2C_Berkeley\">University of California, Berkeley</a>"},{"pageviews":"4639. <a target=\"_blank\" href=\"http://en.wikipedia.org./wiki/Ciar%C3%A1n_Hinds\">Ciarán Hinds</a>"},{"pageviews":"4640. <a target=\"_blank\" href=\"http://en.wikipedia.org./wiki/Laser\">Laser</a>"},{"pageviews":"4641. <a target=\"_blank\" href=\"http://en.wikipedia.org./wiki/Jonah_Hill\">Jonah Hill</a>"},{"pageviews":"4642. <a target=\"_blank\" href=\"http://en.wikipedia.org./wiki/National_Security_Agency\">National Security Agency</a>"},{"pageviews":"4643. <a target=\"_blank\" href=\"http://en.wikipedia.org./wiki/Wisconsin\">Wisconsin</a>"},{"pageviews":"4644. <a target=\"_blank\" href=\"http://en.wikipedia.org./wiki/Cable_(comics)\">Cable (comics)</a>"},{"pageviews":"4645. <a target=\"_blank\" href=\"http://en.wikipedia.org./wiki/Siberia\">Siberia</a>"},{"pageviews":"4646. <a target=\"_blank\" href=\"http://en.wikipedia.org./wiki/Trojan_War\">Trojan War</a>"},{"pageviews":"4647. <a target=\"_blank\" href=\"http://en.wikipedia.org./wiki/Wahhabism\">Wahhabism</a>"},{"pageviews":"4648. <a target=\"_blank\" href=\"http://en.wikipedia.org./wiki/Vincent_D'Onofrio\">Vincent D'Onofrio</a>"},{"pageviews":"4649. <a target=\"_blank\" href=\"http://en.wikipedia.org./wiki/Lucy_Liu\">Lucy Liu</a>"},{"pageviews":"4650. <a target=\"_blank\" href=\"http://en.wikipedia.org./wiki/Creed_(film)\">Creed (film)</a>"},{"pageviews":"4651. <a target=\"_blank\" href=\"http://en.wikipedia.org./wiki/Fight_Club\">Fight Club</a>"},{"pageviews":"4652. <a target=\"_blank\" href=\"http://en.wikipedia.org./wiki/Miss_Universe\">Miss Universe</a>"},{"pageviews":"4653. <a target=\"_blank\" href=\"http://en.wikipedia.org./wiki/Brooke_Shields\">Brooke Shields</a>"},{"pageviews":"4654. <a target=\"_blank\" href=\"http://en.wikipedia.org./wiki/Black_Dahlia\">Black Dahlia</a>"},{"pageviews":"4655. <a target=\"_blank\" href=\"http://en.wikipedia.org./wiki/Urdu\">Urdu</a>"},{"pageviews":"4656. <a target=\"_blank\" href=\"http://en.wikipedia.org./wiki/Generation\">Generation</a>"},{"pageviews":"4657. <a target=\"_blank\" href=\"http://en.wikipedia.org./wiki/Honda_Civic\">Honda Civic</a>"},{"pageviews":"4658. <a target=\"_blank\" href=\"http://en.wikipedia.org./wiki/Cron\">Cron</a>"},{"pageviews":"4659. <a target=\"_blank\" href=\"http://en.wikipedia.org./wiki/%C3%89lodie_Yung\">Élodie Yung</a>"},{"pageviews":"4660. <a target=\"_blank\" href=\"http://en.wikipedia.org./wiki/Euler's_formula\">Euler's formula</a>"},{"pageviews":"4661. <a target=\"_blank\" href=\"http://en.wikipedia.org./wiki/The_Amazing_Spider-Man_2\">The Amazing Spider-Man 2</a>"},{"pageviews":"4662. <a target=\"_blank\" href=\"http://en.wikipedia.org./wiki/Haile_Selassie\">Haile Selassie</a>"},{"pageviews":"4663. <a target=\"_blank\" href=\"http://en.wikipedia.org./wiki/Yakuza\">Yakuza</a>"},{"pageviews":"4664. <a target=\"_blank\" href=\"http://en.wikipedia.org./wiki/Return_of_the_Jedi\">Return of the Jedi</a>"},{"pageviews":"4665. <a target=\"_blank\" href=\"http://en.wikipedia.org./wiki/Glasgow\">Glasgow</a>"},{"pageviews":"4666. <a target=\"_blank\" href=\"http://en.wikipedia.org./wiki/Keith_Richards\">Keith Richards</a>"},{"pageviews":"4667. <a target=\"_blank\" href=\"http://en.wikipedia.org./wiki/Universal_Pictures\">Universal Pictures</a>"},{"pageviews":"4668. <a target=\"_blank\" href=\"http://en.wikipedia.org./wiki/Vitamin_B12\">Vitamin B12</a>"},{"pageviews":"4669. <a target=\"_blank\" href=\"http://en.wikipedia.org./wiki/Paul_Rudd\">Paul Rudd</a>"},{"pageviews":"4670. <a target=\"_blank\" href=\"http://en.wikipedia.org./wiki/Bronze_Age\">Bronze Age</a>"},{"pageviews":"4671. <a target=\"_blank\" href=\"http://en.wikipedia.org./wiki/KPMG\">KPMG</a>"},{"pageviews":"4672. <a target=\"_blank\" href=\"http://en.wikipedia.org./wiki/List_of_most_expensive_association_football_transfers\">List of most expensive association football transfers</a>"},{"pageviews":"4673. <a target=\"_blank\" href=\"http://en.wikipedia.org./wiki/U.S._Route_66\">U.S. Route 66</a>"},{"pageviews":"4674. <a target=\"_blank\" href=\"http://en.wikipedia.org./wiki/House_of_Windsor\">House of Windsor</a>"},{"pageviews":"4675. <a target=\"_blank\" href=\"http://en.wikipedia.org./wiki/Merge_sort\">Merge sort</a>"},{"pageviews":"4676. <a target=\"_blank\" href=\"http://en.wikipedia.org./wiki/Buckingham_Palace\">Buckingham Palace</a>"},{"pageviews":"4677. <a target=\"_blank\" href=\"http://en.wikipedia.org./wiki/Korn\">Korn</a>"},{"pageviews":"4678. <a target=\"_blank\" href=\"http://en.wikipedia.org./wiki/Captain_Marvel_(DC_Comics)\">Captain Marvel (DC Comics)</a>"},{"pageviews":"4679. <a target=\"_blank\" href=\"http://en.wikipedia.org./wiki/Black_comedy\">Black comedy</a>"},{"pageviews":"4680. <a target=\"_blank\" href=\"http://en.wikipedia.org./wiki/David_Walliams\">David Walliams</a>"},{"pageviews":"4681. <a target=\"_blank\" href=\"http://en.wikipedia.org./wiki/Michael_Cera\">Michael Cera</a>"},{"pageviews":"4682. <a target=\"_blank\" href=\"http://en.wikipedia.org./wiki/Battlefield_1\">Battlefield 1</a>"},{"pageviews":"4683. <a target=\"_blank\" href=\"http://en.wikipedia.org./wiki/Nudity\">Nudity</a>"},{"pageviews":"4684. <a target=\"_blank\" href=\"http://en.wikipedia.org./wiki/Oxycodone\">Oxycodone</a>"},{"pageviews":"4685. <a target=\"_blank\" href=\"http://en.wikipedia.org./wiki/Richard_Harris\">Richard Harris</a>"},{"pageviews":"4686. <a target=\"_blank\" href=\"http://en.wikipedia.org./wiki/The_Middle_(TV_series)\">The Middle (TV series)</a>"},{"pageviews":"4687. <a target=\"_blank\" href=\"http://en.wikipedia.org./wiki/Kingdom_Hearts\">Kingdom Hearts</a>"},{"pageviews":"4688. <a target=\"_blank\" href=\"http://en.wikipedia.org./wiki/List_of_wars_involving_the_United_States\">List of wars involving the United States</a>"},{"pageviews":"4689. <a target=\"_blank\" href=\"http://en.wikipedia.org./wiki/Brian_Wilson\">Brian Wilson</a>"},{"pageviews":"4690. <a target=\"_blank\" href=\"http://en.wikipedia.org./wiki/Google_Chrome_version_history\">Google Chrome version history</a>"},{"pageviews":"4691. <a target=\"_blank\" href=\"http://en.wikipedia.org./wiki/List_of_The_Office_(U.S._TV_series)_episodes\">List of The Office (U.S. TV series) episodes</a>"},{"pageviews":"4692. <a target=\"_blank\" href=\"http://en.wikipedia.org./wiki/Ares\">Ares</a>"},{"pageviews":"4693. <a target=\"_blank\" href=\"http://en.wikipedia.org./wiki/Brussels\">Brussels</a>"},{"pageviews":"4694. <a target=\"_blank\" href=\"http://en.wikipedia.org./wiki/Jenny_McCarthy\">Jenny McCarthy</a>"},{"pageviews":"4695. <a target=\"_blank\" href=\"http://en.wikipedia.org./wiki/James_Earl_Jones\">James Earl Jones</a>"},{"pageviews":"4696. <a target=\"_blank\" href=\"http://en.wikipedia.org./wiki/Slavs\">Slavs</a>"},{"pageviews":"4697. <a target=\"_blank\" href=\"http://en.wikipedia.org./wiki/Tel_Aviv\">Tel Aviv</a>"},{"pageviews":"4698. <a target=\"_blank\" href=\"http://en.wikipedia.org./wiki/Battle_of_Thermopylae\">Battle of Thermopylae</a>"},{"pageviews":"4699. <a target=\"_blank\" href=\"http://en.wikipedia.org./wiki/Pangaea\">Pangaea</a>"}],"list":"4600. Haim (band)  \u2014  http:\/\/en.wikipedia.org.\/wiki\/Haim_(band)\n4601. The Bachelor (U.S. TV series)  \u2014  http:\/\/en.wikipedia.org.\/wiki\/The_Bachelor_(U.S._TV_series)\n4602. Vitiligo  \u2014  http:\/\/en.wikipedia.org.\/wiki\/Vitiligo\n4603. Equinox  \u2014  http:\/\/en.wikipedia.org.\/wiki\/Equinox\n4604. Management  \u2014  http:\/\/en.wikipedia.org.\/wiki\/Management\n4605. Benjamin Netanyahu  \u2014  http:\/\/en.wikipedia.org.\/wiki\/Benjamin_Netanyahu\n4606. Fahrenheit 451  \u2014  http:\/\/en.wikipedia.org.\/wiki\/Fahrenheit_451\n4607. Human penis  \u2014  http:\/\/en.wikipedia.org.\/wiki\/Human_penis\n4608. Slobodan Praljak  \u2014  http:\/\/en.wikipedia.org.\/wiki\/Slobodan_Praljak\n4609. Assassination of Martin Luther King Jr.  \u2014  http:\/\/en.wikipedia.org.\/wiki\/Assassination_of_Martin_Luther_King_Jr.\n4610. Kazuo Ishiguro  \u2014  http:\/\/en.wikipedia.org.\/wiki\/Kazuo_Ishiguro\n4611. Roman Republic  \u2014  http:\/\/en.wikipedia.org.\/wiki\/Roman_Republic\n4612. 2017 World Championships in Athletics  \u2014  http:\/\/en.wikipedia.org.\/wiki\/2017_World_Championships_in_Athletics\n4613. Amish  \u2014  http:\/\/en.wikipedia.org.\/wiki\/Amish\n4614. The Witch (2015 film)  \u2014  http:\/\/en.wikipedia.org.\/wiki\/The_Witch_(2015_film)\n4615. Jenna Fischer  \u2014  http:\/\/en.wikipedia.org.\/wiki\/Jenna_Fischer\n4616. John Glenn  \u2014  http:\/\/en.wikipedia.org.\/wiki\/John_Glenn\n4617. Linda Cardellini  \u2014  http:\/\/en.wikipedia.org.\/wiki\/Linda_Cardellini\n4618. Baseball  \u2014  http:\/\/en.wikipedia.org.\/wiki\/Baseball\n4619. Kubo and the Two Strings  \u2014  http:\/\/en.wikipedia.org.\/wiki\/Kubo_and_the_Two_Strings\n4620. Fall Out Boy  \u2014  http:\/\/en.wikipedia.org.\/wiki\/Fall_Out_Boy\n4621. AVN Award  \u2014  http:\/\/en.wikipedia.org.\/wiki\/AVN_Award\n4622. MAC address  \u2014  http:\/\/en.wikipedia.org.\/wiki\/MAC_address\n4623. MATLAB  \u2014  http:\/\/en.wikipedia.org.\/wiki\/MATLAB\n4624. Seven (1995 film)  \u2014  http:\/\/en.wikipedia.org.\/wiki\/Seven_(1995_film)\n4625. Israel Kamakawiwo\u02BBole  \u2014  http:\/\/en.wikipedia.org.\/wiki\/Israel_Kamakawiwo%CA%BBole\n4626. Tetrasomy X  \u2014  http:\/\/en.wikipedia.org.\/wiki\/Tetrasomy_X\n4627. 2017 NBA Playoffs  \u2014  http:\/\/en.wikipedia.org.\/wiki\/2017_NBA_Playoffs\n4628. Evan Peters  \u2014  http:\/\/en.wikipedia.org.\/wiki\/Evan_Peters\n4629. Humanz  \u2014  http:\/\/en.wikipedia.org.\/wiki\/Humanz\n4630. Mark Ruffalo  \u2014  http:\/\/en.wikipedia.org.\/wiki\/Mark_Ruffalo\n4631. Muse (band)  \u2014  http:\/\/en.wikipedia.org.\/wiki\/Muse_(band)\n4632. Columbia University  \u2014  http:\/\/en.wikipedia.org.\/wiki\/Columbia_University\n4633. Probability density function  \u2014  http:\/\/en.wikipedia.org.\/wiki\/Probability_density_function\n4634. Mariska Hargitay  \u2014  http:\/\/en.wikipedia.org.\/wiki\/Mariska_Hargitay\n4635. Bay of Pigs Invasion  \u2014  http:\/\/en.wikipedia.org.\/wiki\/Bay_of_Pigs_Invasion\n4636. Isopropyl alcohol  \u2014  http:\/\/en.wikipedia.org.\/wiki\/Isopropyl_alcohol\n4637. Doctor Strange (2016 film)  \u2014  http:\/\/en.wikipedia.org.\/wiki\/Doctor_Strange_(2016_film)\n4638. University of California, Berkeley  \u2014  http:\/\/en.wikipedia.org.\/wiki\/University_of_California%2C_Berkeley\n4639. Ciar\u00E1n Hinds  \u2014  http:\/\/en.wikipedia.org.\/wiki\/Ciar%C3%A1n_Hinds\n4640. Laser  \u2014  http:\/\/en.wikipedia.org.\/wiki\/Laser\n4641. Jonah Hill  \u2014  http:\/\/en.wikipedia.org.\/wiki\/Jonah_Hill\n4642. National Security Agency  \u2014  http:\/\/en.wikipedia.org.\/wiki\/National_Security_Agency\n4643. Wisconsin  \u2014  http:\/\/en.wikipedia.org.\/wiki\/Wisconsin\n4644. Cable (comics)  \u2014  http:\/\/en.wikipedia.org.\/wiki\/Cable_(comics)\n4645. Siberia  \u2014  http:\/\/en.wikipedia.org.\/wiki\/Siberia\n4646. Trojan War  \u2014  http:\/\/en.wikipedia.org.\/wiki\/Trojan_War\n4647. Wahhabism  \u2014  http:\/\/en.wikipedia.org.\/wiki\/Wahhabism\n4648. Vincent D'Onofrio  \u2014  http:\/\/en.wikipedia.org.\/wiki\/Vincent_D'Onofrio\n4649. Lucy Liu  \u2014  http:\/\/en.wikipedia.org.\/wiki\/Lucy_Liu\n4650. Creed (film)  \u2014  http:\/\/en.wikipedia.org.\/wiki\/Creed_(film)\n4651. Fight Club  \u2014  http:\/\/en.wikipedia.org.\/wiki\/Fight_Club\n4652. Miss Universe  \u2014  http:\/\/en.wikipedia.org.\/wiki\/Miss_Universe\n4653. Brooke Shields  \u2014  http:\/\/en.wikipedia.org.\/wiki\/Brooke_Shields\n4654. Black Dahlia  \u2014  http:\/\/en.wikipedia.org.\/wiki\/Black_Dahlia\n4655. Urdu  \u2014  http:\/\/en.wikipedia.org.\/wiki\/Urdu\n4656. Generation  \u2014  http:\/\/en.wikipedia.org.\/wiki\/Generation\n4657. Honda Civic  \u2014  http:\/\/en.wikipedia.org.\/wiki\/Honda_Civic\n4658. Cron  \u2014  http:\/\/en.wikipedia.org.\/wiki\/Cron\n4659. \u00C9lodie Yung  \u2014  http:\/\/en.wikipedia.org.\/wiki\/%C3%89lodie_Yung\n4660. Euler's formula  \u2014  http:\/\/en.wikipedia.org.\/wiki\/Euler's_formula\n4661. The Amazing Spider-Man 2  \u2014  http:\/\/en.wikipedia.org.\/wiki\/The_Amazing_Spider-Man_2\n4662. Haile Selassie  \u2014  http:\/\/en.wikipedia.org.\/wiki\/Haile_Selassie\n4663. Yakuza  \u2014  http:\/\/en.wikipedia.org.\/wiki\/Yakuza\n4664. Return of the Jedi  \u2014  http:\/\/en.wikipedia.org.\/wiki\/Return_of_the_Jedi\n4665. Glasgow  \u2014  http:\/\/en.wikipedia.org.\/wiki\/Glasgow\n4666. Keith Richards  \u2014  http:\/\/en.wikipedia.org.\/wiki\/Keith_Richards\n4667. Universal Pictures  \u2014  http:\/\/en.wikipedia.org.\/wiki\/Universal_Pictures\n4668. Vitamin B12  \u2014  http:\/\/en.wikipedia.org.\/wiki\/Vitamin_B12\n4669. Paul Rudd  \u2014  http:\/\/en.wikipedia.org.\/wiki\/Paul_Rudd\n4670. Bronze Age  \u2014  http:\/\/en.wikipedia.org.\/wiki\/Bronze_Age\n4671. KPMG  \u2014  http:\/\/en.wikipedia.org.\/wiki\/KPMG\n4672. List of most expensive association football transfers  \u2014  http:\/\/en.wikipedia.org.\/wiki\/List_of_most_expensive_association_football_transfers\n4673. U.S. Route 66  \u2014  http:\/\/en.wikipedia.org.\/wiki\/U.S._Route_66\n4674. House of Windsor  \u2014  http:\/\/en.wikipedia.org.\/wiki\/House_of_Windsor\n4675. Merge sort  \u2014  http:\/\/en.wikipedia.org.\/wiki\/Merge_sort\n4676. Buckingham Palace  \u2014  http:\/\/en.wikipedia.org.\/wiki\/Buckingham_Palace\n4677. Korn  \u2014  http:\/\/en.wikipedia.org.\/wiki\/Korn\n4678. Captain Marvel (DC Comics)  \u2014  http:\/\/en.wikipedia.org.\/wiki\/Captain_Marvel_(DC_Comics)\n4679. Black comedy  \u2014  http:\/\/en.wikipedia.org.\/wiki\/Black_comedy\n4680. David Walliams  \u2014  http:\/\/en.wikipedia.org.\/wiki\/David_Walliams\n4681. Michael Cera  \u2014  http:\/\/en.wikipedia.org.\/wiki\/Michael_Cera\n4682. Battlefield 1  \u2014  http:\/\/en.wikipedia.org.\/wiki\/Battlefield_1\n4683. Nudity  \u2014  http:\/\/en.wikipedia.org.\/wiki\/Nudity\n4684. Oxycodone  \u2014  http:\/\/en.wikipedia.org.\/wiki\/Oxycodone\n4685. Richard Harris  \u2014  http:\/\/en.wikipedia.org.\/wiki\/Richard_Harris\n4686. The Middle (TV series)  \u2014  http:\/\/en.wikipedia.org.\/wiki\/The_Middle_(TV_series)\n4687. Kingdom Hearts  \u2014  http:\/\/en.wikipedia.org.\/wiki\/Kingdom_Hearts\n4688. List of wars involving the United States  \u2014  http:\/\/en.wikipedia.org.\/wiki\/List_of_wars_involving_the_United_States\n4689. Brian Wilson  \u2014  http:\/\/en.wikipedia.org.\/wiki\/Brian_Wilson\n4690. Google Chrome version history  \u2014  http:\/\/en.wikipedia.org.\/wiki\/Google_Chrome_version_history\n4691. List of The Office (U.S. TV series) episodes  \u2014  http:\/\/en.wikipedia.org.\/wiki\/List_of_The_Office_(U.S._TV_series)_episodes\n4692. Ares  \u2014  http:\/\/en.wikipedia.org.\/wiki\/Ares\n4693. Brussels  \u2014  http:\/\/en.wikipedia.org.\/wiki\/Brussels\n4694. Jenny McCarthy  \u2014  http:\/\/en.wikipedia.org.\/wiki\/Jenny_McCarthy\n4695. James Earl Jones  \u2014  http:\/\/en.wikipedia.org.\/wiki\/James_Earl_Jones\n4696. Slavs  \u2014  http:\/\/en.wikipedia.org.\/wiki\/Slavs\n4697. Tel Aviv  \u2014  http:\/\/en.wikipedia.org.\/wiki\/Tel_Aviv\n4698. Battle of Thermopylae  \u2014  http:\/\/en.wikipedia.org.\/wiki\/Battle_of_Thermopylae\n4699. Pangaea  \u2014  http:\/\/en.wikipedia.org.\/wiki\/Pangaea\n","miniList":"4600. Haim (band)\n4601. The Bachelor (U.S. TV series)\n4602. Vitiligo\n4603. Equinox\n4604. Management\n4605. Benjamin Netanyahu\n4606. Fahrenheit 451\n4607. Human penis\n4608. Slobodan Praljak\n4609. Assassination of Martin Luther King Jr.\n4610. Kazuo Ishiguro\n4611. Roman Republic\n4612. 2017 World Championships in Athletics\n4613. Amish\n4614. The Witch (2015 film)\n4615. Jenna Fischer\n4616. John Glenn\n4617. Linda Cardellini\n4618. Baseball\n4619. Kubo and the Two Strings\n4620. Fall Out Boy\n4621. AVN Award\n4622. MAC address\n4623. MATLAB\n4624. Seven (1995 film)\n4625. Israel Kamakawiwo\u02BBole\n4626. Tetrasomy X\n4627. 2017 NBA Playoffs\n4628. Evan Peters\n4629. Humanz\n4630. Mark Ruffalo\n4631. Muse (band)\n4632. Columbia University\n4633. Probability density function\n4634. Mariska Hargitay\n4635. Bay of Pigs Invasion\n4636. Isopropyl alcohol\n4637. Doctor Strange (2016 film)\n4638. University of California, Berkeley\n4639. Ciar\u00E1n Hinds\n4640. Laser\n4641. Jonah Hill\n4642. National Security Agency\n4643. Wisconsin\n4644. Cable (comics)\n4645. Siberia\n4646. Trojan War\n4647. Wahhabism\n4648. Vincent D'Onofrio\n4649. Lucy Liu\n4650. Creed (film)\n4651. Fight Club\n4652. Miss Universe\n4653. Brooke Shields\n4654. Black Dahlia\n4655. Urdu\n4656. Generation\n4657. Honda Civic\n4658. Cron\n4659. \u00C9lodie Yung\n4660. Euler's formula\n4661. The Amazing Spider-Man 2\n4662. Haile Selassie\n4663. Yakuza\n4664. Return of the Jedi\n4665. Glasgow\n4666. Keith Richards\n4667. Universal Pictures\n4668. Vitamin B12\n4669. Paul Rudd\n4670. Bronze Age\n4671. KPMG\n4672. List of most expensive association football transfers\n4673. U.S. Route 66\n4674. House of Windsor\n4675. Merge sort\n4676. Buckingham Palace\n4677. Korn\n4678. Captain Marvel (DC Comics)\n4679. Black comedy\n4680. David Walliams\n4681. Michael Cera\n4682. Battlefield 1\n4683. Nudity\n4684. Oxycodone\n4685. Richard Harris\n4686. The Middle (TV series)\n4687. Kingdom Hearts\n4688. List of wars involving the United States\n4689. Brian Wilson\n4690. Google Chrome version history\n4691. List of The Office (U.S. TV series) episodes\n4692. Ares\n4693. Brussels\n4694. Jenny McCarthy\n4695. James Earl Jones\n4696. Slavs\n4697. Tel Aviv\n4698. Battle of Thermopylae\n4699. Pangaea\n"}
