{"start":4701,"end":4800,"count":5616717,"type":"pageviews","pageSize":100,"page":47,"pages":56168,"columns":[{"label":"","property":"pageviews","sortable":false}],"items":[{"pageviews":"4700. <a target=\"_blank\" href=\"http://en.wikipedia.org./wiki/New_Mexico\">New Mexico</a>"},{"pageviews":"4701. <a target=\"_blank\" href=\"http://en.wikipedia.org./wiki/Battle_of_the_Sexes_(film)\">Battle of the Sexes (film)</a>"},{"pageviews":"4702. <a target=\"_blank\" href=\"http://en.wikipedia.org./wiki/Alistair_Overeem\">Alistair Overeem</a>"},{"pageviews":"4703. <a target=\"_blank\" href=\"http://en.wikipedia.org./wiki/States_and_union_territories_of_India\">States and union territories of India</a>"},{"pageviews":"4704. <a target=\"_blank\" href=\"http://en.wikipedia.org./wiki/Pyotr_Ilyich_Tchaikovsky\">Pyotr Ilyich Tchaikovsky</a>"},{"pageviews":"4705. <a target=\"_blank\" href=\"http://en.wikipedia.org./wiki/Frank_Lloyd_Wright\">Frank Lloyd Wright</a>"},{"pageviews":"4706. <a target=\"_blank\" href=\"http://en.wikipedia.org./wiki/The_Washington_Post\">The Washington Post</a>"},{"pageviews":"4707. <a target=\"_blank\" href=\"http://en.wikipedia.org./wiki/Domain_name\">Domain name</a>"},{"pageviews":"4708. <a target=\"_blank\" href=\"http://en.wikipedia.org./wiki/Cologne\">Cologne</a>"},{"pageviews":"4709. <a target=\"_blank\" href=\"http://en.wikipedia.org./wiki/Star_Wars_sequel_trilogy\">Star Wars sequel trilogy</a>"},{"pageviews":"4710. <a target=\"_blank\" href=\"http://en.wikipedia.org./wiki/Ashoka\">Ashoka</a>"},{"pageviews":"4711. <a target=\"_blank\" href=\"http://en.wikipedia.org./wiki/Uttar_Pradesh\">Uttar Pradesh</a>"},{"pageviews":"4712. <a target=\"_blank\" href=\"http://en.wikipedia.org./wiki/Sofia_Coppola\">Sofia Coppola</a>"},{"pageviews":"4713. <a target=\"_blank\" href=\"http://en.wikipedia.org./wiki/Bullet_(typography)\">Bullet (typography)</a>"},{"pageviews":"4714. <a target=\"_blank\" href=\"http://en.wikipedia.org./wiki/Islam_by_country\">Islam by country</a>"},{"pageviews":"4715. <a target=\"_blank\" href=\"http://en.wikipedia.org./wiki/List_of_religious_populations\">List of religious populations</a>"},{"pageviews":"4716. <a target=\"_blank\" href=\"http://en.wikipedia.org./wiki/List_of_cities_proper_by_population\">List of cities proper by population</a>"},{"pageviews":"4717. <a target=\"_blank\" href=\"http://en.wikipedia.org./wiki/Mystery_Science_Theater_3000\">Mystery Science Theater 3000</a>"},{"pageviews":"4718. <a target=\"_blank\" href=\"http://en.wikipedia.org./wiki/Alphabet\">Alphabet</a>"},{"pageviews":"4719. <a target=\"_blank\" href=\"http://en.wikipedia.org./wiki/Billy_Crudup\">Billy Crudup</a>"},{"pageviews":"4720. <a target=\"_blank\" href=\"http://en.wikipedia.org./wiki/Colossus_of_Rhodes\">Colossus of Rhodes</a>"},{"pageviews":"4721. <a target=\"_blank\" href=\"http://en.wikipedia.org./wiki/World_Trade_Organization\">World Trade Organization</a>"},{"pageviews":"4722. <a target=\"_blank\" href=\"http://en.wikipedia.org./wiki/Prostitution\">Prostitution</a>"},{"pageviews":"4723. <a target=\"_blank\" href=\"http://en.wikipedia.org./wiki/Dante_Alighieri\">Dante Alighieri</a>"},{"pageviews":"4724. <a target=\"_blank\" href=\"http://en.wikipedia.org./wiki/League_of_Nations\">League of Nations</a>"},{"pageviews":"4725. <a target=\"_blank\" href=\"http://en.wikipedia.org./wiki/David_Gilmour\">David Gilmour</a>"},{"pageviews":"4726. <a target=\"_blank\" href=\"http://en.wikipedia.org./wiki/Dan_Harmon\">Dan Harmon</a>"},{"pageviews":"4727. <a target=\"_blank\" href=\"http://en.wikipedia.org./wiki/New_York_Yankees\">New York Yankees</a>"},{"pageviews":"4728. <a target=\"_blank\" href=\"http://en.wikipedia.org./wiki/Thylacine\">Thylacine</a>"},{"pageviews":"4729. <a target=\"_blank\" href=\"http://en.wikipedia.org./wiki/Jerry_Lee_Lewis\">Jerry Lee Lewis</a>"},{"pageviews":"4730. <a target=\"_blank\" href=\"http://en.wikipedia.org./wiki/Joss_Whedon\">Joss Whedon</a>"},{"pageviews":"4731. <a target=\"_blank\" href=\"http://en.wikipedia.org./wiki/Pierre_Trudeau\">Pierre Trudeau</a>"},{"pageviews":"4732. <a target=\"_blank\" href=\"http://en.wikipedia.org./wiki/Leukemia\">Leukemia</a>"},{"pageviews":"4733. <a target=\"_blank\" href=\"http://en.wikipedia.org./wiki/Bing_Crosby\">Bing Crosby</a>"},{"pageviews":"4734. <a target=\"_blank\" href=\"http://en.wikipedia.org./wiki/Mississippi_River\">Mississippi River</a>"},{"pageviews":"4735. <a target=\"_blank\" href=\"http://en.wikipedia.org./wiki/Persian_language\">Persian language</a>"},{"pageviews":"4736. <a target=\"_blank\" href=\"http://en.wikipedia.org./wiki/Stroke\">Stroke</a>"},{"pageviews":"4737. <a target=\"_blank\" href=\"http://en.wikipedia.org./wiki/Pescetarianism\">Pescetarianism</a>"},{"pageviews":"4738. <a target=\"_blank\" href=\"http://en.wikipedia.org./wiki/Longmire_(TV_series)\">Longmire (TV series)</a>"},{"pageviews":"4739. <a target=\"_blank\" href=\"http://en.wikipedia.org./wiki/Star_Trek_(film_series)\">Star Trek (film series)</a>"},{"pageviews":"4740. <a target=\"_blank\" href=\"http://en.wikipedia.org./wiki/Ed_and_Lorraine_Warren\">Ed and Lorraine Warren</a>"},{"pageviews":"4741. <a target=\"_blank\" href=\"http://en.wikipedia.org./wiki/List_of_Twin_Peaks_characters\">List of Twin Peaks characters</a>"},{"pageviews":"4742. <a target=\"_blank\" href=\"http://en.wikipedia.org./wiki/Muhammad_Ali_Jinnah\">Muhammad Ali Jinnah</a>"},{"pageviews":"4743. <a target=\"_blank\" href=\"http://en.wikipedia.org./wiki/Hash_function\">Hash function</a>"},{"pageviews":"4744. <a target=\"_blank\" href=\"http://en.wikipedia.org./wiki/Damian_Lewis\">Damian Lewis</a>"},{"pageviews":"4745. <a target=\"_blank\" href=\"http://en.wikipedia.org./wiki/Solomon\">Solomon</a>"},{"pageviews":"4746. <a target=\"_blank\" href=\"http://en.wikipedia.org./wiki/Clark_Gable\">Clark Gable</a>"},{"pageviews":"4747. <a target=\"_blank\" href=\"http://en.wikipedia.org./wiki/Comma-separated_values\">Comma-separated values</a>"},{"pageviews":"4748. <a target=\"_blank\" href=\"http://en.wikipedia.org./wiki/Anatolia\">Anatolia</a>"},{"pageviews":"4749. <a target=\"_blank\" href=\"http://en.wikipedia.org./wiki/Matthew_Broderick\">Matthew Broderick</a>"},{"pageviews":"4750. <a target=\"_blank\" href=\"http://en.wikipedia.org./wiki/Great_Recession\">Great Recession</a>"},{"pageviews":"4751. <a target=\"_blank\" href=\"http://en.wikipedia.org./wiki/Scandal_(season_6)\">Scandal (season 6)</a>"},{"pageviews":"4752. <a target=\"_blank\" href=\"http://en.wikipedia.org./wiki/Burkina_Faso\">Burkina Faso</a>"},{"pageviews":"4753. <a target=\"_blank\" href=\"http://en.wikipedia.org./wiki/2012_NBA_draft\">2012 NBA draft</a>"},{"pageviews":"4754. <a target=\"_blank\" href=\"http://en.wikipedia.org./wiki/Simon_%26_Garfunkel\">Simon & Garfunkel</a>"},{"pageviews":"4755. <a target=\"_blank\" href=\"http://en.wikipedia.org./wiki/Anna_Nicole_Smith\">Anna Nicole Smith</a>"},{"pageviews":"4756. <a target=\"_blank\" href=\"http://en.wikipedia.org./wiki/Christopher_Walken\">Christopher Walken</a>"},{"pageviews":"4757. <a target=\"_blank\" href=\"http://en.wikipedia.org./wiki/Mechanical_engineering\">Mechanical engineering</a>"},{"pageviews":"4758. <a target=\"_blank\" href=\"http://en.wikipedia.org./wiki/Peter_the_Great\">Peter the Great</a>"},{"pageviews":"4759. <a target=\"_blank\" href=\"http://en.wikipedia.org./wiki/Active_Server_Pages\">Active Server Pages</a>"},{"pageviews":"4760. <a target=\"_blank\" href=\"http://en.wikipedia.org./wiki/Skyfall\">Skyfall</a>"},{"pageviews":"4761. <a target=\"_blank\" href=\"http://en.wikipedia.org./wiki/Steve_Harvey\">Steve Harvey</a>"},{"pageviews":"4762. <a target=\"_blank\" href=\"http://en.wikipedia.org./wiki/Corporate_social_responsibility\">Corporate social responsibility</a>"},{"pageviews":"4763. <a target=\"_blank\" href=\"http://en.wikipedia.org./wiki/Fedor_Emelianenko\">Fedor Emelianenko</a>"},{"pageviews":"4764. <a target=\"_blank\" href=\"http://en.wikipedia.org./wiki/Tamil_Nadu\">Tamil Nadu</a>"},{"pageviews":"4765. <a target=\"_blank\" href=\"http://en.wikipedia.org./wiki/The_Legend_of_Korra\">The Legend of Korra</a>"},{"pageviews":"4766. <a target=\"_blank\" href=\"http://en.wikipedia.org./wiki/List_of_mobile_phone_makers_by_country\">List of mobile phone makers by country</a>"},{"pageviews":"4767. <a target=\"_blank\" href=\"http://en.wikipedia.org./wiki/Himalayas\">Himalayas</a>"},{"pageviews":"4768. <a target=\"_blank\" href=\"http://en.wikipedia.org./wiki/Irish_people\">Irish people</a>"},{"pageviews":"4769. <a target=\"_blank\" href=\"http://en.wikipedia.org./wiki/List_of_state_and_union_territory_capitals_in_India\">List of state and union territory capitals in India</a>"},{"pageviews":"4770. <a target=\"_blank\" href=\"http://en.wikipedia.org./wiki/Ripple_(payment_protocol)\">Ripple (payment protocol)</a>"},{"pageviews":"4771. <a target=\"_blank\" href=\"http://en.wikipedia.org./wiki/Christina_Hendricks\">Christina Hendricks</a>"},{"pageviews":"4772. <a target=\"_blank\" href=\"http://en.wikipedia.org./wiki/Tinder_(app)\">Tinder (app)</a>"},{"pageviews":"4773. <a target=\"_blank\" href=\"http://en.wikipedia.org./wiki/Sade_(singer)\">Sade (singer)</a>"},{"pageviews":"4774. <a target=\"_blank\" href=\"http://en.wikipedia.org./wiki/Steve_Martin\">Steve Martin</a>"},{"pageviews":"4775. <a target=\"_blank\" href=\"http://en.wikipedia.org./wiki/The_Witcher\">The Witcher</a>"},{"pageviews":"4776. <a target=\"_blank\" href=\"http://en.wikipedia.org./wiki/Psychosis\">Psychosis</a>"},{"pageviews":"4777. <a target=\"_blank\" href=\"http://en.wikipedia.org./wiki/Ludacris\">Ludacris</a>"},{"pageviews":"4778. <a target=\"_blank\" href=\"http://en.wikipedia.org./wiki/L._Ron_Hubbard\">L. Ron Hubbard</a>"},{"pageviews":"4779. <a target=\"_blank\" href=\"http://en.wikipedia.org./wiki/Geneva\">Geneva</a>"},{"pageviews":"4780. <a target=\"_blank\" href=\"http://en.wikipedia.org./wiki/Sicily\">Sicily</a>"},{"pageviews":"4781. <a target=\"_blank\" href=\"http://en.wikipedia.org./wiki/Group_of_Seven\">Group of Seven</a>"},{"pageviews":"4782. <a target=\"_blank\" href=\"http://en.wikipedia.org./wiki/Check_mark\">Check mark</a>"},{"pageviews":"4783. <a target=\"_blank\" href=\"http://en.wikipedia.org./wiki/Keith_Urban\">Keith Urban</a>"},{"pageviews":"4784. <a target=\"_blank\" href=\"http://en.wikipedia.org./wiki/Google_Scholar\">Google Scholar</a>"},{"pageviews":"4785. <a target=\"_blank\" href=\"http://en.wikipedia.org./wiki/Nationalism\">Nationalism</a>"},{"pageviews":"4786. <a target=\"_blank\" href=\"http://en.wikipedia.org./wiki/Tajikistan\">Tajikistan</a>"},{"pageviews":"4787. <a target=\"_blank\" href=\"http://en.wikipedia.org./wiki/Tungsten\">Tungsten</a>"},{"pageviews":"4788. <a target=\"_blank\" href=\"http://en.wikipedia.org./wiki/Pangolin\">Pangolin</a>"},{"pageviews":"4789. <a target=\"_blank\" href=\"http://en.wikipedia.org./wiki/Polypropylene\">Polypropylene</a>"},{"pageviews":"4790. <a target=\"_blank\" href=\"http://en.wikipedia.org./wiki/Kardashev_scale\">Kardashev scale</a>"},{"pageviews":"4791. <a target=\"_blank\" href=\"http://en.wikipedia.org./wiki/EuroBasket_2017\">EuroBasket 2017</a>"},{"pageviews":"4792. <a target=\"_blank\" href=\"http://en.wikipedia.org./wiki/Niagara_Falls\">Niagara Falls</a>"},{"pageviews":"4793. <a target=\"_blank\" href=\"http://en.wikipedia.org./wiki/Static_web_page\">Static web page</a>"},{"pageviews":"4794. <a target=\"_blank\" href=\"http://en.wikipedia.org./wiki/List_of_Running_Man_episodes_(2016)\">List of Running Man episodes (2016)</a>"},{"pageviews":"4795. <a target=\"_blank\" href=\"http://en.wikipedia.org./wiki/Macklemore\">Macklemore</a>"},{"pageviews":"4796. <a target=\"_blank\" href=\"http://en.wikipedia.org./wiki/Date_format_by_country\">Date format by country</a>"},{"pageviews":"4797. <a target=\"_blank\" href=\"http://en.wikipedia.org./wiki/Falkland_Islands\">Falkland Islands</a>"},{"pageviews":"4798. <a target=\"_blank\" href=\"http://en.wikipedia.org./wiki/Supreme_(brand)\">Supreme (brand)</a>"},{"pageviews":"4799. <a target=\"_blank\" href=\"http://en.wikipedia.org./wiki/Nick_Jonas\">Nick Jonas</a>"}],"list":"4700. New Mexico  \u2014  http:\/\/en.wikipedia.org.\/wiki\/New_Mexico\n4701. Battle of the Sexes (film)  \u2014  http:\/\/en.wikipedia.org.\/wiki\/Battle_of_the_Sexes_(film)\n4702. Alistair Overeem  \u2014  http:\/\/en.wikipedia.org.\/wiki\/Alistair_Overeem\n4703. States and union territories of India  \u2014  http:\/\/en.wikipedia.org.\/wiki\/States_and_union_territories_of_India\n4704. Pyotr Ilyich Tchaikovsky  \u2014  http:\/\/en.wikipedia.org.\/wiki\/Pyotr_Ilyich_Tchaikovsky\n4705. Frank Lloyd Wright  \u2014  http:\/\/en.wikipedia.org.\/wiki\/Frank_Lloyd_Wright\n4706. The Washington Post  \u2014  http:\/\/en.wikipedia.org.\/wiki\/The_Washington_Post\n4707. Domain name  \u2014  http:\/\/en.wikipedia.org.\/wiki\/Domain_name\n4708. Cologne  \u2014  http:\/\/en.wikipedia.org.\/wiki\/Cologne\n4709. Star Wars sequel trilogy  \u2014  http:\/\/en.wikipedia.org.\/wiki\/Star_Wars_sequel_trilogy\n4710. Ashoka  \u2014  http:\/\/en.wikipedia.org.\/wiki\/Ashoka\n4711. Uttar Pradesh  \u2014  http:\/\/en.wikipedia.org.\/wiki\/Uttar_Pradesh\n4712. Sofia Coppola  \u2014  http:\/\/en.wikipedia.org.\/wiki\/Sofia_Coppola\n4713. Bullet (typography)  \u2014  http:\/\/en.wikipedia.org.\/wiki\/Bullet_(typography)\n4714. Islam by country  \u2014  http:\/\/en.wikipedia.org.\/wiki\/Islam_by_country\n4715. List of religious populations  \u2014  http:\/\/en.wikipedia.org.\/wiki\/List_of_religious_populations\n4716. List of cities proper by population  \u2014  http:\/\/en.wikipedia.org.\/wiki\/List_of_cities_proper_by_population\n4717. Mystery Science Theater 3000  \u2014  http:\/\/en.wikipedia.org.\/wiki\/Mystery_Science_Theater_3000\n4718. Alphabet  \u2014  http:\/\/en.wikipedia.org.\/wiki\/Alphabet\n4719. Billy Crudup  \u2014  http:\/\/en.wikipedia.org.\/wiki\/Billy_Crudup\n4720. Colossus of Rhodes  \u2014  http:\/\/en.wikipedia.org.\/wiki\/Colossus_of_Rhodes\n4721. World Trade Organization  \u2014  http:\/\/en.wikipedia.org.\/wiki\/World_Trade_Organization\n4722. Prostitution  \u2014  http:\/\/en.wikipedia.org.\/wiki\/Prostitution\n4723. Dante Alighieri  \u2014  http:\/\/en.wikipedia.org.\/wiki\/Dante_Alighieri\n4724. League of Nations  \u2014  http:\/\/en.wikipedia.org.\/wiki\/League_of_Nations\n4725. David Gilmour  \u2014  http:\/\/en.wikipedia.org.\/wiki\/David_Gilmour\n4726. Dan Harmon  \u2014  http:\/\/en.wikipedia.org.\/wiki\/Dan_Harmon\n4727. New York Yankees  \u2014  http:\/\/en.wikipedia.org.\/wiki\/New_York_Yankees\n4728. Thylacine  \u2014  http:\/\/en.wikipedia.org.\/wiki\/Thylacine\n4729. Jerry Lee Lewis  \u2014  http:\/\/en.wikipedia.org.\/wiki\/Jerry_Lee_Lewis\n4730. Joss Whedon  \u2014  http:\/\/en.wikipedia.org.\/wiki\/Joss_Whedon\n4731. Pierre Trudeau  \u2014  http:\/\/en.wikipedia.org.\/wiki\/Pierre_Trudeau\n4732. Leukemia  \u2014  http:\/\/en.wikipedia.org.\/wiki\/Leukemia\n4733. Bing Crosby  \u2014  http:\/\/en.wikipedia.org.\/wiki\/Bing_Crosby\n4734. Mississippi River  \u2014  http:\/\/en.wikipedia.org.\/wiki\/Mississippi_River\n4735. Persian language  \u2014  http:\/\/en.wikipedia.org.\/wiki\/Persian_language\n4736. Stroke  \u2014  http:\/\/en.wikipedia.org.\/wiki\/Stroke\n4737. Pescetarianism  \u2014  http:\/\/en.wikipedia.org.\/wiki\/Pescetarianism\n4738. Longmire (TV series)  \u2014  http:\/\/en.wikipedia.org.\/wiki\/Longmire_(TV_series)\n4739. Star Trek (film series)  \u2014  http:\/\/en.wikipedia.org.\/wiki\/Star_Trek_(film_series)\n4740. Ed and Lorraine Warren  \u2014  http:\/\/en.wikipedia.org.\/wiki\/Ed_and_Lorraine_Warren\n4741. List of Twin Peaks characters  \u2014  http:\/\/en.wikipedia.org.\/wiki\/List_of_Twin_Peaks_characters\n4742. Muhammad Ali Jinnah  \u2014  http:\/\/en.wikipedia.org.\/wiki\/Muhammad_Ali_Jinnah\n4743. Hash function  \u2014  http:\/\/en.wikipedia.org.\/wiki\/Hash_function\n4744. Damian Lewis  \u2014  http:\/\/en.wikipedia.org.\/wiki\/Damian_Lewis\n4745. Solomon  \u2014  http:\/\/en.wikipedia.org.\/wiki\/Solomon\n4746. Clark Gable  \u2014  http:\/\/en.wikipedia.org.\/wiki\/Clark_Gable\n4747. Comma-separated values  \u2014  http:\/\/en.wikipedia.org.\/wiki\/Comma-separated_values\n4748. Anatolia  \u2014  http:\/\/en.wikipedia.org.\/wiki\/Anatolia\n4749. Matthew Broderick  \u2014  http:\/\/en.wikipedia.org.\/wiki\/Matthew_Broderick\n4750. Great Recession  \u2014  http:\/\/en.wikipedia.org.\/wiki\/Great_Recession\n4751. Scandal (season 6)  \u2014  http:\/\/en.wikipedia.org.\/wiki\/Scandal_(season_6)\n4752. Burkina Faso  \u2014  http:\/\/en.wikipedia.org.\/wiki\/Burkina_Faso\n4753. 2012 NBA draft  \u2014  http:\/\/en.wikipedia.org.\/wiki\/2012_NBA_draft\n4754. Simon & Garfunkel  \u2014  http:\/\/en.wikipedia.org.\/wiki\/Simon_%26_Garfunkel\n4755. Anna Nicole Smith  \u2014  http:\/\/en.wikipedia.org.\/wiki\/Anna_Nicole_Smith\n4756. Christopher Walken  \u2014  http:\/\/en.wikipedia.org.\/wiki\/Christopher_Walken\n4757. Mechanical engineering  \u2014  http:\/\/en.wikipedia.org.\/wiki\/Mechanical_engineering\n4758. Peter the Great  \u2014  http:\/\/en.wikipedia.org.\/wiki\/Peter_the_Great\n4759. Active Server Pages  \u2014  http:\/\/en.wikipedia.org.\/wiki\/Active_Server_Pages\n4760. Skyfall  \u2014  http:\/\/en.wikipedia.org.\/wiki\/Skyfall\n4761. Steve Harvey  \u2014  http:\/\/en.wikipedia.org.\/wiki\/Steve_Harvey\n4762. Corporate social responsibility  \u2014  http:\/\/en.wikipedia.org.\/wiki\/Corporate_social_responsibility\n4763. Fedor Emelianenko  \u2014  http:\/\/en.wikipedia.org.\/wiki\/Fedor_Emelianenko\n4764. Tamil Nadu  \u2014  http:\/\/en.wikipedia.org.\/wiki\/Tamil_Nadu\n4765. The Legend of Korra  \u2014  http:\/\/en.wikipedia.org.\/wiki\/The_Legend_of_Korra\n4766. List of mobile phone makers by country  \u2014  http:\/\/en.wikipedia.org.\/wiki\/List_of_mobile_phone_makers_by_country\n4767. Himalayas  \u2014  http:\/\/en.wikipedia.org.\/wiki\/Himalayas\n4768. Irish people  \u2014  http:\/\/en.wikipedia.org.\/wiki\/Irish_people\n4769. List of state and union territory capitals in India  \u2014  http:\/\/en.wikipedia.org.\/wiki\/List_of_state_and_union_territory_capitals_in_India\n4770. Ripple (payment protocol)  \u2014  http:\/\/en.wikipedia.org.\/wiki\/Ripple_(payment_protocol)\n4771. Christina Hendricks  \u2014  http:\/\/en.wikipedia.org.\/wiki\/Christina_Hendricks\n4772. Tinder (app)  \u2014  http:\/\/en.wikipedia.org.\/wiki\/Tinder_(app)\n4773. Sade (singer)  \u2014  http:\/\/en.wikipedia.org.\/wiki\/Sade_(singer)\n4774. Steve Martin  \u2014  http:\/\/en.wikipedia.org.\/wiki\/Steve_Martin\n4775. The Witcher  \u2014  http:\/\/en.wikipedia.org.\/wiki\/The_Witcher\n4776. Psychosis  \u2014  http:\/\/en.wikipedia.org.\/wiki\/Psychosis\n4777. Ludacris  \u2014  http:\/\/en.wikipedia.org.\/wiki\/Ludacris\n4778. L. Ron Hubbard  \u2014  http:\/\/en.wikipedia.org.\/wiki\/L._Ron_Hubbard\n4779. Geneva  \u2014  http:\/\/en.wikipedia.org.\/wiki\/Geneva\n4780. Sicily  \u2014  http:\/\/en.wikipedia.org.\/wiki\/Sicily\n4781. Group of Seven  \u2014  http:\/\/en.wikipedia.org.\/wiki\/Group_of_Seven\n4782. Check mark  \u2014  http:\/\/en.wikipedia.org.\/wiki\/Check_mark\n4783. Keith Urban  \u2014  http:\/\/en.wikipedia.org.\/wiki\/Keith_Urban\n4784. Google Scholar  \u2014  http:\/\/en.wikipedia.org.\/wiki\/Google_Scholar\n4785. Nationalism  \u2014  http:\/\/en.wikipedia.org.\/wiki\/Nationalism\n4786. Tajikistan  \u2014  http:\/\/en.wikipedia.org.\/wiki\/Tajikistan\n4787. Tungsten  \u2014  http:\/\/en.wikipedia.org.\/wiki\/Tungsten\n4788. Pangolin  \u2014  http:\/\/en.wikipedia.org.\/wiki\/Pangolin\n4789. Polypropylene  \u2014  http:\/\/en.wikipedia.org.\/wiki\/Polypropylene\n4790. Kardashev scale  \u2014  http:\/\/en.wikipedia.org.\/wiki\/Kardashev_scale\n4791. EuroBasket 2017  \u2014  http:\/\/en.wikipedia.org.\/wiki\/EuroBasket_2017\n4792. Niagara Falls  \u2014  http:\/\/en.wikipedia.org.\/wiki\/Niagara_Falls\n4793. Static web page  \u2014  http:\/\/en.wikipedia.org.\/wiki\/Static_web_page\n4794. List of Running Man episodes (2016)  \u2014  http:\/\/en.wikipedia.org.\/wiki\/List_of_Running_Man_episodes_(2016)\n4795. Macklemore  \u2014  http:\/\/en.wikipedia.org.\/wiki\/Macklemore\n4796. Date format by country  \u2014  http:\/\/en.wikipedia.org.\/wiki\/Date_format_by_country\n4797. Falkland Islands  \u2014  http:\/\/en.wikipedia.org.\/wiki\/Falkland_Islands\n4798. Supreme (brand)  \u2014  http:\/\/en.wikipedia.org.\/wiki\/Supreme_(brand)\n4799. Nick Jonas  \u2014  http:\/\/en.wikipedia.org.\/wiki\/Nick_Jonas\n","miniList":"4700. New Mexico\n4701. Battle of the Sexes (film)\n4702. Alistair Overeem\n4703. States and union territories of India\n4704. Pyotr Ilyich Tchaikovsky\n4705. Frank Lloyd Wright\n4706. The Washington Post\n4707. Domain name\n4708. Cologne\n4709. Star Wars sequel trilogy\n4710. Ashoka\n4711. Uttar Pradesh\n4712. Sofia Coppola\n4713. Bullet (typography)\n4714. Islam by country\n4715. List of religious populations\n4716. List of cities proper by population\n4717. Mystery Science Theater 3000\n4718. Alphabet\n4719. Billy Crudup\n4720. Colossus of Rhodes\n4721. World Trade Organization\n4722. Prostitution\n4723. Dante Alighieri\n4724. League of Nations\n4725. David Gilmour\n4726. Dan Harmon\n4727. New York Yankees\n4728. Thylacine\n4729. Jerry Lee Lewis\n4730. Joss Whedon\n4731. Pierre Trudeau\n4732. Leukemia\n4733. Bing Crosby\n4734. Mississippi River\n4735. Persian language\n4736. Stroke\n4737. Pescetarianism\n4738. Longmire (TV series)\n4739. Star Trek (film series)\n4740. Ed and Lorraine Warren\n4741. List of Twin Peaks characters\n4742. Muhammad Ali Jinnah\n4743. Hash function\n4744. Damian Lewis\n4745. Solomon\n4746. Clark Gable\n4747. Comma-separated values\n4748. Anatolia\n4749. Matthew Broderick\n4750. Great Recession\n4751. Scandal (season 6)\n4752. Burkina Faso\n4753. 2012 NBA draft\n4754. Simon & Garfunkel\n4755. Anna Nicole Smith\n4756. Christopher Walken\n4757. Mechanical engineering\n4758. Peter the Great\n4759. Active Server Pages\n4760. Skyfall\n4761. Steve Harvey\n4762. Corporate social responsibility\n4763. Fedor Emelianenko\n4764. Tamil Nadu\n4765. The Legend of Korra\n4766. List of mobile phone makers by country\n4767. Himalayas\n4768. Irish people\n4769. List of state and union territory capitals in India\n4770. Ripple (payment protocol)\n4771. Christina Hendricks\n4772. Tinder (app)\n4773. Sade (singer)\n4774. Steve Martin\n4775. The Witcher\n4776. Psychosis\n4777. Ludacris\n4778. L. Ron Hubbard\n4779. Geneva\n4780. Sicily\n4781. Group of Seven\n4782. Check mark\n4783. Keith Urban\n4784. Google Scholar\n4785. Nationalism\n4786. Tajikistan\n4787. Tungsten\n4788. Pangolin\n4789. Polypropylene\n4790. Kardashev scale\n4791. EuroBasket 2017\n4792. Niagara Falls\n4793. Static web page\n4794. List of Running Man episodes (2016)\n4795. Macklemore\n4796. Date format by country\n4797. Falkland Islands\n4798. Supreme (brand)\n4799. Nick Jonas\n"}
