{"start":4801,"end":4900,"count":5616717,"type":"pageviews","pageSize":100,"page":48,"pages":56168,"columns":[{"label":"","property":"pageviews","sortable":false}],"items":[{"pageviews":"4800. <a target=\"_blank\" href=\"http://en.wikipedia.org./wiki/Chlo%C3%AB_Sevigny\">Chloë Sevigny</a>"},{"pageviews":"4801. <a target=\"_blank\" href=\"http://en.wikipedia.org./wiki/Ruhollah_Khomeini\">Ruhollah Khomeini</a>"},{"pageviews":"4802. <a target=\"_blank\" href=\"http://en.wikipedia.org./wiki/Birdman_(film)\">Birdman (film)</a>"},{"pageviews":"4803. <a target=\"_blank\" href=\"http://en.wikipedia.org./wiki/CT_scan\">CT scan</a>"},{"pageviews":"4804. <a target=\"_blank\" href=\"http://en.wikipedia.org./wiki/Angela_Lansbury\">Angela Lansbury</a>"},{"pageviews":"4805. <a target=\"_blank\" href=\"http://en.wikipedia.org./wiki/Dihydrogen_monoxide_hoax\">Dihydrogen monoxide hoax</a>"},{"pageviews":"4806. <a target=\"_blank\" href=\"http://en.wikipedia.org./wiki/List_of_most_expensive_films\">List of most expensive films</a>"},{"pageviews":"4807. <a target=\"_blank\" href=\"http://en.wikipedia.org./wiki/Decibel\">Decibel</a>"},{"pageviews":"4808. <a target=\"_blank\" href=\"http://en.wikipedia.org./wiki/Limited_liability_company\">Limited liability company</a>"},{"pageviews":"4809. <a target=\"_blank\" href=\"http://en.wikipedia.org./wiki/Patton_Oswalt\">Patton Oswalt</a>"},{"pageviews":"4810. <a target=\"_blank\" href=\"http://en.wikipedia.org./wiki/John_Kerry\">John Kerry</a>"},{"pageviews":"4811. <a target=\"_blank\" href=\"http://en.wikipedia.org./wiki/12_Years_a_Slave_(film)\">12 Years a Slave (film)</a>"},{"pageviews":"4812. <a target=\"_blank\" href=\"http://en.wikipedia.org./wiki/Tobey_Maguire\">Tobey Maguire</a>"},{"pageviews":"4813. <a target=\"_blank\" href=\"http://en.wikipedia.org./wiki/Psoriasis\">Psoriasis</a>"},{"pageviews":"4814. <a target=\"_blank\" href=\"http://en.wikipedia.org./wiki/Mali\">Mali</a>"},{"pageviews":"4815. <a target=\"_blank\" href=\"http://en.wikipedia.org./wiki/Cabinet_of_the_United_States\">Cabinet of the United States</a>"},{"pageviews":"4816. <a target=\"_blank\" href=\"http://en.wikipedia.org./wiki/Alex_Rodriguez\">Alex Rodriguez</a>"},{"pageviews":"4817. <a target=\"_blank\" href=\"http://en.wikipedia.org./wiki/Dick_Cheney\">Dick Cheney</a>"},{"pageviews":"4818. <a target=\"_blank\" href=\"http://en.wikipedia.org./wiki/Thierry_Henry\">Thierry Henry</a>"},{"pageviews":"4819. <a target=\"_blank\" href=\"http://en.wikipedia.org./wiki/Aston_Villa_F.C.\">Aston Villa F.C.</a>"},{"pageviews":"4820. <a target=\"_blank\" href=\"http://en.wikipedia.org./wiki/Maryam_Mirzakhani\">Maryam Mirzakhani</a>"},{"pageviews":"4821. <a target=\"_blank\" href=\"http://en.wikipedia.org./wiki/Electric_Light_Orchestra\">Electric Light Orchestra</a>"},{"pageviews":"4822. <a target=\"_blank\" href=\"http://en.wikipedia.org./wiki/Spartacus\">Spartacus</a>"},{"pageviews":"4823. <a target=\"_blank\" href=\"http://en.wikipedia.org./wiki/Barbiturate\">Barbiturate</a>"},{"pageviews":"4824. <a target=\"_blank\" href=\"http://en.wikipedia.org./wiki/Talking_Heads\">Talking Heads</a>"},{"pageviews":"4825. <a target=\"_blank\" href=\"http://en.wikipedia.org./wiki/Goa\">Goa</a>"},{"pageviews":"4826. <a target=\"_blank\" href=\"http://en.wikipedia.org./wiki/MOSFET\">MOSFET</a>"},{"pageviews":"4827. <a target=\"_blank\" href=\"http://en.wikipedia.org./wiki/What_Ever_Happened_to_Baby_Jane%3F_(1962_film)\">What Ever Happened to Baby Jane? (1962 film)</a>"},{"pageviews":"4828. <a target=\"_blank\" href=\"http://en.wikipedia.org./wiki/Mickey_Mouse\">Mickey Mouse</a>"},{"pageviews":"4829. <a target=\"_blank\" href=\"http://en.wikipedia.org./wiki/Carlos_Slim\">Carlos Slim</a>"},{"pageviews":"4830. <a target=\"_blank\" href=\"http://en.wikipedia.org./wiki/The_Affair_(TV_series)\">The Affair (TV series)</a>"},{"pageviews":"4831. <a target=\"_blank\" href=\"http://en.wikipedia.org./wiki/Cole_Sprouse\">Cole Sprouse</a>"},{"pageviews":"4832. <a target=\"_blank\" href=\"http://en.wikipedia.org./wiki/James_Spader\">James Spader</a>"},{"pageviews":"4833. <a target=\"_blank\" href=\"http://en.wikipedia.org./wiki/Habeas_corpus\">Habeas corpus</a>"},{"pageviews":"4834. <a target=\"_blank\" href=\"http://en.wikipedia.org./wiki/Solar_energy\">Solar energy</a>"},{"pageviews":"4835. <a target=\"_blank\" href=\"http://en.wikipedia.org./wiki/Sam_Harris\">Sam Harris</a>"},{"pageviews":"4836. <a target=\"_blank\" href=\"http://en.wikipedia.org./wiki/Business\">Business</a>"},{"pageviews":"4837. <a target=\"_blank\" href=\"http://en.wikipedia.org./wiki/Bell_Boeing_V-22_Osprey\">Bell Boeing V-22 Osprey</a>"},{"pageviews":"4838. <a target=\"_blank\" href=\"http://en.wikipedia.org./wiki/Monogatari_(series)\">Monogatari (series)</a>"},{"pageviews":"4839. <a target=\"_blank\" href=\"http://en.wikipedia.org./wiki/Ren%C3%A9e_Zellweger\">Renée Zellweger</a>"},{"pageviews":"4840. <a target=\"_blank\" href=\"http://en.wikipedia.org./wiki/Economic_history_of_the_United_States\">Economic history of the United States</a>"},{"pageviews":"4841. <a target=\"_blank\" href=\"http://en.wikipedia.org./wiki/Krishna\">Krishna</a>"},{"pageviews":"4842. <a target=\"_blank\" href=\"http://en.wikipedia.org./wiki/Emily_V._Gordon\">Emily V. Gordon</a>"},{"pageviews":"4843. <a target=\"_blank\" href=\"http://en.wikipedia.org./wiki/Versailles_(TV_series)\">Versailles (TV series)</a>"},{"pageviews":"4844. <a target=\"_blank\" href=\"http://en.wikipedia.org./wiki/Global_city\">Global city</a>"},{"pageviews":"4845. <a target=\"_blank\" href=\"http://en.wikipedia.org./wiki/The_Night_Of\">The Night Of</a>"},{"pageviews":"4846. <a target=\"_blank\" href=\"http://en.wikipedia.org./wiki/8-bit\">8-bit</a>"},{"pageviews":"4847. <a target=\"_blank\" href=\"http://en.wikipedia.org./wiki/Yale_University\">Yale University</a>"},{"pageviews":"4848. <a target=\"_blank\" href=\"http://en.wikipedia.org./wiki/Captain_Fantastic_(film)\">Captain Fantastic (film)</a>"},{"pageviews":"4849. <a target=\"_blank\" href=\"http://en.wikipedia.org./wiki/Bundesliga\">Bundesliga</a>"},{"pageviews":"4850. <a target=\"_blank\" href=\"http://en.wikipedia.org./wiki/The_Cure\">The Cure</a>"},{"pageviews":"4851. <a target=\"_blank\" href=\"http://en.wikipedia.org./wiki/Turkmenistan\">Turkmenistan</a>"},{"pageviews":"4852. <a target=\"_blank\" href=\"http://en.wikipedia.org./wiki/Philip_Seymour_Hoffman\">Philip Seymour Hoffman</a>"},{"pageviews":"4853. <a target=\"_blank\" href=\"http://en.wikipedia.org./wiki/Hell's_Kitchen_(U.S._TV_series)\">Hell's Kitchen (U.S. TV series)</a>"},{"pageviews":"4854. <a target=\"_blank\" href=\"http://en.wikipedia.org./wiki/The_Handmaiden\">The Handmaiden</a>"},{"pageviews":"4855. <a target=\"_blank\" href=\"http://en.wikipedia.org./wiki/Dunkirk\">Dunkirk</a>"},{"pageviews":"4856. <a target=\"_blank\" href=\"http://en.wikipedia.org./wiki/WikiLeaks\">WikiLeaks</a>"},{"pageviews":"4857. <a target=\"_blank\" href=\"http://en.wikipedia.org./wiki/Metaphysics\">Metaphysics</a>"},{"pageviews":"4858. <a target=\"_blank\" href=\"http://en.wikipedia.org./wiki/Atmospheric_pressure\">Atmospheric pressure</a>"},{"pageviews":"4859. <a target=\"_blank\" href=\"http://en.wikipedia.org./wiki/Jos%C3%A9_Aldo\">José Aldo</a>"},{"pageviews":"4860. <a target=\"_blank\" href=\"http://en.wikipedia.org./wiki/List_of_common_misconceptions\">List of common misconceptions</a>"},{"pageviews":"4861. <a target=\"_blank\" href=\"http://en.wikipedia.org./wiki/Medell%C3%ADn_Cartel\">Medellín Cartel</a>"},{"pageviews":"4862. <a target=\"_blank\" href=\"http://en.wikipedia.org./wiki/Natalie_Wood\">Natalie Wood</a>"},{"pageviews":"4863. <a target=\"_blank\" href=\"http://en.wikipedia.org./wiki/Elizabeth_of_York\">Elizabeth of York</a>"},{"pageviews":"4864. <a target=\"_blank\" href=\"http://en.wikipedia.org./wiki/Second_Boer_War\">Second Boer War</a>"},{"pageviews":"4865. <a target=\"_blank\" href=\"http://en.wikipedia.org./wiki/Guardians_of_the_Galaxy_(soundtrack)\">Guardians of the Galaxy (soundtrack)</a>"},{"pageviews":"4866. <a target=\"_blank\" href=\"http://en.wikipedia.org./wiki/Palestine\">Palestine</a>"},{"pageviews":"4867. <a target=\"_blank\" href=\"http://en.wikipedia.org./wiki/A_Monster_Calls_(film)\">A Monster Calls (film)</a>"},{"pageviews":"4868. <a target=\"_blank\" href=\"http://en.wikipedia.org./wiki/The_Wheel_of_Time\">The Wheel of Time</a>"},{"pageviews":"4869. <a target=\"_blank\" href=\"http://en.wikipedia.org./wiki/John_Ritter\">John Ritter</a>"},{"pageviews":"4870. <a target=\"_blank\" href=\"http://en.wikipedia.org./wiki/Komodo_dragon\">Komodo dragon</a>"},{"pageviews":"4871. <a target=\"_blank\" href=\"http://en.wikipedia.org./wiki/Raabta_(film)\">Raabta (film)</a>"},{"pageviews":"4872. <a target=\"_blank\" href=\"http://en.wikipedia.org./wiki/Great_white_shark\">Great white shark</a>"},{"pageviews":"4873. <a target=\"_blank\" href=\"http://en.wikipedia.org./wiki/Potassium\">Potassium</a>"},{"pageviews":"4874. <a target=\"_blank\" href=\"http://en.wikipedia.org./wiki/Battleground_(2017)\">Battleground (2017)</a>"},{"pageviews":"4875. <a target=\"_blank\" href=\"http://en.wikipedia.org./wiki/A_Beautiful_Mind_(film)\">A Beautiful Mind (film)</a>"},{"pageviews":"4876. <a target=\"_blank\" href=\"http://en.wikipedia.org./wiki/Van_Halen\">Van Halen</a>"},{"pageviews":"4877. <a target=\"_blank\" href=\"http://en.wikipedia.org./wiki/God\">God</a>"},{"pageviews":"4878. <a target=\"_blank\" href=\"http://en.wikipedia.org./wiki/Hawaiian_pizza\">Hawaiian pizza</a>"},{"pageviews":"4879. <a target=\"_blank\" href=\"http://en.wikipedia.org./wiki/Azores\">Azores</a>"},{"pageviews":"4880. <a target=\"_blank\" href=\"http://en.wikipedia.org./wiki/2017_Australian_Open\">2017 Australian Open</a>"},{"pageviews":"4881. <a target=\"_blank\" href=\"http://en.wikipedia.org./wiki/The_Catch_(TV_series)\">The Catch (TV series)</a>"},{"pageviews":"4882. <a target=\"_blank\" href=\"http://en.wikipedia.org./wiki/Light\">Light</a>"},{"pageviews":"4883. <a target=\"_blank\" href=\"http://en.wikipedia.org./wiki/Now_You_See_Me_2\">Now You See Me 2</a>"},{"pageviews":"4884. <a target=\"_blank\" href=\"http://en.wikipedia.org./wiki/Christoph_Waltz\">Christoph Waltz</a>"},{"pageviews":"4885. <a target=\"_blank\" href=\"http://en.wikipedia.org./wiki/Camila_Mendes\">Camila Mendes</a>"},{"pageviews":"4886. <a target=\"_blank\" href=\"http://en.wikipedia.org./wiki/John_Cleese\">John Cleese</a>"},{"pageviews":"4887. <a target=\"_blank\" href=\"http://en.wikipedia.org./wiki/Geologic_time_scale\">Geologic time scale</a>"},{"pageviews":"4888. <a target=\"_blank\" href=\"http://en.wikipedia.org./wiki/Derek_Jeter\">Derek Jeter</a>"},{"pageviews":"4889. <a target=\"_blank\" href=\"http://en.wikipedia.org./wiki/List_of_current_champions_in_WWE\">List of current champions in WWE</a>"},{"pageviews":"4890. <a target=\"_blank\" href=\"http://en.wikipedia.org./wiki/Giraffe\">Giraffe</a>"},{"pageviews":"4891. <a target=\"_blank\" href=\"http://en.wikipedia.org./wiki/UEFA_Euro_2016\">UEFA Euro 2016</a>"},{"pageviews":"4892. <a target=\"_blank\" href=\"http://en.wikipedia.org./wiki/Robin_Hood\">Robin Hood</a>"},{"pageviews":"4893. <a target=\"_blank\" href=\"http://en.wikipedia.org./wiki/Joe_Manganiello\">Joe Manganiello</a>"},{"pageviews":"4894. <a target=\"_blank\" href=\"http://en.wikipedia.org./wiki/Eleanor_Roosevelt\">Eleanor Roosevelt</a>"},{"pageviews":"4895. <a target=\"_blank\" href=\"http://en.wikipedia.org./wiki/Rodney_King\">Rodney King</a>"},{"pageviews":"4896. <a target=\"_blank\" href=\"http://en.wikipedia.org./wiki/Donnie_Wahlberg\">Donnie Wahlberg</a>"},{"pageviews":"4897. <a target=\"_blank\" href=\"http://en.wikipedia.org./wiki/Brighton_%26_Hove_Albion_F.C.\">Brighton & Hove Albion F.C.</a>"},{"pageviews":"4898. <a target=\"_blank\" href=\"http://en.wikipedia.org./wiki/Demetrious_Johnson_(fighter)\">Demetrious Johnson (fighter)</a>"},{"pageviews":"4899. <a target=\"_blank\" href=\"http://en.wikipedia.org./wiki/I.O.I\">I.O.I</a>"}],"list":"4800. Chlo\u00EB Sevigny  \u2014  http:\/\/en.wikipedia.org.\/wiki\/Chlo%C3%AB_Sevigny\n4801. Ruhollah Khomeini  \u2014  http:\/\/en.wikipedia.org.\/wiki\/Ruhollah_Khomeini\n4802. Birdman (film)  \u2014  http:\/\/en.wikipedia.org.\/wiki\/Birdman_(film)\n4803. CT scan  \u2014  http:\/\/en.wikipedia.org.\/wiki\/CT_scan\n4804. Angela Lansbury  \u2014  http:\/\/en.wikipedia.org.\/wiki\/Angela_Lansbury\n4805. Dihydrogen monoxide hoax  \u2014  http:\/\/en.wikipedia.org.\/wiki\/Dihydrogen_monoxide_hoax\n4806. List of most expensive films  \u2014  http:\/\/en.wikipedia.org.\/wiki\/List_of_most_expensive_films\n4807. Decibel  \u2014  http:\/\/en.wikipedia.org.\/wiki\/Decibel\n4808. Limited liability company  \u2014  http:\/\/en.wikipedia.org.\/wiki\/Limited_liability_company\n4809. Patton Oswalt  \u2014  http:\/\/en.wikipedia.org.\/wiki\/Patton_Oswalt\n4810. John Kerry  \u2014  http:\/\/en.wikipedia.org.\/wiki\/John_Kerry\n4811. 12 Years a Slave (film)  \u2014  http:\/\/en.wikipedia.org.\/wiki\/12_Years_a_Slave_(film)\n4812. Tobey Maguire  \u2014  http:\/\/en.wikipedia.org.\/wiki\/Tobey_Maguire\n4813. Psoriasis  \u2014  http:\/\/en.wikipedia.org.\/wiki\/Psoriasis\n4814. Mali  \u2014  http:\/\/en.wikipedia.org.\/wiki\/Mali\n4815. Cabinet of the United States  \u2014  http:\/\/en.wikipedia.org.\/wiki\/Cabinet_of_the_United_States\n4816. Alex Rodriguez  \u2014  http:\/\/en.wikipedia.org.\/wiki\/Alex_Rodriguez\n4817. Dick Cheney  \u2014  http:\/\/en.wikipedia.org.\/wiki\/Dick_Cheney\n4818. Thierry Henry  \u2014  http:\/\/en.wikipedia.org.\/wiki\/Thierry_Henry\n4819. Aston Villa F.C.  \u2014  http:\/\/en.wikipedia.org.\/wiki\/Aston_Villa_F.C.\n4820. Maryam Mirzakhani  \u2014  http:\/\/en.wikipedia.org.\/wiki\/Maryam_Mirzakhani\n4821. Electric Light Orchestra  \u2014  http:\/\/en.wikipedia.org.\/wiki\/Electric_Light_Orchestra\n4822. Spartacus  \u2014  http:\/\/en.wikipedia.org.\/wiki\/Spartacus\n4823. Barbiturate  \u2014  http:\/\/en.wikipedia.org.\/wiki\/Barbiturate\n4824. Talking Heads  \u2014  http:\/\/en.wikipedia.org.\/wiki\/Talking_Heads\n4825. Goa  \u2014  http:\/\/en.wikipedia.org.\/wiki\/Goa\n4826. MOSFET  \u2014  http:\/\/en.wikipedia.org.\/wiki\/MOSFET\n4827. What Ever Happened to Baby Jane? (1962 film)  \u2014  http:\/\/en.wikipedia.org.\/wiki\/What_Ever_Happened_to_Baby_Jane%3F_(1962_film)\n4828. Mickey Mouse  \u2014  http:\/\/en.wikipedia.org.\/wiki\/Mickey_Mouse\n4829. Carlos Slim  \u2014  http:\/\/en.wikipedia.org.\/wiki\/Carlos_Slim\n4830. The Affair (TV series)  \u2014  http:\/\/en.wikipedia.org.\/wiki\/The_Affair_(TV_series)\n4831. Cole Sprouse  \u2014  http:\/\/en.wikipedia.org.\/wiki\/Cole_Sprouse\n4832. James Spader  \u2014  http:\/\/en.wikipedia.org.\/wiki\/James_Spader\n4833. Habeas corpus  \u2014  http:\/\/en.wikipedia.org.\/wiki\/Habeas_corpus\n4834. Solar energy  \u2014  http:\/\/en.wikipedia.org.\/wiki\/Solar_energy\n4835. Sam Harris  \u2014  http:\/\/en.wikipedia.org.\/wiki\/Sam_Harris\n4836. Business  \u2014  http:\/\/en.wikipedia.org.\/wiki\/Business\n4837. Bell Boeing V-22 Osprey  \u2014  http:\/\/en.wikipedia.org.\/wiki\/Bell_Boeing_V-22_Osprey\n4838. Monogatari (series)  \u2014  http:\/\/en.wikipedia.org.\/wiki\/Monogatari_(series)\n4839. Ren\u00E9e Zellweger  \u2014  http:\/\/en.wikipedia.org.\/wiki\/Ren%C3%A9e_Zellweger\n4840. Economic history of the United States  \u2014  http:\/\/en.wikipedia.org.\/wiki\/Economic_history_of_the_United_States\n4841. Krishna  \u2014  http:\/\/en.wikipedia.org.\/wiki\/Krishna\n4842. Emily V. Gordon  \u2014  http:\/\/en.wikipedia.org.\/wiki\/Emily_V._Gordon\n4843. Versailles (TV series)  \u2014  http:\/\/en.wikipedia.org.\/wiki\/Versailles_(TV_series)\n4844. Global city  \u2014  http:\/\/en.wikipedia.org.\/wiki\/Global_city\n4845. The Night Of  \u2014  http:\/\/en.wikipedia.org.\/wiki\/The_Night_Of\n4846. 8-bit  \u2014  http:\/\/en.wikipedia.org.\/wiki\/8-bit\n4847. Yale University  \u2014  http:\/\/en.wikipedia.org.\/wiki\/Yale_University\n4848. Captain Fantastic (film)  \u2014  http:\/\/en.wikipedia.org.\/wiki\/Captain_Fantastic_(film)\n4849. Bundesliga  \u2014  http:\/\/en.wikipedia.org.\/wiki\/Bundesliga\n4850. The Cure  \u2014  http:\/\/en.wikipedia.org.\/wiki\/The_Cure\n4851. Turkmenistan  \u2014  http:\/\/en.wikipedia.org.\/wiki\/Turkmenistan\n4852. Philip Seymour Hoffman  \u2014  http:\/\/en.wikipedia.org.\/wiki\/Philip_Seymour_Hoffman\n4853. Hell's Kitchen (U.S. TV series)  \u2014  http:\/\/en.wikipedia.org.\/wiki\/Hell's_Kitchen_(U.S._TV_series)\n4854. The Handmaiden  \u2014  http:\/\/en.wikipedia.org.\/wiki\/The_Handmaiden\n4855. Dunkirk  \u2014  http:\/\/en.wikipedia.org.\/wiki\/Dunkirk\n4856. WikiLeaks  \u2014  http:\/\/en.wikipedia.org.\/wiki\/WikiLeaks\n4857. Metaphysics  \u2014  http:\/\/en.wikipedia.org.\/wiki\/Metaphysics\n4858. Atmospheric pressure  \u2014  http:\/\/en.wikipedia.org.\/wiki\/Atmospheric_pressure\n4859. Jos\u00E9 Aldo  \u2014  http:\/\/en.wikipedia.org.\/wiki\/Jos%C3%A9_Aldo\n4860. List of common misconceptions  \u2014  http:\/\/en.wikipedia.org.\/wiki\/List_of_common_misconceptions\n4861. Medell\u00EDn Cartel  \u2014  http:\/\/en.wikipedia.org.\/wiki\/Medell%C3%ADn_Cartel\n4862. Natalie Wood  \u2014  http:\/\/en.wikipedia.org.\/wiki\/Natalie_Wood\n4863. Elizabeth of York  \u2014  http:\/\/en.wikipedia.org.\/wiki\/Elizabeth_of_York\n4864. Second Boer War  \u2014  http:\/\/en.wikipedia.org.\/wiki\/Second_Boer_War\n4865. Guardians of the Galaxy (soundtrack)  \u2014  http:\/\/en.wikipedia.org.\/wiki\/Guardians_of_the_Galaxy_(soundtrack)\n4866. Palestine  \u2014  http:\/\/en.wikipedia.org.\/wiki\/Palestine\n4867. A Monster Calls (film)  \u2014  http:\/\/en.wikipedia.org.\/wiki\/A_Monster_Calls_(film)\n4868. The Wheel of Time  \u2014  http:\/\/en.wikipedia.org.\/wiki\/The_Wheel_of_Time\n4869. John Ritter  \u2014  http:\/\/en.wikipedia.org.\/wiki\/John_Ritter\n4870. Komodo dragon  \u2014  http:\/\/en.wikipedia.org.\/wiki\/Komodo_dragon\n4871. Raabta (film)  \u2014  http:\/\/en.wikipedia.org.\/wiki\/Raabta_(film)\n4872. Great white shark  \u2014  http:\/\/en.wikipedia.org.\/wiki\/Great_white_shark\n4873. Potassium  \u2014  http:\/\/en.wikipedia.org.\/wiki\/Potassium\n4874. Battleground (2017)  \u2014  http:\/\/en.wikipedia.org.\/wiki\/Battleground_(2017)\n4875. A Beautiful Mind (film)  \u2014  http:\/\/en.wikipedia.org.\/wiki\/A_Beautiful_Mind_(film)\n4876. Van Halen  \u2014  http:\/\/en.wikipedia.org.\/wiki\/Van_Halen\n4877. God  \u2014  http:\/\/en.wikipedia.org.\/wiki\/God\n4878. Hawaiian pizza  \u2014  http:\/\/en.wikipedia.org.\/wiki\/Hawaiian_pizza\n4879. Azores  \u2014  http:\/\/en.wikipedia.org.\/wiki\/Azores\n4880. 2017 Australian Open  \u2014  http:\/\/en.wikipedia.org.\/wiki\/2017_Australian_Open\n4881. The Catch (TV series)  \u2014  http:\/\/en.wikipedia.org.\/wiki\/The_Catch_(TV_series)\n4882. Light  \u2014  http:\/\/en.wikipedia.org.\/wiki\/Light\n4883. Now You See Me 2  \u2014  http:\/\/en.wikipedia.org.\/wiki\/Now_You_See_Me_2\n4884. Christoph Waltz  \u2014  http:\/\/en.wikipedia.org.\/wiki\/Christoph_Waltz\n4885. Camila Mendes  \u2014  http:\/\/en.wikipedia.org.\/wiki\/Camila_Mendes\n4886. John Cleese  \u2014  http:\/\/en.wikipedia.org.\/wiki\/John_Cleese\n4887. Geologic time scale  \u2014  http:\/\/en.wikipedia.org.\/wiki\/Geologic_time_scale\n4888. Derek Jeter  \u2014  http:\/\/en.wikipedia.org.\/wiki\/Derek_Jeter\n4889. List of current champions in WWE  \u2014  http:\/\/en.wikipedia.org.\/wiki\/List_of_current_champions_in_WWE\n4890. Giraffe  \u2014  http:\/\/en.wikipedia.org.\/wiki\/Giraffe\n4891. UEFA Euro 2016  \u2014  http:\/\/en.wikipedia.org.\/wiki\/UEFA_Euro_2016\n4892. Robin Hood  \u2014  http:\/\/en.wikipedia.org.\/wiki\/Robin_Hood\n4893. Joe Manganiello  \u2014  http:\/\/en.wikipedia.org.\/wiki\/Joe_Manganiello\n4894. Eleanor Roosevelt  \u2014  http:\/\/en.wikipedia.org.\/wiki\/Eleanor_Roosevelt\n4895. Rodney King  \u2014  http:\/\/en.wikipedia.org.\/wiki\/Rodney_King\n4896. Donnie Wahlberg  \u2014  http:\/\/en.wikipedia.org.\/wiki\/Donnie_Wahlberg\n4897. Brighton & Hove Albion F.C.  \u2014  http:\/\/en.wikipedia.org.\/wiki\/Brighton_%26_Hove_Albion_F.C.\n4898. Demetrious Johnson (fighter)  \u2014  http:\/\/en.wikipedia.org.\/wiki\/Demetrious_Johnson_(fighter)\n4899. I.O.I  \u2014  http:\/\/en.wikipedia.org.\/wiki\/I.O.I\n","miniList":"4800. Chlo\u00EB Sevigny\n4801. Ruhollah Khomeini\n4802. Birdman (film)\n4803. CT scan\n4804. Angela Lansbury\n4805. Dihydrogen monoxide hoax\n4806. List of most expensive films\n4807. Decibel\n4808. Limited liability company\n4809. Patton Oswalt\n4810. John Kerry\n4811. 12 Years a Slave (film)\n4812. Tobey Maguire\n4813. Psoriasis\n4814. Mali\n4815. Cabinet of the United States\n4816. Alex Rodriguez\n4817. Dick Cheney\n4818. Thierry Henry\n4819. Aston Villa F.C.\n4820. Maryam Mirzakhani\n4821. Electric Light Orchestra\n4822. Spartacus\n4823. Barbiturate\n4824. Talking Heads\n4825. Goa\n4826. MOSFET\n4827. What Ever Happened to Baby Jane? (1962 film)\n4828. Mickey Mouse\n4829. Carlos Slim\n4830. The Affair (TV series)\n4831. Cole Sprouse\n4832. James Spader\n4833. Habeas corpus\n4834. Solar energy\n4835. Sam Harris\n4836. Business\n4837. Bell Boeing V-22 Osprey\n4838. Monogatari (series)\n4839. Ren\u00E9e Zellweger\n4840. Economic history of the United States\n4841. Krishna\n4842. Emily V. Gordon\n4843. Versailles (TV series)\n4844. Global city\n4845. The Night Of\n4846. 8-bit\n4847. Yale University\n4848. Captain Fantastic (film)\n4849. Bundesliga\n4850. The Cure\n4851. Turkmenistan\n4852. Philip Seymour Hoffman\n4853. Hell's Kitchen (U.S. TV series)\n4854. The Handmaiden\n4855. Dunkirk\n4856. WikiLeaks\n4857. Metaphysics\n4858. Atmospheric pressure\n4859. Jos\u00E9 Aldo\n4860. List of common misconceptions\n4861. Medell\u00EDn Cartel\n4862. Natalie Wood\n4863. Elizabeth of York\n4864. Second Boer War\n4865. Guardians of the Galaxy (soundtrack)\n4866. Palestine\n4867. A Monster Calls (film)\n4868. The Wheel of Time\n4869. John Ritter\n4870. Komodo dragon\n4871. Raabta (film)\n4872. Great white shark\n4873. Potassium\n4874. Battleground (2017)\n4875. A Beautiful Mind (film)\n4876. Van Halen\n4877. God\n4878. Hawaiian pizza\n4879. Azores\n4880. 2017 Australian Open\n4881. The Catch (TV series)\n4882. Light\n4883. Now You See Me 2\n4884. Christoph Waltz\n4885. Camila Mendes\n4886. John Cleese\n4887. Geologic time scale\n4888. Derek Jeter\n4889. List of current champions in WWE\n4890. Giraffe\n4891. UEFA Euro 2016\n4892. Robin Hood\n4893. Joe Manganiello\n4894. Eleanor Roosevelt\n4895. Rodney King\n4896. Donnie Wahlberg\n4897. Brighton & Hove Albion F.C.\n4898. Demetrious Johnson (fighter)\n4899. I.O.I\n"}
