{"start":4901,"end":5000,"count":5616717,"type":"pageviews","pageSize":100,"page":49,"pages":56168,"columns":[{"label":"","property":"pageviews","sortable":false}],"items":[{"pageviews":"4900. <a target=\"_blank\" href=\"http://en.wikipedia.org./wiki/Rabbit\">Rabbit</a>"},{"pageviews":"4901. <a target=\"_blank\" href=\"http://en.wikipedia.org./wiki/Boris_Johnson\">Boris Johnson</a>"},{"pageviews":"4902. <a target=\"_blank\" href=\"http://en.wikipedia.org./wiki/Louvre\">Louvre</a>"},{"pageviews":"4903. <a target=\"_blank\" href=\"http://en.wikipedia.org./wiki/Gender\">Gender</a>"},{"pageviews":"4904. <a target=\"_blank\" href=\"http://en.wikipedia.org./wiki/Firefly_(TV_series)\">Firefly (TV series)</a>"},{"pageviews":"4905. <a target=\"_blank\" href=\"http://en.wikipedia.org./wiki/James_Brown\">James Brown</a>"},{"pageviews":"4906. <a target=\"_blank\" href=\"http://en.wikipedia.org./wiki/Vichy_France\">Vichy France</a>"},{"pageviews":"4907. <a target=\"_blank\" href=\"http://en.wikipedia.org./wiki/Attila\">Attila</a>"},{"pageviews":"4908. <a target=\"_blank\" href=\"http://en.wikipedia.org./wiki/Full_Metal_Jacket\">Full Metal Jacket</a>"},{"pageviews":"4909. <a target=\"_blank\" href=\"http://en.wikipedia.org./wiki/Hayley_Williams\">Hayley Williams</a>"},{"pageviews":"4910. <a target=\"_blank\" href=\"http://en.wikipedia.org./wiki/Disha_Patani\">Disha Patani</a>"},{"pageviews":"4911. <a target=\"_blank\" href=\"http://en.wikipedia.org./wiki/Arthropod\">Arthropod</a>"},{"pageviews":"4912. <a target=\"_blank\" href=\"http://en.wikipedia.org./wiki/Kalman_filter\">Kalman filter</a>"},{"pageviews":"4913. <a target=\"_blank\" href=\"http://en.wikipedia.org./wiki/Edward_III_of_England\">Edward III of England</a>"},{"pageviews":"4914. <a target=\"_blank\" href=\"http://en.wikipedia.org./wiki/Lizzy_Caplan\">Lizzy Caplan</a>"},{"pageviews":"4915. <a target=\"_blank\" href=\"http://en.wikipedia.org./wiki/Aaron_Carter\">Aaron Carter</a>"},{"pageviews":"4916. <a target=\"_blank\" href=\"http://en.wikipedia.org./wiki/Hades\">Hades</a>"},{"pageviews":"4917. <a target=\"_blank\" href=\"http://en.wikipedia.org./wiki/Slender_Man\">Slender Man</a>"},{"pageviews":"4918. <a target=\"_blank\" href=\"http://en.wikipedia.org./wiki/Megalodon\">Megalodon</a>"},{"pageviews":"4919. <a target=\"_blank\" href=\"http://en.wikipedia.org./wiki/German_Shepherd\">German Shepherd</a>"},{"pageviews":"4920. <a target=\"_blank\" href=\"http://en.wikipedia.org./wiki/SAT\">SAT</a>"},{"pageviews":"4921. <a target=\"_blank\" href=\"http://en.wikipedia.org./wiki/Adobe_Systems\">Adobe Systems</a>"},{"pageviews":"4922. <a target=\"_blank\" href=\"http://en.wikipedia.org./wiki/Kim_Basinger\">Kim Basinger</a>"},{"pageviews":"4923. <a target=\"_blank\" href=\"http://en.wikipedia.org./wiki/19_Kids_and_Counting\">19 Kids and Counting</a>"},{"pageviews":"4924. <a target=\"_blank\" href=\"http://en.wikipedia.org./wiki/Shashi_Kapoor\">Shashi Kapoor</a>"},{"pageviews":"4925. <a target=\"_blank\" href=\"http://en.wikipedia.org./wiki/Frank_Abagnale\">Frank Abagnale</a>"},{"pageviews":"4926. <a target=\"_blank\" href=\"http://en.wikipedia.org./wiki/Dungeons_%26_Dragons\">Dungeons & Dragons</a>"},{"pageviews":"4927. <a target=\"_blank\" href=\"http://en.wikipedia.org./wiki/The_Bride_of_Habaek\">The Bride of Habaek</a>"},{"pageviews":"4928. <a target=\"_blank\" href=\"http://en.wikipedia.org./wiki/Minneapolis\">Minneapolis</a>"},{"pageviews":"4929. <a target=\"_blank\" href=\"http://en.wikipedia.org./wiki/French_Montana\">French Montana</a>"},{"pageviews":"4930. <a target=\"_blank\" href=\"http://en.wikipedia.org./wiki/Languages_of_India\">Languages of India</a>"},{"pageviews":"4931. <a target=\"_blank\" href=\"http://en.wikipedia.org./wiki/Staphylococcus_aureus\">Staphylococcus aureus</a>"},{"pageviews":"4932. <a target=\"_blank\" href=\"http://en.wikipedia.org./wiki/Erotica\">Erotica</a>"},{"pageviews":"4933. <a target=\"_blank\" href=\"http://en.wikipedia.org./wiki/Sigmoid_function\">Sigmoid function</a>"},{"pageviews":"4934. <a target=\"_blank\" href=\"http://en.wikipedia.org./wiki/Russian_interference_in_the_2016_United_States_elections\">Russian interference in the 2016 United States elections</a>"},{"pageviews":"4935. <a target=\"_blank\" href=\"http://en.wikipedia.org./wiki/Liverpool\">Liverpool</a>"},{"pageviews":"4936. <a target=\"_blank\" href=\"http://en.wikipedia.org./wiki/Berserk_(manga)\">Berserk (manga)</a>"},{"pageviews":"4937. <a target=\"_blank\" href=\"http://en.wikipedia.org./wiki/J._J._Abrams\">J. J. Abrams</a>"},{"pageviews":"4938. <a target=\"_blank\" href=\"http://en.wikipedia.org./wiki/Mahira_Khan\">Mahira Khan</a>"},{"pageviews":"4939. <a target=\"_blank\" href=\"http://en.wikipedia.org./wiki/Moab%2C_Utah\">Moab, Utah</a>"},{"pageviews":"4940. <a target=\"_blank\" href=\"http://en.wikipedia.org./wiki/Joe_Pesci\">Joe Pesci</a>"},{"pageviews":"4941. <a target=\"_blank\" href=\"http://en.wikipedia.org./wiki/Media_type\">Media type</a>"},{"pageviews":"4942. <a target=\"_blank\" href=\"http://en.wikipedia.org./wiki/List_of_Naruto_characters\">List of Naruto characters</a>"},{"pageviews":"4943. <a target=\"_blank\" href=\"http://en.wikipedia.org./wiki/Thomas_Paine\">Thomas Paine</a>"},{"pageviews":"4944. <a target=\"_blank\" href=\"http://en.wikipedia.org./wiki/Service-oriented_architecture\">Service-oriented architecture</a>"},{"pageviews":"4945. <a target=\"_blank\" href=\"http://en.wikipedia.org./wiki/Anthrax\">Anthrax</a>"},{"pageviews":"4946. <a target=\"_blank\" href=\"http://en.wikipedia.org./wiki/Conway's_Game_of_Life\">Conway's Game of Life</a>"},{"pageviews":"4947. <a target=\"_blank\" href=\"http://en.wikipedia.org./wiki/Kareena_Kapoor\">Kareena Kapoor</a>"},{"pageviews":"4948. <a target=\"_blank\" href=\"http://en.wikipedia.org./wiki/Ramones\">Ramones</a>"},{"pageviews":"4949. <a target=\"_blank\" href=\"http://en.wikipedia.org./wiki/James_Harden\">James Harden</a>"},{"pageviews":"4950. <a target=\"_blank\" href=\"http://en.wikipedia.org./wiki/Fermi_paradox\">Fermi paradox</a>"},{"pageviews":"4951. <a target=\"_blank\" href=\"http://en.wikipedia.org./wiki/Sam_Worthington\">Sam Worthington</a>"},{"pageviews":"4952. <a target=\"_blank\" href=\"http://en.wikipedia.org./wiki/Ottawa_Citizen\">Ottawa Citizen</a>"},{"pageviews":"4953. <a target=\"_blank\" href=\"http://en.wikipedia.org./wiki/Before_I_Fall_(film)\">Before I Fall (film)</a>"},{"pageviews":"4954. <a target=\"_blank\" href=\"http://en.wikipedia.org./wiki/Trailer_Park_Boys\">Trailer Park Boys</a>"},{"pageviews":"4955. <a target=\"_blank\" href=\"http://en.wikipedia.org./wiki/JPEG\">JPEG</a>"},{"pageviews":"4956. <a target=\"_blank\" href=\"http://en.wikipedia.org./wiki/Red_Velvet_(band)\">Red Velvet (band)</a>"},{"pageviews":"4957. <a target=\"_blank\" href=\"http://en.wikipedia.org./wiki/Zambia\">Zambia</a>"},{"pageviews":"4958. <a target=\"_blank\" href=\"http://en.wikipedia.org./wiki/Modafinil\">Modafinil</a>"},{"pageviews":"4959. <a target=\"_blank\" href=\"http://en.wikipedia.org./wiki/Harry_Potter_and_the_Philosopher's_Stone\">Harry Potter and the Philosopher's Stone</a>"},{"pageviews":"4960. <a target=\"_blank\" href=\"http://en.wikipedia.org./wiki/Jallikattu\">Jallikattu</a>"},{"pageviews":"4961. <a target=\"_blank\" href=\"http://en.wikipedia.org./wiki/Her_(film)\">Her (film)</a>"},{"pageviews":"4962. <a target=\"_blank\" href=\"http://en.wikipedia.org./wiki/Piaget's_theory_of_cognitive_development\">Piaget's theory of cognitive development</a>"},{"pageviews":"4963. <a target=\"_blank\" href=\"http://en.wikipedia.org./wiki/World_of_A_Song_of_Ice_and_Fire\">World of A Song of Ice and Fire</a>"},{"pageviews":"4964. <a target=\"_blank\" href=\"http://en.wikipedia.org./wiki/Adobe_Flash\">Adobe Flash</a>"},{"pageviews":"4965. <a target=\"_blank\" href=\"http://en.wikipedia.org./wiki/Gilbert_du_Motier%2C_Marquis_de_Lafayette\">Gilbert du Motier, Marquis de Lafayette</a>"},{"pageviews":"4966. <a target=\"_blank\" href=\"http://en.wikipedia.org./wiki/Emotional_intelligence\">Emotional intelligence</a>"},{"pageviews":"4967. <a target=\"_blank\" href=\"http://en.wikipedia.org./wiki/M%C4%81ori_people\">Māori people</a>"},{"pageviews":"4968. <a target=\"_blank\" href=\"http://en.wikipedia.org./wiki/Elijah_Wood\">Elijah Wood</a>"},{"pageviews":"4969. <a target=\"_blank\" href=\"http://en.wikipedia.org./wiki/2017_Wimbledon_Championships\">2017 Wimbledon Championships</a>"},{"pageviews":"4970. <a target=\"_blank\" href=\"http://en.wikipedia.org./wiki/Agoraphobia\">Agoraphobia</a>"},{"pageviews":"4971. <a target=\"_blank\" href=\"http://en.wikipedia.org./wiki/Khlo%C3%A9_Kardashian\">Khloé Kardashian</a>"},{"pageviews":"4972. <a target=\"_blank\" href=\"http://en.wikipedia.org./wiki/Wilmer_Valderrama\">Wilmer Valderrama</a>"},{"pageviews":"4973. <a target=\"_blank\" href=\"http://en.wikipedia.org./wiki/Mukesh_Ambani\">Mukesh Ambani</a>"},{"pageviews":"4974. <a target=\"_blank\" href=\"http://en.wikipedia.org./wiki/Octavia_Spencer\">Octavia Spencer</a>"},{"pageviews":"4975. <a target=\"_blank\" href=\"http://en.wikipedia.org./wiki/Atlanta_Falcons\">Atlanta Falcons</a>"},{"pageviews":"4976. <a target=\"_blank\" href=\"http://en.wikipedia.org./wiki/Bridge_of_Spies_(film)\">Bridge of Spies (film)</a>"},{"pageviews":"4977. <a target=\"_blank\" href=\"http://en.wikipedia.org./wiki/John_Cusack\">John Cusack</a>"},{"pageviews":"4978. <a target=\"_blank\" href=\"http://en.wikipedia.org./wiki/House_of_Habsburg\">House of Habsburg</a>"},{"pageviews":"4979. <a target=\"_blank\" href=\"http://en.wikipedia.org./wiki/Roseanne\">Roseanne</a>"},{"pageviews":"4980. <a target=\"_blank\" href=\"http://en.wikipedia.org./wiki/Special_Forces_(United_States_Army)\">Special Forces (United States Army)</a>"},{"pageviews":"4981. <a target=\"_blank\" href=\"http://en.wikipedia.org./wiki/Risk_management\">Risk management</a>"},{"pageviews":"4982. <a target=\"_blank\" href=\"http://en.wikipedia.org./wiki/21st_Century_Fox\">21st Century Fox</a>"},{"pageviews":"4983. <a target=\"_blank\" href=\"http://en.wikipedia.org./wiki/List_of_Naruto_episodes\">List of Naruto episodes</a>"},{"pageviews":"4984. <a target=\"_blank\" href=\"http://en.wikipedia.org./wiki/Djibouti\">Djibouti</a>"},{"pageviews":"4985. <a target=\"_blank\" href=\"http://en.wikipedia.org./wiki/Cayman_Islands\">Cayman Islands</a>"},{"pageviews":"4986. <a target=\"_blank\" href=\"http://en.wikipedia.org./wiki/Master's_degree\">Master's degree</a>"},{"pageviews":"4987. <a target=\"_blank\" href=\"http://en.wikipedia.org./wiki/HTTP_302\">HTTP 302</a>"},{"pageviews":"4988. <a target=\"_blank\" href=\"http://en.wikipedia.org./wiki/List_of_Keeping_Up_with_the_Kardashians_episodes\">List of Keeping Up with the Kardashians episodes</a>"},{"pageviews":"4989. <a target=\"_blank\" href=\"http://en.wikipedia.org./wiki/New_World_Order_(conspiracy_theory)\">New World Order (conspiracy theory)</a>"},{"pageviews":"4990. <a target=\"_blank\" href=\"http://en.wikipedia.org./wiki/Trademark\">Trademark</a>"},{"pageviews":"4991. <a target=\"_blank\" href=\"http://en.wikipedia.org./wiki/Suez_Canal\">Suez Canal</a>"},{"pageviews":"4992. <a target=\"_blank\" href=\"http://en.wikipedia.org./wiki/Iran%E2%80%93Contra_affair\">Iran–Contra affair</a>"},{"pageviews":"4993. <a target=\"_blank\" href=\"http://en.wikipedia.org./wiki/Audioslave\">Audioslave</a>"},{"pageviews":"4994. <a target=\"_blank\" href=\"http://en.wikipedia.org./wiki/Content_management_system\">Content management system</a>"},{"pageviews":"4995. <a target=\"_blank\" href=\"http://en.wikipedia.org./wiki/Kawhi_Leonard\">Kawhi Leonard</a>"},{"pageviews":"4996. <a target=\"_blank\" href=\"http://en.wikipedia.org./wiki/Internet_meme\">Internet meme</a>"},{"pageviews":"4997. <a target=\"_blank\" href=\"http://en.wikipedia.org./wiki/Ricky_Martin\">Ricky Martin</a>"},{"pageviews":"4998. <a target=\"_blank\" href=\"http://en.wikipedia.org./wiki/IPhone_6\">IPhone 6</a>"},{"pageviews":"4999. <a target=\"_blank\" href=\"http://en.wikipedia.org./wiki/Jaws_(film)\">Jaws (film)</a>"}],"list":"4900. Rabbit  \u2014  http:\/\/en.wikipedia.org.\/wiki\/Rabbit\n4901. Boris Johnson  \u2014  http:\/\/en.wikipedia.org.\/wiki\/Boris_Johnson\n4902. Louvre  \u2014  http:\/\/en.wikipedia.org.\/wiki\/Louvre\n4903. Gender  \u2014  http:\/\/en.wikipedia.org.\/wiki\/Gender\n4904. Firefly (TV series)  \u2014  http:\/\/en.wikipedia.org.\/wiki\/Firefly_(TV_series)\n4905. James Brown  \u2014  http:\/\/en.wikipedia.org.\/wiki\/James_Brown\n4906. Vichy France  \u2014  http:\/\/en.wikipedia.org.\/wiki\/Vichy_France\n4907. Attila  \u2014  http:\/\/en.wikipedia.org.\/wiki\/Attila\n4908. Full Metal Jacket  \u2014  http:\/\/en.wikipedia.org.\/wiki\/Full_Metal_Jacket\n4909. Hayley Williams  \u2014  http:\/\/en.wikipedia.org.\/wiki\/Hayley_Williams\n4910. Disha Patani  \u2014  http:\/\/en.wikipedia.org.\/wiki\/Disha_Patani\n4911. Arthropod  \u2014  http:\/\/en.wikipedia.org.\/wiki\/Arthropod\n4912. Kalman filter  \u2014  http:\/\/en.wikipedia.org.\/wiki\/Kalman_filter\n4913. Edward III of England  \u2014  http:\/\/en.wikipedia.org.\/wiki\/Edward_III_of_England\n4914. Lizzy Caplan  \u2014  http:\/\/en.wikipedia.org.\/wiki\/Lizzy_Caplan\n4915. Aaron Carter  \u2014  http:\/\/en.wikipedia.org.\/wiki\/Aaron_Carter\n4916. Hades  \u2014  http:\/\/en.wikipedia.org.\/wiki\/Hades\n4917. Slender Man  \u2014  http:\/\/en.wikipedia.org.\/wiki\/Slender_Man\n4918. Megalodon  \u2014  http:\/\/en.wikipedia.org.\/wiki\/Megalodon\n4919. German Shepherd  \u2014  http:\/\/en.wikipedia.org.\/wiki\/German_Shepherd\n4920. SAT  \u2014  http:\/\/en.wikipedia.org.\/wiki\/SAT\n4921. Adobe Systems  \u2014  http:\/\/en.wikipedia.org.\/wiki\/Adobe_Systems\n4922. Kim Basinger  \u2014  http:\/\/en.wikipedia.org.\/wiki\/Kim_Basinger\n4923. 19 Kids and Counting  \u2014  http:\/\/en.wikipedia.org.\/wiki\/19_Kids_and_Counting\n4924. Shashi Kapoor  \u2014  http:\/\/en.wikipedia.org.\/wiki\/Shashi_Kapoor\n4925. Frank Abagnale  \u2014  http:\/\/en.wikipedia.org.\/wiki\/Frank_Abagnale\n4926. Dungeons & Dragons  \u2014  http:\/\/en.wikipedia.org.\/wiki\/Dungeons_%26_Dragons\n4927. The Bride of Habaek  \u2014  http:\/\/en.wikipedia.org.\/wiki\/The_Bride_of_Habaek\n4928. Minneapolis  \u2014  http:\/\/en.wikipedia.org.\/wiki\/Minneapolis\n4929. French Montana  \u2014  http:\/\/en.wikipedia.org.\/wiki\/French_Montana\n4930. Languages of India  \u2014  http:\/\/en.wikipedia.org.\/wiki\/Languages_of_India\n4931. Staphylococcus aureus  \u2014  http:\/\/en.wikipedia.org.\/wiki\/Staphylococcus_aureus\n4932. Erotica  \u2014  http:\/\/en.wikipedia.org.\/wiki\/Erotica\n4933. Sigmoid function  \u2014  http:\/\/en.wikipedia.org.\/wiki\/Sigmoid_function\n4934. Russian interference in the 2016 United States elections  \u2014  http:\/\/en.wikipedia.org.\/wiki\/Russian_interference_in_the_2016_United_States_elections\n4935. Liverpool  \u2014  http:\/\/en.wikipedia.org.\/wiki\/Liverpool\n4936. Berserk (manga)  \u2014  http:\/\/en.wikipedia.org.\/wiki\/Berserk_(manga)\n4937. J. J. Abrams  \u2014  http:\/\/en.wikipedia.org.\/wiki\/J._J._Abrams\n4938. Mahira Khan  \u2014  http:\/\/en.wikipedia.org.\/wiki\/Mahira_Khan\n4939. Moab, Utah  \u2014  http:\/\/en.wikipedia.org.\/wiki\/Moab%2C_Utah\n4940. Joe Pesci  \u2014  http:\/\/en.wikipedia.org.\/wiki\/Joe_Pesci\n4941. Media type  \u2014  http:\/\/en.wikipedia.org.\/wiki\/Media_type\n4942. List of Naruto characters  \u2014  http:\/\/en.wikipedia.org.\/wiki\/List_of_Naruto_characters\n4943. Thomas Paine  \u2014  http:\/\/en.wikipedia.org.\/wiki\/Thomas_Paine\n4944. Service-oriented architecture  \u2014  http:\/\/en.wikipedia.org.\/wiki\/Service-oriented_architecture\n4945. Anthrax  \u2014  http:\/\/en.wikipedia.org.\/wiki\/Anthrax\n4946. Conway's Game of Life  \u2014  http:\/\/en.wikipedia.org.\/wiki\/Conway's_Game_of_Life\n4947. Kareena Kapoor  \u2014  http:\/\/en.wikipedia.org.\/wiki\/Kareena_Kapoor\n4948. Ramones  \u2014  http:\/\/en.wikipedia.org.\/wiki\/Ramones\n4949. James Harden  \u2014  http:\/\/en.wikipedia.org.\/wiki\/James_Harden\n4950. Fermi paradox  \u2014  http:\/\/en.wikipedia.org.\/wiki\/Fermi_paradox\n4951. Sam Worthington  \u2014  http:\/\/en.wikipedia.org.\/wiki\/Sam_Worthington\n4952. Ottawa Citizen  \u2014  http:\/\/en.wikipedia.org.\/wiki\/Ottawa_Citizen\n4953. Before I Fall (film)  \u2014  http:\/\/en.wikipedia.org.\/wiki\/Before_I_Fall_(film)\n4954. Trailer Park Boys  \u2014  http:\/\/en.wikipedia.org.\/wiki\/Trailer_Park_Boys\n4955. JPEG  \u2014  http:\/\/en.wikipedia.org.\/wiki\/JPEG\n4956. Red Velvet (band)  \u2014  http:\/\/en.wikipedia.org.\/wiki\/Red_Velvet_(band)\n4957. Zambia  \u2014  http:\/\/en.wikipedia.org.\/wiki\/Zambia\n4958. Modafinil  \u2014  http:\/\/en.wikipedia.org.\/wiki\/Modafinil\n4959. Harry Potter and the Philosopher's Stone  \u2014  http:\/\/en.wikipedia.org.\/wiki\/Harry_Potter_and_the_Philosopher's_Stone\n4960. Jallikattu  \u2014  http:\/\/en.wikipedia.org.\/wiki\/Jallikattu\n4961. Her (film)  \u2014  http:\/\/en.wikipedia.org.\/wiki\/Her_(film)\n4962. Piaget's theory of cognitive development  \u2014  http:\/\/en.wikipedia.org.\/wiki\/Piaget's_theory_of_cognitive_development\n4963. World of A Song of Ice and Fire  \u2014  http:\/\/en.wikipedia.org.\/wiki\/World_of_A_Song_of_Ice_and_Fire\n4964. Adobe Flash  \u2014  http:\/\/en.wikipedia.org.\/wiki\/Adobe_Flash\n4965. Gilbert du Motier, Marquis de Lafayette  \u2014  http:\/\/en.wikipedia.org.\/wiki\/Gilbert_du_Motier%2C_Marquis_de_Lafayette\n4966. Emotional intelligence  \u2014  http:\/\/en.wikipedia.org.\/wiki\/Emotional_intelligence\n4967. M\u0101ori people  \u2014  http:\/\/en.wikipedia.org.\/wiki\/M%C4%81ori_people\n4968. Elijah Wood  \u2014  http:\/\/en.wikipedia.org.\/wiki\/Elijah_Wood\n4969. 2017 Wimbledon Championships  \u2014  http:\/\/en.wikipedia.org.\/wiki\/2017_Wimbledon_Championships\n4970. Agoraphobia  \u2014  http:\/\/en.wikipedia.org.\/wiki\/Agoraphobia\n4971. Khlo\u00E9 Kardashian  \u2014  http:\/\/en.wikipedia.org.\/wiki\/Khlo%C3%A9_Kardashian\n4972. Wilmer Valderrama  \u2014  http:\/\/en.wikipedia.org.\/wiki\/Wilmer_Valderrama\n4973. Mukesh Ambani  \u2014  http:\/\/en.wikipedia.org.\/wiki\/Mukesh_Ambani\n4974. Octavia Spencer  \u2014  http:\/\/en.wikipedia.org.\/wiki\/Octavia_Spencer\n4975. Atlanta Falcons  \u2014  http:\/\/en.wikipedia.org.\/wiki\/Atlanta_Falcons\n4976. Bridge of Spies (film)  \u2014  http:\/\/en.wikipedia.org.\/wiki\/Bridge_of_Spies_(film)\n4977. John Cusack  \u2014  http:\/\/en.wikipedia.org.\/wiki\/John_Cusack\n4978. House of Habsburg  \u2014  http:\/\/en.wikipedia.org.\/wiki\/House_of_Habsburg\n4979. Roseanne  \u2014  http:\/\/en.wikipedia.org.\/wiki\/Roseanne\n4980. Special Forces (United States Army)  \u2014  http:\/\/en.wikipedia.org.\/wiki\/Special_Forces_(United_States_Army)\n4981. Risk management  \u2014  http:\/\/en.wikipedia.org.\/wiki\/Risk_management\n4982. 21st Century Fox  \u2014  http:\/\/en.wikipedia.org.\/wiki\/21st_Century_Fox\n4983. List of Naruto episodes  \u2014  http:\/\/en.wikipedia.org.\/wiki\/List_of_Naruto_episodes\n4984. Djibouti  \u2014  http:\/\/en.wikipedia.org.\/wiki\/Djibouti\n4985. Cayman Islands  \u2014  http:\/\/en.wikipedia.org.\/wiki\/Cayman_Islands\n4986. Master's degree  \u2014  http:\/\/en.wikipedia.org.\/wiki\/Master's_degree\n4987. HTTP 302  \u2014  http:\/\/en.wikipedia.org.\/wiki\/HTTP_302\n4988. List of Keeping Up with the Kardashians episodes  \u2014  http:\/\/en.wikipedia.org.\/wiki\/List_of_Keeping_Up_with_the_Kardashians_episodes\n4989. New World Order (conspiracy theory)  \u2014  http:\/\/en.wikipedia.org.\/wiki\/New_World_Order_(conspiracy_theory)\n4990. Trademark  \u2014  http:\/\/en.wikipedia.org.\/wiki\/Trademark\n4991. Suez Canal  \u2014  http:\/\/en.wikipedia.org.\/wiki\/Suez_Canal\n4992. Iran\u2013Contra affair  \u2014  http:\/\/en.wikipedia.org.\/wiki\/Iran%E2%80%93Contra_affair\n4993. Audioslave  \u2014  http:\/\/en.wikipedia.org.\/wiki\/Audioslave\n4994. Content management system  \u2014  http:\/\/en.wikipedia.org.\/wiki\/Content_management_system\n4995. Kawhi Leonard  \u2014  http:\/\/en.wikipedia.org.\/wiki\/Kawhi_Leonard\n4996. Internet meme  \u2014  http:\/\/en.wikipedia.org.\/wiki\/Internet_meme\n4997. Ricky Martin  \u2014  http:\/\/en.wikipedia.org.\/wiki\/Ricky_Martin\n4998. IPhone 6  \u2014  http:\/\/en.wikipedia.org.\/wiki\/IPhone_6\n4999. Jaws (film)  \u2014  http:\/\/en.wikipedia.org.\/wiki\/Jaws_(film)\n","miniList":"4900. Rabbit\n4901. Boris Johnson\n4902. Louvre\n4903. Gender\n4904. Firefly (TV series)\n4905. James Brown\n4906. Vichy France\n4907. Attila\n4908. Full Metal Jacket\n4909. Hayley Williams\n4910. Disha Patani\n4911. Arthropod\n4912. Kalman filter\n4913. Edward III of England\n4914. Lizzy Caplan\n4915. Aaron Carter\n4916. Hades\n4917. Slender Man\n4918. Megalodon\n4919. German Shepherd\n4920. SAT\n4921. Adobe Systems\n4922. Kim Basinger\n4923. 19 Kids and Counting\n4924. Shashi Kapoor\n4925. Frank Abagnale\n4926. Dungeons & Dragons\n4927. The Bride of Habaek\n4928. Minneapolis\n4929. French Montana\n4930. Languages of India\n4931. Staphylococcus aureus\n4932. Erotica\n4933. Sigmoid function\n4934. Russian interference in the 2016 United States elections\n4935. Liverpool\n4936. Berserk (manga)\n4937. J. J. Abrams\n4938. Mahira Khan\n4939. Moab, Utah\n4940. Joe Pesci\n4941. Media type\n4942. List of Naruto characters\n4943. Thomas Paine\n4944. Service-oriented architecture\n4945. Anthrax\n4946. Conway's Game of Life\n4947. Kareena Kapoor\n4948. Ramones\n4949. James Harden\n4950. Fermi paradox\n4951. Sam Worthington\n4952. Ottawa Citizen\n4953. Before I Fall (film)\n4954. Trailer Park Boys\n4955. JPEG\n4956. Red Velvet (band)\n4957. Zambia\n4958. Modafinil\n4959. Harry Potter and the Philosopher's Stone\n4960. Jallikattu\n4961. Her (film)\n4962. Piaget's theory of cognitive development\n4963. World of A Song of Ice and Fire\n4964. Adobe Flash\n4965. Gilbert du Motier, Marquis de Lafayette\n4966. Emotional intelligence\n4967. M\u0101ori people\n4968. Elijah Wood\n4969. 2017 Wimbledon Championships\n4970. Agoraphobia\n4971. Khlo\u00E9 Kardashian\n4972. Wilmer Valderrama\n4973. Mukesh Ambani\n4974. Octavia Spencer\n4975. Atlanta Falcons\n4976. Bridge of Spies (film)\n4977. John Cusack\n4978. House of Habsburg\n4979. Roseanne\n4980. Special Forces (United States Army)\n4981. Risk management\n4982. 21st Century Fox\n4983. List of Naruto episodes\n4984. Djibouti\n4985. Cayman Islands\n4986. Master's degree\n4987. HTTP 302\n4988. List of Keeping Up with the Kardashians episodes\n4989. New World Order (conspiracy theory)\n4990. Trademark\n4991. Suez Canal\n4992. Iran\u2013Contra affair\n4993. Audioslave\n4994. Content management system\n4995. Kawhi Leonard\n4996. Internet meme\n4997. Ricky Martin\n4998. IPhone 6\n4999. Jaws (film)\n"}
