{"start":501,"end":600,"count":5616717,"type":"pageviews","pageSize":100,"page":5,"pages":56168,"columns":[{"label":"","property":"pageviews","sortable":false}],"items":[{"pageviews":"500. <a target=\"_blank\" href=\"http://en.wikipedia.org./wiki/Academy_Awards\">Academy Awards</a>"},{"pageviews":"501. <a target=\"_blank\" href=\"http://en.wikipedia.org./wiki/Sia_(musician)\">Sia (musician)</a>"},{"pageviews":"502. <a target=\"_blank\" href=\"http://en.wikipedia.org./wiki/Theodore_Roosevelt\">Theodore Roosevelt</a>"},{"pageviews":"503. <a target=\"_blank\" href=\"http://en.wikipedia.org./wiki/2017_Atlantic_hurricane_season\">2017 Atlantic hurricane season</a>"},{"pageviews":"504. <a target=\"_blank\" href=\"http://en.wikipedia.org./wiki/Jacqueline_Kennedy_Onassis\">Jacqueline Kennedy Onassis</a>"},{"pageviews":"505. <a target=\"_blank\" href=\"http://en.wikipedia.org./wiki/Baywatch_(film)\">Baywatch (film)</a>"},{"pageviews":"506. <a target=\"_blank\" href=\"http://en.wikipedia.org./wiki/McDonald's\">McDonald's</a>"},{"pageviews":"507. <a target=\"_blank\" href=\"http://en.wikipedia.org./wiki/Thailand\">Thailand</a>"},{"pageviews":"508. <a target=\"_blank\" href=\"http://en.wikipedia.org./wiki/Chris_Pratt\">Chris Pratt</a>"},{"pageviews":"509. <a target=\"_blank\" href=\"http://en.wikipedia.org./wiki/AC/DC\">AC/DC</a>"},{"pageviews":"510. <a target=\"_blank\" href=\"http://en.wikipedia.org./wiki/Meryl_Streep\">Meryl Streep</a>"},{"pageviews":"511. <a target=\"_blank\" href=\"http://en.wikipedia.org./wiki/Marilyn_Monroe\">Marilyn Monroe</a>"},{"pageviews":"512. <a target=\"_blank\" href=\"http://en.wikipedia.org./wiki/Atomic_bombings_of_Hiroshima_and_Nagasaki\">Atomic bombings of Hiroshima and Nagasaki</a>"},{"pageviews":"513. <a target=\"_blank\" href=\"http://en.wikipedia.org./wiki/Agile_software_development\">Agile software development</a>"},{"pageviews":"514. <a target=\"_blank\" href=\"http://en.wikipedia.org./wiki/Wonders_of_the_World\">Wonders of the World</a>"},{"pageviews":"515. <a target=\"_blank\" href=\"http://en.wikipedia.org./wiki/NATO\">NATO</a>"},{"pageviews":"516. <a target=\"_blank\" href=\"http://en.wikipedia.org./wiki/Adele\">Adele</a>"},{"pageviews":"517. <a target=\"_blank\" href=\"http://en.wikipedia.org./wiki/Watergate_scandal\">Watergate scandal</a>"},{"pageviews":"518. <a target=\"_blank\" href=\"http://en.wikipedia.org./wiki/Jim_Carrey\">Jim Carrey</a>"},{"pageviews":"519. <a target=\"_blank\" href=\"http://en.wikipedia.org./wiki/Floyd_Mayweather_Jr._vs._Conor_McGregor\">Floyd Mayweather Jr. vs. Conor McGregor</a>"},{"pageviews":"520. <a target=\"_blank\" href=\"http://en.wikipedia.org./wiki/2018_FIFA_World_Cup_qualification_(UEFA)\">2018 FIFA World Cup qualification (UEFA)</a>"},{"pageviews":"521. <a target=\"_blank\" href=\"http://en.wikipedia.org./wiki/Mike_Pence\">Mike Pence</a>"},{"pageviews":"522. <a target=\"_blank\" href=\"http://en.wikipedia.org./wiki/James_Comey\">James Comey</a>"},{"pageviews":"523. <a target=\"_blank\" href=\"http://en.wikipedia.org./wiki/Julius_Caesar\">Julius Caesar</a>"},{"pageviews":"524. <a target=\"_blank\" href=\"http://en.wikipedia.org./wiki/Mike_Tyson\">Mike Tyson</a>"},{"pageviews":"525. <a target=\"_blank\" href=\"http://en.wikipedia.org./wiki/Computer\">Computer</a>"},{"pageviews":"526. <a target=\"_blank\" href=\"http://en.wikipedia.org./wiki/Robert_E._Lee\">Robert E. Lee</a>"},{"pageviews":"527. <a target=\"_blank\" href=\"http://en.wikipedia.org./wiki/ISO_8601\">ISO 8601</a>"},{"pageviews":"528. <a target=\"_blank\" href=\"http://en.wikipedia.org./wiki/List_of_Star_Wars_Rebels_episodes\">List of Star Wars Rebels episodes</a>"},{"pageviews":"529. <a target=\"_blank\" href=\"http://en.wikipedia.org./wiki/Silicon_Valley_(TV_series)\">Silicon Valley (TV series)</a>"},{"pageviews":"530. <a target=\"_blank\" href=\"http://en.wikipedia.org./wiki/Prison_Break\">Prison Break</a>"},{"pageviews":"531. <a target=\"_blank\" href=\"http://en.wikipedia.org./wiki/Camila_Cabello\">Camila Cabello</a>"},{"pageviews":"532. <a target=\"_blank\" href=\"http://en.wikipedia.org./wiki/Denmark\">Denmark</a>"},{"pageviews":"533. <a target=\"_blank\" href=\"http://en.wikipedia.org./wiki/Egypt\">Egypt</a>"},{"pageviews":"534. <a target=\"_blank\" href=\"http://en.wikipedia.org./wiki/Logic_(musician)\">Logic (musician)</a>"},{"pageviews":"535. <a target=\"_blank\" href=\"http://en.wikipedia.org./wiki/List_of_countries_by_GDP_(PPP)_per_capita\">List of countries by GDP (PPP) per capita</a>"},{"pageviews":"536. <a target=\"_blank\" href=\"http://en.wikipedia.org./wiki/Once_Upon_a_Time_(TV_series)\">Once Upon a Time (TV series)</a>"},{"pageviews":"537. <a target=\"_blank\" href=\"http://en.wikipedia.org./wiki/Robin_Williams\">Robin Williams</a>"},{"pageviews":"538. <a target=\"_blank\" href=\"http://en.wikipedia.org./wiki/The_Dark_Tower_(2017_film)\">The Dark Tower (2017 film)</a>"},{"pageviews":"539. <a target=\"_blank\" href=\"http://en.wikipedia.org./wiki/XHTVM-TDT\">XHTVM-TDT</a>"},{"pageviews":"540. <a target=\"_blank\" href=\"http://en.wikipedia.org./wiki/Life_insurance\">Life insurance</a>"},{"pageviews":"541. <a target=\"_blank\" href=\"http://en.wikipedia.org./wiki/List_of_Better_Call_Saul_episodes\">List of Better Call Saul episodes</a>"},{"pageviews":"542. <a target=\"_blank\" href=\"http://en.wikipedia.org./wiki/The_Great_Wall_(film)\">The Great Wall (film)</a>"},{"pageviews":"543. <a target=\"_blank\" href=\"http://en.wikipedia.org./wiki/The_Three_Musketeers\">The Three Musketeers</a>"},{"pageviews":"544. <a target=\"_blank\" href=\"http://en.wikipedia.org./wiki/Madonna_(entertainer)\">Madonna (entertainer)</a>"},{"pageviews":"545. <a target=\"_blank\" href=\"http://en.wikipedia.org./wiki/John_Wick\">John Wick</a>"},{"pageviews":"546. <a target=\"_blank\" href=\"http://en.wikipedia.org./wiki/Malta\">Malta</a>"},{"pageviews":"547. <a target=\"_blank\" href=\"http://en.wikipedia.org./wiki/Rothschild_family\">Rothschild family</a>"},{"pageviews":"548. <a target=\"_blank\" href=\"http://en.wikipedia.org./wiki/Thomas_Jefferson\">Thomas Jefferson</a>"},{"pageviews":"549. <a target=\"_blank\" href=\"http://en.wikipedia.org./wiki/Clint_Eastwood\">Clint Eastwood</a>"},{"pageviews":"550. <a target=\"_blank\" href=\"http://en.wikipedia.org./wiki/Shakira\">Shakira</a>"},{"pageviews":"551. <a target=\"_blank\" href=\"http://en.wikipedia.org./wiki/Guardians_of_the_Galaxy_(film)\">Guardians of the Galaxy (film)</a>"},{"pageviews":"552. <a target=\"_blank\" href=\"http://en.wikipedia.org./wiki/Bob_Dylan\">Bob Dylan</a>"},{"pageviews":"553. <a target=\"_blank\" href=\"http://en.wikipedia.org./wiki/Twitter\">Twitter</a>"},{"pageviews":"554. <a target=\"_blank\" href=\"http://en.wikipedia.org./wiki/Niue\">Niue</a>"},{"pageviews":"555. <a target=\"_blank\" href=\"http://en.wikipedia.org./wiki/Frank_Sinatra\">Frank Sinatra</a>"},{"pageviews":"556. <a target=\"_blank\" href=\"http://en.wikipedia.org./wiki/Nineteen_Eighty-Four\">Nineteen Eighty-Four</a>"},{"pageviews":"557. <a target=\"_blank\" href=\"http://en.wikipedia.org./wiki/Satoshi_Nakamoto\">Satoshi Nakamoto</a>"},{"pageviews":"558. <a target=\"_blank\" href=\"http://en.wikipedia.org./wiki/List_of_Family_Guy_episodes\">List of Family Guy episodes</a>"},{"pageviews":"559. <a target=\"_blank\" href=\"http://en.wikipedia.org./wiki/List_of_Super_Bowl_champions\">List of Super Bowl champions</a>"},{"pageviews":"560. <a target=\"_blank\" href=\"http://en.wikipedia.org./wiki/Instagram\">Instagram</a>"},{"pageviews":"561. <a target=\"_blank\" href=\"http://en.wikipedia.org./wiki/Buddhism\">Buddhism</a>"},{"pageviews":"562. <a target=\"_blank\" href=\"http://en.wikipedia.org./wiki/Miley_Cyrus\">Miley Cyrus</a>"},{"pageviews":"563. <a target=\"_blank\" href=\"http://en.wikipedia.org./wiki/Inhumans_(TV_series)\">Inhumans (TV series)</a>"},{"pageviews":"564. <a target=\"_blank\" href=\"http://en.wikipedia.org./wiki/2017_Las_Vegas_shooting\">2017 Las Vegas shooting</a>"},{"pageviews":"565. <a target=\"_blank\" href=\"http://en.wikipedia.org./wiki/Halloween\">Halloween</a>"},{"pageviews":"566. <a target=\"_blank\" href=\"http://en.wikipedia.org./wiki/Johnny_Cash\">Johnny Cash</a>"},{"pageviews":"567. <a target=\"_blank\" href=\"http://en.wikipedia.org./wiki/Catholic_Church\">Catholic Church</a>"},{"pageviews":"568. <a target=\"_blank\" href=\"http://en.wikipedia.org./wiki/Jeff_Sessions\">Jeff Sessions</a>"},{"pageviews":"569. <a target=\"_blank\" href=\"http://en.wikipedia.org./wiki/Black_Death\">Black Death</a>"},{"pageviews":"570. <a target=\"_blank\" href=\"http://en.wikipedia.org./wiki/Supernatural_(U.S._TV_series)\">Supernatural (U.S. TV series)</a>"},{"pageviews":"571. <a target=\"_blank\" href=\"http://en.wikipedia.org./wiki/USB\">USB</a>"},{"pageviews":"572. <a target=\"_blank\" href=\"http://en.wikipedia.org./wiki/Tesla%2C_Inc.\">Tesla, Inc.</a>"},{"pageviews":"573. <a target=\"_blank\" href=\"http://en.wikipedia.org./wiki/Horizon_Zero_Dawn\">Horizon Zero Dawn</a>"},{"pageviews":"574. <a target=\"_blank\" href=\"http://en.wikipedia.org./wiki/Roman_Empire\">Roman Empire</a>"},{"pageviews":"575. <a target=\"_blank\" href=\"http://en.wikipedia.org./wiki/Kim_Kardashian\">Kim Kardashian</a>"},{"pageviews":"576. <a target=\"_blank\" href=\"http://en.wikipedia.org./wiki/The_Orville\">The Orville</a>"},{"pageviews":"577. <a target=\"_blank\" href=\"http://en.wikipedia.org./wiki/List_of_Knowing_Bros_episodes\">List of Knowing Bros episodes</a>"},{"pageviews":"578. <a target=\"_blank\" href=\"http://en.wikipedia.org./wiki/Arsenal_F.C.\">Arsenal F.C.</a>"},{"pageviews":"579. <a target=\"_blank\" href=\"http://en.wikipedia.org./wiki/O._J._Simpson_murder_case\">O. J. Simpson murder case</a>"},{"pageviews":"580. <a target=\"_blank\" href=\"http://en.wikipedia.org./wiki/Mariah_Carey\">Mariah Carey</a>"},{"pageviews":"581. <a target=\"_blank\" href=\"http://en.wikipedia.org./wiki/Ireland\">Ireland</a>"},{"pageviews":"582. <a target=\"_blank\" href=\"http://en.wikipedia.org./wiki/Ten_Commandments\">Ten Commandments</a>"},{"pageviews":"583. <a target=\"_blank\" href=\"http://en.wikipedia.org./wiki/Deadpool_(film)\">Deadpool (film)</a>"},{"pageviews":"584. <a target=\"_blank\" href=\"http://en.wikipedia.org./wiki/Demi_Lovato\">Demi Lovato</a>"},{"pageviews":"585. <a target=\"_blank\" href=\"http://en.wikipedia.org./wiki/Christopher_Nolan\">Christopher Nolan</a>"},{"pageviews":"586. <a target=\"_blank\" href=\"http://en.wikipedia.org./wiki/Zlatan_Ibrahimovi%C4%87\">Zlatan Ibrahimović</a>"},{"pageviews":"587. <a target=\"_blank\" href=\"http://en.wikipedia.org./wiki/Microsoft\">Microsoft</a>"},{"pageviews":"588. <a target=\"_blank\" href=\"http://en.wikipedia.org./wiki/Will_Smith\">Will Smith</a>"},{"pageviews":"589. <a target=\"_blank\" href=\"http://en.wikipedia.org./wiki/Prince_(musician)\">Prince (musician)</a>"},{"pageviews":"590. <a target=\"_blank\" href=\"http://en.wikipedia.org./wiki/Solar_System\">Solar System</a>"},{"pageviews":"591. <a target=\"_blank\" href=\"http://en.wikipedia.org./wiki/James_Franco\">James Franco</a>"},{"pageviews":"592. <a target=\"_blank\" href=\"http://en.wikipedia.org./wiki/Ryan_Reynolds\">Ryan Reynolds</a>"},{"pageviews":"593. <a target=\"_blank\" href=\"http://en.wikipedia.org./wiki/URL\">URL</a>"},{"pageviews":"594. <a target=\"_blank\" href=\"http://en.wikipedia.org./wiki/Dwight_D._Eisenhower\">Dwight D. Eisenhower</a>"},{"pageviews":"595. <a target=\"_blank\" href=\"http://en.wikipedia.org./wiki/Sri_Lanka\">Sri Lanka</a>"},{"pageviews":"596. <a target=\"_blank\" href=\"http://en.wikipedia.org./wiki/Vin_Diesel\">Vin Diesel</a>"},{"pageviews":"597. <a target=\"_blank\" href=\"http://en.wikipedia.org./wiki/Cardi_B\">Cardi B</a>"},{"pageviews":"598. <a target=\"_blank\" href=\"http://en.wikipedia.org./wiki/Cryptocurrency\">Cryptocurrency</a>"},{"pageviews":"599. <a target=\"_blank\" href=\"http://en.wikipedia.org./wiki/The_Office_(U.S._TV_series)\">The Office (U.S. TV series)</a>"}],"list":"500. Academy Awards  \u2014  http:\/\/en.wikipedia.org.\/wiki\/Academy_Awards\n501. Sia (musician)  \u2014  http:\/\/en.wikipedia.org.\/wiki\/Sia_(musician)\n502. Theodore Roosevelt  \u2014  http:\/\/en.wikipedia.org.\/wiki\/Theodore_Roosevelt\n503. 2017 Atlantic hurricane season  \u2014  http:\/\/en.wikipedia.org.\/wiki\/2017_Atlantic_hurricane_season\n504. Jacqueline Kennedy Onassis  \u2014  http:\/\/en.wikipedia.org.\/wiki\/Jacqueline_Kennedy_Onassis\n505. Baywatch (film)  \u2014  http:\/\/en.wikipedia.org.\/wiki\/Baywatch_(film)\n506. McDonald's  \u2014  http:\/\/en.wikipedia.org.\/wiki\/McDonald's\n507. Thailand  \u2014  http:\/\/en.wikipedia.org.\/wiki\/Thailand\n508. Chris Pratt  \u2014  http:\/\/en.wikipedia.org.\/wiki\/Chris_Pratt\n509. AC\/DC  \u2014  http:\/\/en.wikipedia.org.\/wiki\/AC\/DC\n510. Meryl Streep  \u2014  http:\/\/en.wikipedia.org.\/wiki\/Meryl_Streep\n511. Marilyn Monroe  \u2014  http:\/\/en.wikipedia.org.\/wiki\/Marilyn_Monroe\n512. Atomic bombings of Hiroshima and Nagasaki  \u2014  http:\/\/en.wikipedia.org.\/wiki\/Atomic_bombings_of_Hiroshima_and_Nagasaki\n513. Agile software development  \u2014  http:\/\/en.wikipedia.org.\/wiki\/Agile_software_development\n514. Wonders of the World  \u2014  http:\/\/en.wikipedia.org.\/wiki\/Wonders_of_the_World\n515. NATO  \u2014  http:\/\/en.wikipedia.org.\/wiki\/NATO\n516. Adele  \u2014  http:\/\/en.wikipedia.org.\/wiki\/Adele\n517. Watergate scandal  \u2014  http:\/\/en.wikipedia.org.\/wiki\/Watergate_scandal\n518. Jim Carrey  \u2014  http:\/\/en.wikipedia.org.\/wiki\/Jim_Carrey\n519. Floyd Mayweather Jr. vs. Conor McGregor  \u2014  http:\/\/en.wikipedia.org.\/wiki\/Floyd_Mayweather_Jr._vs._Conor_McGregor\n520. 2018 FIFA World Cup qualification (UEFA)  \u2014  http:\/\/en.wikipedia.org.\/wiki\/2018_FIFA_World_Cup_qualification_(UEFA)\n521. Mike Pence  \u2014  http:\/\/en.wikipedia.org.\/wiki\/Mike_Pence\n522. James Comey  \u2014  http:\/\/en.wikipedia.org.\/wiki\/James_Comey\n523. Julius Caesar  \u2014  http:\/\/en.wikipedia.org.\/wiki\/Julius_Caesar\n524. Mike Tyson  \u2014  http:\/\/en.wikipedia.org.\/wiki\/Mike_Tyson\n525. Computer  \u2014  http:\/\/en.wikipedia.org.\/wiki\/Computer\n526. Robert E. Lee  \u2014  http:\/\/en.wikipedia.org.\/wiki\/Robert_E._Lee\n527. ISO 8601  \u2014  http:\/\/en.wikipedia.org.\/wiki\/ISO_8601\n528. List of Star Wars Rebels episodes  \u2014  http:\/\/en.wikipedia.org.\/wiki\/List_of_Star_Wars_Rebels_episodes\n529. Silicon Valley (TV series)  \u2014  http:\/\/en.wikipedia.org.\/wiki\/Silicon_Valley_(TV_series)\n530. Prison Break  \u2014  http:\/\/en.wikipedia.org.\/wiki\/Prison_Break\n531. Camila Cabello  \u2014  http:\/\/en.wikipedia.org.\/wiki\/Camila_Cabello\n532. Denmark  \u2014  http:\/\/en.wikipedia.org.\/wiki\/Denmark\n533. Egypt  \u2014  http:\/\/en.wikipedia.org.\/wiki\/Egypt\n534. Logic (musician)  \u2014  http:\/\/en.wikipedia.org.\/wiki\/Logic_(musician)\n535. List of countries by GDP (PPP) per capita  \u2014  http:\/\/en.wikipedia.org.\/wiki\/List_of_countries_by_GDP_(PPP)_per_capita\n536. Once Upon a Time (TV series)  \u2014  http:\/\/en.wikipedia.org.\/wiki\/Once_Upon_a_Time_(TV_series)\n537. Robin Williams  \u2014  http:\/\/en.wikipedia.org.\/wiki\/Robin_Williams\n538. The Dark Tower (2017 film)  \u2014  http:\/\/en.wikipedia.org.\/wiki\/The_Dark_Tower_(2017_film)\n539. XHTVM-TDT  \u2014  http:\/\/en.wikipedia.org.\/wiki\/XHTVM-TDT\n540. Life insurance  \u2014  http:\/\/en.wikipedia.org.\/wiki\/Life_insurance\n541. List of Better Call Saul episodes  \u2014  http:\/\/en.wikipedia.org.\/wiki\/List_of_Better_Call_Saul_episodes\n542. The Great Wall (film)  \u2014  http:\/\/en.wikipedia.org.\/wiki\/The_Great_Wall_(film)\n543. The Three Musketeers  \u2014  http:\/\/en.wikipedia.org.\/wiki\/The_Three_Musketeers\n544. Madonna (entertainer)  \u2014  http:\/\/en.wikipedia.org.\/wiki\/Madonna_(entertainer)\n545. John Wick  \u2014  http:\/\/en.wikipedia.org.\/wiki\/John_Wick\n546. Malta  \u2014  http:\/\/en.wikipedia.org.\/wiki\/Malta\n547. Rothschild family  \u2014  http:\/\/en.wikipedia.org.\/wiki\/Rothschild_family\n548. Thomas Jefferson  \u2014  http:\/\/en.wikipedia.org.\/wiki\/Thomas_Jefferson\n549. Clint Eastwood  \u2014  http:\/\/en.wikipedia.org.\/wiki\/Clint_Eastwood\n550. Shakira  \u2014  http:\/\/en.wikipedia.org.\/wiki\/Shakira\n551. Guardians of the Galaxy (film)  \u2014  http:\/\/en.wikipedia.org.\/wiki\/Guardians_of_the_Galaxy_(film)\n552. Bob Dylan  \u2014  http:\/\/en.wikipedia.org.\/wiki\/Bob_Dylan\n553. Twitter  \u2014  http:\/\/en.wikipedia.org.\/wiki\/Twitter\n554. Niue  \u2014  http:\/\/en.wikipedia.org.\/wiki\/Niue\n555. Frank Sinatra  \u2014  http:\/\/en.wikipedia.org.\/wiki\/Frank_Sinatra\n556. Nineteen Eighty-Four  \u2014  http:\/\/en.wikipedia.org.\/wiki\/Nineteen_Eighty-Four\n557. Satoshi Nakamoto  \u2014  http:\/\/en.wikipedia.org.\/wiki\/Satoshi_Nakamoto\n558. List of Family Guy episodes  \u2014  http:\/\/en.wikipedia.org.\/wiki\/List_of_Family_Guy_episodes\n559. List of Super Bowl champions  \u2014  http:\/\/en.wikipedia.org.\/wiki\/List_of_Super_Bowl_champions\n560. Instagram  \u2014  http:\/\/en.wikipedia.org.\/wiki\/Instagram\n561. Buddhism  \u2014  http:\/\/en.wikipedia.org.\/wiki\/Buddhism\n562. Miley Cyrus  \u2014  http:\/\/en.wikipedia.org.\/wiki\/Miley_Cyrus\n563. Inhumans (TV series)  \u2014  http:\/\/en.wikipedia.org.\/wiki\/Inhumans_(TV_series)\n564. 2017 Las Vegas shooting  \u2014  http:\/\/en.wikipedia.org.\/wiki\/2017_Las_Vegas_shooting\n565. Halloween  \u2014  http:\/\/en.wikipedia.org.\/wiki\/Halloween\n566. Johnny Cash  \u2014  http:\/\/en.wikipedia.org.\/wiki\/Johnny_Cash\n567. Catholic Church  \u2014  http:\/\/en.wikipedia.org.\/wiki\/Catholic_Church\n568. Jeff Sessions  \u2014  http:\/\/en.wikipedia.org.\/wiki\/Jeff_Sessions\n569. Black Death  \u2014  http:\/\/en.wikipedia.org.\/wiki\/Black_Death\n570. Supernatural (U.S. TV series)  \u2014  http:\/\/en.wikipedia.org.\/wiki\/Supernatural_(U.S._TV_series)\n571. USB  \u2014  http:\/\/en.wikipedia.org.\/wiki\/USB\n572. Tesla, Inc.  \u2014  http:\/\/en.wikipedia.org.\/wiki\/Tesla%2C_Inc.\n573. Horizon Zero Dawn  \u2014  http:\/\/en.wikipedia.org.\/wiki\/Horizon_Zero_Dawn\n574. Roman Empire  \u2014  http:\/\/en.wikipedia.org.\/wiki\/Roman_Empire\n575. Kim Kardashian  \u2014  http:\/\/en.wikipedia.org.\/wiki\/Kim_Kardashian\n576. The Orville  \u2014  http:\/\/en.wikipedia.org.\/wiki\/The_Orville\n577. List of Knowing Bros episodes  \u2014  http:\/\/en.wikipedia.org.\/wiki\/List_of_Knowing_Bros_episodes\n578. Arsenal F.C.  \u2014  http:\/\/en.wikipedia.org.\/wiki\/Arsenal_F.C.\n579. O. J. Simpson murder case  \u2014  http:\/\/en.wikipedia.org.\/wiki\/O._J._Simpson_murder_case\n580. Mariah Carey  \u2014  http:\/\/en.wikipedia.org.\/wiki\/Mariah_Carey\n581. Ireland  \u2014  http:\/\/en.wikipedia.org.\/wiki\/Ireland\n582. Ten Commandments  \u2014  http:\/\/en.wikipedia.org.\/wiki\/Ten_Commandments\n583. Deadpool (film)  \u2014  http:\/\/en.wikipedia.org.\/wiki\/Deadpool_(film)\n584. Demi Lovato  \u2014  http:\/\/en.wikipedia.org.\/wiki\/Demi_Lovato\n585. Christopher Nolan  \u2014  http:\/\/en.wikipedia.org.\/wiki\/Christopher_Nolan\n586. Zlatan Ibrahimovi\u0107  \u2014  http:\/\/en.wikipedia.org.\/wiki\/Zlatan_Ibrahimovi%C4%87\n587. Microsoft  \u2014  http:\/\/en.wikipedia.org.\/wiki\/Microsoft\n588. Will Smith  \u2014  http:\/\/en.wikipedia.org.\/wiki\/Will_Smith\n589. Prince (musician)  \u2014  http:\/\/en.wikipedia.org.\/wiki\/Prince_(musician)\n590. Solar System  \u2014  http:\/\/en.wikipedia.org.\/wiki\/Solar_System\n591. James Franco  \u2014  http:\/\/en.wikipedia.org.\/wiki\/James_Franco\n592. Ryan Reynolds  \u2014  http:\/\/en.wikipedia.org.\/wiki\/Ryan_Reynolds\n593. URL  \u2014  http:\/\/en.wikipedia.org.\/wiki\/URL\n594. Dwight D. Eisenhower  \u2014  http:\/\/en.wikipedia.org.\/wiki\/Dwight_D._Eisenhower\n595. Sri Lanka  \u2014  http:\/\/en.wikipedia.org.\/wiki\/Sri_Lanka\n596. Vin Diesel  \u2014  http:\/\/en.wikipedia.org.\/wiki\/Vin_Diesel\n597. Cardi B  \u2014  http:\/\/en.wikipedia.org.\/wiki\/Cardi_B\n598. Cryptocurrency  \u2014  http:\/\/en.wikipedia.org.\/wiki\/Cryptocurrency\n599. The Office (U.S. TV series)  \u2014  http:\/\/en.wikipedia.org.\/wiki\/The_Office_(U.S._TV_series)\n","miniList":"500. Academy Awards\n501. Sia (musician)\n502. Theodore Roosevelt\n503. 2017 Atlantic hurricane season\n504. Jacqueline Kennedy Onassis\n505. Baywatch (film)\n506. McDonald's\n507. Thailand\n508. Chris Pratt\n509. AC\/DC\n510. Meryl Streep\n511. Marilyn Monroe\n512. Atomic bombings of Hiroshima and Nagasaki\n513. Agile software development\n514. Wonders of the World\n515. NATO\n516. Adele\n517. Watergate scandal\n518. Jim Carrey\n519. Floyd Mayweather Jr. vs. Conor McGregor\n520. 2018 FIFA World Cup qualification (UEFA)\n521. Mike Pence\n522. James Comey\n523. Julius Caesar\n524. Mike Tyson\n525. Computer\n526. Robert E. Lee\n527. ISO 8601\n528. List of Star Wars Rebels episodes\n529. Silicon Valley (TV series)\n530. Prison Break\n531. Camila Cabello\n532. Denmark\n533. Egypt\n534. Logic (musician)\n535. List of countries by GDP (PPP) per capita\n536. Once Upon a Time (TV series)\n537. Robin Williams\n538. The Dark Tower (2017 film)\n539. XHTVM-TDT\n540. Life insurance\n541. List of Better Call Saul episodes\n542. The Great Wall (film)\n543. The Three Musketeers\n544. Madonna (entertainer)\n545. John Wick\n546. Malta\n547. Rothschild family\n548. Thomas Jefferson\n549. Clint Eastwood\n550. Shakira\n551. Guardians of the Galaxy (film)\n552. Bob Dylan\n553. Twitter\n554. Niue\n555. Frank Sinatra\n556. Nineteen Eighty-Four\n557. Satoshi Nakamoto\n558. List of Family Guy episodes\n559. List of Super Bowl champions\n560. Instagram\n561. Buddhism\n562. Miley Cyrus\n563. Inhumans (TV series)\n564. 2017 Las Vegas shooting\n565. Halloween\n566. Johnny Cash\n567. Catholic Church\n568. Jeff Sessions\n569. Black Death\n570. Supernatural (U.S. TV series)\n571. USB\n572. Tesla, Inc.\n573. Horizon Zero Dawn\n574. Roman Empire\n575. Kim Kardashian\n576. The Orville\n577. List of Knowing Bros episodes\n578. Arsenal F.C.\n579. O. J. Simpson murder case\n580. Mariah Carey\n581. Ireland\n582. Ten Commandments\n583. Deadpool (film)\n584. Demi Lovato\n585. Christopher Nolan\n586. Zlatan Ibrahimovi\u0107\n587. Microsoft\n588. Will Smith\n589. Prince (musician)\n590. Solar System\n591. James Franco\n592. Ryan Reynolds\n593. URL\n594. Dwight D. Eisenhower\n595. Sri Lanka\n596. Vin Diesel\n597. Cardi B\n598. Cryptocurrency\n599. The Office (U.S. TV series)\n"}
