{"start":601,"end":700,"count":5616717,"type":"pageviews","pageSize":100,"page":6,"pages":56168,"columns":[{"label":"","property":"pageviews","sortable":false}],"items":[{"pageviews":"600. <a target=\"_blank\" href=\"http://en.wikipedia.org./wiki/Reinsurance\">Reinsurance</a>"},{"pageviews":"601. <a target=\"_blank\" href=\"http://en.wikipedia.org./wiki/Kit_Harington\">Kit Harington</a>"},{"pageviews":"602. <a target=\"_blank\" href=\"http://en.wikipedia.org./wiki/List_of_United_States_insurance_companies\">List of United States insurance companies</a>"},{"pageviews":"603. <a target=\"_blank\" href=\"http://en.wikipedia.org./wiki/Angelina_Jolie\">Angelina Jolie</a>"},{"pageviews":"604. <a target=\"_blank\" href=\"http://en.wikipedia.org./wiki/Billions_(TV_series)\">Billions (TV series)</a>"},{"pageviews":"605. <a target=\"_blank\" href=\"http://en.wikipedia.org./wiki/Czech_Republic\">Czech Republic</a>"},{"pageviews":"606. <a target=\"_blank\" href=\"http://en.wikipedia.org./wiki/Dubai\">Dubai</a>"},{"pageviews":"607. <a target=\"_blank\" href=\"http://en.wikipedia.org./wiki/Vincent_van_Gogh\">Vincent van Gogh</a>"},{"pageviews":"608. <a target=\"_blank\" href=\"http://en.wikipedia.org./wiki/The_Grand_Tour_(TV_series)\">The Grand Tour (TV series)</a>"},{"pageviews":"609. <a target=\"_blank\" href=\"http://en.wikipedia.org./wiki/2016%E2%80%9317_UEFA_Champions_League\">2016–17 UEFA Champions League</a>"},{"pageviews":"610. <a target=\"_blank\" href=\"http://en.wikipedia.org./wiki/IPhone\">IPhone</a>"},{"pageviews":"611. <a target=\"_blank\" href=\"http://en.wikipedia.org./wiki/Hawaii\">Hawaii</a>"},{"pageviews":"612. <a target=\"_blank\" href=\"http://en.wikipedia.org./wiki/Raees_(film)\">Raees (film)</a>"},{"pageviews":"613. <a target=\"_blank\" href=\"http://en.wikipedia.org./wiki/Call_of_Duty\">Call of Duty</a>"},{"pageviews":"614. <a target=\"_blank\" href=\"http://en.wikipedia.org./wiki/George_Michael\">George Michael</a>"},{"pageviews":"615. <a target=\"_blank\" href=\"http://en.wikipedia.org./wiki/M2_Browning\">M2 Browning</a>"},{"pageviews":"616. <a target=\"_blank\" href=\"http://en.wikipedia.org./wiki/Lyndon_B._Johnson\">Lyndon B. Johnson</a>"},{"pageviews":"617. <a target=\"_blank\" href=\"http://en.wikipedia.org./wiki/Injustice_2\">Injustice 2</a>"},{"pageviews":"618. <a target=\"_blank\" href=\"http://en.wikipedia.org./wiki/Hurricane_Harvey\">Hurricane Harvey</a>"},{"pageviews":"619. <a target=\"_blank\" href=\"http://en.wikipedia.org./wiki/Karl_Marx\">Karl Marx</a>"},{"pageviews":"620. <a target=\"_blank\" href=\"http://en.wikipedia.org./wiki/Hillary_Clinton\">Hillary Clinton</a>"},{"pageviews":"621. <a target=\"_blank\" href=\"http://en.wikipedia.org./wiki/Serena_Williams\">Serena Williams</a>"},{"pageviews":"622. <a target=\"_blank\" href=\"http://en.wikipedia.org./wiki/List_of_Game_of_Thrones_characters\">List of Game of Thrones characters</a>"},{"pageviews":"623. <a target=\"_blank\" href=\"http://en.wikipedia.org./wiki/George_Soros\">George Soros</a>"},{"pageviews":"624. <a target=\"_blank\" href=\"http://en.wikipedia.org./wiki/Avatar_(2009_film)\">Avatar (2009 film)</a>"},{"pageviews":"625. <a target=\"_blank\" href=\"http://en.wikipedia.org./wiki/Jackie_Chan\">Jackie Chan</a>"},{"pageviews":"626. <a target=\"_blank\" href=\"http://en.wikipedia.org./wiki/J._K._Rowling\">J. K. Rowling</a>"},{"pageviews":"627. <a target=\"_blank\" href=\"http://en.wikipedia.org./wiki/Audrey_Hepburn\">Audrey Hepburn</a>"},{"pageviews":"628. <a target=\"_blank\" href=\"http://en.wikipedia.org./wiki/Star_Wars_(film)\">Star Wars (film)</a>"},{"pageviews":"629. <a target=\"_blank\" href=\"http://en.wikipedia.org./wiki/LaVar_Ball\">LaVar Ball</a>"},{"pageviews":"630. <a target=\"_blank\" href=\"http://en.wikipedia.org./wiki/The_Lord_of_the_Rings_(film_series)\">The Lord of the Rings (film series)</a>"},{"pageviews":"631. <a target=\"_blank\" href=\"http://en.wikipedia.org./wiki/Resident_Evil_(film_series)\">Resident Evil (film series)</a>"},{"pageviews":"632. <a target=\"_blank\" href=\"http://en.wikipedia.org./wiki/Edward_VII\">Edward VII</a>"},{"pageviews":"633. <a target=\"_blank\" href=\"http://en.wikipedia.org./wiki/Nicki_Minaj\">Nicki Minaj</a>"},{"pageviews":"634. <a target=\"_blank\" href=\"http://en.wikipedia.org./wiki/Harry_Styles\">Harry Styles</a>"},{"pageviews":"635. <a target=\"_blank\" href=\"http://en.wikipedia.org./wiki/Nigeria\">Nigeria</a>"},{"pageviews":"636. <a target=\"_blank\" href=\"http://en.wikipedia.org./wiki/Outlander_(TV_series)\">Outlander (TV series)</a>"},{"pageviews":"637. <a target=\"_blank\" href=\"http://en.wikipedia.org./wiki/Tom_Hanks\">Tom Hanks</a>"},{"pageviews":"638. <a target=\"_blank\" href=\"http://en.wikipedia.org./wiki/Modern_Family\">Modern Family</a>"},{"pageviews":"639. <a target=\"_blank\" href=\"http://en.wikipedia.org./wiki/Fifty_Shades_Darker_(film)\">Fifty Shades Darker (film)</a>"},{"pageviews":"640. <a target=\"_blank\" href=\"http://en.wikipedia.org./wiki/Tertiary_education\">Tertiary education</a>"},{"pageviews":"641. <a target=\"_blank\" href=\"http://en.wikipedia.org./wiki/Coco_(2017_film)\">Coco (2017 film)</a>"},{"pageviews":"642. <a target=\"_blank\" href=\"http://en.wikipedia.org./wiki/Taj_Mahal\">Taj Mahal</a>"},{"pageviews":"643. <a target=\"_blank\" href=\"http://en.wikipedia.org./wiki/Fargo_(TV_series)\">Fargo (TV series)</a>"},{"pageviews":"644. <a target=\"_blank\" href=\"http://en.wikipedia.org./wiki/Seven_deadly_sins\">Seven deadly sins</a>"},{"pageviews":"645. <a target=\"_blank\" href=\"http://en.wikipedia.org./wiki/Chicago\">Chicago</a>"},{"pageviews":"646. <a target=\"_blank\" href=\"http://en.wikipedia.org./wiki/Dunning%E2%80%93Kruger_effect\">Dunning–Kruger effect</a>"},{"pageviews":"647. <a target=\"_blank\" href=\"http://en.wikipedia.org./wiki/Dog\">Dog</a>"},{"pageviews":"648. <a target=\"_blank\" href=\"http://en.wikipedia.org./wiki/Vehicle_insurance\">Vehicle insurance</a>"},{"pageviews":"649. <a target=\"_blank\" href=\"http://en.wikipedia.org./wiki/Superman\">Superman</a>"},{"pageviews":"650. <a target=\"_blank\" href=\"http://en.wikipedia.org./wiki/Walt_Disney\">Walt Disney</a>"},{"pageviews":"651. <a target=\"_blank\" href=\"http://en.wikipedia.org./wiki/Application_programming_interface\">Application programming interface</a>"},{"pageviews":"652. <a target=\"_blank\" href=\"http://en.wikipedia.org./wiki/Prometheus_(2012_film)\">Prometheus (2012 film)</a>"},{"pageviews":"653. <a target=\"_blank\" href=\"http://en.wikipedia.org./wiki/Philosophy\">Philosophy</a>"},{"pageviews":"654. <a target=\"_blank\" href=\"http://en.wikipedia.org./wiki/List_of_South_Park_episodes\">List of South Park episodes</a>"},{"pageviews":"655. <a target=\"_blank\" href=\"http://en.wikipedia.org./wiki/Great_Wall_of_China\">Great Wall of China</a>"},{"pageviews":"656. <a target=\"_blank\" href=\"http://en.wikipedia.org./wiki/Prince_William%2C_Duke_of_Cambridge\">Prince William, Duke of Cambridge</a>"},{"pageviews":"657. <a target=\"_blank\" href=\"http://en.wikipedia.org./wiki/Friedrich_Nietzsche\">Friedrich Nietzsche</a>"},{"pageviews":"658. <a target=\"_blank\" href=\"http://en.wikipedia.org./wiki/Thomas_Edison\">Thomas Edison</a>"},{"pageviews":"659. <a target=\"_blank\" href=\"http://en.wikipedia.org./wiki/The_Simpsons\">The Simpsons</a>"},{"pageviews":"660. <a target=\"_blank\" href=\"http://en.wikipedia.org./wiki/2017_FIFA_Confederations_Cup\">2017 FIFA Confederations Cup</a>"},{"pageviews":"661. <a target=\"_blank\" href=\"http://en.wikipedia.org./wiki/Romania\">Romania</a>"},{"pageviews":"662. <a target=\"_blank\" href=\"http://en.wikipedia.org./wiki/Metallica\">Metallica</a>"},{"pageviews":"663. <a target=\"_blank\" href=\"http://en.wikipedia.org./wiki/Ernest_Hemingway\">Ernest Hemingway</a>"},{"pageviews":"664. <a target=\"_blank\" href=\"http://en.wikipedia.org./wiki/Desmond_Doss\">Desmond Doss</a>"},{"pageviews":"665. <a target=\"_blank\" href=\"http://en.wikipedia.org./wiki/Lua_Blanco\">Lua Blanco</a>"},{"pageviews":"666. <a target=\"_blank\" href=\"http://en.wikipedia.org./wiki/Gross_domestic_product\">Gross domestic product</a>"},{"pageviews":"667. <a target=\"_blank\" href=\"http://en.wikipedia.org./wiki/List_of_Attack_on_Titan_episodes\">List of Attack on Titan episodes</a>"},{"pageviews":"668. <a target=\"_blank\" href=\"http://en.wikipedia.org./wiki/The_Big_Bang_Theory_(season_10)\">The Big Bang Theory (season 10)</a>"},{"pageviews":"669. <a target=\"_blank\" href=\"http://en.wikipedia.org./wiki/List_of_countries_by_past_and_projected_GDP_(nominal)\">List of countries by past and projected GDP (nominal)</a>"},{"pageviews":"670. <a target=\"_blank\" href=\"http://en.wikipedia.org./wiki/Zayn_Malik\">Zayn Malik</a>"},{"pageviews":"671. <a target=\"_blank\" href=\"http://en.wikipedia.org./wiki/Murder_on_the_Orient_Express_(2017_film)\">Murder on the Orient Express (2017 film)</a>"},{"pageviews":"672. <a target=\"_blank\" href=\"http://en.wikipedia.org./wiki/Attack_on_Pearl_Harbor\">Attack on Pearl Harbor</a>"},{"pageviews":"673. <a target=\"_blank\" href=\"http://en.wikipedia.org./wiki/Sundar_Pichai\">Sundar Pichai</a>"},{"pageviews":"674. <a target=\"_blank\" href=\"http://en.wikipedia.org./wiki/The_Undertaker\">The Undertaker</a>"},{"pageviews":"675. <a target=\"_blank\" href=\"http://en.wikipedia.org./wiki/Insurance_policy\">Insurance policy</a>"},{"pageviews":"676. <a target=\"_blank\" href=\"http://en.wikipedia.org./wiki/Cars_3\">Cars 3</a>"},{"pageviews":"677. <a target=\"_blank\" href=\"http://en.wikipedia.org./wiki/Jennifer_Aniston\">Jennifer Aniston</a>"},{"pageviews":"678. <a target=\"_blank\" href=\"http://en.wikipedia.org./wiki/Education_in_Japan\">Education in Japan</a>"},{"pageviews":"679. <a target=\"_blank\" href=\"http://en.wikipedia.org./wiki/Brad_Pitt\">Brad Pitt</a>"},{"pageviews":"680. <a target=\"_blank\" href=\"http://en.wikipedia.org./wiki/Tom_Holland_(actor)\">Tom Holland (actor)</a>"},{"pageviews":"681. <a target=\"_blank\" href=\"http://en.wikipedia.org./wiki/Vladimir_Lenin\">Vladimir Lenin</a>"},{"pageviews":"682. <a target=\"_blank\" href=\"http://en.wikipedia.org./wiki/Guam\">Guam</a>"},{"pageviews":"683. <a target=\"_blank\" href=\"http://en.wikipedia.org./wiki/Islam\">Islam</a>"},{"pageviews":"684. <a target=\"_blank\" href=\"http://en.wikipedia.org./wiki/Georgia_(country)\">Georgia (country)</a>"},{"pageviews":"685. <a target=\"_blank\" href=\"http://en.wikipedia.org./wiki/Korean_Empire\">Korean Empire</a>"},{"pageviews":"686. <a target=\"_blank\" href=\"http://en.wikipedia.org./wiki/Muhammad\">Muhammad</a>"},{"pageviews":"687. <a target=\"_blank\" href=\"http://en.wikipedia.org./wiki/The_Chainsmokers\">The Chainsmokers</a>"},{"pageviews":"688. <a target=\"_blank\" href=\"http://en.wikipedia.org./wiki/Quentin_Tarantino\">Quentin Tarantino</a>"},{"pageviews":"689. <a target=\"_blank\" href=\"http://en.wikipedia.org./wiki/List_of_S%26P_500_companies\">List of S&P 500 companies</a>"},{"pageviews":"690. <a target=\"_blank\" href=\"http://en.wikipedia.org./wiki/Lana_Del_Rey\">Lana Del Rey</a>"},{"pageviews":"691. <a target=\"_blank\" href=\"http://en.wikipedia.org./wiki/Kazakhstan\">Kazakhstan</a>"},{"pageviews":"692. <a target=\"_blank\" href=\"http://en.wikipedia.org./wiki/Cara_Delevingne\">Cara Delevingne</a>"},{"pageviews":"693. <a target=\"_blank\" href=\"http://en.wikipedia.org./wiki/Mark_Wahlberg\">Mark Wahlberg</a>"},{"pageviews":"694. <a target=\"_blank\" href=\"http://en.wikipedia.org./wiki/Priyanka_Chopra\">Priyanka Chopra</a>"},{"pageviews":"695. <a target=\"_blank\" href=\"http://en.wikipedia.org./wiki/List_of_states_and_territories_of_the_United_States\">List of states and territories of the United States</a>"},{"pageviews":"696. <a target=\"_blank\" href=\"http://en.wikipedia.org./wiki/Alan_Turing\">Alan Turing</a>"},{"pageviews":"697. <a target=\"_blank\" href=\"http://en.wikipedia.org./wiki/Primary_education\">Primary education</a>"},{"pageviews":"698. <a target=\"_blank\" href=\"http://en.wikipedia.org./wiki/Finland\">Finland</a>"},{"pageviews":"699. <a target=\"_blank\" href=\"http://en.wikipedia.org./wiki/Machine_learning\">Machine learning</a>"}],"list":"600. Reinsurance  \u2014  http:\/\/en.wikipedia.org.\/wiki\/Reinsurance\n601. Kit Harington  \u2014  http:\/\/en.wikipedia.org.\/wiki\/Kit_Harington\n602. List of United States insurance companies  \u2014  http:\/\/en.wikipedia.org.\/wiki\/List_of_United_States_insurance_companies\n603. Angelina Jolie  \u2014  http:\/\/en.wikipedia.org.\/wiki\/Angelina_Jolie\n604. Billions (TV series)  \u2014  http:\/\/en.wikipedia.org.\/wiki\/Billions_(TV_series)\n605. Czech Republic  \u2014  http:\/\/en.wikipedia.org.\/wiki\/Czech_Republic\n606. Dubai  \u2014  http:\/\/en.wikipedia.org.\/wiki\/Dubai\n607. Vincent van Gogh  \u2014  http:\/\/en.wikipedia.org.\/wiki\/Vincent_van_Gogh\n608. The Grand Tour (TV series)  \u2014  http:\/\/en.wikipedia.org.\/wiki\/The_Grand_Tour_(TV_series)\n609. 2016\u201317 UEFA Champions League  \u2014  http:\/\/en.wikipedia.org.\/wiki\/2016%E2%80%9317_UEFA_Champions_League\n610. IPhone  \u2014  http:\/\/en.wikipedia.org.\/wiki\/IPhone\n611. Hawaii  \u2014  http:\/\/en.wikipedia.org.\/wiki\/Hawaii\n612. Raees (film)  \u2014  http:\/\/en.wikipedia.org.\/wiki\/Raees_(film)\n613. Call of Duty  \u2014  http:\/\/en.wikipedia.org.\/wiki\/Call_of_Duty\n614. George Michael  \u2014  http:\/\/en.wikipedia.org.\/wiki\/George_Michael\n615. M2 Browning  \u2014  http:\/\/en.wikipedia.org.\/wiki\/M2_Browning\n616. Lyndon B. Johnson  \u2014  http:\/\/en.wikipedia.org.\/wiki\/Lyndon_B._Johnson\n617. Injustice 2  \u2014  http:\/\/en.wikipedia.org.\/wiki\/Injustice_2\n618. Hurricane Harvey  \u2014  http:\/\/en.wikipedia.org.\/wiki\/Hurricane_Harvey\n619. Karl Marx  \u2014  http:\/\/en.wikipedia.org.\/wiki\/Karl_Marx\n620. Hillary Clinton  \u2014  http:\/\/en.wikipedia.org.\/wiki\/Hillary_Clinton\n621. Serena Williams  \u2014  http:\/\/en.wikipedia.org.\/wiki\/Serena_Williams\n622. List of Game of Thrones characters  \u2014  http:\/\/en.wikipedia.org.\/wiki\/List_of_Game_of_Thrones_characters\n623. George Soros  \u2014  http:\/\/en.wikipedia.org.\/wiki\/George_Soros\n624. Avatar (2009 film)  \u2014  http:\/\/en.wikipedia.org.\/wiki\/Avatar_(2009_film)\n625. Jackie Chan  \u2014  http:\/\/en.wikipedia.org.\/wiki\/Jackie_Chan\n626. J. K. Rowling  \u2014  http:\/\/en.wikipedia.org.\/wiki\/J._K._Rowling\n627. Audrey Hepburn  \u2014  http:\/\/en.wikipedia.org.\/wiki\/Audrey_Hepburn\n628. Star Wars (film)  \u2014  http:\/\/en.wikipedia.org.\/wiki\/Star_Wars_(film)\n629. LaVar Ball  \u2014  http:\/\/en.wikipedia.org.\/wiki\/LaVar_Ball\n630. The Lord of the Rings (film series)  \u2014  http:\/\/en.wikipedia.org.\/wiki\/The_Lord_of_the_Rings_(film_series)\n631. Resident Evil (film series)  \u2014  http:\/\/en.wikipedia.org.\/wiki\/Resident_Evil_(film_series)\n632. Edward VII  \u2014  http:\/\/en.wikipedia.org.\/wiki\/Edward_VII\n633. Nicki Minaj  \u2014  http:\/\/en.wikipedia.org.\/wiki\/Nicki_Minaj\n634. Harry Styles  \u2014  http:\/\/en.wikipedia.org.\/wiki\/Harry_Styles\n635. Nigeria  \u2014  http:\/\/en.wikipedia.org.\/wiki\/Nigeria\n636. Outlander (TV series)  \u2014  http:\/\/en.wikipedia.org.\/wiki\/Outlander_(TV_series)\n637. Tom Hanks  \u2014  http:\/\/en.wikipedia.org.\/wiki\/Tom_Hanks\n638. Modern Family  \u2014  http:\/\/en.wikipedia.org.\/wiki\/Modern_Family\n639. Fifty Shades Darker (film)  \u2014  http:\/\/en.wikipedia.org.\/wiki\/Fifty_Shades_Darker_(film)\n640. Tertiary education  \u2014  http:\/\/en.wikipedia.org.\/wiki\/Tertiary_education\n641. Coco (2017 film)  \u2014  http:\/\/en.wikipedia.org.\/wiki\/Coco_(2017_film)\n642. Taj Mahal  \u2014  http:\/\/en.wikipedia.org.\/wiki\/Taj_Mahal\n643. Fargo (TV series)  \u2014  http:\/\/en.wikipedia.org.\/wiki\/Fargo_(TV_series)\n644. Seven deadly sins  \u2014  http:\/\/en.wikipedia.org.\/wiki\/Seven_deadly_sins\n645. Chicago  \u2014  http:\/\/en.wikipedia.org.\/wiki\/Chicago\n646. Dunning\u2013Kruger effect  \u2014  http:\/\/en.wikipedia.org.\/wiki\/Dunning%E2%80%93Kruger_effect\n647. Dog  \u2014  http:\/\/en.wikipedia.org.\/wiki\/Dog\n648. Vehicle insurance  \u2014  http:\/\/en.wikipedia.org.\/wiki\/Vehicle_insurance\n649. Superman  \u2014  http:\/\/en.wikipedia.org.\/wiki\/Superman\n650. Walt Disney  \u2014  http:\/\/en.wikipedia.org.\/wiki\/Walt_Disney\n651. Application programming interface  \u2014  http:\/\/en.wikipedia.org.\/wiki\/Application_programming_interface\n652. Prometheus (2012 film)  \u2014  http:\/\/en.wikipedia.org.\/wiki\/Prometheus_(2012_film)\n653. Philosophy  \u2014  http:\/\/en.wikipedia.org.\/wiki\/Philosophy\n654. List of South Park episodes  \u2014  http:\/\/en.wikipedia.org.\/wiki\/List_of_South_Park_episodes\n655. Great Wall of China  \u2014  http:\/\/en.wikipedia.org.\/wiki\/Great_Wall_of_China\n656. Prince William, Duke of Cambridge  \u2014  http:\/\/en.wikipedia.org.\/wiki\/Prince_William%2C_Duke_of_Cambridge\n657. Friedrich Nietzsche  \u2014  http:\/\/en.wikipedia.org.\/wiki\/Friedrich_Nietzsche\n658. Thomas Edison  \u2014  http:\/\/en.wikipedia.org.\/wiki\/Thomas_Edison\n659. The Simpsons  \u2014  http:\/\/en.wikipedia.org.\/wiki\/The_Simpsons\n660. 2017 FIFA Confederations Cup  \u2014  http:\/\/en.wikipedia.org.\/wiki\/2017_FIFA_Confederations_Cup\n661. Romania  \u2014  http:\/\/en.wikipedia.org.\/wiki\/Romania\n662. Metallica  \u2014  http:\/\/en.wikipedia.org.\/wiki\/Metallica\n663. Ernest Hemingway  \u2014  http:\/\/en.wikipedia.org.\/wiki\/Ernest_Hemingway\n664. Desmond Doss  \u2014  http:\/\/en.wikipedia.org.\/wiki\/Desmond_Doss\n665. Lua Blanco  \u2014  http:\/\/en.wikipedia.org.\/wiki\/Lua_Blanco\n666. Gross domestic product  \u2014  http:\/\/en.wikipedia.org.\/wiki\/Gross_domestic_product\n667. List of Attack on Titan episodes  \u2014  http:\/\/en.wikipedia.org.\/wiki\/List_of_Attack_on_Titan_episodes\n668. The Big Bang Theory (season 10)  \u2014  http:\/\/en.wikipedia.org.\/wiki\/The_Big_Bang_Theory_(season_10)\n669. List of countries by past and projected GDP (nominal)  \u2014  http:\/\/en.wikipedia.org.\/wiki\/List_of_countries_by_past_and_projected_GDP_(nominal)\n670. Zayn Malik  \u2014  http:\/\/en.wikipedia.org.\/wiki\/Zayn_Malik\n671. Murder on the Orient Express (2017 film)  \u2014  http:\/\/en.wikipedia.org.\/wiki\/Murder_on_the_Orient_Express_(2017_film)\n672. Attack on Pearl Harbor  \u2014  http:\/\/en.wikipedia.org.\/wiki\/Attack_on_Pearl_Harbor\n673. Sundar Pichai  \u2014  http:\/\/en.wikipedia.org.\/wiki\/Sundar_Pichai\n674. The Undertaker  \u2014  http:\/\/en.wikipedia.org.\/wiki\/The_Undertaker\n675. Insurance policy  \u2014  http:\/\/en.wikipedia.org.\/wiki\/Insurance_policy\n676. Cars 3  \u2014  http:\/\/en.wikipedia.org.\/wiki\/Cars_3\n677. Jennifer Aniston  \u2014  http:\/\/en.wikipedia.org.\/wiki\/Jennifer_Aniston\n678. Education in Japan  \u2014  http:\/\/en.wikipedia.org.\/wiki\/Education_in_Japan\n679. Brad Pitt  \u2014  http:\/\/en.wikipedia.org.\/wiki\/Brad_Pitt\n680. Tom Holland (actor)  \u2014  http:\/\/en.wikipedia.org.\/wiki\/Tom_Holland_(actor)\n681. Vladimir Lenin  \u2014  http:\/\/en.wikipedia.org.\/wiki\/Vladimir_Lenin\n682. Guam  \u2014  http:\/\/en.wikipedia.org.\/wiki\/Guam\n683. Islam  \u2014  http:\/\/en.wikipedia.org.\/wiki\/Islam\n684. Georgia (country)  \u2014  http:\/\/en.wikipedia.org.\/wiki\/Georgia_(country)\n685. Korean Empire  \u2014  http:\/\/en.wikipedia.org.\/wiki\/Korean_Empire\n686. Muhammad  \u2014  http:\/\/en.wikipedia.org.\/wiki\/Muhammad\n687. The Chainsmokers  \u2014  http:\/\/en.wikipedia.org.\/wiki\/The_Chainsmokers\n688. Quentin Tarantino  \u2014  http:\/\/en.wikipedia.org.\/wiki\/Quentin_Tarantino\n689. List of S&P 500 companies  \u2014  http:\/\/en.wikipedia.org.\/wiki\/List_of_S%26P_500_companies\n690. Lana Del Rey  \u2014  http:\/\/en.wikipedia.org.\/wiki\/Lana_Del_Rey\n691. Kazakhstan  \u2014  http:\/\/en.wikipedia.org.\/wiki\/Kazakhstan\n692. Cara Delevingne  \u2014  http:\/\/en.wikipedia.org.\/wiki\/Cara_Delevingne\n693. Mark Wahlberg  \u2014  http:\/\/en.wikipedia.org.\/wiki\/Mark_Wahlberg\n694. Priyanka Chopra  \u2014  http:\/\/en.wikipedia.org.\/wiki\/Priyanka_Chopra\n695. List of states and territories of the United States  \u2014  http:\/\/en.wikipedia.org.\/wiki\/List_of_states_and_territories_of_the_United_States\n696. Alan Turing  \u2014  http:\/\/en.wikipedia.org.\/wiki\/Alan_Turing\n697. Primary education  \u2014  http:\/\/en.wikipedia.org.\/wiki\/Primary_education\n698. Finland  \u2014  http:\/\/en.wikipedia.org.\/wiki\/Finland\n699. Machine learning  \u2014  http:\/\/en.wikipedia.org.\/wiki\/Machine_learning\n","miniList":"600. Reinsurance\n601. Kit Harington\n602. List of United States insurance companies\n603. Angelina Jolie\n604. Billions (TV series)\n605. Czech Republic\n606. Dubai\n607. Vincent van Gogh\n608. The Grand Tour (TV series)\n609. 2016\u201317 UEFA Champions League\n610. IPhone\n611. Hawaii\n612. Raees (film)\n613. Call of Duty\n614. George Michael\n615. M2 Browning\n616. Lyndon B. Johnson\n617. Injustice 2\n618. Hurricane Harvey\n619. Karl Marx\n620. Hillary Clinton\n621. Serena Williams\n622. List of Game of Thrones characters\n623. George Soros\n624. Avatar (2009 film)\n625. Jackie Chan\n626. J. K. Rowling\n627. Audrey Hepburn\n628. Star Wars (film)\n629. LaVar Ball\n630. The Lord of the Rings (film series)\n631. Resident Evil (film series)\n632. Edward VII\n633. Nicki Minaj\n634. Harry Styles\n635. Nigeria\n636. Outlander (TV series)\n637. Tom Hanks\n638. Modern Family\n639. Fifty Shades Darker (film)\n640. Tertiary education\n641. Coco (2017 film)\n642. Taj Mahal\n643. Fargo (TV series)\n644. Seven deadly sins\n645. Chicago\n646. Dunning\u2013Kruger effect\n647. Dog\n648. Vehicle insurance\n649. Superman\n650. Walt Disney\n651. Application programming interface\n652. Prometheus (2012 film)\n653. Philosophy\n654. List of South Park episodes\n655. Great Wall of China\n656. Prince William, Duke of Cambridge\n657. Friedrich Nietzsche\n658. Thomas Edison\n659. The Simpsons\n660. 2017 FIFA Confederations Cup\n661. Romania\n662. Metallica\n663. Ernest Hemingway\n664. Desmond Doss\n665. Lua Blanco\n666. Gross domestic product\n667. List of Attack on Titan episodes\n668. The Big Bang Theory (season 10)\n669. List of countries by past and projected GDP (nominal)\n670. Zayn Malik\n671. Murder on the Orient Express (2017 film)\n672. Attack on Pearl Harbor\n673. Sundar Pichai\n674. The Undertaker\n675. Insurance policy\n676. Cars 3\n677. Jennifer Aniston\n678. Education in Japan\n679. Brad Pitt\n680. Tom Holland (actor)\n681. Vladimir Lenin\n682. Guam\n683. Islam\n684. Georgia (country)\n685. Korean Empire\n686. Muhammad\n687. The Chainsmokers\n688. Quentin Tarantino\n689. List of S&P 500 companies\n690. Lana Del Rey\n691. Kazakhstan\n692. Cara Delevingne\n693. Mark Wahlberg\n694. Priyanka Chopra\n695. List of states and territories of the United States\n696. Alan Turing\n697. Primary education\n698. Finland\n699. Machine learning\n"}
