{"start":701,"end":800,"count":5616717,"type":"pageviews","pageSize":100,"page":7,"pages":56168,"columns":[{"label":"","property":"pageviews","sortable":false}],"items":[{"pageviews":"700. <a target=\"_blank\" href=\"http://en.wikipedia.org./wiki/Genghis_Khan\">Genghis Khan</a>"},{"pageviews":"701. <a target=\"_blank\" href=\"http://en.wikipedia.org./wiki/Queen_(band)\">Queen (band)</a>"},{"pageviews":"702. <a target=\"_blank\" href=\"http://en.wikipedia.org./wiki/The_World's_Billionaires\">The World's Billionaires</a>"},{"pageviews":"703. <a target=\"_blank\" href=\"http://en.wikipedia.org./wiki/Saint_Petersburg\">Saint Petersburg</a>"},{"pageviews":"704. <a target=\"_blank\" href=\"http://en.wikipedia.org./wiki/Baqa'a_refugee_camp\">Baqa'a refugee camp</a>"},{"pageviews":"705. <a target=\"_blank\" href=\"http://en.wikipedia.org./wiki/XXXTentacion\">XXXTentacion</a>"},{"pageviews":"706. <a target=\"_blank\" href=\"http://en.wikipedia.org./wiki/Planet_of_the_Apes\">Planet of the Apes</a>"},{"pageviews":"707. <a target=\"_blank\" href=\"http://en.wikipedia.org./wiki/Saint_Patrick's_Day\">Saint Patrick's Day</a>"},{"pageviews":"708. <a target=\"_blank\" href=\"http://en.wikipedia.org./wiki/Al_Baqa\">Al Baqa</a>"},{"pageviews":"709. <a target=\"_blank\" href=\"http://en.wikipedia.org./wiki/Morocco\">Morocco</a>"},{"pageviews":"710. <a target=\"_blank\" href=\"http://en.wikipedia.org./wiki/Nicole_Kidman\">Nicole Kidman</a>"},{"pageviews":"711. <a target=\"_blank\" href=\"http://en.wikipedia.org./wiki/2016%E2%80%9317_Premier_League\">2016–17 Premier League</a>"},{"pageviews":"712. <a target=\"_blank\" href=\"http://en.wikipedia.org./wiki/Bob_Marley\">Bob Marley</a>"},{"pageviews":"713. <a target=\"_blank\" href=\"http://en.wikipedia.org./wiki/Special_education\">Special education</a>"},{"pageviews":"714. <a target=\"_blank\" href=\"http://en.wikipedia.org./wiki/Fibonacci_number\">Fibonacci number</a>"},{"pageviews":"715. <a target=\"_blank\" href=\"http://en.wikipedia.org./wiki/Paul_McCartney\">Paul McCartney</a>"},{"pageviews":"716. <a target=\"_blank\" href=\"http://en.wikipedia.org./wiki/2017\">2017</a>"},{"pageviews":"717. <a target=\"_blank\" href=\"http://en.wikipedia.org./wiki/List_of_most-subscribed_YouTube_channels\">List of most-subscribed YouTube channels</a>"},{"pageviews":"718. <a target=\"_blank\" href=\"http://en.wikipedia.org./wiki/Heath_Ledger\">Heath Ledger</a>"},{"pageviews":"719. <a target=\"_blank\" href=\"http://en.wikipedia.org./wiki/Sun\">Sun</a>"},{"pageviews":"720. <a target=\"_blank\" href=\"http://en.wikipedia.org./wiki/Natalie_Portman\">Natalie Portman</a>"},{"pageviews":"721. <a target=\"_blank\" href=\"http://en.wikipedia.org./wiki/Liverpool_F.C.\">Liverpool F.C.</a>"},{"pageviews":"722. <a target=\"_blank\" href=\"http://en.wikipedia.org./wiki/Homeland_(TV_series)\">Homeland (TV series)</a>"},{"pageviews":"723. <a target=\"_blank\" href=\"http://en.wikipedia.org./wiki/Anthony_Scaramucci\">Anthony Scaramucci</a>"},{"pageviews":"724. <a target=\"_blank\" href=\"http://en.wikipedia.org./wiki/Wolfgang_Amadeus_Mozart\">Wolfgang Amadeus Mozart</a>"},{"pageviews":"725. <a target=\"_blank\" href=\"http://en.wikipedia.org./wiki/French_Revolution\">French Revolution</a>"},{"pageviews":"726. <a target=\"_blank\" href=\"http://en.wikipedia.org./wiki/Jennifer_Lopez\">Jennifer Lopez</a>"},{"pageviews":"727. <a target=\"_blank\" href=\"http://en.wikipedia.org./wiki/Paris\">Paris</a>"},{"pageviews":"728. <a target=\"_blank\" href=\"http://en.wikipedia.org./wiki/Cabinet_of_Donald_Trump\">Cabinet of Donald Trump</a>"},{"pageviews":"729. <a target=\"_blank\" href=\"http://en.wikipedia.org./wiki/Philosophy_of_education\">Philosophy of education</a>"},{"pageviews":"730. <a target=\"_blank\" href=\"http://en.wikipedia.org./wiki/Payday_loan\">Payday loan</a>"},{"pageviews":"731. <a target=\"_blank\" href=\"http://en.wikipedia.org./wiki/Mila_Kunis\">Mila Kunis</a>"},{"pageviews":"732. <a target=\"_blank\" href=\"http://en.wikipedia.org./wiki/James_VI_and_I\">James VI and I</a>"},{"pageviews":"733. <a target=\"_blank\" href=\"http://en.wikipedia.org./wiki/John_McCain\">John McCain</a>"},{"pageviews":"734. <a target=\"_blank\" href=\"http://en.wikipedia.org./wiki/Game_of_Thrones_(season_6)\">Game of Thrones (season 6)</a>"},{"pageviews":"735. <a target=\"_blank\" href=\"http://en.wikipedia.org./wiki/Sarah_Huckabee_Sanders\">Sarah Huckabee Sanders</a>"},{"pageviews":"736. <a target=\"_blank\" href=\"http://en.wikipedia.org./wiki/How_to_Get_Away_with_Murder\">How to Get Away with Murder</a>"},{"pageviews":"737. <a target=\"_blank\" href=\"http://en.wikipedia.org./wiki/List_of_Nintendo_Switch_games\">List of Nintendo Switch games</a>"},{"pageviews":"738. <a target=\"_blank\" href=\"http://en.wikipedia.org./wiki/Belgium\">Belgium</a>"},{"pageviews":"739. <a target=\"_blank\" href=\"http://en.wikipedia.org./wiki/Manchester_City_F.C.\">Manchester City F.C.</a>"},{"pageviews":"740. <a target=\"_blank\" href=\"http://en.wikipedia.org./wiki/Ukraine\">Ukraine</a>"},{"pageviews":"741. <a target=\"_blank\" href=\"http://en.wikipedia.org./wiki/Argentina\">Argentina</a>"},{"pageviews":"742. <a target=\"_blank\" href=\"http://en.wikipedia.org./wiki/The_Emoji_Movie\">The Emoji Movie</a>"},{"pageviews":"743. <a target=\"_blank\" href=\"http://en.wikipedia.org./wiki/Marilyn_Manson\">Marilyn Manson</a>"},{"pageviews":"744. <a target=\"_blank\" href=\"http://en.wikipedia.org./wiki/The_Leftovers_(TV_series)\">The Leftovers (TV series)</a>"},{"pageviews":"745. <a target=\"_blank\" href=\"http://en.wikipedia.org./wiki/Jeffrey_Dahmer\">Jeffrey Dahmer</a>"},{"pageviews":"746. <a target=\"_blank\" href=\"http://en.wikipedia.org./wiki/Test\">Test</a>"},{"pageviews":"747. <a target=\"_blank\" href=\"http://en.wikipedia.org./wiki/Gennady_Golovkin\">Gennady Golovkin</a>"},{"pageviews":"748. <a target=\"_blank\" href=\"http://en.wikipedia.org./wiki/Greece\">Greece</a>"},{"pageviews":"749. <a target=\"_blank\" href=\"http://en.wikipedia.org./wiki/Academy_Award_for_Best_Picture\">Academy Award for Best Picture</a>"},{"pageviews":"750. <a target=\"_blank\" href=\"http://en.wikipedia.org./wiki/Andrew_Jackson\">Andrew Jackson</a>"},{"pageviews":"751. <a target=\"_blank\" href=\"http://en.wikipedia.org./wiki/Batman\">Batman</a>"},{"pageviews":"752. <a target=\"_blank\" href=\"http://en.wikipedia.org./wiki/Shah_Rukh_Khan\">Shah Rukh Khan</a>"},{"pageviews":"753. <a target=\"_blank\" href=\"http://en.wikipedia.org./wiki/WWE\">WWE</a>"},{"pageviews":"754. <a target=\"_blank\" href=\"http://en.wikipedia.org./wiki/Alicia_Vikander\">Alicia Vikander</a>"},{"pageviews":"755. <a target=\"_blank\" href=\"http://en.wikipedia.org./wiki/Benjamin_Franklin\">Benjamin Franklin</a>"},{"pageviews":"756. <a target=\"_blank\" href=\"http://en.wikipedia.org./wiki/Queen_Elizabeth_The_Queen_Mother\">Queen Elizabeth The Queen Mother</a>"},{"pageviews":"757. <a target=\"_blank\" href=\"http://en.wikipedia.org./wiki/Lonzo_Ball\">Lonzo Ball</a>"},{"pageviews":"758. <a target=\"_blank\" href=\"http://en.wikipedia.org./wiki/Illuminati\">Illuminati</a>"},{"pageviews":"759. <a target=\"_blank\" href=\"http://en.wikipedia.org./wiki/Matt_Damon\">Matt Damon</a>"},{"pageviews":"760. <a target=\"_blank\" href=\"http://en.wikipedia.org./wiki/The_Notorious_B.I.G.\">The Notorious B.I.G.</a>"},{"pageviews":"761. <a target=\"_blank\" href=\"http://en.wikipedia.org./wiki/Hurricane_Katrina\">Hurricane Katrina</a>"},{"pageviews":"762. <a target=\"_blank\" href=\"http://en.wikipedia.org./wiki/Scotland\">Scotland</a>"},{"pageviews":"763. <a target=\"_blank\" href=\"http://en.wikipedia.org./wiki/Jerusalem\">Jerusalem</a>"},{"pageviews":"764. <a target=\"_blank\" href=\"http://en.wikipedia.org./wiki/Black_Panther_(film)\">Black Panther (film)</a>"},{"pageviews":"765. <a target=\"_blank\" href=\"http://en.wikipedia.org./wiki/Led_Zeppelin\">Led Zeppelin</a>"},{"pageviews":"766. <a target=\"_blank\" href=\"http://en.wikipedia.org./wiki/Dunkirk_evacuation\">Dunkirk evacuation</a>"},{"pageviews":"767. <a target=\"_blank\" href=\"http://en.wikipedia.org./wiki/Atomic_Blonde\">Atomic Blonde</a>"},{"pageviews":"768. <a target=\"_blank\" href=\"http://en.wikipedia.org./wiki/List_of_mathematical_symbols\">List of mathematical symbols</a>"},{"pageviews":"769. <a target=\"_blank\" href=\"http://en.wikipedia.org./wiki/Sylvester_Stallone\">Sylvester Stallone</a>"},{"pageviews":"770. <a target=\"_blank\" href=\"http://en.wikipedia.org./wiki/Lena_Headey\">Lena Headey</a>"},{"pageviews":"771. <a target=\"_blank\" href=\"http://en.wikipedia.org./wiki/Agents_of_S.H.I.E.L.D._(season_4)\">Agents of S.H.I.E.L.D. (season 4)</a>"},{"pageviews":"772. <a target=\"_blank\" href=\"http://en.wikipedia.org./wiki/Virtual_private_network\">Virtual private network</a>"},{"pageviews":"773. <a target=\"_blank\" href=\"http://en.wikipedia.org./wiki/Winona_Ryder\">Winona Ryder</a>"},{"pageviews":"774. <a target=\"_blank\" href=\"http://en.wikipedia.org./wiki/Restoration_(Spain)\">Restoration (Spain)</a>"},{"pageviews":"775. <a target=\"_blank\" href=\"http://en.wikipedia.org./wiki/Super_Bowl_LI\">Super Bowl LI</a>"},{"pageviews":"776. <a target=\"_blank\" href=\"http://en.wikipedia.org./wiki/Angela_Merkel\">Angela Merkel</a>"},{"pageviews":"777. <a target=\"_blank\" href=\"http://en.wikipedia.org./wiki/It's_Always_Sunny_in_Philadelphia\">It's Always Sunny in Philadelphia</a>"},{"pageviews":"778. <a target=\"_blank\" href=\"http://en.wikipedia.org./wiki/Ethereum\">Ethereum</a>"},{"pageviews":"779. <a target=\"_blank\" href=\"http://en.wikipedia.org./wiki/Ragnar_Lodbrok\">Ragnar Lodbrok</a>"},{"pageviews":"780. <a target=\"_blank\" href=\"http://en.wikipedia.org./wiki/Lion\">Lion</a>"},{"pageviews":"781. <a target=\"_blank\" href=\"http://en.wikipedia.org./wiki/Ghost_in_the_Shell\">Ghost in the Shell</a>"},{"pageviews":"782. <a target=\"_blank\" href=\"http://en.wikipedia.org./wiki/United_States_Declaration_of_Independence\">United States Declaration of Independence</a>"},{"pageviews":"783. <a target=\"_blank\" href=\"http://en.wikipedia.org./wiki/Chernobyl_disaster\">Chernobyl disaster</a>"},{"pageviews":"784. <a target=\"_blank\" href=\"http://en.wikipedia.org./wiki/United_Kingdom_of_Portugal%2C_Brazil_and_the_Algarves\">United Kingdom of Portugal, Brazil and the Algarves</a>"},{"pageviews":"785. <a target=\"_blank\" href=\"http://en.wikipedia.org./wiki/Charlie_Chaplin\">Charlie Chaplin</a>"},{"pageviews":"786. <a target=\"_blank\" href=\"http://en.wikipedia.org./wiki/Freemasonry\">Freemasonry</a>"},{"pageviews":"787. <a target=\"_blank\" href=\"http://en.wikipedia.org./wiki/Microsoft_Windows\">Microsoft Windows</a>"},{"pageviews":"788. <a target=\"_blank\" href=\"http://en.wikipedia.org./wiki/Snoop_Dogg\">Snoop Dogg</a>"},{"pageviews":"789. <a target=\"_blank\" href=\"http://en.wikipedia.org./wiki/Ted_Bundy\">Ted Bundy</a>"},{"pageviews":"790. <a target=\"_blank\" href=\"http://en.wikipedia.org./wiki/Family_of_Donald_Trump\">Family of Donald Trump</a>"},{"pageviews":"791. <a target=\"_blank\" href=\"http://en.wikipedia.org./wiki/Silence_(2016_film)\">Silence (2016 film)</a>"},{"pageviews":"792. <a target=\"_blank\" href=\"http://en.wikipedia.org./wiki/Maslow's_hierarchy_of_needs\">Maslow's hierarchy of needs</a>"},{"pageviews":"793. <a target=\"_blank\" href=\"http://en.wikipedia.org./wiki/Film\">Film</a>"},{"pageviews":"794. <a target=\"_blank\" href=\"http://en.wikipedia.org./wiki/Unbreakable_(film)\">Unbreakable (film)</a>"},{"pageviews":"795. <a target=\"_blank\" href=\"http://en.wikipedia.org./wiki/Shaquille_O'Neal\">Shaquille O'Neal</a>"},{"pageviews":"796. <a target=\"_blank\" href=\"http://en.wikipedia.org./wiki/Alexandra_Daddario\">Alexandra Daddario</a>"},{"pageviews":"797. <a target=\"_blank\" href=\"http://en.wikipedia.org./wiki/DJ_Khaled\">DJ Khaled</a>"},{"pageviews":"798. <a target=\"_blank\" href=\"http://en.wikipedia.org./wiki/Schizophrenia\">Schizophrenia</a>"},{"pageviews":"799. <a target=\"_blank\" href=\"http://en.wikipedia.org./wiki/Cities_and_towns_during_the_Syrian_Civil_War\">Cities and towns during the Syrian Civil War</a>"}],"list":"700. Genghis Khan  \u2014  http:\/\/en.wikipedia.org.\/wiki\/Genghis_Khan\n701. Queen (band)  \u2014  http:\/\/en.wikipedia.org.\/wiki\/Queen_(band)\n702. The World's Billionaires  \u2014  http:\/\/en.wikipedia.org.\/wiki\/The_World's_Billionaires\n703. Saint Petersburg  \u2014  http:\/\/en.wikipedia.org.\/wiki\/Saint_Petersburg\n704. Baqa'a refugee camp  \u2014  http:\/\/en.wikipedia.org.\/wiki\/Baqa'a_refugee_camp\n705. XXXTentacion  \u2014  http:\/\/en.wikipedia.org.\/wiki\/XXXTentacion\n706. Planet of the Apes  \u2014  http:\/\/en.wikipedia.org.\/wiki\/Planet_of_the_Apes\n707. Saint Patrick's Day  \u2014  http:\/\/en.wikipedia.org.\/wiki\/Saint_Patrick's_Day\n708. Al Baqa  \u2014  http:\/\/en.wikipedia.org.\/wiki\/Al_Baqa\n709. Morocco  \u2014  http:\/\/en.wikipedia.org.\/wiki\/Morocco\n710. Nicole Kidman  \u2014  http:\/\/en.wikipedia.org.\/wiki\/Nicole_Kidman\n711. 2016\u201317 Premier League  \u2014  http:\/\/en.wikipedia.org.\/wiki\/2016%E2%80%9317_Premier_League\n712. Bob Marley  \u2014  http:\/\/en.wikipedia.org.\/wiki\/Bob_Marley\n713. Special education  \u2014  http:\/\/en.wikipedia.org.\/wiki\/Special_education\n714. Fibonacci number  \u2014  http:\/\/en.wikipedia.org.\/wiki\/Fibonacci_number\n715. Paul McCartney  \u2014  http:\/\/en.wikipedia.org.\/wiki\/Paul_McCartney\n716. 2017  \u2014  http:\/\/en.wikipedia.org.\/wiki\/2017\n717. List of most-subscribed YouTube channels  \u2014  http:\/\/en.wikipedia.org.\/wiki\/List_of_most-subscribed_YouTube_channels\n718. Heath Ledger  \u2014  http:\/\/en.wikipedia.org.\/wiki\/Heath_Ledger\n719. Sun  \u2014  http:\/\/en.wikipedia.org.\/wiki\/Sun\n720. Natalie Portman  \u2014  http:\/\/en.wikipedia.org.\/wiki\/Natalie_Portman\n721. Liverpool F.C.  \u2014  http:\/\/en.wikipedia.org.\/wiki\/Liverpool_F.C.\n722. Homeland (TV series)  \u2014  http:\/\/en.wikipedia.org.\/wiki\/Homeland_(TV_series)\n723. Anthony Scaramucci  \u2014  http:\/\/en.wikipedia.org.\/wiki\/Anthony_Scaramucci\n724. Wolfgang Amadeus Mozart  \u2014  http:\/\/en.wikipedia.org.\/wiki\/Wolfgang_Amadeus_Mozart\n725. French Revolution  \u2014  http:\/\/en.wikipedia.org.\/wiki\/French_Revolution\n726. Jennifer Lopez  \u2014  http:\/\/en.wikipedia.org.\/wiki\/Jennifer_Lopez\n727. Paris  \u2014  http:\/\/en.wikipedia.org.\/wiki\/Paris\n728. Cabinet of Donald Trump  \u2014  http:\/\/en.wikipedia.org.\/wiki\/Cabinet_of_Donald_Trump\n729. Philosophy of education  \u2014  http:\/\/en.wikipedia.org.\/wiki\/Philosophy_of_education\n730. Payday loan  \u2014  http:\/\/en.wikipedia.org.\/wiki\/Payday_loan\n731. Mila Kunis  \u2014  http:\/\/en.wikipedia.org.\/wiki\/Mila_Kunis\n732. James VI and I  \u2014  http:\/\/en.wikipedia.org.\/wiki\/James_VI_and_I\n733. John McCain  \u2014  http:\/\/en.wikipedia.org.\/wiki\/John_McCain\n734. Game of Thrones (season 6)  \u2014  http:\/\/en.wikipedia.org.\/wiki\/Game_of_Thrones_(season_6)\n735. Sarah Huckabee Sanders  \u2014  http:\/\/en.wikipedia.org.\/wiki\/Sarah_Huckabee_Sanders\n736. How to Get Away with Murder  \u2014  http:\/\/en.wikipedia.org.\/wiki\/How_to_Get_Away_with_Murder\n737. List of Nintendo Switch games  \u2014  http:\/\/en.wikipedia.org.\/wiki\/List_of_Nintendo_Switch_games\n738. Belgium  \u2014  http:\/\/en.wikipedia.org.\/wiki\/Belgium\n739. Manchester City F.C.  \u2014  http:\/\/en.wikipedia.org.\/wiki\/Manchester_City_F.C.\n740. Ukraine  \u2014  http:\/\/en.wikipedia.org.\/wiki\/Ukraine\n741. Argentina  \u2014  http:\/\/en.wikipedia.org.\/wiki\/Argentina\n742. The Emoji Movie  \u2014  http:\/\/en.wikipedia.org.\/wiki\/The_Emoji_Movie\n743. Marilyn Manson  \u2014  http:\/\/en.wikipedia.org.\/wiki\/Marilyn_Manson\n744. The Leftovers (TV series)  \u2014  http:\/\/en.wikipedia.org.\/wiki\/The_Leftovers_(TV_series)\n745. Jeffrey Dahmer  \u2014  http:\/\/en.wikipedia.org.\/wiki\/Jeffrey_Dahmer\n746. Test  \u2014  http:\/\/en.wikipedia.org.\/wiki\/Test\n747. Gennady Golovkin  \u2014  http:\/\/en.wikipedia.org.\/wiki\/Gennady_Golovkin\n748. Greece  \u2014  http:\/\/en.wikipedia.org.\/wiki\/Greece\n749. Academy Award for Best Picture  \u2014  http:\/\/en.wikipedia.org.\/wiki\/Academy_Award_for_Best_Picture\n750. Andrew Jackson  \u2014  http:\/\/en.wikipedia.org.\/wiki\/Andrew_Jackson\n751. Batman  \u2014  http:\/\/en.wikipedia.org.\/wiki\/Batman\n752. Shah Rukh Khan  \u2014  http:\/\/en.wikipedia.org.\/wiki\/Shah_Rukh_Khan\n753. WWE  \u2014  http:\/\/en.wikipedia.org.\/wiki\/WWE\n754. Alicia Vikander  \u2014  http:\/\/en.wikipedia.org.\/wiki\/Alicia_Vikander\n755. Benjamin Franklin  \u2014  http:\/\/en.wikipedia.org.\/wiki\/Benjamin_Franklin\n756. Queen Elizabeth The Queen Mother  \u2014  http:\/\/en.wikipedia.org.\/wiki\/Queen_Elizabeth_The_Queen_Mother\n757. Lonzo Ball  \u2014  http:\/\/en.wikipedia.org.\/wiki\/Lonzo_Ball\n758. Illuminati  \u2014  http:\/\/en.wikipedia.org.\/wiki\/Illuminati\n759. Matt Damon  \u2014  http:\/\/en.wikipedia.org.\/wiki\/Matt_Damon\n760. The Notorious B.I.G.  \u2014  http:\/\/en.wikipedia.org.\/wiki\/The_Notorious_B.I.G.\n761. Hurricane Katrina  \u2014  http:\/\/en.wikipedia.org.\/wiki\/Hurricane_Katrina\n762. Scotland  \u2014  http:\/\/en.wikipedia.org.\/wiki\/Scotland\n763. Jerusalem  \u2014  http:\/\/en.wikipedia.org.\/wiki\/Jerusalem\n764. Black Panther (film)  \u2014  http:\/\/en.wikipedia.org.\/wiki\/Black_Panther_(film)\n765. Led Zeppelin  \u2014  http:\/\/en.wikipedia.org.\/wiki\/Led_Zeppelin\n766. Dunkirk evacuation  \u2014  http:\/\/en.wikipedia.org.\/wiki\/Dunkirk_evacuation\n767. Atomic Blonde  \u2014  http:\/\/en.wikipedia.org.\/wiki\/Atomic_Blonde\n768. List of mathematical symbols  \u2014  http:\/\/en.wikipedia.org.\/wiki\/List_of_mathematical_symbols\n769. Sylvester Stallone  \u2014  http:\/\/en.wikipedia.org.\/wiki\/Sylvester_Stallone\n770. Lena Headey  \u2014  http:\/\/en.wikipedia.org.\/wiki\/Lena_Headey\n771. Agents of S.H.I.E.L.D. (season 4)  \u2014  http:\/\/en.wikipedia.org.\/wiki\/Agents_of_S.H.I.E.L.D._(season_4)\n772. Virtual private network  \u2014  http:\/\/en.wikipedia.org.\/wiki\/Virtual_private_network\n773. Winona Ryder  \u2014  http:\/\/en.wikipedia.org.\/wiki\/Winona_Ryder\n774. Restoration (Spain)  \u2014  http:\/\/en.wikipedia.org.\/wiki\/Restoration_(Spain)\n775. Super Bowl LI  \u2014  http:\/\/en.wikipedia.org.\/wiki\/Super_Bowl_LI\n776. Angela Merkel  \u2014  http:\/\/en.wikipedia.org.\/wiki\/Angela_Merkel\n777. It's Always Sunny in Philadelphia  \u2014  http:\/\/en.wikipedia.org.\/wiki\/It's_Always_Sunny_in_Philadelphia\n778. Ethereum  \u2014  http:\/\/en.wikipedia.org.\/wiki\/Ethereum\n779. Ragnar Lodbrok  \u2014  http:\/\/en.wikipedia.org.\/wiki\/Ragnar_Lodbrok\n780. Lion  \u2014  http:\/\/en.wikipedia.org.\/wiki\/Lion\n781. Ghost in the Shell  \u2014  http:\/\/en.wikipedia.org.\/wiki\/Ghost_in_the_Shell\n782. United States Declaration of Independence  \u2014  http:\/\/en.wikipedia.org.\/wiki\/United_States_Declaration_of_Independence\n783. Chernobyl disaster  \u2014  http:\/\/en.wikipedia.org.\/wiki\/Chernobyl_disaster\n784. United Kingdom of Portugal, Brazil and the Algarves  \u2014  http:\/\/en.wikipedia.org.\/wiki\/United_Kingdom_of_Portugal%2C_Brazil_and_the_Algarves\n785. Charlie Chaplin  \u2014  http:\/\/en.wikipedia.org.\/wiki\/Charlie_Chaplin\n786. Freemasonry  \u2014  http:\/\/en.wikipedia.org.\/wiki\/Freemasonry\n787. Microsoft Windows  \u2014  http:\/\/en.wikipedia.org.\/wiki\/Microsoft_Windows\n788. Snoop Dogg  \u2014  http:\/\/en.wikipedia.org.\/wiki\/Snoop_Dogg\n789. Ted Bundy  \u2014  http:\/\/en.wikipedia.org.\/wiki\/Ted_Bundy\n790. Family of Donald Trump  \u2014  http:\/\/en.wikipedia.org.\/wiki\/Family_of_Donald_Trump\n791. Silence (2016 film)  \u2014  http:\/\/en.wikipedia.org.\/wiki\/Silence_(2016_film)\n792. Maslow's hierarchy of needs  \u2014  http:\/\/en.wikipedia.org.\/wiki\/Maslow's_hierarchy_of_needs\n793. Film  \u2014  http:\/\/en.wikipedia.org.\/wiki\/Film\n794. Unbreakable (film)  \u2014  http:\/\/en.wikipedia.org.\/wiki\/Unbreakable_(film)\n795. Shaquille O'Neal  \u2014  http:\/\/en.wikipedia.org.\/wiki\/Shaquille_O'Neal\n796. Alexandra Daddario  \u2014  http:\/\/en.wikipedia.org.\/wiki\/Alexandra_Daddario\n797. DJ Khaled  \u2014  http:\/\/en.wikipedia.org.\/wiki\/DJ_Khaled\n798. Schizophrenia  \u2014  http:\/\/en.wikipedia.org.\/wiki\/Schizophrenia\n799. Cities and towns during the Syrian Civil War  \u2014  http:\/\/en.wikipedia.org.\/wiki\/Cities_and_towns_during_the_Syrian_Civil_War\n","miniList":"700. Genghis Khan\n701. Queen (band)\n702. The World's Billionaires\n703. Saint Petersburg\n704. Baqa'a refugee camp\n705. XXXTentacion\n706. Planet of the Apes\n707. Saint Patrick's Day\n708. Al Baqa\n709. Morocco\n710. Nicole Kidman\n711. 2016\u201317 Premier League\n712. Bob Marley\n713. Special education\n714. Fibonacci number\n715. Paul McCartney\n716. 2017\n717. List of most-subscribed YouTube channels\n718. Heath Ledger\n719. Sun\n720. Natalie Portman\n721. Liverpool F.C.\n722. Homeland (TV series)\n723. Anthony Scaramucci\n724. Wolfgang Amadeus Mozart\n725. French Revolution\n726. Jennifer Lopez\n727. Paris\n728. Cabinet of Donald Trump\n729. Philosophy of education\n730. Payday loan\n731. Mila Kunis\n732. James VI and I\n733. John McCain\n734. Game of Thrones (season 6)\n735. Sarah Huckabee Sanders\n736. How to Get Away with Murder\n737. List of Nintendo Switch games\n738. Belgium\n739. Manchester City F.C.\n740. Ukraine\n741. Argentina\n742. The Emoji Movie\n743. Marilyn Manson\n744. The Leftovers (TV series)\n745. Jeffrey Dahmer\n746. Test\n747. Gennady Golovkin\n748. Greece\n749. Academy Award for Best Picture\n750. Andrew Jackson\n751. Batman\n752. Shah Rukh Khan\n753. WWE\n754. Alicia Vikander\n755. Benjamin Franklin\n756. Queen Elizabeth The Queen Mother\n757. Lonzo Ball\n758. Illuminati\n759. Matt Damon\n760. The Notorious B.I.G.\n761. Hurricane Katrina\n762. Scotland\n763. Jerusalem\n764. Black Panther (film)\n765. Led Zeppelin\n766. Dunkirk evacuation\n767. Atomic Blonde\n768. List of mathematical symbols\n769. Sylvester Stallone\n770. Lena Headey\n771. Agents of S.H.I.E.L.D. (season 4)\n772. Virtual private network\n773. Winona Ryder\n774. Restoration (Spain)\n775. Super Bowl LI\n776. Angela Merkel\n777. It's Always Sunny in Philadelphia\n778. Ethereum\n779. Ragnar Lodbrok\n780. Lion\n781. Ghost in the Shell\n782. United States Declaration of Independence\n783. Chernobyl disaster\n784. United Kingdom of Portugal, Brazil and the Algarves\n785. Charlie Chaplin\n786. Freemasonry\n787. Microsoft Windows\n788. Snoop Dogg\n789. Ted Bundy\n790. Family of Donald Trump\n791. Silence (2016 film)\n792. Maslow's hierarchy of needs\n793. Film\n794. Unbreakable (film)\n795. Shaquille O'Neal\n796. Alexandra Daddario\n797. DJ Khaled\n798. Schizophrenia\n799. Cities and towns during the Syrian Civil War\n"}
