{"start":801,"end":900,"count":5616717,"type":"pageviews","pageSize":100,"page":8,"pages":56168,"columns":[{"label":"","property":"pageviews","sortable":false}],"items":[{"pageviews":"800. <a target=\"_blank\" href=\"http://en.wikipedia.org./wiki/Harry_S._Truman\">Harry S. Truman</a>"},{"pageviews":"801. <a target=\"_blank\" href=\"http://en.wikipedia.org./wiki/Michael_Fassbender\">Michael Fassbender</a>"},{"pageviews":"802. <a target=\"_blank\" href=\"http://en.wikipedia.org./wiki/Kingdom_of_Laos\">Kingdom of Laos</a>"},{"pageviews":"803. <a target=\"_blank\" href=\"http://en.wikipedia.org./wiki/Mel_Gibson\">Mel Gibson</a>"},{"pageviews":"804. <a target=\"_blank\" href=\"http://en.wikipedia.org./wiki/Uber\">Uber</a>"},{"pageviews":"805. <a target=\"_blank\" href=\"http://en.wikipedia.org./wiki/Malayan_Union\">Malayan Union</a>"},{"pageviews":"806. <a target=\"_blank\" href=\"http://en.wikipedia.org./wiki/Kingdom_of_Poland_(1385%E2%80%931569)\">Kingdom of Poland (1385–1569)</a>"},{"pageviews":"807. <a target=\"_blank\" href=\"http://en.wikipedia.org./wiki/Gray_wolf\">Gray wolf</a>"},{"pageviews":"808. <a target=\"_blank\" href=\"http://en.wikipedia.org./wiki/Rowan_Atkinson\">Rowan Atkinson</a>"},{"pageviews":"809. <a target=\"_blank\" href=\"http://en.wikipedia.org./wiki/Hypertext_Transfer_Protocol\">Hypertext Transfer Protocol</a>"},{"pageviews":"810. <a target=\"_blank\" href=\"http://en.wikipedia.org./wiki/Lil_Peep\">Lil Peep</a>"},{"pageviews":"811. <a target=\"_blank\" href=\"http://en.wikipedia.org./wiki/Ludwig_van_Beethoven\">Ludwig van Beethoven</a>"},{"pageviews":"812. <a target=\"_blank\" href=\"http://en.wikipedia.org./wiki/Dr._Dre\">Dr. Dre</a>"},{"pageviews":"813. <a target=\"_blank\" href=\"http://en.wikipedia.org./wiki/List_of_NBA_champions\">List of NBA champions</a>"},{"pageviews":"814. <a target=\"_blank\" href=\"http://en.wikipedia.org./wiki/Al_Franken\">Al Franken</a>"},{"pageviews":"815. <a target=\"_blank\" href=\"http://en.wikipedia.org./wiki/Otto_Warmbier\">Otto Warmbier</a>"},{"pageviews":"816. <a target=\"_blank\" href=\"http://en.wikipedia.org./wiki/Millie_Bobby_Brown\">Millie Bobby Brown</a>"},{"pageviews":"817. <a target=\"_blank\" href=\"http://en.wikipedia.org./wiki/Firefox\">Firefox</a>"},{"pageviews":"818. <a target=\"_blank\" href=\"http://en.wikipedia.org./wiki/WhatsApp\">WhatsApp</a>"},{"pageviews":"819. <a target=\"_blank\" href=\"http://en.wikipedia.org./wiki/List_of_country_calling_codes\">List of country calling codes</a>"},{"pageviews":"820. <a target=\"_blank\" href=\"http://en.wikipedia.org./wiki/Industrial_Revolution\">Industrial Revolution</a>"},{"pageviews":"821. <a target=\"_blank\" href=\"http://en.wikipedia.org./wiki/Mao_Zedong\">Mao Zedong</a>"},{"pageviews":"822. <a target=\"_blank\" href=\"http://en.wikipedia.org./wiki/Gautama_Buddha\">Gautama Buddha</a>"},{"pageviews":"823. <a target=\"_blank\" href=\"http://en.wikipedia.org./wiki/Google_Docs%2C_Sheets%2C_and_Slides\">Google Docs, Sheets, and Slides</a>"},{"pageviews":"824. <a target=\"_blank\" href=\"http://en.wikipedia.org./wiki/Dragon_Ball_Super\">Dragon Ball Super</a>"},{"pageviews":"825. <a target=\"_blank\" href=\"http://en.wikipedia.org./wiki/Austria\">Austria</a>"},{"pageviews":"826. <a target=\"_blank\" href=\"http://en.wikipedia.org./wiki/Gerald_Ford\">Gerald Ford</a>"},{"pageviews":"827. <a target=\"_blank\" href=\"http://en.wikipedia.org./wiki/Serbian_Despotate\">Serbian Despotate</a>"},{"pageviews":"828. <a target=\"_blank\" href=\"http://en.wikipedia.org./wiki/George_III_of_the_United_Kingdom\">George III of the United Kingdom</a>"},{"pageviews":"829. <a target=\"_blank\" href=\"http://en.wikipedia.org./wiki/Underworld_(film_series)\">Underworld (film series)</a>"},{"pageviews":"830. <a target=\"_blank\" href=\"http://en.wikipedia.org./wiki/Scotch_pie\">Scotch pie</a>"},{"pageviews":"831. <a target=\"_blank\" href=\"http://en.wikipedia.org./wiki/Malcolm_X\">Malcolm X</a>"},{"pageviews":"832. <a target=\"_blank\" href=\"http://en.wikipedia.org./wiki/People's_Republic_of_Benin\">People's Republic of Benin</a>"},{"pageviews":"833. <a target=\"_blank\" href=\"http://en.wikipedia.org./wiki/Second_Hungarian_Republic\">Second Hungarian Republic</a>"},{"pageviews":"834. <a target=\"_blank\" href=\"http://en.wikipedia.org./wiki/Pablo_Picasso\">Pablo Picasso</a>"},{"pageviews":"835. <a target=\"_blank\" href=\"http://en.wikipedia.org./wiki/Mauritius\">Mauritius</a>"},{"pageviews":"836. <a target=\"_blank\" href=\"http://en.wikipedia.org./wiki/Mother_Teresa\">Mother Teresa</a>"},{"pageviews":"837. <a target=\"_blank\" href=\"http://en.wikipedia.org./wiki/Grey's_Anatomy_(season_13)\">Grey's Anatomy (season 13)</a>"},{"pageviews":"838. <a target=\"_blank\" href=\"http://en.wikipedia.org./wiki/NCIS_(TV_series)\">NCIS (TV series)</a>"},{"pageviews":"839. <a target=\"_blank\" href=\"http://en.wikipedia.org./wiki/List_of_The_Blacklist_episodes\">List of The Blacklist episodes</a>"},{"pageviews":"840. <a target=\"_blank\" href=\"http://en.wikipedia.org./wiki/Michael_Flynn\">Michael Flynn</a>"},{"pageviews":"841. <a target=\"_blank\" href=\"http://en.wikipedia.org./wiki/Chance_the_Rapper\">Chance the Rapper</a>"},{"pageviews":"842. <a target=\"_blank\" href=\"http://en.wikipedia.org./wiki/PewDiePie\">PewDiePie</a>"},{"pageviews":"843. <a target=\"_blank\" href=\"http://en.wikipedia.org./wiki/Couto_Misto\">Couto Misto</a>"},{"pageviews":"844. <a target=\"_blank\" href=\"http://en.wikipedia.org./wiki/Gordon_Ramsay\">Gordon Ramsay</a>"},{"pageviews":"845. <a target=\"_blank\" href=\"http://en.wikipedia.org./wiki/Robin_Wright\">Robin Wright</a>"},{"pageviews":"846. <a target=\"_blank\" href=\"http://en.wikipedia.org./wiki/Syria\">Syria</a>"},{"pageviews":"847. <a target=\"_blank\" href=\"http://en.wikipedia.org./wiki/Raspberry_Pi\">Raspberry Pi</a>"},{"pageviews":"848. <a target=\"_blank\" href=\"http://en.wikipedia.org./wiki/Education_in_Hong_Kong\">Education in Hong Kong</a>"},{"pageviews":"849. <a target=\"_blank\" href=\"http://en.wikipedia.org./wiki/Margot_Robbie\">Margot Robbie</a>"},{"pageviews":"850. <a target=\"_blank\" href=\"http://en.wikipedia.org./wiki/Steven_Spielberg\">Steven Spielberg</a>"},{"pageviews":"851. <a target=\"_blank\" href=\"http://en.wikipedia.org./wiki/Harrison_Ford\">Harrison Ford</a>"},{"pageviews":"852. <a target=\"_blank\" href=\"http://en.wikipedia.org./wiki/A_Series_of_Unfortunate_Events_(TV_series)\">A Series of Unfortunate Events (TV series)</a>"},{"pageviews":"853. <a target=\"_blank\" href=\"http://en.wikipedia.org./wiki/It_(character)\">It (character)</a>"},{"pageviews":"854. <a target=\"_blank\" href=\"http://en.wikipedia.org./wiki/Joe_Biden\">Joe Biden</a>"},{"pageviews":"855. <a target=\"_blank\" href=\"http://en.wikipedia.org./wiki/Bernard_Madoff\">Bernard Madoff</a>"},{"pageviews":"856. <a target=\"_blank\" href=\"http://en.wikipedia.org./wiki/One_Direction\">One Direction</a>"},{"pageviews":"857. <a target=\"_blank\" href=\"http://en.wikipedia.org./wiki/Moldavian_Democratic_Republic\">Moldavian Democratic Republic</a>"},{"pageviews":"858. <a target=\"_blank\" href=\"http://en.wikipedia.org./wiki/Lorde\">Lorde</a>"},{"pageviews":"859. <a target=\"_blank\" href=\"http://en.wikipedia.org./wiki/Cyprus\">Cyprus</a>"},{"pageviews":"860. <a target=\"_blank\" href=\"http://en.wikipedia.org./wiki/The_Gifted_(TV_series)\">The Gifted (TV series)</a>"},{"pageviews":"861. <a target=\"_blank\" href=\"http://en.wikipedia.org./wiki/List_of_The_100_episodes\">List of The 100 episodes</a>"},{"pageviews":"862. <a target=\"_blank\" href=\"http://en.wikipedia.org./wiki/San_Francisco\">San Francisco</a>"},{"pageviews":"863. <a target=\"_blank\" href=\"http://en.wikipedia.org./wiki/The_Rolling_Stones\">The Rolling Stones</a>"},{"pageviews":"864. <a target=\"_blank\" href=\"http://en.wikipedia.org./wiki/Robert_Downey_Jr.\">Robert Downey Jr.</a>"},{"pageviews":"865. <a target=\"_blank\" href=\"http://en.wikipedia.org./wiki/The_OA\">The OA</a>"},{"pageviews":"866. <a target=\"_blank\" href=\"http://en.wikipedia.org./wiki/Luxembourg\">Luxembourg</a>"},{"pageviews":"867. <a target=\"_blank\" href=\"http://en.wikipedia.org./wiki/PlayStation_4\">PlayStation 4</a>"},{"pageviews":"868. <a target=\"_blank\" href=\"http://en.wikipedia.org./wiki/Global_warming\">Global warming</a>"},{"pageviews":"869. <a target=\"_blank\" href=\"http://en.wikipedia.org./wiki/Meg_Johnson_(poet)\">Meg Johnson (poet)</a>"},{"pageviews":"870. <a target=\"_blank\" href=\"http://en.wikipedia.org./wiki/Louis_XIV_of_France\">Louis XIV of France</a>"},{"pageviews":"871. <a target=\"_blank\" href=\"http://en.wikipedia.org./wiki/Fargo_(season_3)\">Fargo (season 3)</a>"},{"pageviews":"872. <a target=\"_blank\" href=\"http://en.wikipedia.org./wiki/Keira_Knightley\">Keira Knightley</a>"},{"pageviews":"873. <a target=\"_blank\" href=\"http://en.wikipedia.org./wiki/Open_education\">Open education</a>"},{"pageviews":"874. <a target=\"_blank\" href=\"http://en.wikipedia.org./wiki/Mary_Tyler_Moore\">Mary Tyler Moore</a>"},{"pageviews":"875. <a target=\"_blank\" href=\"http://en.wikipedia.org./wiki/Brie_Larson\">Brie Larson</a>"},{"pageviews":"876. <a target=\"_blank\" href=\"http://en.wikipedia.org./wiki/Mahershala_Ali\">Mahershala Ali</a>"},{"pageviews":"877. <a target=\"_blank\" href=\"http://en.wikipedia.org./wiki/British_Empire\">British Empire</a>"},{"pageviews":"878. <a target=\"_blank\" href=\"http://en.wikipedia.org./wiki/Hailee_Steinfeld\">Hailee Steinfeld</a>"},{"pageviews":"879. <a target=\"_blank\" href=\"http://en.wikipedia.org./wiki/General_Data_Protection_Regulation\">General Data Protection Regulation</a>"},{"pageviews":"880. <a target=\"_blank\" href=\"http://en.wikipedia.org./wiki/Opinion_polling_for_the_United_Kingdom_general_election%2C_2017\">Opinion polling for the United Kingdom general election, 2017</a>"},{"pageviews":"881. <a target=\"_blank\" href=\"http://en.wikipedia.org./wiki/Mount_Everest\">Mount Everest</a>"},{"pageviews":"882. <a target=\"_blank\" href=\"http://en.wikipedia.org./wiki/Windows_10\">Windows 10</a>"},{"pageviews":"883. <a target=\"_blank\" href=\"http://en.wikipedia.org./wiki/Juventus_F.C.\">Juventus F.C.</a>"},{"pageviews":"884. <a target=\"_blank\" href=\"http://en.wikipedia.org./wiki/Kristen_Stewart\">Kristen Stewart</a>"},{"pageviews":"885. <a target=\"_blank\" href=\"http://en.wikipedia.org./wiki/Roger_Moore\">Roger Moore</a>"},{"pageviews":"886. <a target=\"_blank\" href=\"http://en.wikipedia.org./wiki/List_of_Intel_microprocessors\">List of Intel microprocessors</a>"},{"pageviews":"887. <a target=\"_blank\" href=\"http://en.wikipedia.org./wiki/The_Lego_Batman_Movie\">The Lego Batman Movie</a>"},{"pageviews":"888. <a target=\"_blank\" href=\"http://en.wikipedia.org./wiki/Bad_Credit\">Bad Credit</a>"},{"pageviews":"889. <a target=\"_blank\" href=\"http://en.wikipedia.org./wiki/The_Circle_(2017_film)\">The Circle (2017 film)</a>"},{"pageviews":"890. <a target=\"_blank\" href=\"http://en.wikipedia.org./wiki/Credit_theory_of_money\">Credit theory of money</a>"},{"pageviews":"891. <a target=\"_blank\" href=\"http://en.wikipedia.org./wiki/Gulf_War\">Gulf War</a>"},{"pageviews":"892. <a target=\"_blank\" href=\"http://en.wikipedia.org./wiki/Rex_Tillerson\">Rex Tillerson</a>"},{"pageviews":"893. <a target=\"_blank\" href=\"http://en.wikipedia.org./wiki/List_of_most_popular_websites\">List of most popular websites</a>"},{"pageviews":"894. <a target=\"_blank\" href=\"http://en.wikipedia.org./wiki/Channel_S\">Channel S</a>"},{"pageviews":"895. <a target=\"_blank\" href=\"http://en.wikipedia.org./wiki/Star_Wars_Rebels\">Star Wars Rebels</a>"},{"pageviews":"896. <a target=\"_blank\" href=\"http://en.wikipedia.org./wiki/Boeing_787_Dreamliner\">Boeing 787 Dreamliner</a>"},{"pageviews":"897. <a target=\"_blank\" href=\"http://en.wikipedia.org./wiki/Robert_Mugabe\">Robert Mugabe</a>"},{"pageviews":"898. <a target=\"_blank\" href=\"http://en.wikipedia.org./wiki/Britney_Spears\">Britney Spears</a>"},{"pageviews":"899. <a target=\"_blank\" href=\"http://en.wikipedia.org./wiki/Ben_Shapiro\">Ben Shapiro</a>"}],"list":"800. Harry S. Truman  \u2014  http:\/\/en.wikipedia.org.\/wiki\/Harry_S._Truman\n801. Michael Fassbender  \u2014  http:\/\/en.wikipedia.org.\/wiki\/Michael_Fassbender\n802. Kingdom of Laos  \u2014  http:\/\/en.wikipedia.org.\/wiki\/Kingdom_of_Laos\n803. Mel Gibson  \u2014  http:\/\/en.wikipedia.org.\/wiki\/Mel_Gibson\n804. Uber  \u2014  http:\/\/en.wikipedia.org.\/wiki\/Uber\n805. Malayan Union  \u2014  http:\/\/en.wikipedia.org.\/wiki\/Malayan_Union\n806. Kingdom of Poland (1385\u20131569)  \u2014  http:\/\/en.wikipedia.org.\/wiki\/Kingdom_of_Poland_(1385%E2%80%931569)\n807. Gray wolf  \u2014  http:\/\/en.wikipedia.org.\/wiki\/Gray_wolf\n808. Rowan Atkinson  \u2014  http:\/\/en.wikipedia.org.\/wiki\/Rowan_Atkinson\n809. Hypertext Transfer Protocol  \u2014  http:\/\/en.wikipedia.org.\/wiki\/Hypertext_Transfer_Protocol\n810. Lil Peep  \u2014  http:\/\/en.wikipedia.org.\/wiki\/Lil_Peep\n811. Ludwig van Beethoven  \u2014  http:\/\/en.wikipedia.org.\/wiki\/Ludwig_van_Beethoven\n812. Dr. Dre  \u2014  http:\/\/en.wikipedia.org.\/wiki\/Dr._Dre\n813. List of NBA champions  \u2014  http:\/\/en.wikipedia.org.\/wiki\/List_of_NBA_champions\n814. Al Franken  \u2014  http:\/\/en.wikipedia.org.\/wiki\/Al_Franken\n815. Otto Warmbier  \u2014  http:\/\/en.wikipedia.org.\/wiki\/Otto_Warmbier\n816. Millie Bobby Brown  \u2014  http:\/\/en.wikipedia.org.\/wiki\/Millie_Bobby_Brown\n817. Firefox  \u2014  http:\/\/en.wikipedia.org.\/wiki\/Firefox\n818. WhatsApp  \u2014  http:\/\/en.wikipedia.org.\/wiki\/WhatsApp\n819. List of country calling codes  \u2014  http:\/\/en.wikipedia.org.\/wiki\/List_of_country_calling_codes\n820. Industrial Revolution  \u2014  http:\/\/en.wikipedia.org.\/wiki\/Industrial_Revolution\n821. Mao Zedong  \u2014  http:\/\/en.wikipedia.org.\/wiki\/Mao_Zedong\n822. Gautama Buddha  \u2014  http:\/\/en.wikipedia.org.\/wiki\/Gautama_Buddha\n823. Google Docs, Sheets, and Slides  \u2014  http:\/\/en.wikipedia.org.\/wiki\/Google_Docs%2C_Sheets%2C_and_Slides\n824. Dragon Ball Super  \u2014  http:\/\/en.wikipedia.org.\/wiki\/Dragon_Ball_Super\n825. Austria  \u2014  http:\/\/en.wikipedia.org.\/wiki\/Austria\n826. Gerald Ford  \u2014  http:\/\/en.wikipedia.org.\/wiki\/Gerald_Ford\n827. Serbian Despotate  \u2014  http:\/\/en.wikipedia.org.\/wiki\/Serbian_Despotate\n828. George III of the United Kingdom  \u2014  http:\/\/en.wikipedia.org.\/wiki\/George_III_of_the_United_Kingdom\n829. Underworld (film series)  \u2014  http:\/\/en.wikipedia.org.\/wiki\/Underworld_(film_series)\n830. Scotch pie  \u2014  http:\/\/en.wikipedia.org.\/wiki\/Scotch_pie\n831. Malcolm X  \u2014  http:\/\/en.wikipedia.org.\/wiki\/Malcolm_X\n832. People's Republic of Benin  \u2014  http:\/\/en.wikipedia.org.\/wiki\/People's_Republic_of_Benin\n833. Second Hungarian Republic  \u2014  http:\/\/en.wikipedia.org.\/wiki\/Second_Hungarian_Republic\n834. Pablo Picasso  \u2014  http:\/\/en.wikipedia.org.\/wiki\/Pablo_Picasso\n835. Mauritius  \u2014  http:\/\/en.wikipedia.org.\/wiki\/Mauritius\n836. Mother Teresa  \u2014  http:\/\/en.wikipedia.org.\/wiki\/Mother_Teresa\n837. Grey's Anatomy (season 13)  \u2014  http:\/\/en.wikipedia.org.\/wiki\/Grey's_Anatomy_(season_13)\n838. NCIS (TV series)  \u2014  http:\/\/en.wikipedia.org.\/wiki\/NCIS_(TV_series)\n839. List of The Blacklist episodes  \u2014  http:\/\/en.wikipedia.org.\/wiki\/List_of_The_Blacklist_episodes\n840. Michael Flynn  \u2014  http:\/\/en.wikipedia.org.\/wiki\/Michael_Flynn\n841. Chance the Rapper  \u2014  http:\/\/en.wikipedia.org.\/wiki\/Chance_the_Rapper\n842. PewDiePie  \u2014  http:\/\/en.wikipedia.org.\/wiki\/PewDiePie\n843. Couto Misto  \u2014  http:\/\/en.wikipedia.org.\/wiki\/Couto_Misto\n844. Gordon Ramsay  \u2014  http:\/\/en.wikipedia.org.\/wiki\/Gordon_Ramsay\n845. Robin Wright  \u2014  http:\/\/en.wikipedia.org.\/wiki\/Robin_Wright\n846. Syria  \u2014  http:\/\/en.wikipedia.org.\/wiki\/Syria\n847. Raspberry Pi  \u2014  http:\/\/en.wikipedia.org.\/wiki\/Raspberry_Pi\n848. Education in Hong Kong  \u2014  http:\/\/en.wikipedia.org.\/wiki\/Education_in_Hong_Kong\n849. Margot Robbie  \u2014  http:\/\/en.wikipedia.org.\/wiki\/Margot_Robbie\n850. Steven Spielberg  \u2014  http:\/\/en.wikipedia.org.\/wiki\/Steven_Spielberg\n851. Harrison Ford  \u2014  http:\/\/en.wikipedia.org.\/wiki\/Harrison_Ford\n852. A Series of Unfortunate Events (TV series)  \u2014  http:\/\/en.wikipedia.org.\/wiki\/A_Series_of_Unfortunate_Events_(TV_series)\n853. It (character)  \u2014  http:\/\/en.wikipedia.org.\/wiki\/It_(character)\n854. Joe Biden  \u2014  http:\/\/en.wikipedia.org.\/wiki\/Joe_Biden\n855. Bernard Madoff  \u2014  http:\/\/en.wikipedia.org.\/wiki\/Bernard_Madoff\n856. One Direction  \u2014  http:\/\/en.wikipedia.org.\/wiki\/One_Direction\n857. Moldavian Democratic Republic  \u2014  http:\/\/en.wikipedia.org.\/wiki\/Moldavian_Democratic_Republic\n858. Lorde  \u2014  http:\/\/en.wikipedia.org.\/wiki\/Lorde\n859. Cyprus  \u2014  http:\/\/en.wikipedia.org.\/wiki\/Cyprus\n860. The Gifted (TV series)  \u2014  http:\/\/en.wikipedia.org.\/wiki\/The_Gifted_(TV_series)\n861. List of The 100 episodes  \u2014  http:\/\/en.wikipedia.org.\/wiki\/List_of_The_100_episodes\n862. San Francisco  \u2014  http:\/\/en.wikipedia.org.\/wiki\/San_Francisco\n863. The Rolling Stones  \u2014  http:\/\/en.wikipedia.org.\/wiki\/The_Rolling_Stones\n864. Robert Downey Jr.  \u2014  http:\/\/en.wikipedia.org.\/wiki\/Robert_Downey_Jr.\n865. The OA  \u2014  http:\/\/en.wikipedia.org.\/wiki\/The_OA\n866. Luxembourg  \u2014  http:\/\/en.wikipedia.org.\/wiki\/Luxembourg\n867. PlayStation 4  \u2014  http:\/\/en.wikipedia.org.\/wiki\/PlayStation_4\n868. Global warming  \u2014  http:\/\/en.wikipedia.org.\/wiki\/Global_warming\n869. Meg Johnson (poet)  \u2014  http:\/\/en.wikipedia.org.\/wiki\/Meg_Johnson_(poet)\n870. Louis XIV of France  \u2014  http:\/\/en.wikipedia.org.\/wiki\/Louis_XIV_of_France\n871. Fargo (season 3)  \u2014  http:\/\/en.wikipedia.org.\/wiki\/Fargo_(season_3)\n872. Keira Knightley  \u2014  http:\/\/en.wikipedia.org.\/wiki\/Keira_Knightley\n873. Open education  \u2014  http:\/\/en.wikipedia.org.\/wiki\/Open_education\n874. Mary Tyler Moore  \u2014  http:\/\/en.wikipedia.org.\/wiki\/Mary_Tyler_Moore\n875. Brie Larson  \u2014  http:\/\/en.wikipedia.org.\/wiki\/Brie_Larson\n876. Mahershala Ali  \u2014  http:\/\/en.wikipedia.org.\/wiki\/Mahershala_Ali\n877. British Empire  \u2014  http:\/\/en.wikipedia.org.\/wiki\/British_Empire\n878. Hailee Steinfeld  \u2014  http:\/\/en.wikipedia.org.\/wiki\/Hailee_Steinfeld\n879. General Data Protection Regulation  \u2014  http:\/\/en.wikipedia.org.\/wiki\/General_Data_Protection_Regulation\n880. Opinion polling for the United Kingdom general election, 2017  \u2014  http:\/\/en.wikipedia.org.\/wiki\/Opinion_polling_for_the_United_Kingdom_general_election%2C_2017\n881. Mount Everest  \u2014  http:\/\/en.wikipedia.org.\/wiki\/Mount_Everest\n882. Windows 10  \u2014  http:\/\/en.wikipedia.org.\/wiki\/Windows_10\n883. Juventus F.C.  \u2014  http:\/\/en.wikipedia.org.\/wiki\/Juventus_F.C.\n884. Kristen Stewart  \u2014  http:\/\/en.wikipedia.org.\/wiki\/Kristen_Stewart\n885. Roger Moore  \u2014  http:\/\/en.wikipedia.org.\/wiki\/Roger_Moore\n886. List of Intel microprocessors  \u2014  http:\/\/en.wikipedia.org.\/wiki\/List_of_Intel_microprocessors\n887. The Lego Batman Movie  \u2014  http:\/\/en.wikipedia.org.\/wiki\/The_Lego_Batman_Movie\n888. Bad Credit  \u2014  http:\/\/en.wikipedia.org.\/wiki\/Bad_Credit\n889. The Circle (2017 film)  \u2014  http:\/\/en.wikipedia.org.\/wiki\/The_Circle_(2017_film)\n890. Credit theory of money  \u2014  http:\/\/en.wikipedia.org.\/wiki\/Credit_theory_of_money\n891. Gulf War  \u2014  http:\/\/en.wikipedia.org.\/wiki\/Gulf_War\n892. Rex Tillerson  \u2014  http:\/\/en.wikipedia.org.\/wiki\/Rex_Tillerson\n893. List of most popular websites  \u2014  http:\/\/en.wikipedia.org.\/wiki\/List_of_most_popular_websites\n894. Channel S  \u2014  http:\/\/en.wikipedia.org.\/wiki\/Channel_S\n895. Star Wars Rebels  \u2014  http:\/\/en.wikipedia.org.\/wiki\/Star_Wars_Rebels\n896. Boeing 787 Dreamliner  \u2014  http:\/\/en.wikipedia.org.\/wiki\/Boeing_787_Dreamliner\n897. Robert Mugabe  \u2014  http:\/\/en.wikipedia.org.\/wiki\/Robert_Mugabe\n898. Britney Spears  \u2014  http:\/\/en.wikipedia.org.\/wiki\/Britney_Spears\n899. Ben Shapiro  \u2014  http:\/\/en.wikipedia.org.\/wiki\/Ben_Shapiro\n","miniList":"800. Harry S. Truman\n801. Michael Fassbender\n802. Kingdom of Laos\n803. Mel Gibson\n804. Uber\n805. Malayan Union\n806. Kingdom of Poland (1385\u20131569)\n807. Gray wolf\n808. Rowan Atkinson\n809. Hypertext Transfer Protocol\n810. Lil Peep\n811. Ludwig van Beethoven\n812. Dr. Dre\n813. List of NBA champions\n814. Al Franken\n815. Otto Warmbier\n816. Millie Bobby Brown\n817. Firefox\n818. WhatsApp\n819. List of country calling codes\n820. Industrial Revolution\n821. Mao Zedong\n822. Gautama Buddha\n823. Google Docs, Sheets, and Slides\n824. Dragon Ball Super\n825. Austria\n826. Gerald Ford\n827. Serbian Despotate\n828. George III of the United Kingdom\n829. Underworld (film series)\n830. Scotch pie\n831. Malcolm X\n832. People's Republic of Benin\n833. Second Hungarian Republic\n834. Pablo Picasso\n835. Mauritius\n836. Mother Teresa\n837. Grey's Anatomy (season 13)\n838. NCIS (TV series)\n839. List of The Blacklist episodes\n840. Michael Flynn\n841. Chance the Rapper\n842. PewDiePie\n843. Couto Misto\n844. Gordon Ramsay\n845. Robin Wright\n846. Syria\n847. Raspberry Pi\n848. Education in Hong Kong\n849. Margot Robbie\n850. Steven Spielberg\n851. Harrison Ford\n852. A Series of Unfortunate Events (TV series)\n853. It (character)\n854. Joe Biden\n855. Bernard Madoff\n856. One Direction\n857. Moldavian Democratic Republic\n858. Lorde\n859. Cyprus\n860. The Gifted (TV series)\n861. List of The 100 episodes\n862. San Francisco\n863. The Rolling Stones\n864. Robert Downey Jr.\n865. The OA\n866. Luxembourg\n867. PlayStation 4\n868. Global warming\n869. Meg Johnson (poet)\n870. Louis XIV of France\n871. Fargo (season 3)\n872. Keira Knightley\n873. Open education\n874. Mary Tyler Moore\n875. Brie Larson\n876. Mahershala Ali\n877. British Empire\n878. Hailee Steinfeld\n879. General Data Protection Regulation\n880. Opinion polling for the United Kingdom general election, 2017\n881. Mount Everest\n882. Windows 10\n883. Juventus F.C.\n884. Kristen Stewart\n885. Roger Moore\n886. List of Intel microprocessors\n887. The Lego Batman Movie\n888. Bad Credit\n889. The Circle (2017 film)\n890. Credit theory of money\n891. Gulf War\n892. Rex Tillerson\n893. List of most popular websites\n894. Channel S\n895. Star Wars Rebels\n896. Boeing 787 Dreamliner\n897. Robert Mugabe\n898. Britney Spears\n899. Ben Shapiro\n"}
