{"start":901,"end":1000,"count":5616717,"type":"pageviews","pageSize":100,"page":9,"pages":56168,"columns":[{"label":"","property":"pageviews","sortable":false}],"items":[{"pageviews":"900. <a target=\"_blank\" href=\"http://en.wikipedia.org./wiki/It_(miniseries)\">It (miniseries)</a>"},{"pageviews":"901. <a target=\"_blank\" href=\"http://en.wikipedia.org./wiki/Tonya_Harding\">Tonya Harding</a>"},{"pageviews":"902. <a target=\"_blank\" href=\"http://en.wikipedia.org./wiki/List_of_original_programs_distributed_by_Netflix\">List of original programs distributed by Netflix</a>"},{"pageviews":"903. <a target=\"_blank\" href=\"http://en.wikipedia.org./wiki/Rino_Romano\">Rino Romano</a>"},{"pageviews":"904. <a target=\"_blank\" href=\"http://en.wikipedia.org./wiki/List_of_Agents_of_S.H.I.E.L.D._episodes\">List of Agents of S.H.I.E.L.D. episodes</a>"},{"pageviews":"905. <a target=\"_blank\" href=\"http://en.wikipedia.org./wiki/Chuck_Berry\">Chuck Berry</a>"},{"pageviews":"906. <a target=\"_blank\" href=\"http://en.wikipedia.org./wiki/Sexual_intercourse\">Sexual intercourse</a>"},{"pageviews":"907. <a target=\"_blank\" href=\"http://en.wikipedia.org./wiki/Virat_Kohli\">Virat Kohli</a>"},{"pageviews":"908. <a target=\"_blank\" href=\"http://en.wikipedia.org./wiki/Kate_Mara\">Kate Mara</a>"},{"pageviews":"909. <a target=\"_blank\" href=\"http://en.wikipedia.org./wiki/Fifth_Harmony\">Fifth Harmony</a>"},{"pageviews":"910. <a target=\"_blank\" href=\"http://en.wikipedia.org./wiki/Colombia\">Colombia</a>"},{"pageviews":"911. <a target=\"_blank\" href=\"http://en.wikipedia.org./wiki/Pretty_Little_Liars\">Pretty Little Liars</a>"},{"pageviews":"912. <a target=\"_blank\" href=\"http://en.wikipedia.org./wiki/Martin_Luther\">Martin Luther</a>"},{"pageviews":"913. <a target=\"_blank\" href=\"http://en.wikipedia.org./wiki/Ray_Kroc\">Ray Kroc</a>"},{"pageviews":"914. <a target=\"_blank\" href=\"http://en.wikipedia.org./wiki/The_Vampire_Diaries\">The Vampire Diaries</a>"},{"pageviews":"915. <a target=\"_blank\" href=\"http://en.wikipedia.org./wiki/Iron_Fist_(comics)\">Iron Fist (comics)</a>"},{"pageviews":"916. <a target=\"_blank\" href=\"http://en.wikipedia.org./wiki/Dark_matter\">Dark matter</a>"},{"pageviews":"917. <a target=\"_blank\" href=\"http://en.wikipedia.org./wiki/Maldives\">Maldives</a>"},{"pageviews":"918. <a target=\"_blank\" href=\"http://en.wikipedia.org./wiki/Benedict_Cumberbatch\">Benedict Cumberbatch</a>"},{"pageviews":"919. <a target=\"_blank\" href=\"http://en.wikipedia.org./wiki/A_Series_of_Unfortunate_Events\">A Series of Unfortunate Events</a>"},{"pageviews":"920. <a target=\"_blank\" href=\"http://en.wikipedia.org./wiki/Che_Guevara\">Che Guevara</a>"},{"pageviews":"921. <a target=\"_blank\" href=\"http://en.wikipedia.org./wiki/Greenland\">Greenland</a>"},{"pageviews":"922. <a target=\"_blank\" href=\"http://en.wikipedia.org./wiki/2017_NFL_Draft\">2017 NFL Draft</a>"},{"pageviews":"923. <a target=\"_blank\" href=\"http://en.wikipedia.org./wiki/Java_(programming_language)\">Java (programming language)</a>"},{"pageviews":"924. <a target=\"_blank\" href=\"http://en.wikipedia.org./wiki/M249_light_machine_gun\">M249 light machine gun</a>"},{"pageviews":"925. <a target=\"_blank\" href=\"http://en.wikipedia.org./wiki/List_of_2017_albums\">List of 2017 albums</a>"},{"pageviews":"926. <a target=\"_blank\" href=\"http://en.wikipedia.org./wiki/OSI_model\">OSI model</a>"},{"pageviews":"927. <a target=\"_blank\" href=\"http://en.wikipedia.org./wiki/Kate_Beckinsale\">Kate Beckinsale</a>"},{"pageviews":"928. <a target=\"_blank\" href=\"http://en.wikipedia.org./wiki/Katherine_Johnson\">Katherine Johnson</a>"},{"pageviews":"929. <a target=\"_blank\" href=\"http://en.wikipedia.org./wiki/Byzantine_Empire\">Byzantine Empire</a>"},{"pageviews":"930. <a target=\"_blank\" href=\"http://en.wikipedia.org./wiki/Viscosity\">Viscosity</a>"},{"pageviews":"931. <a target=\"_blank\" href=\"http://en.wikipedia.org./wiki/Andalusia\">Andalusia</a>"},{"pageviews":"932. <a target=\"_blank\" href=\"http://en.wikipedia.org./wiki/Linux\">Linux</a>"},{"pageviews":"933. <a target=\"_blank\" href=\"http://en.wikipedia.org./wiki/The_Godfather\">The Godfather</a>"},{"pageviews":"934. <a target=\"_blank\" href=\"http://en.wikipedia.org./wiki/Email\">Email</a>"},{"pageviews":"935. <a target=\"_blank\" href=\"http://en.wikipedia.org./wiki/American_Revolutionary_War\">American Revolutionary War</a>"},{"pageviews":"936. <a target=\"_blank\" href=\"http://en.wikipedia.org./wiki/Airbus_A380\">Airbus A380</a>"},{"pageviews":"937. <a target=\"_blank\" href=\"http://en.wikipedia.org./wiki/GBU-43/B_MOAB\">GBU-43/B MOAB</a>"},{"pageviews":"938. <a target=\"_blank\" href=\"http://en.wikipedia.org./wiki/Asperger_syndrome\">Asperger syndrome</a>"},{"pageviews":"939. <a target=\"_blank\" href=\"http://en.wikipedia.org./wiki/Pink_(singer)\">Pink (singer)</a>"},{"pageviews":"940. <a target=\"_blank\" href=\"http://en.wikipedia.org./wiki/Dan_Stevens\">Dan Stevens</a>"},{"pageviews":"941. <a target=\"_blank\" href=\"http://en.wikipedia.org./wiki/Yahoo!\">Yahoo!</a>"},{"pageviews":"942. <a target=\"_blank\" href=\"http://en.wikipedia.org./wiki/Denial-of-service_attack\">Denial-of-service attack</a>"},{"pageviews":"943. <a target=\"_blank\" href=\"http://en.wikipedia.org./wiki/Criminal_Minds\">Criminal Minds</a>"},{"pageviews":"944. <a target=\"_blank\" href=\"http://en.wikipedia.org./wiki/Kobe_Bryant\">Kobe Bryant</a>"},{"pageviews":"945. <a target=\"_blank\" href=\"http://en.wikipedia.org./wiki/Assassin's_Creed_(film)\">Assassin's Creed (film)</a>"},{"pageviews":"946. <a target=\"_blank\" href=\"http://en.wikipedia.org./wiki/The_Last_Kingdom_(TV_series)\">The Last Kingdom (TV series)</a>"},{"pageviews":"947. <a target=\"_blank\" href=\"http://en.wikipedia.org./wiki/United_States_Constitution\">United States Constitution</a>"},{"pageviews":"948. <a target=\"_blank\" href=\"http://en.wikipedia.org./wiki/Jim_Mattis\">Jim Mattis</a>"},{"pageviews":"949. <a target=\"_blank\" href=\"http://en.wikipedia.org./wiki/Tuberculosis\">Tuberculosis</a>"},{"pageviews":"950. <a target=\"_blank\" href=\"http://en.wikipedia.org./wiki/Catherine%2C_Duchess_of_Cambridge\">Catherine, Duchess of Cambridge</a>"},{"pageviews":"951. <a target=\"_blank\" href=\"http://en.wikipedia.org./wiki/Antikythera_mechanism\">Antikythera mechanism</a>"},{"pageviews":"952. <a target=\"_blank\" href=\"http://en.wikipedia.org./wiki/Galileo_Galilei\">Galileo Galilei</a>"},{"pageviews":"953. <a target=\"_blank\" href=\"http://en.wikipedia.org./wiki/Afghanistan\">Afghanistan</a>"},{"pageviews":"954. <a target=\"_blank\" href=\"http://en.wikipedia.org./wiki/Elton_John\">Elton John</a>"},{"pageviews":"955. <a target=\"_blank\" href=\"http://en.wikipedia.org./wiki/Family_Guy\">Family Guy</a>"},{"pageviews":"956. <a target=\"_blank\" href=\"http://en.wikipedia.org./wiki/Columbine_High_School_massacre\">Columbine High School massacre</a>"},{"pageviews":"957. <a target=\"_blank\" href=\"http://en.wikipedia.org./wiki/Samurai_Jack_(season_5)\">Samurai Jack (season 5)</a>"},{"pageviews":"958. <a target=\"_blank\" href=\"http://en.wikipedia.org./wiki/Science\">Science</a>"},{"pageviews":"959. <a target=\"_blank\" href=\"http://en.wikipedia.org./wiki/Knowing_Bros\">Knowing Bros</a>"},{"pageviews":"960. <a target=\"_blank\" href=\"http://en.wikipedia.org./wiki/Naruto\">Naruto</a>"},{"pageviews":"961. <a target=\"_blank\" href=\"http://en.wikipedia.org./wiki/Alien_(film)\">Alien (film)</a>"},{"pageviews":"962. <a target=\"_blank\" href=\"http://en.wikipedia.org./wiki/Kaby_Lake\">Kaby Lake</a>"},{"pageviews":"963. <a target=\"_blank\" href=\"http://en.wikipedia.org./wiki/Jim_Crow_laws\">Jim Crow laws</a>"},{"pageviews":"964. <a target=\"_blank\" href=\"http://en.wikipedia.org./wiki/King_Arthur\">King Arthur</a>"},{"pageviews":"965. <a target=\"_blank\" href=\"http://en.wikipedia.org./wiki/Republican_Party_(United_States)\">Republican Party (United States)</a>"},{"pageviews":"966. <a target=\"_blank\" href=\"http://en.wikipedia.org./wiki/Doctor_Who_(series_10)\">Doctor Who (series 10)</a>"},{"pageviews":"967. <a target=\"_blank\" href=\"http://en.wikipedia.org./wiki/ASCII\">ASCII</a>"},{"pageviews":"968. <a target=\"_blank\" href=\"http://en.wikipedia.org./wiki/Andy_Warhol\">Andy Warhol</a>"},{"pageviews":"969. <a target=\"_blank\" href=\"http://en.wikipedia.org./wiki/List_of_Vikings_episodes\">List of Vikings episodes</a>"},{"pageviews":"970. <a target=\"_blank\" href=\"http://en.wikipedia.org./wiki/Zimbabwe\">Zimbabwe</a>"},{"pageviews":"971. <a target=\"_blank\" href=\"http://en.wikipedia.org./wiki/Canelo_%C3%81lvarez\">Canelo Álvarez</a>"},{"pageviews":"972. <a target=\"_blank\" href=\"http://en.wikipedia.org./wiki/Ozark_(TV_series)\">Ozark (TV series)</a>"},{"pageviews":"973. <a target=\"_blank\" href=\"http://en.wikipedia.org./wiki/Texas\">Texas</a>"},{"pageviews":"974. <a target=\"_blank\" href=\"http://en.wikipedia.org./wiki/Alphabet_Inc.\">Alphabet Inc.</a>"},{"pageviews":"975. <a target=\"_blank\" href=\"http://en.wikipedia.org./wiki/List_of_Internet_exchange_points_by_size\">List of Internet exchange points by size</a>"},{"pageviews":"976. <a target=\"_blank\" href=\"http://en.wikipedia.org./wiki/George_Clooney\">George Clooney</a>"},{"pageviews":"977. <a target=\"_blank\" href=\"http://en.wikipedia.org./wiki/Preacher_(TV_series)\">Preacher (TV series)</a>"},{"pageviews":"978. <a target=\"_blank\" href=\"http://en.wikipedia.org./wiki/Jimi_Hendrix\">Jimi Hendrix</a>"},{"pageviews":"979. <a target=\"_blank\" href=\"http://en.wikipedia.org./wiki/Minecraft\">Minecraft</a>"},{"pageviews":"980. <a target=\"_blank\" href=\"http://en.wikipedia.org./wiki/Regression_testing\">Regression testing</a>"},{"pageviews":"981. <a target=\"_blank\" href=\"http://en.wikipedia.org./wiki/Variance\">Variance</a>"},{"pageviews":"982. <a target=\"_blank\" href=\"http://en.wikipedia.org./wiki/Roy_Moore\">Roy Moore</a>"},{"pageviews":"983. <a target=\"_blank\" href=\"http://en.wikipedia.org./wiki/4K_resolution\">4K resolution</a>"},{"pageviews":"984. <a target=\"_blank\" href=\"http://en.wikipedia.org./wiki/Statue_of_Liberty\">Statue of Liberty</a>"},{"pageviews":"985. <a target=\"_blank\" href=\"http://en.wikipedia.org./wiki/IP_address\">IP address</a>"},{"pageviews":"986. <a target=\"_blank\" href=\"http://en.wikipedia.org./wiki/JavaScript\">JavaScript</a>"},{"pageviews":"987. <a target=\"_blank\" href=\"http://en.wikipedia.org./wiki/Quantum_mechanics\">Quantum mechanics</a>"},{"pageviews":"988. <a target=\"_blank\" href=\"http://en.wikipedia.org./wiki/Venezuela\">Venezuela</a>"},{"pageviews":"989. <a target=\"_blank\" href=\"http://en.wikipedia.org./wiki/Renaissance\">Renaissance</a>"},{"pageviews":"990. <a target=\"_blank\" href=\"http://en.wikipedia.org./wiki/Brexit\">Brexit</a>"},{"pageviews":"991. <a target=\"_blank\" href=\"http://en.wikipedia.org./wiki/Alexander_Skarsg%C3%A5rd\">Alexander Skarsgård</a>"},{"pageviews":"992. <a target=\"_blank\" href=\"http://en.wikipedia.org./wiki/Louis_C.K.\">Louis C.K.</a>"},{"pageviews":"993. <a target=\"_blank\" href=\"http://en.wikipedia.org./wiki/Star_Trek\">Star Trek</a>"},{"pageviews":"994. <a target=\"_blank\" href=\"http://en.wikipedia.org./wiki/Southeast_Asia\">Southeast Asia</a>"},{"pageviews":"995. <a target=\"_blank\" href=\"http://en.wikipedia.org./wiki/Kevin_Durant\">Kevin Durant</a>"},{"pageviews":"996. <a target=\"_blank\" href=\"http://en.wikipedia.org./wiki/List_of_Suits_episodes\">List of Suits episodes</a>"},{"pageviews":"997. <a target=\"_blank\" href=\"http://en.wikipedia.org./wiki/Human_overpopulation\">Human overpopulation</a>"},{"pageviews":"998. <a target=\"_blank\" href=\"http://en.wikipedia.org./wiki/Doctor_Strange_(disambiguation)\">Doctor Strange (disambiguation)</a>"},{"pageviews":"999. <a target=\"_blank\" href=\"http://en.wikipedia.org./wiki/Marine_Le_Pen\">Marine Le Pen</a>"}],"list":"900. It (miniseries)  \u2014  http:\/\/en.wikipedia.org.\/wiki\/It_(miniseries)\n901. Tonya Harding  \u2014  http:\/\/en.wikipedia.org.\/wiki\/Tonya_Harding\n902. List of original programs distributed by Netflix  \u2014  http:\/\/en.wikipedia.org.\/wiki\/List_of_original_programs_distributed_by_Netflix\n903. Rino Romano  \u2014  http:\/\/en.wikipedia.org.\/wiki\/Rino_Romano\n904. List of Agents of S.H.I.E.L.D. episodes  \u2014  http:\/\/en.wikipedia.org.\/wiki\/List_of_Agents_of_S.H.I.E.L.D._episodes\n905. Chuck Berry  \u2014  http:\/\/en.wikipedia.org.\/wiki\/Chuck_Berry\n906. Sexual intercourse  \u2014  http:\/\/en.wikipedia.org.\/wiki\/Sexual_intercourse\n907. Virat Kohli  \u2014  http:\/\/en.wikipedia.org.\/wiki\/Virat_Kohli\n908. Kate Mara  \u2014  http:\/\/en.wikipedia.org.\/wiki\/Kate_Mara\n909. Fifth Harmony  \u2014  http:\/\/en.wikipedia.org.\/wiki\/Fifth_Harmony\n910. Colombia  \u2014  http:\/\/en.wikipedia.org.\/wiki\/Colombia\n911. Pretty Little Liars  \u2014  http:\/\/en.wikipedia.org.\/wiki\/Pretty_Little_Liars\n912. Martin Luther  \u2014  http:\/\/en.wikipedia.org.\/wiki\/Martin_Luther\n913. Ray Kroc  \u2014  http:\/\/en.wikipedia.org.\/wiki\/Ray_Kroc\n914. The Vampire Diaries  \u2014  http:\/\/en.wikipedia.org.\/wiki\/The_Vampire_Diaries\n915. Iron Fist (comics)  \u2014  http:\/\/en.wikipedia.org.\/wiki\/Iron_Fist_(comics)\n916. Dark matter  \u2014  http:\/\/en.wikipedia.org.\/wiki\/Dark_matter\n917. Maldives  \u2014  http:\/\/en.wikipedia.org.\/wiki\/Maldives\n918. Benedict Cumberbatch  \u2014  http:\/\/en.wikipedia.org.\/wiki\/Benedict_Cumberbatch\n919. A Series of Unfortunate Events  \u2014  http:\/\/en.wikipedia.org.\/wiki\/A_Series_of_Unfortunate_Events\n920. Che Guevara  \u2014  http:\/\/en.wikipedia.org.\/wiki\/Che_Guevara\n921. Greenland  \u2014  http:\/\/en.wikipedia.org.\/wiki\/Greenland\n922. 2017 NFL Draft  \u2014  http:\/\/en.wikipedia.org.\/wiki\/2017_NFL_Draft\n923. Java (programming language)  \u2014  http:\/\/en.wikipedia.org.\/wiki\/Java_(programming_language)\n924. M249 light machine gun  \u2014  http:\/\/en.wikipedia.org.\/wiki\/M249_light_machine_gun\n925. List of 2017 albums  \u2014  http:\/\/en.wikipedia.org.\/wiki\/List_of_2017_albums\n926. OSI model  \u2014  http:\/\/en.wikipedia.org.\/wiki\/OSI_model\n927. Kate Beckinsale  \u2014  http:\/\/en.wikipedia.org.\/wiki\/Kate_Beckinsale\n928. Katherine Johnson  \u2014  http:\/\/en.wikipedia.org.\/wiki\/Katherine_Johnson\n929. Byzantine Empire  \u2014  http:\/\/en.wikipedia.org.\/wiki\/Byzantine_Empire\n930. Viscosity  \u2014  http:\/\/en.wikipedia.org.\/wiki\/Viscosity\n931. Andalusia  \u2014  http:\/\/en.wikipedia.org.\/wiki\/Andalusia\n932. Linux  \u2014  http:\/\/en.wikipedia.org.\/wiki\/Linux\n933. The Godfather  \u2014  http:\/\/en.wikipedia.org.\/wiki\/The_Godfather\n934. Email  \u2014  http:\/\/en.wikipedia.org.\/wiki\/Email\n935. American Revolutionary War  \u2014  http:\/\/en.wikipedia.org.\/wiki\/American_Revolutionary_War\n936. Airbus A380  \u2014  http:\/\/en.wikipedia.org.\/wiki\/Airbus_A380\n937. GBU-43\/B MOAB  \u2014  http:\/\/en.wikipedia.org.\/wiki\/GBU-43\/B_MOAB\n938. Asperger syndrome  \u2014  http:\/\/en.wikipedia.org.\/wiki\/Asperger_syndrome\n939. Pink (singer)  \u2014  http:\/\/en.wikipedia.org.\/wiki\/Pink_(singer)\n940. Dan Stevens  \u2014  http:\/\/en.wikipedia.org.\/wiki\/Dan_Stevens\n941. Yahoo!  \u2014  http:\/\/en.wikipedia.org.\/wiki\/Yahoo!\n942. Denial-of-service attack  \u2014  http:\/\/en.wikipedia.org.\/wiki\/Denial-of-service_attack\n943. Criminal Minds  \u2014  http:\/\/en.wikipedia.org.\/wiki\/Criminal_Minds\n944. Kobe Bryant  \u2014  http:\/\/en.wikipedia.org.\/wiki\/Kobe_Bryant\n945. Assassin's Creed (film)  \u2014  http:\/\/en.wikipedia.org.\/wiki\/Assassin's_Creed_(film)\n946. The Last Kingdom (TV series)  \u2014  http:\/\/en.wikipedia.org.\/wiki\/The_Last_Kingdom_(TV_series)\n947. United States Constitution  \u2014  http:\/\/en.wikipedia.org.\/wiki\/United_States_Constitution\n948. Jim Mattis  \u2014  http:\/\/en.wikipedia.org.\/wiki\/Jim_Mattis\n949. Tuberculosis  \u2014  http:\/\/en.wikipedia.org.\/wiki\/Tuberculosis\n950. Catherine, Duchess of Cambridge  \u2014  http:\/\/en.wikipedia.org.\/wiki\/Catherine%2C_Duchess_of_Cambridge\n951. Antikythera mechanism  \u2014  http:\/\/en.wikipedia.org.\/wiki\/Antikythera_mechanism\n952. Galileo Galilei  \u2014  http:\/\/en.wikipedia.org.\/wiki\/Galileo_Galilei\n953. Afghanistan  \u2014  http:\/\/en.wikipedia.org.\/wiki\/Afghanistan\n954. Elton John  \u2014  http:\/\/en.wikipedia.org.\/wiki\/Elton_John\n955. Family Guy  \u2014  http:\/\/en.wikipedia.org.\/wiki\/Family_Guy\n956. Columbine High School massacre  \u2014  http:\/\/en.wikipedia.org.\/wiki\/Columbine_High_School_massacre\n957. Samurai Jack (season 5)  \u2014  http:\/\/en.wikipedia.org.\/wiki\/Samurai_Jack_(season_5)\n958. Science  \u2014  http:\/\/en.wikipedia.org.\/wiki\/Science\n959. Knowing Bros  \u2014  http:\/\/en.wikipedia.org.\/wiki\/Knowing_Bros\n960. Naruto  \u2014  http:\/\/en.wikipedia.org.\/wiki\/Naruto\n961. Alien (film)  \u2014  http:\/\/en.wikipedia.org.\/wiki\/Alien_(film)\n962. Kaby Lake  \u2014  http:\/\/en.wikipedia.org.\/wiki\/Kaby_Lake\n963. Jim Crow laws  \u2014  http:\/\/en.wikipedia.org.\/wiki\/Jim_Crow_laws\n964. King Arthur  \u2014  http:\/\/en.wikipedia.org.\/wiki\/King_Arthur\n965. Republican Party (United States)  \u2014  http:\/\/en.wikipedia.org.\/wiki\/Republican_Party_(United_States)\n966. Doctor Who (series 10)  \u2014  http:\/\/en.wikipedia.org.\/wiki\/Doctor_Who_(series_10)\n967. ASCII  \u2014  http:\/\/en.wikipedia.org.\/wiki\/ASCII\n968. Andy Warhol  \u2014  http:\/\/en.wikipedia.org.\/wiki\/Andy_Warhol\n969. List of Vikings episodes  \u2014  http:\/\/en.wikipedia.org.\/wiki\/List_of_Vikings_episodes\n970. Zimbabwe  \u2014  http:\/\/en.wikipedia.org.\/wiki\/Zimbabwe\n971. Canelo \u00C1lvarez  \u2014  http:\/\/en.wikipedia.org.\/wiki\/Canelo_%C3%81lvarez\n972. Ozark (TV series)  \u2014  http:\/\/en.wikipedia.org.\/wiki\/Ozark_(TV_series)\n973. Texas  \u2014  http:\/\/en.wikipedia.org.\/wiki\/Texas\n974. Alphabet Inc.  \u2014  http:\/\/en.wikipedia.org.\/wiki\/Alphabet_Inc.\n975. List of Internet exchange points by size  \u2014  http:\/\/en.wikipedia.org.\/wiki\/List_of_Internet_exchange_points_by_size\n976. George Clooney  \u2014  http:\/\/en.wikipedia.org.\/wiki\/George_Clooney\n977. Preacher (TV series)  \u2014  http:\/\/en.wikipedia.org.\/wiki\/Preacher_(TV_series)\n978. Jimi Hendrix  \u2014  http:\/\/en.wikipedia.org.\/wiki\/Jimi_Hendrix\n979. Minecraft  \u2014  http:\/\/en.wikipedia.org.\/wiki\/Minecraft\n980. Regression testing  \u2014  http:\/\/en.wikipedia.org.\/wiki\/Regression_testing\n981. Variance  \u2014  http:\/\/en.wikipedia.org.\/wiki\/Variance\n982. Roy Moore  \u2014  http:\/\/en.wikipedia.org.\/wiki\/Roy_Moore\n983. 4K resolution  \u2014  http:\/\/en.wikipedia.org.\/wiki\/4K_resolution\n984. Statue of Liberty  \u2014  http:\/\/en.wikipedia.org.\/wiki\/Statue_of_Liberty\n985. IP address  \u2014  http:\/\/en.wikipedia.org.\/wiki\/IP_address\n986. JavaScript  \u2014  http:\/\/en.wikipedia.org.\/wiki\/JavaScript\n987. Quantum mechanics  \u2014  http:\/\/en.wikipedia.org.\/wiki\/Quantum_mechanics\n988. Venezuela  \u2014  http:\/\/en.wikipedia.org.\/wiki\/Venezuela\n989. Renaissance  \u2014  http:\/\/en.wikipedia.org.\/wiki\/Renaissance\n990. Brexit  \u2014  http:\/\/en.wikipedia.org.\/wiki\/Brexit\n991. Alexander Skarsg\u00E5rd  \u2014  http:\/\/en.wikipedia.org.\/wiki\/Alexander_Skarsg%C3%A5rd\n992. Louis C.K.  \u2014  http:\/\/en.wikipedia.org.\/wiki\/Louis_C.K.\n993. Star Trek  \u2014  http:\/\/en.wikipedia.org.\/wiki\/Star_Trek\n994. Southeast Asia  \u2014  http:\/\/en.wikipedia.org.\/wiki\/Southeast_Asia\n995. Kevin Durant  \u2014  http:\/\/en.wikipedia.org.\/wiki\/Kevin_Durant\n996. List of Suits episodes  \u2014  http:\/\/en.wikipedia.org.\/wiki\/List_of_Suits_episodes\n997. Human overpopulation  \u2014  http:\/\/en.wikipedia.org.\/wiki\/Human_overpopulation\n998. Doctor Strange (disambiguation)  \u2014  http:\/\/en.wikipedia.org.\/wiki\/Doctor_Strange_(disambiguation)\n999. Marine Le Pen  \u2014  http:\/\/en.wikipedia.org.\/wiki\/Marine_Le_Pen\n","miniList":"900. It (miniseries)\n901. Tonya Harding\n902. List of original programs distributed by Netflix\n903. Rino Romano\n904. List of Agents of S.H.I.E.L.D. episodes\n905. Chuck Berry\n906. Sexual intercourse\n907. Virat Kohli\n908. Kate Mara\n909. Fifth Harmony\n910. Colombia\n911. Pretty Little Liars\n912. Martin Luther\n913. Ray Kroc\n914. The Vampire Diaries\n915. Iron Fist (comics)\n916. Dark matter\n917. Maldives\n918. Benedict Cumberbatch\n919. A Series of Unfortunate Events\n920. Che Guevara\n921. Greenland\n922. 2017 NFL Draft\n923. Java (programming language)\n924. M249 light machine gun\n925. List of 2017 albums\n926. OSI model\n927. Kate Beckinsale\n928. Katherine Johnson\n929. Byzantine Empire\n930. Viscosity\n931. Andalusia\n932. Linux\n933. The Godfather\n934. Email\n935. American Revolutionary War\n936. Airbus A380\n937. GBU-43\/B MOAB\n938. Asperger syndrome\n939. Pink (singer)\n940. Dan Stevens\n941. Yahoo!\n942. Denial-of-service attack\n943. Criminal Minds\n944. Kobe Bryant\n945. Assassin's Creed (film)\n946. The Last Kingdom (TV series)\n947. United States Constitution\n948. Jim Mattis\n949. Tuberculosis\n950. Catherine, Duchess of Cambridge\n951. Antikythera mechanism\n952. Galileo Galilei\n953. Afghanistan\n954. Elton John\n955. Family Guy\n956. Columbine High School massacre\n957. Samurai Jack (season 5)\n958. Science\n959. Knowing Bros\n960. Naruto\n961. Alien (film)\n962. Kaby Lake\n963. Jim Crow laws\n964. King Arthur\n965. Republican Party (United States)\n966. Doctor Who (series 10)\n967. ASCII\n968. Andy Warhol\n969. List of Vikings episodes\n970. Zimbabwe\n971. Canelo \u00C1lvarez\n972. Ozark (TV series)\n973. Texas\n974. Alphabet Inc.\n975. List of Internet exchange points by size\n976. George Clooney\n977. Preacher (TV series)\n978. Jimi Hendrix\n979. Minecraft\n980. Regression testing\n981. Variance\n982. Roy Moore\n983. 4K resolution\n984. Statue of Liberty\n985. IP address\n986. JavaScript\n987. Quantum mechanics\n988. Venezuela\n989. Renaissance\n990. Brexit\n991. Alexander Skarsg\u00E5rd\n992. Louis C.K.\n993. Star Trek\n994. Southeast Asia\n995. Kevin Durant\n996. List of Suits episodes\n997. Human overpopulation\n998. Doctor Strange (disambiguation)\n999. Marine Le Pen\n"}
